IdRun;NameConv;Time(ms);std;NbMicroKernel;AxeFuse;SizeAxeFuse;Schema;Time_search(4.611871719360352)
0;ResNet18_8;1.8804473000000002;0.005114298173747796;1;axe_xx_0;28;[V f, U (1, f), U (14, y), U (3, h), T (32, c), Hoist_vars [c], T (3, w),  T (28, x), T (4, c), T (16, f), T (2, y), T (1, f)];5.9905784130096436
1;ResNet18_8;0.6977758;0.011048919176100453;2;axe_out_channels1_0,axe_yy1_0,axe_xx1_0,axe_out_channels1_1;11;[V f, U (2, f), ULambda y, T (32, c), Hoist_vars [c], T (3, h), T (7, x),  T (3, w), T (4, c), T (4, f), T (4, x),  Lambda_apply y [((Iter 1), (Arg 13)), ((Iter 1), (Arg 15))], T (2, f)];7.772979974746704
2;ResNet18_8;0.5665825;0.00851163744822346;1;axe_out_channels_0,axe_yy_0,axe_xx_0,axe_out_channels_1;11;[V f, U (4, f), U (7, y), T (16, c), Hoist_vars [c], T (3, h), T (14, x),  T (3, w), T (8, c), T (4, f), T (2, x), T (4, y), T (1, f)];9.266375064849854
3;ResNet18_8;0.4512638;0.007275400962146346;2;axe_out_channels1_0,axe_yy1_0,axe_xx1_0,axe_out_channels1_1;13;[V f, U (2, f), ULambda y, T (32, c), Hoist_vars [c], T (3, h), T (14, x),  T (3, w), T (4, c), T (1, f), T (2, x),  Lambda_apply y [((Iter 2), (Arg 8)), ((Iter 1), (Arg 12))], T (8, f)];11.027442693710327
4;ResNet18_8;0.3559417;0.005696774140686992;1;axe_out_channels_0,axe_yy_0,axe_xx_0,axe_out_channels_1;12;[V f, U (4, f), U (4, y), U (3, w), T (64, c), Hoist_vars [c], T (28, x),  T (3, h), T (2, c), T (2, f), T (1, x), T (7, y), T (2, f)];12.36256456375122
5;ResNet18_8;0.6333738999999999;0.016220050132166656;2;axe_out_channels1_0,axe_yy1_0,axe_xx1_0,axe_out_channels1_1;13;[V f, U (2, f), ULambda y, T (32, c), Hoist_vars [c], T (3, h), T (14, x),  T (3, w), T (4, c), T (8, f), T (2, x),  Lambda_apply y [((Iter 2), (Arg 8)), ((Iter 1), (Arg 12))], T (1, f)];14.094831943511963
6;ResNet18_8;0.38566700000000004;0.0018015649308309775;2;axe_out_channels1_0,axe_yy1_0,axe_xx1_0,axe_out_channels1_1;9;[V f, U (4, f), ULambda y, U (3, h), T (32, c), Hoist_vars [c], T (14, x),  T (3, w), T (4, c), T (1, f), T (2, x),  Lambda_apply y [((Iter 2), (Arg 5)), ((Iter 3), (Arg 6))], T (4, f)];16.199591636657715
7;ResNet18_8;0.6006856;0.01599148902510331;2;axe_out_channels1_0,axe_yy1_0,axe_xx1_0,axe_out_channels1_1;13;[V f, U (2, f), ULambda y, U (3, h), T (32, c), Hoist_vars [c], T (14, x),  T (3, w), T (4, c), T (8, f), T (2, x),  Lambda_apply y [((Iter 2), (Arg 9)), ((Iter 1), (Arg 10))], T (1, f)];17.953449010849
8;ResNet18_8;0.22080070000000002;0.0005522410796020208;1;axe_out_channels_0,axe_yy_0,axe_xx_0,axe_out_channels_1;11;[V f, U (4, f), U (7, y), U (3, w), T (128, c), Hoist_vars [c], T (14, x),  T (3, h), T (1, c), T (1, f), T (2, x), T (4, y), T (4, f)];19.521368503570557
9;ResNet18_8;0.5501723;0.00476444024099369;1;axe_out_channels_0,axe_yy_0,axe_xx_0,axe_out_channels_1;10;[V f, U (4, f), U (7, y), U (3, w), T (64, c), Hoist_vars [c], T (28, x),  T (3, h), T (2, c), T (1, f), T (1, x), T (4, y), T (4, f)];20.922365188598633
10;ResNet18_8;0.24633639999999998;0.0014730730599668246;1;axe_out_channels_0,axe_yy_0,axe_xx_0,axe_out_channels_1;10;[V f, U (4, f), U (7, y), U (3, w), T (128, c), Hoist_vars [c], T (14, x),  T (3, h), T (1, c), T (2, f), T (2, x), T (4, y), T (2, f)];22.463117599487305
11;ResNet18_8;0.6795831000000001;0.011501216739545392;2;axe_out_channels1_0,axe_yy1_0,axe_xx1_0,axe_out_channels1_1;12;[V f, U (2, f), ULambda y, T (32, c), Hoist_vars [c], T (3, h), T (14, x),  T (3, w), T (4, c), T (1, f), T (2, x),  Lambda_apply y [((Iter 1), (Arg 13)), ((Iter 1), (Arg 15))], T (8, f)];24.281149864196777
12;ResNet18_8;0.5961702;0.002733782134699098;1;axe_out_channels_0,axe_yy_0,axe_xx_0,axe_out_channels_1;9;[V f, U (4, f), U (7, y), U (3, w), T (128, c), Hoist_vars [c], T (28, x),  T (3, h), T (1, c), T (2, f), T (1, x), T (4, y), T (2, f)];25.682421445846558
13;ResNet18_8;0.34500179999999997;0.001811216154963288;1;axe_out_channels_0,axe_yy_0,axe_xx_0,axe_out_channels_1;11;[V f, U (4, f), U (7, y), U (3, h), T (32, c), Hoist_vars [c], T (14, x),  T (3, w), T (4, c), T (1, f), T (2, x), T (4, y), T (4, f)];27.270517349243164
14;ResNet18_8;0.4133871;0.002960212000853992;2;axe_out_channels1_0,axe_yy1_0,axe_xx1_0,axe_out_channels1_1;14;[V f, U (2, f), ULambda y, T (32, c), Hoist_vars [c], T (3, h), T (7, x),  T (3, w), T (4, c), T (1, f), T (4, x),  Lambda_apply y [((Iter 1), (Arg 13)), ((Iter 1), (Arg 15))], T (8, f)];29.015745162963867
15;ResNet18_8;0.8759432;0.0037014118333414422;1;axe_xx_0;28;[V f, U (1, f), U (14, y), U (3, h), T (128, c), Hoist_vars [c], T (3, w),  T (28, x), T (1, c), T (1, f), T (2, y), T (16, f)];30.401339769363403
16;ResNet18_8;0.27888219999999997;0.0014910138027530127;1;axe_out_channels_0,axe_yy_0,axe_xx_0,axe_out_channels_1;12;[V f, U (2, f), U (14, y), T (16, c), Hoist_vars [c], T (3, h), T (7, x),  T (3, w), T (8, c), T (2, f), T (4, x), T (2, y), T (4, f)];31.769561052322388
17;ResNet18_8;0.24458929999999998;0.0011271637902274842;1;axe_out_channels_0,axe_yy_0,axe_xx_0,axe_out_channels_1;15;[V f, U (2, f), U (14, y), T (16, c), Hoist_vars [c], T (3, h), T (4, x),  T (3, w), T (8, c), T (4, f), T (7, x), T (2, y), T (2, f)];33.18646216392517
18;ResNet18_8;0.7743954000000001;0.004304568833228262;2;axe_out_channels1_0,axe_yy1_0,axe_xx1_0,axe_out_channels1_1;9;[V f, U (2, f), ULambda y, U (3, h), T (32, c), Hoist_vars [c], T (28, x),  T (3, w), T (4, c), T (2, f), T (1, x),  Lambda_apply y [((Iter 2), (Arg 9)), ((Iter 1), (Arg 10))], T (4, f)];35.000006437301636
19;ResNet18_8;0.6083326;0.004024418099551798;2;axe_out_channels1_0,axe_yy1_0,axe_xx1_0,axe_out_channels1_1;9;[V f, U (2, f), ULambda y, T (32, c), Hoist_vars [c], T (3, h), T (14, x),  T (3, w), T (4, c), T (2, f), T (2, x),  Lambda_apply y [((Iter 1), (Arg 8)), ((Iter 2), (Arg 10))], T (4, f)];36.770845890045166
20;ResNet18_8;0.7852767;0.006694591593965986;1;axe_out_channels_0,axe_yy_0,axe_xx_0,axe_out_channels_1;10;[V f, U (4, f), U (7, y), U (3, w), T (32, c), Hoist_vars [c], T (28, x),  T (3, h), T (4, c), T (4, f), T (1, x), T (4, y), T (1, f)];38.215834617614746
21;ResNet18_8;0.41184370000000003;0.007146545753719079;1;axe_out_channels_0,axe_yy_0,axe_xx_0,axe_out_channels_1;13;[V f, U (4, f), U (7, y), T (16, c), Hoist_vars [c], T (3, h), T (7, x),  T (3, w), T (8, c), T (4, f), T (4, x), T (4, y), T (1, f)];39.61567425727844
22;ResNet18_8;1.7587608;0.00490284837212002;1;axe_xx_0;28;[V f, U (1, f), U (14, y), U (3, h), T (32, c), Hoist_vars [c], T (3, w),  T (28, x), T (4, c), T (1, f), T (2, y), T (16, f)];41.029319286346436
23;ResNet18_8;0.8499218;0.00462581607502937;2;axe_out_channels1_0,axe_yy1_0,axe_xx1_0,axe_out_channels1_1;12;[V f, U (2, f), ULambda y, T (32, c), Hoist_vars [c], T (3, h), T (28, x),  T (3, w), T (4, c), T (8, f), T (1, x),  Lambda_apply y [((Iter 2), (Arg 9)), ((Iter 1), (Arg 10))], T (1, f)];42.830647230148315
24;ResNet18_8;1.6603383;0.004743267883010651;2;axe_xx1_0;28;[V f, U (1, f), ULambda y, U (3, h), T (64, c), Hoist_vars [c], T (3, w),  T (28, x), T (2, c), T (8, f),  Lambda_apply y [((Iter 2), (Arg 9)), ((Iter 1), (Arg 10))], T (2, f)];44.60768699645996
25;ResNet18_8;0.2184955;0.0023636470231403026;1;axe_out_channels_0,axe_yy_0,axe_xx_0,axe_out_channels_1;18;[V f, U (2, f), U (14, y), T (64, c), Hoist_vars [c], T (3, h), T (4, x),  T (3, w), T (2, c), T (1, f), T (7, x), T (2, y), T (8, f)];46.026663064956665
26;ResNet18_8;0.7912985000000001;0.017428225872130537;2;axe_out_channels1_0,axe_yy1_0,axe_xx1_0,axe_out_channels1_1;12;[V f, U (2, f), ULambda y, U (3, h), T (32, c), Hoist_vars [c], T (28, x),  T (3, w), T (4, c), T (8, f), T (1, x),  Lambda_apply y [((Iter 2), (Arg 9)), ((Iter 1), (Arg 10))], T (1, f)];47.85080623626709
27;ResNet18_8;0.3805972;0.004938758544411738;1;axe_out_channels_0,axe_yy_0,axe_xx_0,axe_out_channels_1;18;[V f, U (2, f), U (14, y), T (16, c), Hoist_vars [c], T (3, h), T (4, x),  T (3, w), T (8, c), T (1, f), T (7, x), T (2, y), T (8, f)];49.286853313446045
28;ResNet18_8;0.33832229999999996;0.0018814974382124323;2;axe_out_channels1_0,axe_yy1_0,axe_xx1_0,axe_out_channels1_1;8;[V f, U (4, f), ULambda y, U (3, w), T (128, c), Hoist_vars [c], T (14, x),  T (3, h), T (1, c), T (2, f), T (2, x),  Lambda_apply y [((Iter 2), (Arg 5)), ((Iter 3), (Arg 6))], T (2, f)];51.3880615234375
29;ResNet18_8;0.2461316;0.0012456804726734595;1;axe_out_channels_0,axe_yy_0,axe_xx_0,axe_out_channels_1;11;[V f, U (4, f), U (7, y), U (3, w), T (128, c), Hoist_vars [c], T (14, x),  T (3, h), T (1, c), T (4, f), T (2, x), T (4, y), T (1, f)];52.95394539833069
30;ResNet18_8;0.2834447;0.003365625708542181;1;axe_out_channels_0,axe_yy_0,axe_xx_0,axe_out_channels_1;14;[V f, U (4, f), U (4, y), U (3, w), T (32, c), Hoist_vars [c], T (14, x),  T (3, h), T (4, c), T (4, f), T (2, x), T (7, y), T (1, f)];54.40313410758972
31;ResNet18_8;0.6489621999999999;0.004955404479959234;1;axe_out_channels_0,axe_yy_0,axe_xx_0,axe_out_channels_1;9;[V f, U (4, f), U (7, y), U (3, w), T (64, c), Hoist_vars [c], T (28, x),  T (3, h), T (2, c), T (2, f), T (1, x), T (4, y), T (2, f)];55.81897258758545
32;ResNet18_8;1.6934645;0.006946238913973542;2;axe_xx1_0;28;[V f, U (1, f), ULambda y, U (3, h), T (64, c), Hoist_vars [c], T (3, w),  T (28, x), T (2, c), T (1, f),  Lambda_apply y [((Iter 2), (Arg 9)), ((Iter 1), (Arg 10))], T (16, f)];57.602362394332886
33;ResNet18_8;0.31107890000000005;0.004183458316990861;1;axe_out_channels_0,axe_yy_0,axe_xx_0,axe_out_channels_1;12;[V f, U (4, f), U (4, y), U (3, w), T (128, c), Hoist_vars [c], T (28, x),  T (3, h), T (1, c), T (2, f), T (1, x), T (7, y), T (2, f)];58.95507311820984
34;ResNet18_8;1.0606959999999999;0.010771594505921536;2;axe_out_channels1_0,axe_yy1_0,axe_xx1_0,axe_out_channels1_1;7;[V f, U (4, f), ULambda y, U (3, w), T (32, c), Hoist_vars [c], T (28, x),  T (3, h), T (4, c), T (2, f), T (1, x),  Lambda_apply y [((Iter 2), (Arg 5)), ((Iter 3), (Arg 6))], T (2, f)];60.765448570251465
35;ResNet18_8;0.3909353;0.005527917131252972;1;axe_out_channels_0,axe_yy_0,axe_xx_0,axe_out_channels_1;10;[V f, U (2, f), U (14, y), T (32, c), Hoist_vars [c], T (3, h), T (14, x),  T (3, w), T (4, c), T (2, f), T (2, x), T (2, y), T (4, f)];62.110081911087036
36;ResNet18_8;0.6829837999999999;0.006916844985974452;2;axe_out_channels1_0,axe_yy1_0,axe_xx1_0,axe_out_channels1_1;11;[V f, U (2, f), ULambda y, T (32, c), Hoist_vars [c], T (3, h), T (7, x),  T (3, w), T (4, c), T (2, f), T (4, x),  Lambda_apply y [((Iter 1), (Arg 13)), ((Iter 1), (Arg 15))], T (4, f)];63.825947523117065
37;ResNet18_8;0.6572498;0.00551311541326681;1;axe_out_channels_0,axe_yy_0,axe_xx_0,axe_out_channels_1;10;[V f, U (4, f), U (7, y), U (3, w), T (64, c), Hoist_vars [c], T (28, x),  T (3, h), T (2, c), T (4, f), T (1, x), T (4, y), T (1, f)];65.24539113044739
38;ResNet18_8;1.23799;0.007002747260897028;2;axe_xx1_0;28;[V f, U (1, f), ULambda y, U (3, h), T (128, c), Hoist_vars [c], T (3, w),  T (28, x), T (1, c), T (16, f),  Lambda_apply y [((Iter 2), (Arg 9)), ((Iter 1), (Arg 10))], T (1, f)];66.9892213344574
39;ResNet18_8;2.5811942;0.00706173591689749;2;axe_xx1_0;28;[V f, U (1, f), ULambda y, U (3, h), T (32, c), Hoist_vars [c], T (3, w),  T (28, x), T (4, c), T (2, f),  Lambda_apply y [((Iter 2), (Arg 9)), ((Iter 1), (Arg 10))], T (8, f)];68.84106349945068
40;ResNet18_8;0.4858117;0.006442011270558285;1;axe_out_channels_0,axe_yy_0,axe_xx_0,axe_out_channels_1;15;[V f, U (2, f), U (14, y), T (16, c), Hoist_vars [c], T (3, h), T (7, x),  T (3, w), T (8, c), T (8, f), T (4, x), T (2, y), T (1, f)];70.17971563339233
41;ResNet18_8;0.8763875000000001;0.003822688353763593;2;axe_out_channels1_0,axe_yy1_0,axe_xx1_0,axe_out_channels1_1;7;[V f, U (4, f), ULambda y, U (3, w), T (64, c), Hoist_vars [c], T (28, x),  T (3, h), T (2, c), T (2, f), T (1, x),  Lambda_apply y [((Iter 2), (Arg 5)), ((Iter 3), (Arg 6))], T (2, f)];72.00979280471802
42;ResNet18_8;0.356132;0.004785409512257027;2;axe_out_channels1_0,axe_yy1_0,axe_xx1_0,axe_out_channels1_1;14;[V f, U (2, f), ULambda y, T (64, c), Hoist_vars [c], T (3, h), T (7, x),  T (3, w), T (2, c), T (1, f), T (4, x),  Lambda_apply y [((Iter 1), (Arg 13)), ((Iter 1), (Arg 15))], T (8, f)];73.76739811897278
43;ResNet18_8;0.45281400000000005;0.025955373875172737;1;axe_out_channels_0,axe_yy_0,axe_xx_0,axe_out_channels_1;13;[V f, U (4, f), U (4, y), U (3, w), T (32, c), Hoist_vars [c], T (28, x),  T (3, h), T (4, c), T (1, f), T (1, x), T (7, y), T (4, f)];75.14642858505249
44;ResNet18_8;0.34706400000000004;0.0012402943199095913;1;axe_out_channels_0,axe_yy_0,axe_xx_0,axe_out_channels_1;13;[V f, U (4, f), U (7, y), U (3, h), T (32, c), Hoist_vars [c], T (7, x),  T (3, w), T (4, c), T (1, f), T (4, x), T (4, y), T (4, f)];76.61103868484497
45;ResNet18_8;0.40597009999999994;0.005926464181111695;1;axe_out_channels_0,axe_yy_0,axe_xx_0,axe_out_channels_1;15;[V f, U (2, f), U (14, y), T (16, c), Hoist_vars [c], T (3, h), T (4, x),  T (3, w), T (8, c), T (2, f), T (7, x), T (2, y), T (4, f)];78.05224514007568
46;ResNet18_8;1.6886073000000004;0.004505724160442995;2;axe_xx1_0;28;[V f, U (1, f), ULambda y, U (3, h), T (64, c), Hoist_vars [c], T (3, w),  T (28, x), T (2, c), T (2, f),  Lambda_apply y [((Iter 2), (Arg 9)), ((Iter 1), (Arg 10))], T (8, f)];79.88297581672668
47;ResNet18_8;0.960422;0.008676082180339221;1;axe_out_channels_0,axe_yy_0,axe_xx_0,axe_out_channels_1;10;[V f, U (4, f), U (7, y), U (3, h), T (16, c), Hoist_vars [c], T (28, x),  T (3, w), T (8, c), T (1, f), T (1, x), T (4, y), T (4, f)];81.27542304992676
48;ResNet18_8;0.2423273;0.0013512376585930446;1;axe_out_channels_0,axe_yy_0,axe_xx_0,axe_out_channels_1;12;[V f, U (4, f), U (7, y), U (3, w), T (32, c), Hoist_vars [c], T (7, x),  T (3, h), T (4, c), T (2, f), T (4, x), T (4, y), T (2, f)];82.72416162490845
49;ResNet18_8;0.8702435999999999;0.04300290243041741;2;axe_out_channels1_0,axe_yy1_0,axe_xx1_0,axe_out_channels1_1;9;[V f, U (2, f), ULambda y, T (32, c), Hoist_vars [c], T (3, h), T (28, x),  T (3, w), T (4, c), T (4, f), T (1, x),  Lambda_apply y [((Iter 2), (Arg 9)), ((Iter 1), (Arg 10))], T (2, f)];84.53921890258789
50;ResNet18_8;0.5658217;0.016528994077378092;2;axe_out_channels1_0,axe_yy1_0,axe_xx1_0,axe_out_channels1_1;11;[V f, U (2, f), ULambda y, T (64, c), Hoist_vars [c], T (3, h), T (7, x),  T (3, w), T (2, c), T (4, f), T (4, x),  Lambda_apply y [((Iter 1), (Arg 13)), ((Iter 1), (Arg 15))], T (2, f)];86.30127954483032
51;ResNet18_8;0.5958735;0.0038891370829529735;1;axe_out_channels_0,axe_yy_0,axe_xx_0,axe_out_channels_1;10;[V f, U (4, f), U (7, y), U (3, w), T (128, c), Hoist_vars [c], T (28, x),  T (3, h), T (1, c), T (4, f), T (1, x), T (4, y), T (1, f)];87.71412444114685
52;ResNet18_8;0.3232486;0.0018728103053966747;1;axe_out_channels_0,axe_yy_0,axe_xx_0,axe_out_channels_1;15;[V f, U (2, f), U (14, y), T (32, c), Hoist_vars [c], T (3, h), T (7, x),  T (3, w), T (4, c), T (1, f), T (4, x), T (2, y), T (8, f)];89.07054090499878
53;ResNet18_8;0.5847365;0.017630869157531634;2;axe_out_channels1_0,axe_yy1_0,axe_xx1_0,axe_out_channels1_1;10;[V f, U (2, f), ULambda y, T (32, c), Hoist_vars [c], T (3, h), T (14, x),  T (3, w), T (4, c), T (2, f), T (2, x),  Lambda_apply y [((Iter 2), (Arg 8)), ((Iter 1), (Arg 12))], T (4, f)];90.81986570358276
54;ResNet18_8;0.4637726;0.003727449750164305;1;axe_out_channels_0,axe_yy_0,axe_xx_0,axe_out_channels_1;10;[V f, U (4, f), U (7, y), U (3, h), T (32, c), Hoist_vars [c], T (14, x),  T (3, w), T (4, c), T (2, f), T (2, x), T (4, y), T (2, f)];92.44536232948303
55;ResNet18_8;0.2297457;0.002294411124885864;1;axe_out_channels_0,axe_yy_0,axe_xx_0,axe_out_channels_1;18;[V f, U (2, f), U (14, y), T (32, c), Hoist_vars [c], T (3, h), T (4, x),  T (3, w), T (4, c), T (8, f), T (7, x), T (2, y), T (1, f)];93.849524974823
56;ResNet18_8;0.8112995;0.0036027513167022616;2;axe_out_channels1_0,axe_yy1_0,axe_xx1_0,axe_out_channels1_1;8;[V f, U (4, f), ULambda y, U (3, w), T (128, c), Hoist_vars [c], T (28, x),  T (3, h), T (1, c), T (4, f), T (1, x),  Lambda_apply y [((Iter 2), (Arg 5)), ((Iter 3), (Arg 6))], T (1, f)];95.65669393539429
57;ResNet18_8;0.24157450000000003;0.003989024674027474;1;axe_out_channels_0,axe_yy_0,axe_xx_0,axe_out_channels_1;14;[V f, U (4, f), U (4, y), U (3, w), T (64, c), Hoist_vars [c], T (14, x),  T (3, h), T (2, c), T (4, f), T (2, x), T (7, y), T (1, f)];97.0870749950409
58;ResNet18_8;0.5976317;0.007850296733882094;2;axe_out_channels1_0,axe_yy1_0,axe_xx1_0,axe_out_channels1_1;12;[V f, U (2, f), ULambda y, T (32, c), Hoist_vars [c], T (3, h), T (14, x),  T (3, w), T (4, c), T (8, f), T (2, x),  Lambda_apply y [((Iter 1), (Arg 8)), ((Iter 2), (Arg 10))], T (1, f)];98.81393599510193
59;ResNet18_8;0.6113955000000001;0.008637327587280667;1;axe_out_channels_0,axe_yy_0,axe_xx_0,axe_out_channels_1;9;[V f, U (2, f), U (14, y), T (16, c), Hoist_vars [c], T (3, h), T (28, x),  T (3, w), T (8, c), T (2, f), T (1, x), T (2, y), T (4, f)];100.21371412277222
60;ResNet18_8;0.338363;0.0009255377896120656;2;axe_out_channels1_0,axe_yy1_0,axe_xx1_0,axe_out_channels1_1;9;[V f, U (4, f), ULambda y, U (3, w), T (128, c), Hoist_vars [c], T (14, x),  T (3, h), T (1, c), T (4, f), T (2, x),  Lambda_apply y [((Iter 2), (Arg 5)), ((Iter 3), (Arg 6))], T (1, f)];102.23435258865356
61;ResNet18_8;0.30690860000000003;0.006774745149450278;1;axe_out_channels_0,axe_yy_0,axe_xx_0,axe_out_channels_1;12;[V f, U (2, f), U (14, y), T (64, c), Hoist_vars [c], T (3, h), T (7, x),  T (3, w), T (2, c), T (4, f), T (4, x), T (2, y), T (2, f)];103.5911295413971
62;ResNet18_8;0.7853532999999999;0.008270436784716992;1;axe_out_channels_0,axe_yy_0,axe_xx_0,axe_out_channels_1;9;[V f, U (4, f), U (7, y), U (3, w), T (32, c), Hoist_vars [c], T (28, x),  T (3, h), T (4, c), T (2, f), T (1, x), T (4, y), T (2, f)];105.01173043251038
63;ResNet18_8;0.6220007;0.004680348641928306;1;axe_out_channels_0,axe_yy_0,axe_xx_0,axe_out_channels_1;10;[V f, U (4, f), U (7, y), U (3, w), T (32, c), Hoist_vars [c], T (28, x),  T (3, h), T (4, c), T (1, f), T (1, x), T (4, y), T (4, f)];106.4204216003418
64;ResNet18_8;2.5492548;0.005897939857272157;2;axe_xx1_0;28;[V f, U (1, f), ULambda y, U (3, h), T (32, c), Hoist_vars [c], T (3, w),  T (28, x), T (4, c), T (4, f),  Lambda_apply y [((Iter 2), (Arg 9)), ((Iter 1), (Arg 10))], T (4, f)];108.28615427017212
65;ResNet18_8;1.1727104000000002;0.0039166975681050485;1;axe_xx_0;28;[V f, U (1, f), U (14, y), U (3, h), T (64, c), Hoist_vars [c], T (3, w),  T (28, x), T (2, c), T (8, f), T (2, y), T (2, f)];109.67624425888062
66;ResNet18_8;0.2755166;0.0007201389032679701;1;axe_out_channels_0,axe_yy_0,axe_xx_0,axe_out_channels_1;13;[V f, U (4, f), U (7, y), U (3, w), T (32, c), Hoist_vars [c], T (7, x),  T (3, h), T (4, c), T (1, f), T (4, x), T (4, y), T (4, f)];111.15735292434692
67;ResNet18_8;0.6497223;0.017274760120186916;1;axe_out_channels_0,axe_yy_0,axe_xx_0,axe_out_channels_1;10;[V f, U (4, f), U (7, y), U (3, h), T (16, c), Hoist_vars [c], T (14, x),  T (3, w), T (8, c), T (2, f), T (2, x), T (4, y), T (2, f)];112.75827550888062
68;ResNet18_8;0.45259029999999995;0.024287725344502714;1;axe_out_channels_0,axe_yy_0,axe_xx_0,axe_out_channels_1;10;[V f, U (4, f), U (7, y), T (32, c), Hoist_vars [c], T (3, h), T (14, x),  T (3, w), T (4, c), T (2, f), T (2, x), T (4, y), T (2, f)];114.29898023605347
69;ResNet18_8;0.3025489;0.001013779211662968;2;axe_out_channels1_0,axe_yy1_0,axe_xx1_0,axe_out_channels1_1;9;[V f, U (4, f), ULambda y, U (3, w), T (128, c), Hoist_vars [c], T (14, x),  T (3, h), T (1, c), T (1, f), T (2, x),  Lambda_apply y [((Iter 2), (Arg 5)), ((Iter 3), (Arg 6))], T (4, f)];116.33734774589539
70;ResNet18_8;0.5368712;0.004442511604937014;2;axe_out_channels1_0,axe_yy1_0,axe_xx1_0,axe_out_channels1_1;8;[V f, U (4, f), ULambda y, U (3, h), T (32, c), Hoist_vars [c], T (14, x),  T (3, w), T (4, c), T (2, f), T (2, x),  Lambda_apply y [((Iter 2), (Arg 5)), ((Iter 3), (Arg 6))], T (2, f)];118.40123772621155
71;ResNet18_8;0.2774698;0.004592661250299219;1;axe_out_channels_0,axe_yy_0,axe_xx_0,axe_out_channels_1;15;[V f, U (2, f), U (14, y), T (32, c), Hoist_vars [c], T (3, h), T (4, x),  T (3, w), T (4, c), T (2, f), T (7, x), T (2, y), T (4, f)];119.80559659004211
72;ResNet18_8;0.6006322999999999;0.01035061654250606;2;axe_out_channels1_0,axe_yy1_0,axe_xx1_0,axe_out_channels1_1;9;[V f, U (2, f), ULambda y, T (32, c), Hoist_vars [c], T (3, h), T (14, x),  T (3, w), T (4, c), T (4, f), T (2, x),  Lambda_apply y [((Iter 1), (Arg 8)), ((Iter 2), (Arg 10))], T (2, f)];121.55709171295166
73;ResNet18_8;0.2067423;0.0013695592028094316;1;axe_out_channels_0,axe_yy_0,axe_xx_0,axe_out_channels_1;15;[V f, U (2, f), U (14, y), T (64, c), Hoist_vars [c], T (3, h), T (4, x),  T (3, w), T (2, c), T (4, f), T (7, x), T (2, y), T (2, f)];122.97097682952881
74;ResNet18_8;0.2409494;0.0007582178051193463;1;axe_out_channels_0,axe_yy_0,axe_xx_0,axe_out_channels_1;13;[V f, U (4, f), U (7, y), U (3, w), T (64, c), Hoist_vars [c], T (7, x),  T (3, h), T (2, c), T (1, f), T (4, x), T (4, y), T (4, f)];124.44094467163086
75;ResNet18_8;0.2114164;0.0009753845600582337;1;axe_out_channels_0,axe_yy_0,axe_xx_0,axe_out_channels_1;13;[V f, U (4, f), U (4, y), U (3, w), T (128, c), Hoist_vars [c], T (14, x),  T (3, h), T (1, c), T (2, f), T (2, x), T (7, y), T (2, f)];125.88115358352661
76;ResNet18_8;0.2127354;0.0011346968934477617;1;axe_out_channels_0,axe_yy_0,axe_xx_0,axe_out_channels_1;18;[V f, U (2, f), U (14, y), T (64, c), Hoist_vars [c], T (3, h), T (4, x),  T (3, w), T (2, c), T (8, f), T (7, x), T (2, y), T (1, f)];127.28992867469788
77;ResNet18_8;0.5301377;0.0021758994025459946;1;axe_out_channels_0,axe_yy_0,axe_xx_0,axe_out_channels_1;10;[V f, U (4, f), U (7, y), U (3, w), T (128, c), Hoist_vars [c], T (28, x),  T (3, h), T (1, c), T (1, f), T (1, x), T (4, y), T (4, f)];128.6649398803711
78;ResNet18_8;1.6539464;0.003914202529251622;2;axe_xx1_0;28;[V f, U (1, f), ULambda y, U (3, h), T (64, c), Hoist_vars [c], T (3, w),  T (28, x), T (2, c), T (16, f),  Lambda_apply y [((Iter 2), (Arg 9)), ((Iter 1), (Arg 10))], T (1, f)];130.44489669799805
79;ResNet18_8;2.5395335;0.004121515431246294;2;axe_xx1_0;28;[V f, U (1, f), ULambda y, U (3, h), T (32, c), Hoist_vars [c], T (3, w),  T (28, x), T (4, c), T (16, f),  Lambda_apply y [((Iter 2), (Arg 9)), ((Iter 1), (Arg 10))], T (1, f)];132.2993302345276
80;ResNet18_8;0.2461288;0.0022569201492299113;1;axe_out_channels_0,axe_yy_0,axe_xx_0,axe_out_channels_1;13;[V f, U (4, f), U (7, y), U (3, w), T (64, c), Hoist_vars [c], T (7, x),  T (3, h), T (2, c), T (4, f), T (4, x), T (4, y), T (1, f)];133.7751989364624
81;ResNet18_8;0.45957689999999995;0.023181441665478884;1;axe_out_channels_0,axe_yy_0,axe_xx_0,axe_out_channels_1;12;[V f, U (4, f), U (4, y), U (3, w), T (32, c), Hoist_vars [c], T (28, x),  T (3, h), T (4, c), T (2, f), T (1, x), T (7, y), T (2, f)];135.15166211128235
82;ResNet18_8;0.4053426;0.002008770479671583;1;axe_out_channels_0,axe_yy_0,axe_xx_0,axe_out_channels_1;10;[V f, U (4, f), U (7, y), U (3, w), T (32, c), Hoist_vars [c], T (14, x),  T (3, h), T (4, c), T (2, f), T (2, x), T (4, y), T (2, f)];136.71730065345764
83;ResNet18_8;1.2100217;0.006832387475107069;2;axe_xx1_0;28;[V f, U (1, f), ULambda y, U (3, h), T (128, c), Hoist_vars [c], T (3, w),  T (28, x), T (1, c), T (4, f),  Lambda_apply y [((Iter 2), (Arg 9)), ((Iter 1), (Arg 10))], T (4, f)];138.51449728012085
84;ResNet18_8;1.1950515999999998;0.01931462835883724;1;axe_out_channels_0,axe_yy_0,axe_xx_0,axe_out_channels_1;9;[V f, U (4, f), U (7, y), U (3, h), T (16, c), Hoist_vars [c], T (28, x),  T (3, w), T (8, c), T (2, f), T (1, x), T (4, y), T (2, f)];139.96690845489502
85;ResNet18_8;0.40009870000000003;0.005167892724312295;1;axe_out_channels_0,axe_yy_0,axe_xx_0,axe_out_channels_1;11;[V f, U (4, f), U (7, y), U (3, w), T (32, c), Hoist_vars [c], T (14, x),  T (3, h), T (4, c), T (4, f), T (2, x), T (4, y), T (1, f)];141.5053849220276
86;ResNet18_8;0.6205338;0.01426590855711614;2;axe_out_channels1_0,axe_yy1_0,axe_xx1_0,axe_out_channels1_1;13;[V f, U (2, f), ULambda y, T (32, c), Hoist_vars [c], T (3, h), T (14, x),  T (3, w), T (4, c), T (8, f), T (2, x),  Lambda_apply y [((Iter 2), (Arg 9)), ((Iter 1), (Arg 10))], T (1, f)];143.2305862903595
87;ResNet18_8;0.33081259999999996;0.00742044653912418;1;axe_out_channels_0,axe_yy_0,axe_xx_0,axe_out_channels_1;15;[V f, U (2, f), U (14, y), T (32, c), Hoist_vars [c], T (3, h), T (7, x),  T (3, w), T (4, c), T (8, f), T (4, x), T (2, y), T (1, f)];144.5664746761322
88;ResNet18_8;0.6125874;0.00372413426718211;1;axe_out_channels_0,axe_yy_0,axe_xx_0,axe_out_channels_1;9;[V f, U (2, f), U (14, y), T (16, c), Hoist_vars [c], T (3, h), T (28, x),  T (3, w), T (8, c), T (4, f), T (1, x), T (2, y), T (2, f)];145.9949517250061
89;ResNet18_8;0.7100507;0.011205593782125075;2;axe_out_channels1_0,axe_yy1_0,axe_xx1_0,axe_out_channels1_1;14;[V f, U (2, f), ULambda y, T (32, c), Hoist_vars [c], T (3, h), T (7, x),  T (3, w), T (4, c), T (8, f), T (4, x),  Lambda_apply y [((Iter 1), (Arg 13)), ((Iter 1), (Arg 15))], T (1, f)];147.73387551307678
90;ResNet18_8;0.45385679999999995;0.02599552766073428;1;axe_out_channels_0,axe_yy_0,axe_xx_0,axe_out_channels_1;11;[V f, U (4, f), U (7, y), T (32, c), Hoist_vars [c], T (3, h), T (14, x),  T (3, w), T (4, c), T (4, f), T (2, x), T (4, y), T (1, f)];149.20811104774475
91;ResNet18_8;1.163111;0.004119717611681697;1;axe_xx_0;28;[V f, U (1, f), U (14, y), U (3, h), T (64, c), Hoist_vars [c], T (3, w),  T (28, x), T (2, c), T (1, f), T (2, y), T (16, f)];150.6044795513153
92;ResNet18_8;0.6197653000000001;0.00764984612982508;2;axe_out_channels1_0,axe_yy1_0,axe_xx1_0,axe_out_channels1_1;10;[V f, U (2, f), ULambda y, T (32, c), Hoist_vars [c], T (3, h), T (14, x),  T (3, w), T (4, c), T (2, f), T (2, x),  Lambda_apply y [((Iter 2), (Arg 9)), ((Iter 1), (Arg 10))], T (4, f)];152.36107897758484
93;ResNet18_8;0.9725699000000001;0.00883843230952187;2;axe_out_channels1_0,axe_yy1_0,axe_xx1_0,axe_out_channels1_1;8;[V f, U (4, f), ULambda y, U (3, w), T (32, c), Hoist_vars [c], T (28, x),  T (3, h), T (4, c), T (1, f), T (1, x),  Lambda_apply y [((Iter 2), (Arg 5)), ((Iter 3), (Arg 6))], T (4, f)];154.2027931213379
94;ResNet18_8;1.7416574999999999;0.006870689605127008;1;axe_xx_0;28;[V f, U (1, f), U (14, y), U (3, h), T (32, c), Hoist_vars [c], T (3, w),  T (28, x), T (4, c), T (4, f), T (2, y), T (4, f)];155.62269020080566
95;ResNet18_8;0.5030181;0.0044780137661691085;2;axe_out_channels1_0,axe_yy1_0,axe_xx1_0,axe_out_channels1_1;8;[V f, U (4, f), ULambda y, U (3, w), T (32, c), Hoist_vars [c], T (14, x),  T (3, h), T (4, c), T (2, f), T (2, x),  Lambda_apply y [((Iter 2), (Arg 5)), ((Iter 3), (Arg 6))], T (2, f)];157.64973783493042
96;ResNet18_8;0.36121939999999997;0.0035317895803685688;2;axe_out_channels1_0,axe_yy1_0,axe_xx1_0,axe_out_channels1_1;9;[V f, U (4, f), ULambda y, U (3, w), T (32, c), Hoist_vars [c], T (14, x),  T (3, h), T (4, c), T (1, f), T (2, x),  Lambda_apply y [((Iter 2), (Arg 5)), ((Iter 3), (Arg 6))], T (4, f)];159.7092423439026
97;ResNet18_8;0.5143487999999999;0.004378718232542485;1;axe_out_channels_0,axe_yy_0,axe_xx_0,axe_out_channels_1;12;[V f, U (2, f), U (14, y), T (16, c), Hoist_vars [c], T (3, h), T (28, x),  T (3, w), T (8, c), T (1, f), T (1, x), T (2, y), T (8, f)];161.1062400341034
98;ResNet18_8;0.566686;0.00594223207220991;2;axe_out_channels1_0,axe_yy1_0,axe_xx1_0,axe_out_channels1_1;11;[V f, U (2, f), ULambda y, T (64, c), Hoist_vars [c], T (3, h), T (7, x),  T (3, w), T (2, c), T (2, f), T (4, x),  Lambda_apply y [((Iter 1), (Arg 13)), ((Iter 1), (Arg 15))], T (4, f)];162.82645082473755
99;ResNet18_8;0.398556;0.009058700922317734;1;axe_out_channels_0,axe_yy_0,axe_xx_0,axe_out_channels_1;13;[V f, U (2, f), U (14, y), T (32, c), Hoist_vars [c], T (3, h), T (14, x),  T (3, w), T (4, c), T (8, f), T (2, x), T (2, y), T (1, f)];164.2310163974762
100;ResNet18_8;0.423774;0.002576765336618772;2;axe_out_channels1_0,axe_yy1_0,axe_xx1_0,axe_out_channels1_1;12;[V f, U (2, f), ULambda y, T (32, c), Hoist_vars [c], T (3, h), T (14, x),  T (3, w), T (4, c), T (1, f), T (2, x),  Lambda_apply y [((Iter 1), (Arg 8)), ((Iter 2), (Arg 10))], T (8, f)];165.9669120311737
101;ResNet18_8;0.4869860999999999;0.006021459498327623;1;axe_out_channels_0,axe_yy_0,axe_xx_0,axe_out_channels_1;12;[V f, U (2, f), U (14, y), T (16, c), Hoist_vars [c], T (3, h), T (7, x),  T (3, w), T (8, c), T (4, f), T (4, x), T (2, y), T (2, f)];167.32689929008484
102;ResNet18_8;0.9335731999999999;0.01700648527944559;1;axe_out_channels_0,axe_yy_0,axe_xx_0,axe_out_channels_1;10;[V f, U (4, f), U (7, y), T (16, c), Hoist_vars [c], T (3, h), T (28, x),  T (3, w), T (8, c), T (1, f), T (1, x), T (4, y), T (4, f)];168.71654272079468
103;ResNet18_8;0.30671370000000003;0.011745581280209168;1;axe_out_channels_0,axe_yy_0,axe_xx_0,axe_out_channels_1;13;[V f, U (2, f), U (14, y), T (16, c), Hoist_vars [c], T (3, h), T (14, x),  T (3, w), T (8, c), T (1, f), T (2, x), T (2, y), T (8, f)];170.06396961212158
104;ResNet18_8;0.4174583;0.002457210371539236;2;axe_out_channels1_0,axe_yy1_0,axe_xx1_0,axe_out_channels1_1;13;[V f, U (2, f), ULambda y, U (3, h), T (32, c), Hoist_vars [c], T (14, x),  T (3, w), T (4, c), T (1, f), T (2, x),  Lambda_apply y [((Iter 2), (Arg 9)), ((Iter 1), (Arg 10))], T (8, f)];171.81652975082397
105;ResNet18_8;0.8459681;0.02618625966971993;2;axe_out_channels1_0,axe_yy1_0,axe_xx1_0,axe_out_channels1_1;11;[V f, U (2, f), ULambda y, T (32, c), Hoist_vars [c], T (3, h), T (28, x),  T (3, w), T (4, c), T (8, f), T (1, x),  Lambda_apply y [((Iter 1), (Arg 8)), ((Iter 2), (Arg 10))], T (1, f)];173.60638999938965
106;ResNet18_8;0.4806912;0.022084151741916653;1;axe_out_channels_0,axe_yy_0,axe_xx_0,axe_out_channels_1;13;[V f, U (4, f), U (4, y), U (3, w), T (32, c), Hoist_vars [c], T (28, x),  T (3, h), T (4, c), T (4, f), T (1, x), T (7, y), T (1, f)];174.9772334098816
107;ResNet18_8;0.21917409999999998;0.0009242211261381049;1;axe_out_channels_0,axe_yy_0,axe_xx_0,axe_out_channels_1;12;[V f, U (2, f), U (14, y), T (64, c), Hoist_vars [c], T (3, h), T (7, x),  T (3, w), T (2, c), T (2, f), T (4, x), T (2, y), T (4, f)];176.30925369262695
108;ResNet18_8;0.4674418;0.003532826709591058;1;axe_out_channels_0,axe_yy_0,axe_xx_0,axe_out_channels_1;13;[V f, U (4, f), U (7, y), T (16, c), Hoist_vars [c], T (3, h), T (7, x),  T (3, w), T (8, c), T (1, f), T (4, x), T (4, y), T (4, f)];177.72813940048218
109;ResNet18_8;0.49937509999999996;0.007476669197577219;1;axe_out_channels_0,axe_yy_0,axe_xx_0,axe_out_channels_1;13;[V f, U (2, f), U (14, y), T (16, c), Hoist_vars [c], T (3, h), T (14, x),  T (3, w), T (8, c), T (8, f), T (2, x), T (2, y), T (1, f)];179.07506012916565
110;ResNet18_8;0.49964840000000005;0.007134218306163628;2;axe_out_channels1_0,axe_yy1_0,axe_xx1_0,axe_out_channels1_1;9;[V f, U (4, f), ULambda y, U (3, w), T (32, c), Hoist_vars [c], T (14, x),  T (3, h), T (4, c), T (4, f), T (2, x),  Lambda_apply y [((Iter 2), (Arg 5)), ((Iter 3), (Arg 6))], T (1, f)];181.07848286628723
111;ResNet18_8;0.3488605;0.003327445454098396;1;axe_out_channels_0,axe_yy_0,axe_xx_0,axe_out_channels_1;12;[V f, U (2, f), U (14, y), T (32, c), Hoist_vars [c], T (3, h), T (7, x),  T (3, w), T (4, c), T (4, f), T (4, x), T (2, y), T (2, f)];182.41288685798645
112;ResNet18_8;0.8599717;0.03735951894243288;2;axe_out_channels1_0,axe_yy1_0,axe_xx1_0,axe_out_channels1_1;9;[V f, U (2, f), ULambda y, T (32, c), Hoist_vars [c], T (3, h), T (28, x),  T (3, w), T (4, c), T (2, f), T (1, x),  Lambda_apply y [((Iter 2), (Arg 9)), ((Iter 1), (Arg 10))], T (4, f)];184.2009301185608
113;ResNet18_8;0.8317373000000001;0.005195543572139473;2;axe_out_channels1_0,axe_yy1_0,axe_xx1_0,axe_out_channels1_1;8;[V f, U (4, f), ULambda y, U (3, w), T (64, c), Hoist_vars [c], T (28, x),  T (3, h), T (2, c), T (1, f), T (1, x),  Lambda_apply y [((Iter 2), (Arg 5)), ((Iter 3), (Arg 6))], T (4, f)];186.02533841133118
114;ResNet18_8;1.2755976;0.002562754814647741;2;axe_xx1_0;28;[V f, U (1, f), ULambda y, U (3, h), T (128, c), Hoist_vars [c], T (3, w),  T (28, x), T (1, c), T (1, f),  Lambda_apply y [((Iter 2), (Arg 9)), ((Iter 1), (Arg 10))], T (16, f)];187.80123472213745
115;ResNet18_8;0.26191949999999997;0.0029960048147491315;1;axe_out_channels_0,axe_yy_0,axe_xx_0,axe_out_channels_1;13;[V f, U (2, f), U (14, y), T (32, c), Hoist_vars [c], T (3, h), T (14, x),  T (3, w), T (4, c), T (1, f), T (2, x), T (2, y), T (8, f)];189.17030239105225
116;ResNet18_8;1.2644902000000002;0.004930310452699665;2;axe_xx1_0;28;[V f, U (1, f), ULambda y, U (3, h), T (128, c), Hoist_vars [c], T (3, w),  T (28, x), T (1, c), T (2, f),  Lambda_apply y [((Iter 2), (Arg 9)), ((Iter 1), (Arg 10))], T (8, f)];190.95907139778137
117;ResNet18_8;0.2669263;0.0029829874304126767;1;axe_out_channels_0,axe_yy_0,axe_xx_0,axe_out_channels_1;18;[V f, U (2, f), U (14, y), T (16, c), Hoist_vars [c], T (3, h), T (4, x),  T (3, w), T (8, c), T (8, f), T (7, x), T (2, y), T (1, f)];192.35215425491333
118;ResNet18_8;0.845453;0.022795489509988588;2;axe_out_channels1_0,axe_yy1_0,axe_xx1_0,axe_out_channels1_1;9;[V f, U (2, f), ULambda y, T (32, c), Hoist_vars [c], T (3, h), T (14, x),  T (3, w), T (4, c), T (2, f), T (2, x),  Lambda_apply y [((Iter 1), (Arg 13)), ((Iter 1), (Arg 15))], T (4, f)];194.1391155719757
119;ResNet18_8;0.908461;0.005654885604501674;1;axe_xx_0;28;[V f, U (1, f), U (14, y), U (3, h), T (128, c), Hoist_vars [c], T (3, w),  T (28, x), T (1, c), T (4, f), T (2, y), T (4, f)];195.51437997817993
120;ResNet18_8;0.3136629;0.00370149257597526;1;axe_out_channels_0,axe_yy_0,axe_xx_0,axe_out_channels_1;12;[V f, U (4, f), U (7, y), T (16, c), Hoist_vars [c], T (3, h), T (7, x),  T (3, w), T (8, c), T (2, f), T (4, x), T (4, y), T (2, f)];196.9233775138855
121;ResNet18_8;0.3230948;0.019231570054470338;1;axe_out_channels_0,axe_yy_0,axe_xx_0,axe_out_channels_1;13;[V f, U (4, f), U (7, y), T (32, c), Hoist_vars [c], T (3, h), T (7, x),  T (3, w), T (4, c), T (1, f), T (4, x), T (4, y), T (4, f)];198.33382773399353
122;ResNet18_8;0.231765;0.003063051060625655;1;axe_out_channels_0,axe_yy_0,axe_xx_0,axe_out_channels_1;14;[V f, U (4, f), U (4, y), U (3, w), T (128, c), Hoist_vars [c], T (14, x),  T (3, h), T (1, c), T (4, f), T (2, x), T (7, y), T (1, f)];199.75038194656372
123;ResNet18_8;0.5763443;0.007161774124475039;2;axe_out_channels1_0,axe_yy1_0,axe_xx1_0,axe_out_channels1_1;10;[V f, U (2, f), ULambda y, T (32, c), Hoist_vars [c], T (3, h), T (14, x),  T (3, w), T (4, c), T (4, f), T (2, x),  Lambda_apply y [((Iter 2), (Arg 8)), ((Iter 1), (Arg 12))], T (2, f)];201.48549890518188
124;ResNet18_8;0.8314394;0.006448722000520734;2;axe_out_channels1_0,axe_yy1_0,axe_xx1_0,axe_out_channels1_1;9;[V f, U (2, f), ULambda y, T (32, c), Hoist_vars [c], T (3, h), T (14, x),  T (3, w), T (4, c), T (4, f), T (2, x),  Lambda_apply y [((Iter 1), (Arg 13)), ((Iter 1), (Arg 15))], T (2, f)];203.24347281455994
125;ResNet18_8;1.2154308;0.0039790750633784695;1;axe_xx_0;28;[V f, U (1, f), U (14, y), U (3, h), T (64, c), Hoist_vars [c], T (3, w),  T (28, x), T (2, c), T (4, f), T (2, y), T (4, f)];204.63173413276672
126;ResNet18_8;0.6047887;0.007312582800214978;1;axe_out_channels_0,axe_yy_0,axe_xx_0,axe_out_channels_1;12;[V f, U (2, f), U (14, y), T (16, c), Hoist_vars [c], T (3, h), T (28, x),  T (3, w), T (8, c), T (8, f), T (1, x), T (2, y), T (1, f)];206.02018642425537
127;ResNet18_8;0.3868639;0.006665331491381363;1;axe_out_channels_0,axe_yy_0,axe_xx_0,axe_out_channels_1;10;[V f, U (2, f), U (14, y), T (32, c), Hoist_vars [c], T (3, h), T (14, x),  T (3, w), T (4, c), T (4, f), T (2, x), T (2, y), T (2, f)];207.40351033210754
128;ResNet18_8;1.065428;0.009198259204871339;2;axe_out_channels1_0,axe_yy1_0,axe_xx1_0,axe_out_channels1_1;8;[V f, U (4, f), ULambda y, U (3, w), T (32, c), Hoist_vars [c], T (28, x),  T (3, h), T (4, c), T (4, f), T (1, x),  Lambda_apply y [((Iter 2), (Arg 5)), ((Iter 3), (Arg 6))], T (1, f)];209.21223211288452
129;ResNet18_8;0.33476720000000004;0.017366437359458625;1;axe_out_channels_0,axe_yy_0,axe_xx_0,axe_out_channels_1;13;[V f, U (4, f), U (4, y), U (3, w), T (128, c), Hoist_vars [c], T (28, x),  T (3, h), T (1, c), T (4, f), T (1, x), T (7, y), T (1, f)];210.57404446601868
130;ResNet18_8;0.8118112;0.002342016900024436;2;axe_out_channels1_0,axe_yy1_0,axe_xx1_0,axe_out_channels1_1;7;[V f, U (4, f), ULambda y, U (3, w), T (128, c), Hoist_vars [c], T (28, x),  T (3, h), T (1, c), T (2, f), T (1, x),  Lambda_apply y [((Iter 2), (Arg 5)), ((Iter 3), (Arg 6))], T (2, f)];212.3781578540802
131;ResNet18_8;0.5635830000000001;0.006957690450142198;1;axe_out_channels_0,axe_yy_0,axe_xx_0,axe_out_channels_1;10;[V f, U (4, f), U (7, y), T (16, c), Hoist_vars [c], T (3, h), T (14, x),  T (3, w), T (8, c), T (2, f), T (2, x), T (4, y), T (2, f)];213.90942072868347
132;ResNet18_8;0.9017761999999999;0.0032950550465811563;1;axe_xx_0;28;[V f, U (1, f), U (14, y), U (3, h), T (128, c), Hoist_vars [c], T (3, w),  T (28, x), T (1, c), T (16, f), T (2, y), T (1, f)];215.27944493293762
133;ResNet18_8;0.32614730000000003;0.010297853844855239;1;axe_out_channels_0,axe_yy_0,axe_xx_0,axe_out_channels_1;13;[V f, U (4, f), U (4, y), U (3, w), T (128, c), Hoist_vars [c], T (28, x),  T (3, h), T (1, c), T (1, f), T (1, x), T (7, y), T (4, f)];216.6226303577423
134;ResNet18_8;0.2943137;0.0038171346596629118;1;axe_out_channels_0,axe_yy_0,axe_xx_0,axe_out_channels_1;11;[V f, U (4, f), U (7, y), U (3, w), T (64, c), Hoist_vars [c], T (14, x),  T (3, h), T (2, c), T (4, f), T (2, x), T (4, y), T (1, f)];218.1217806339264
135;ResNet18_8;1.2080927000000001;0.004682522312813949;1;axe_xx_0;28;[V f, U (1, f), U (14, y), U (3, h), T (64, c), Hoist_vars [c], T (3, w),  T (28, x), T (2, c), T (2, f), T (2, y), T (8, f)];219.53681659698486
136;ResNet18_8;0.2253555;0.001017542259564681;1;axe_out_channels_0,axe_yy_0,axe_xx_0,axe_out_channels_1;12;[V f, U (4, f), U (7, y), U (3, w), T (64, c), Hoist_vars [c], T (7, x),  T (3, h), T (2, c), T (2, f), T (4, x), T (4, y), T (2, f)];220.96423411369324
137;ResNet18_8;0.4683821999999999;0.007480683562349103;1;axe_out_channels_0,axe_yy_0,axe_xx_0,axe_out_channels_1;11;[V f, U (4, f), U (7, y), U (3, h), T (32, c), Hoist_vars [c], T (14, x),  T (3, w), T (4, c), T (4, f), T (2, x), T (4, y), T (1, f)];222.47062587738037
138;ResNet18_8;1.0864224999999998;0.03194488664324857;1;axe_out_channels_0,axe_yy_0,axe_xx_0,axe_out_channels_1;9;[V f, U (4, f), U (7, y), T (16, c), Hoist_vars [c], T (3, h), T (28, x),  T (3, w), T (8, c), T (2, f), T (1, x), T (4, y), T (2, f)];223.85858416557312
139;ResNet18_8;0.23420000000000002;0.0012776053381228516;1;axe_out_channels_0,axe_yy_0,axe_xx_0,axe_out_channels_1;12;[V f, U (2, f), U (14, y), T (32, c), Hoist_vars [c], T (3, h), T (7, x),  T (3, w), T (4, c), T (2, f), T (4, x), T (2, y), T (4, f)];225.1836178302765
140;ResNet18_8;0.5041992;0.006376956559362795;1;axe_out_channels_0,axe_yy_0,axe_xx_0,axe_out_channels_1;10;[V f, U (2, f), U (14, y), T (16, c), Hoist_vars [c], T (3, h), T (14, x),  T (3, w), T (8, c), T (2, f), T (2, x), T (2, y), T (4, f)];226.53001809120178
141;ResNet18_8;0.2344299;0.0011275274231698335;1;axe_out_channels_0,axe_yy_0,axe_xx_0,axe_out_channels_1;13;[V f, U (4, f), U (7, y), U (3, w), T (128, c), Hoist_vars [c], T (7, x),  T (3, h), T (1, c), T (4, f), T (4, x), T (4, y), T (1, f)];227.96237778663635
142;ResNet18_8;0.5365416;0.003292961833972594;2;axe_out_channels1_0,axe_yy1_0,axe_xx1_0,axe_out_channels1_1;9;[V f, U (4, f), ULambda y, U (3, h), T (32, c), Hoist_vars [c], T (14, x),  T (3, w), T (4, c), T (4, f), T (2, x),  Lambda_apply y [((Iter 2), (Arg 5)), ((Iter 3), (Arg 6))], T (1, f)];229.94362115859985
143;ResNet18_8;2.6216879999999994;0.007478344963961039;2;axe_xx1_0;28;[V f, U (1, f), ULambda y, U (3, h), T (32, c), Hoist_vars [c], T (3, w),  T (28, x), T (4, c), T (1, f),  Lambda_apply y [((Iter 2), (Arg 9)), ((Iter 1), (Arg 10))], T (16, f)];231.75056290626526
144;ResNet18_8;0.2673792;0.0007976717119216367;1;axe_out_channels_0,axe_yy_0,axe_xx_0,axe_out_channels_1;11;[V f, U (4, f), U (7, y), U (3, w), T (32, c), Hoist_vars [c], T (14, x),  T (3, h), T (4, c), T (1, f), T (2, x), T (4, y), T (4, f)];233.31134700775146
145;ResNet18_8;1.0780463;0.018687184041743733;1;axe_out_channels_0,axe_yy_0,axe_xx_0,axe_out_channels_1;10;[V f, U (4, f), U (7, y), T (16, c), Hoist_vars [c], T (3, h), T (28, x),  T (3, w), T (8, c), T (4, f), T (1, x), T (4, y), T (1, f)];234.6708688735962
146;ResNet18_8;0.21748499999999998;0.0007507529553721369;1;axe_out_channels_0,axe_yy_0,axe_xx_0,axe_out_channels_1;12;[V f, U (4, f), U (7, y), U (3, w), T (128, c), Hoist_vars [c], T (7, x),  T (3, h), T (1, c), T (2, f), T (4, x), T (4, y), T (2, f)];236.11519408226013
147;ResNet18_8;0.49010739999999997;0.009491673026395293;1;axe_out_channels_0,axe_yy_0,axe_xx_0,axe_out_channels_1;10;[V f, U (2, f), U (14, y), T (16, c), Hoist_vars [c], T (3, h), T (14, x),  T (3, w), T (8, c), T (4, f), T (2, x), T (2, y), T (2, f)];237.4562485218048
148;ResNet18_8;2.6446113;0.007557584839748794;2;axe_xx1_0;28;[V f, U (1, f), ULambda y, U (3, h), T (32, c), Hoist_vars [c], T (3, w),  T (28, x), T (4, c), T (8, f),  Lambda_apply y [((Iter 2), (Arg 9)), ((Iter 1), (Arg 10))], T (2, f)];239.24701070785522
149;ResNet18_8;0.2383428;0.0032943001624017184;1;axe_out_channels_0,axe_yy_0,axe_xx_0,axe_out_channels_1;13;[V f, U (4, f), U (4, y), U (3, w), T (32, c), Hoist_vars [c], T (14, x),  T (3, h), T (4, c), T (2, f), T (2, x), T (7, y), T (2, f)];240.64925599098206
150;ResNet18_8;0.23886729999999998;0.002378778386062896;1;axe_out_channels_0,axe_yy_0,axe_xx_0,axe_out_channels_1;14;[V f, U (4, f), U (4, y), U (3, w), T (128, c), Hoist_vars [c], T (14, x),  T (3, h), T (1, c), T (1, f), T (2, x), T (7, y), T (4, f)];242.03796768188477
151;ResNet18_8;0.3099971;0.0023989377836867725;1;axe_out_channels_0,axe_yy_0,axe_xx_0,axe_out_channels_1;12;[V f, U (4, f), U (7, y), U (3, h), T (32, c), Hoist_vars [c], T (7, x),  T (3, w), T (4, c), T (2, f), T (4, x), T (4, y), T (2, f)];243.48221635818481
152;ResNet18_8;0.352615;0.00273071305706037;1;axe_out_channels_0,axe_yy_0,axe_xx_0,axe_out_channels_1;13;[V f, U (4, f), U (7, y), U (3, h), T (32, c), Hoist_vars [c], T (7, x),  T (3, w), T (4, c), T (4, f), T (4, x), T (4, y), T (1, f)];244.90897059440613
153;ResNet18_8;0.2359146;0.0010269679839216047;1;axe_out_channels_0,axe_yy_0,axe_xx_0,axe_out_channels_1;11;[V f, U (4, f), U (7, y), U (3, w), T (64, c), Hoist_vars [c], T (14, x),  T (3, h), T (2, c), T (1, f), T (2, x), T (4, y), T (4, f)];246.46608710289001
154;ResNet18_8;0.7360126;0.010660725014744545;2;axe_out_channels1_0,axe_yy1_0,axe_xx1_0,axe_out_channels1_1;12;[V f, U (2, f), ULambda y, U (3, h), T (32, c), Hoist_vars [c], T (28, x),  T (3, w), T (4, c), T (1, f), T (1, x),  Lambda_apply y [((Iter 2), (Arg 9)), ((Iter 1), (Arg 10))], T (8, f)];248.239248752594
155;ResNet18_8;0.2145756;0.0035695824461693063;1;axe_out_channels_0,axe_yy_0,axe_xx_0,axe_out_channels_1;15;[V f, U (2, f), U (14, y), T (32, c), Hoist_vars [c], T (3, h), T (4, x),  T (3, w), T (4, c), T (4, f), T (7, x), T (2, y), T (2, f)];249.63920855522156
156;ResNet18_8;3.0362549999999997;0.005753952485031518;1;axe_xx_0;28;[V f, U (1, f), U (14, y), U (3, h), T (16, c), Hoist_vars [c], T (3, w),  T (28, x), T (8, c), T (16, f), T (2, y), T (1, f)];251.07883834838867
157;ResNet18_8;1.1991192;0.019311890968002055;1;axe_out_channels_0,axe_yy_0,axe_xx_0,axe_out_channels_1;10;[V f, U (4, f), U (7, y), U (3, h), T (16, c), Hoist_vars [c], T (28, x),  T (3, w), T (8, c), T (4, f), T (1, x), T (4, y), T (1, f)];252.4546093940735
158;ResNet18_8;0.8078844000000001;0.01768792247382376;2;axe_out_channels1_0,axe_yy1_0,axe_xx1_0,axe_out_channels1_1;12;[V f, U (2, f), ULambda y, T (32, c), Hoist_vars [c], T (3, h), T (28, x),  T (3, w), T (4, c), T (1, f), T (1, x),  Lambda_apply y [((Iter 2), (Arg 9)), ((Iter 1), (Arg 10))], T (8, f)];254.21332383155823
159;ResNet18_8;0.2155873;0.0032020022189249097;1;axe_out_channels_0,axe_yy_0,axe_xx_0,axe_out_channels_1;15;[V f, U (2, f), U (14, y), T (64, c), Hoist_vars [c], T (3, h), T (4, x),  T (3, w), T (2, c), T (2, f), T (7, x), T (2, y), T (4, f)];255.58983612060547
160;ResNet18_8;0.4415464;0.0032806113820445116;1;axe_out_channels_0,axe_yy_0,axe_xx_0,axe_out_channels_1;11;[V f, U (4, f), U (7, y), T (16, c), Hoist_vars [c], T (3, h), T (14, x),  T (3, w), T (8, c), T (1, f), T (2, x), T (4, y), T (4, f)];257.0897994041443
161;ResNet18_8;0.37527;0.011535424491539095;1;axe_out_channels_0,axe_yy_0,axe_xx_0,axe_out_channels_1;13;[V f, U (4, f), U (4, y), U (3, w), T (64, c), Hoist_vars [c], T (28, x),  T (3, h), T (2, c), T (1, f), T (1, x), T (7, y), T (4, f)];258.41472125053406
162;ResNet18_8;3.0449406000000003;0.006744954369008094;1;axe_xx_0;28;[V f, U (1, f), U (14, y), U (3, h), T (16, c), Hoist_vars [c], T (3, w),  T (28, x), T (8, c), T (4, f), T (2, y), T (4, f)];259.8577570915222
163;ResNet18_8;1.2175012;0.004263798864862199;1;axe_xx_0;28;[V f, U (1, f), U (14, y), U (3, h), T (64, c), Hoist_vars [c], T (3, w),  T (28, x), T (2, c), T (16, f), T (2, y), T (1, f)];261.2192597389221
164;ResNet18_8;0.3043752;0.018375195611475825;1;axe_out_channels_0,axe_yy_0,axe_xx_0,axe_out_channels_1;13;[V f, U (4, f), U (7, y), T (32, c), Hoist_vars [c], T (3, h), T (7, x),  T (3, w), T (4, c), T (4, f), T (4, x), T (4, y), T (1, f)];262.6043269634247
165;ResNet18_8;0.2512702;0.010863639765750702;1;axe_out_channels_0,axe_yy_0,axe_xx_0,axe_out_channels_1;12;[V f, U (4, f), U (7, y), T (32, c), Hoist_vars [c], T (3, h), T (7, x),  T (3, w), T (4, c), T (2, f), T (4, x), T (4, y), T (2, f)];264.0010824203491
166;ResNet18_8;0.9058355;0.006069405955280972;1;axe_xx_0;28;[V f, U (1, f), U (14, y), U (3, h), T (128, c), Hoist_vars [c], T (3, w),  T (28, x), T (1, c), T (2, f), T (2, y), T (8, f)];265.35725808143616
167;ResNet18_8;3.0394233999999996;0.004671950560526077;1;axe_xx_0;28;[V f, U (1, f), U (14, y), U (3, h), T (16, c), Hoist_vars [c], T (3, w),  T (28, x), T (8, c), T (1, f), T (2, y), T (16, f)];266.7707314491272
168;ResNet18_8;0.6085849;0.021179538410692533;2;axe_out_channels1_0,axe_yy1_0,axe_xx1_0,axe_out_channels1_1;10;[V f, U (2, f), ULambda y, U (3, h), T (32, c), Hoist_vars [c], T (14, x),  T (3, w), T (4, c), T (2, f), T (2, x),  Lambda_apply y [((Iter 2), (Arg 9)), ((Iter 1), (Arg 10))], T (4, f)];268.5077600479126
169;ResNet18_8;0.8351301;0.018108813569364484;2;axe_out_channels1_0,axe_yy1_0,axe_xx1_0,axe_out_channels1_1;8;[V f, U (2, f), ULambda y, T (32, c), Hoist_vars [c], T (3, h), T (28, x),  T (3, w), T (4, c), T (4, f), T (1, x),  Lambda_apply y [((Iter 1), (Arg 8)), ((Iter 2), (Arg 10))], T (2, f)];270.2307198047638
170;ResNet18_8;0.2882299;0.008728820337823429;1;axe_out_channels_0,axe_yy_0,axe_xx_0,axe_out_channels_1;13;[V f, U (4, f), U (7, y), U (3, w), T (32, c), Hoist_vars [c], T (7, x),  T (3, h), T (4, c), T (4, f), T (4, x), T (4, y), T (1, f)];271.6531901359558
171;ResNet18_8;0.26616730000000005;0.007518214655754384;1;axe_out_channels_0,axe_yy_0,axe_xx_0,axe_out_channels_1;15;[V f, U (2, f), U (14, y), T (64, c), Hoist_vars [c], T (3, h), T (7, x),  T (3, w), T (2, c), T (1, f), T (4, x), T (2, y), T (8, f)];272.95977997779846
172;ResNet18_8;0.3799796;0.014716586745573855;1;axe_out_channels_0,axe_yy_0,axe_xx_0,axe_out_channels_1;13;[V f, U (4, f), U (4, y), U (3, w), T (64, c), Hoist_vars [c], T (28, x),  T (3, h), T (2, c), T (4, f), T (1, x), T (7, y), T (1, f)];274.2774181365967
173;ResNet18_8;0.4003776;0.0044734349263177995;1;axe_out_channels_0,axe_yy_0,axe_xx_0,axe_out_channels_1;15;[V f, U (2, f), U (14, y), T (16, c), Hoist_vars [c], T (3, h), T (7, x),  T (3, w), T (8, c), T (1, f), T (4, x), T (2, y), T (8, f)];275.60307359695435
174;ResNet18_8;3.0446555;0.00800138219622084;1;axe_xx_0;28;[V f, U (1, f), U (14, y), U (3, h), T (16, c), Hoist_vars [c], T (3, w),  T (28, x), T (8, c), T (8, f), T (2, y), T (2, f)];277.0270869731903
175;ResNet18_8;0.6706304;0.02522278513249475;1;axe_out_channels_0,axe_yy_0,axe_xx_0,axe_out_channels_1;11;[V f, U (4, f), U (7, y), U (3, h), T (16, c), Hoist_vars [c], T (14, x),  T (3, w), T (8, c), T (4, f), T (2, x), T (4, y), T (1, f)];278.5232584476471
176;ResNet18_8;0.26212880000000005;0.005043188788851747;1;axe_out_channels_0,axe_yy_0,axe_xx_0,axe_out_channels_1;18;[V f, U (2, f), U (14, y), T (32, c), Hoist_vars [c], T (3, h), T (4, x),  T (3, w), T (4, c), T (1, f), T (7, x), T (2, y), T (8, f)];279.89745235443115
177;ResNet18_8;1.7193501999999998;0.0040051744481358325;2;axe_xx1_0;28;[V f, U (1, f), ULambda y, U (3, h), T (64, c), Hoist_vars [c], T (3, w),  T (28, x), T (2, c), T (4, f),  Lambda_apply y [((Iter 2), (Arg 9)), ((Iter 1), (Arg 10))], T (4, f)];281.6491949558258
178;ResNet18_8;0.43586159999999996;0.0028952429328123735;2;axe_out_channels1_0,axe_yy1_0,axe_xx1_0,axe_out_channels1_1;13;[V f, U (2, f), ULambda y, T (32, c), Hoist_vars [c], T (3, h), T (14, x),  T (3, w), T (4, c), T (1, f), T (2, x),  Lambda_apply y [((Iter 2), (Arg 9)), ((Iter 1), (Arg 10))], T (8, f)];283.3671793937683
179;ResNet18_8;0.317453;0.01752711313936211;1;axe_out_channels_0,axe_yy_0,axe_xx_0,axe_out_channels_1;11;[V f, U (4, f), U (7, y), T (32, c), Hoist_vars [c], T (3, h), T (14, x),  T (3, w), T (4, c), T (1, f), T (2, x), T (4, y), T (4, f)];284.87153935432434
180;ResNet18_8;0.6223073;0.005381376943682716;2;axe_out_channels1_0,axe_yy1_0,axe_xx1_0,axe_out_channels1_1;10;[V f, U (2, f), ULambda y, T (32, c), Hoist_vars [c], T (3, h), T (14, x),  T (3, w), T (4, c), T (4, f), T (2, x),  Lambda_apply y [((Iter 2), (Arg 9)), ((Iter 1), (Arg 10))], T (2, f)];286.5867121219635
181;ResNet18_8;0.8160346;0.030984667144250556;2;axe_out_channels1_0,axe_yy1_0,axe_xx1_0,axe_out_channels1_1;9;[V f, U (2, f), ULambda y, U (3, h), T (32, c), Hoist_vars [c], T (28, x),  T (3, w), T (4, c), T (4, f), T (1, x),  Lambda_apply y [((Iter 2), (Arg 9)), ((Iter 1), (Arg 10))], T (2, f)];288.3747572898865
182;ResNet18_8;0.9058550000000001;0.005157329037399138;1;axe_xx_0;28;[V f, U (1, f), U (14, y), U (3, h), T (128, c), Hoist_vars [c], T (3, w),  T (28, x), T (1, c), T (8, f), T (2, y), T (2, f)];289.7273588180542
183;ResNet18_8;0.7654624;0.003663658395647703;2;axe_out_channels1_0,axe_yy1_0,axe_xx1_0,axe_out_channels1_1;8;[V f, U (4, f), ULambda y, U (3, w), T (128, c), Hoist_vars [c], T (28, x),  T (3, h), T (1, c), T (1, f), T (1, x),  Lambda_apply y [((Iter 2), (Arg 5)), ((Iter 3), (Arg 6))], T (4, f)];291.5034673213959
184;ResNet18_8;1.8375272000000002;0.004323162217636465;1;axe_xx_0;28;[V f, U (1, f), U (14, y), U (3, h), T (32, c), Hoist_vars [c], T (3, w),  T (28, x), T (4, c), T (8, f), T (2, y), T (2, f)];292.8962416648865
185;ResNet18_8;0.8600915;0.03458621927083098;2;axe_out_channels1_0,axe_yy1_0,axe_xx1_0,axe_out_channels1_1;8;[V f, U (2, f), ULambda y, T (32, c), Hoist_vars [c], T (3, h), T (28, x),  T (3, w), T (4, c), T (2, f), T (1, x),  Lambda_apply y [((Iter 1), (Arg 8)), ((Iter 2), (Arg 10))], T (4, f)];294.6720507144928
186;ResNet18_8;1.2624131;0.004227523044289665;2;axe_xx1_0;28;[V f, U (1, f), ULambda y, U (3, h), T (128, c), Hoist_vars [c], T (3, w),  T (28, x), T (1, c), T (8, f),  Lambda_apply y [((Iter 2), (Arg 9)), ((Iter 1), (Arg 10))], T (2, f)];296.396977186203
187;ResNet18_8;1.8424305999999997;0.0048945159965005595;1;axe_xx_0;28;[V f, U (1, f), U (14, y), U (3, h), T (32, c), Hoist_vars [c], T (3, w),  T (28, x), T (4, c), T (2, f), T (2, y), T (8, f)];297.79491925239563
188;ResNet18_8;0.2837172;0.0032980838922016566;1;axe_out_channels_0,axe_yy_0,axe_xx_0,axe_out_channels_1;14;[V f, U (4, f), U (4, y), U (3, w), T (64, c), Hoist_vars [c], T (14, x),  T (3, h), T (2, c), T (1, f), T (2, x), T (7, y), T (4, f)];299.19880843162537
189;ResNet18_8;0.20951019999999998;0.0015836122505209396;1;axe_out_channels_0,axe_yy_0,axe_xx_0,axe_out_channels_1;13;[V f, U (4, f), U (4, y), U (3, w), T (64, c), Hoist_vars [c], T (14, x),  T (3, h), T (2, c), T (2, f), T (2, x), T (7, y), T (2, f)];300.61499071121216
190;ResNet18_8;0.8429278;0.00789863658867782;2;axe_out_channels1_0,axe_yy1_0,axe_xx1_0,axe_out_channels1_1;12;[V f, U (2, f), ULambda y, T (32, c), Hoist_vars [c], T (3, h), T (14, x),  T (3, w), T (4, c), T (8, f), T (2, x),  Lambda_apply y [((Iter 1), (Arg 13)), ((Iter 1), (Arg 15))], T (1, f)];302.3680181503296
191;ResNet18_8;3.0247258;0.004365371686351539;1;axe_xx_0;28;[V f, U (1, f), U (14, y), U (3, h), T (16, c), Hoist_vars [c], T (3, w),  T (28, x), T (8, c), T (2, f), T (2, y), T (8, f)];303.820041179657
192;ResNet18_8;0.223907;0.0010994437684574833;1;axe_out_channels_0,axe_yy_0,axe_xx_0,axe_out_channels_1;13;[V f, U (4, f), U (7, y), U (3, w), T (128, c), Hoist_vars [c], T (7, x),  T (3, h), T (1, c), T (1, f), T (4, x), T (4, y), T (4, f)];305.25295901298523
193;ResNet18_8;0.5544142999999999;0.010223466320676187;2;axe_out_channels1_0,axe_yy1_0,axe_xx1_0,axe_out_channels1_1;14;[V f, U (2, f), ULambda y, T (64, c), Hoist_vars [c], T (3, h), T (7, x),  T (3, w), T (2, c), T (8, f), T (4, x),  Lambda_apply y [((Iter 1), (Arg 13)), ((Iter 1), (Arg 15))], T (1, f)];306.96329402923584
194;ResNet18_8;0.38062509999999994;0.01541742650023019;1;axe_out_channels_0,axe_yy_0,axe_xx_0,axe_out_channels_1;14;[V f, U (4, f), U (4, y), U (3, w), T (32, c), Hoist_vars [c], T (14, x),  T (3, h), T (4, c), T (1, f), T (2, x), T (7, y), T (4, f)];308.37749195098877
195;ResNet18_8;0.30207039999999996;0.00762417728282862;1;axe_out_channels_0,axe_yy_0,axe_xx_0,axe_out_channels_1;15;[V f, U (2, f), U (14, y), T (64, c), Hoist_vars [c], T (3, h), T (7, x),  T (3, w), T (2, c), T (8, f), T (4, x), T (2, y), T (1, f)];309.7004466056824
196;ResNet18_8;0.8794617;0.003449442884003168;2;axe_out_channels1_0,axe_yy1_0,axe_xx1_0,axe_out_channels1_1;8;[V f, U (4, f), ULambda y, U (3, w), T (64, c), Hoist_vars [c], T (28, x),  T (3, h), T (2, c), T (4, f), T (1, x),  Lambda_apply y [((Iter 2), (Arg 5)), ((Iter 3), (Arg 6))], T (1, f)];311.49492931365967
197;ResNet18_8;0.7609279999999999;0.004746210972976228;2;axe_out_channels1_0,axe_yy1_0,axe_xx1_0,axe_out_channels1_1;11;[V f, U (2, f), ULambda y, T (32, c), Hoist_vars [c], T (3, h), T (28, x),  T (3, w), T (4, c), T (1, f), T (1, x),  Lambda_apply y [((Iter 1), (Arg 8)), ((Iter 2), (Arg 10))], T (8, f)];313.2586941719055
198;ResNet18_8;0.595254;0.006040404920201938;2;axe_out_channels1_0,axe_yy1_0,axe_xx1_0,axe_out_channels1_1;10;[V f, U (2, f), ULambda y, U (3, h), T (32, c), Hoist_vars [c], T (14, x),  T (3, w), T (4, c), T (4, f), T (2, x),  Lambda_apply y [((Iter 2), (Arg 9)), ((Iter 1), (Arg 10))], T (2, f)];315.01997590065
199;ResNet18_8;0.29906430000000006;0.0037770193287829474;1;axe_out_channels_0,axe_yy_0,axe_xx_0,axe_out_channels_1;10;[V f, U (4, f), U (7, y), U (3, w), T (64, c), Hoist_vars [c], T (14, x),  T (3, h), T (2, c), T (2, f), T (2, x), T (4, y), T (2, f)];316.5542998313904
