IdRun;NameConv;Time(ms);std;NbMicroKernel;AxeFuse;SizeAxeFuse;Schema;Time_search(7.149821996688843)
0;MobilNet_3;1.3284776;0.015583791317904671;2;axe_xx1_0,axe_yy1_0,axe_xx1_1,axe_out_channels1_0;12;[V f, U (2, f), ULambda y, U (3, h), T (32, c), Hoist_vars [c], T (28, x),  T (3, w), T (4, c), T (4, f), T (2, x),  Lambda_apply y [((Iter 5), (Arg 9)), ((Iter 1), (Arg 11))], T (1, x)];9.447686433792114
1;MobilNet_3;0.4982767;0.007541876889077415;1;axe_out_channels_0,axe_out_channels_1,axe_xx_0,axe_yy_0,axe_out_channels_2;13;[V f, U (1, f), U (14, y), U (3, h), T (32, c), Hoist_vars [c], T (28, x),  T (3, w), T (4, c), T (2, f), T (4, y), T (2, x), T (1, f), T (4, f)];11.296087980270386
2;MobilNet_3;0.4045451;0.00179296778833307;1;axe_xx_0,axe_yy_0,axe_xx_1,axe_out_channels_0;16;[V f, U (2, f), U (14, y), T (64, c), Hoist_vars [c], T (3, h), T (8, x),  T (3, w), T (2, c), T (4, f), T (1, x), T (4, y), T (7, x)];13.096056699752808
3;MobilNet_3;1.4919116000000001;0.00811960249273328;1;axe_yy_0,axe_xx_0,axe_out_channels_0;11;[V f, U (4, f), U (7, y), U (3, w), T (64, c), Hoist_vars [c], T (56, x),  T (3, h), T (2, c), T (2, f), T (1, x), T (8, y)];15.016475200653076
4;MobilNet_3;0.565235;0.005321399158116231;1;axe_out_channels_0,axe_out_channels_1,axe_xx_0,axe_yy_0,axe_out_channels_2;13;[V f, U (1, f), U (14, y), U (3, h), T (32, c), Hoist_vars [c], T (28, x),  T (3, w), T (4, c), T (1, f), T (4, y), T (2, x), T (4, f), T (2, f)];16.954445838928223
5;MobilNet_3;1.0133519;0.008338044764211794;2;axe_yy1_0,axe_xx1_0,axe_out_channels1_0;11;[V f, U (4, f), ULambda y, U (3, w), T (128, c), Hoist_vars [c], T (28, x),  T (3, h), T (1, c), T (2, f), T (2, x),  Lambda_apply y [((Iter 7), (Arg 4)), ((Iter 4), (Arg 7))]];19.257160186767578
6;MobilNet_3;0.38182370000000004;0.003615147743868834;2;axe_out_channels1_0,axe_out_channels1_1,axe_xx1_0,axe_yy1_0,axe_out_channels1_2;69;[V f, U (1, f), ULambda y, U (3, h), T (64, c), Hoist_vars [c], T (1, x),  T (3, w), T (2, c), T (1, f),  Lambda_apply y [((Iter 3), (Arg 10)), ((Iter 2), (Arg 13))], T (56, x),  T (8, f), T (1, f)];21.488868951797485
7;MobilNet_3;0.7589368000000001;0.013072735565290074;2;axe_out_channels1_0,axe_out_channels1_1,axe_xx1_0,axe_yy1_0,axe_out_channels1_2;10;[V f, U (1, f), ULambda y, U (3, h), T (32, c), Hoist_vars [c], T (28, x),  T (3, w), T (4, c), T (2, f),  Lambda_apply y [((Iter 2), (Arg 10)), ((Iter 3), (Arg 12))], T (2, x),  T (2, f), T (2, f)];23.847277402877808
8;MobilNet_3;1.096965;0.014512508962960188;2;axe_xx1_0,axe_yy1_0,axe_xx1_1,axe_out_channels1_0;12;[V f, U (2, f), ULambda y, T (32, c), Hoist_vars [c], T (3, h), T (14, x),  T (3, w), T (4, c), T (4, f), T (1, x),  Lambda_apply y [((Iter 3), (Arg 10)), ((Iter 2), (Arg 13))], T (4, x)];26.12502956390381
9;MobilNet_3;0.6439010000000001;0.011887170723094706;1;axe_xx_0,axe_yy_0,axe_xx_1,axe_out_channels_0;14;[V f, U (2, f), U (8, y), T (32, c), Hoist_vars [c], T (3, h), T (28, x),  T (3, w), T (4, c), T (4, f), T (2, x), T (7, y), T (1, x)];27.914251804351807
10;MobilNet_3;1.9010661;0.006083529936640408;2;axe_yy1_0,axe_xx1_0,axe_out_channels1_0;10;[V f, U (4, f), ULambda y, U (3, w), T (128, c), Hoist_vars [c], T (56, x),  T (3, h), T (1, c), T (2, f), T (1, x),  Lambda_apply y [((Iter 7), (Arg 6)), ((Iter 2), (Arg 7))]];30.366140127182007
11;MobilNet_3;0.9431683;0.0025227265428500317;2;axe_xx1_0,axe_yy1_0,axe_xx1_1,axe_out_channels1_0;14;[V f, U (2, f), ULambda y, T (32, c), Hoist_vars [c], T (3, h), T (14, x),  T (3, w), T (4, c), T (4, f), T (4, x),  Lambda_apply y [((Iter 5), (Arg 9)), ((Iter 1), (Arg 11))], T (1, x)];32.61301779747009
12;MobilNet_3;0.7928016;0.007019223734858428;2;axe_out_channels1_0,axe_out_channels1_1,axe_xx1_0,axe_yy1_0,axe_out_channels1_2;13;[V f, U (1, f), ULambda y, U (3, h), T (32, c), Hoist_vars [c], T (28, x),  T (3, w), T (4, c), T (2, f),  Lambda_apply y [((Iter 4), (Arg 11)), ((Iter 1), (Arg 12))], T (2, x),  T (1, f), T (4, f)];34.88670039176941
13;MobilNet_3;0.9323682;0.028220226451253026;1;axe_xx_0,axe_yy_0,axe_xx_1,axe_out_channels_0;13;[V f, U (2, f), U (14, y), T (16, c), Hoist_vars [c], T (3, h), T (14, x),  T (3, w), T (8, c), T (4, f), T (4, x), T (4, y), T (1, x)];36.70988178253174
14;MobilNet_3;0.5945117000000001;0.0178505169843901;1;axe_out_channels_0,axe_out_channels_1,axe_xx_0,axe_yy_0,axe_out_channels_2;12;[V f, U (1, f), U (14, y), U (3, h), T (16, c), Hoist_vars [c], T (28, x),  T (3, w), T (8, c), T (2, f), T (4, y), T (2, x), T (2, f), T (2, f)];38.5754508972168
15;MobilNet_3;1.1128780999999999;0.021031367513549858;2;axe_xx1_0,axe_yy1_0,axe_xx1_1,axe_out_channels1_0;12;[V f, U (2, f), ULambda y, U (3, h), T (32, c), Hoist_vars [c], T (14, x),  T (3, w), T (4, c), T (4, f), T (2, x),  Lambda_apply y [((Iter 4), (Arg 11)), ((Iter 1), (Arg 12))], T (2, x)];40.872344970703125
16;MobilNet_3;1.0628036;0.011414551048552038;2;axe_xx1_0,axe_yy1_0,axe_xx1_1,axe_out_channels1_0;13;[V f, U (2, f), ULambda y, T (32, c), Hoist_vars [c], T (3, h), T (14, x),  T (3, w), T (4, c), T (4, f), T (1, x),  Lambda_apply y [((Iter 4), (Arg 11)), ((Iter 1), (Arg 12))], T (4, x)];43.12316155433655
17;MobilNet_3;0.8146163999999999;0.02297968198300401;1;axe_xx_0,axe_yy_0,axe_xx_1,axe_out_channels_0;14;[V f, U (2, f), U (8, y), T (16, c), Hoist_vars [c], T (3, h), T (28, x),  T (3, w), T (8, c), T (4, f), T (2, x), T (7, y), T (1, x)];44.929322719573975
18;MobilNet_3;0.8856966999999999;0.01456390763531545;2;axe_out_channels1_0,axe_out_channels1_1,axe_xx1_0,axe_yy1_0,axe_out_channels1_2;14;[V f, U (1, f), ULambda y, U (3, h), T (32, c), Hoist_vars [c], T (28, x),  T (3, w), T (4, c), T (8, f),  Lambda_apply y [((Iter 2), (Arg 10)), ((Iter 3), (Arg 12))], T (2, x),  T (1, f), T (1, f)];47.18316292762756
19;MobilNet_3;0.48831410000000003;0.007329310055523645;1;axe_xx_0,axe_yy_0,axe_xx_1,axe_out_channels_0;16;[V f, U (2, f), U (8, y), T (32, c), Hoist_vars [c], T (3, h), T (14, x),  T (3, w), T (4, c), T (4, f), T (1, x), T (7, y), T (4, x)];48.96012997627258
20;MobilNet_3;0.9317331;0.02183489811036451;2;axe_out_channels1_0,axe_out_channels1_1,axe_xx1_0,axe_yy1_0,axe_out_channels1_2;14;[V f, U (1, f), ULambda y, U (3, h), T (32, c), Hoist_vars [c], T (28, x),  T (3, w), T (4, c), T (1, f),  Lambda_apply y [((Iter 2), (Arg 10)), ((Iter 3), (Arg 12))], T (2, x),  T (1, f), T (8, f)];51.21706223487854
21;MobilNet_3;0.7865028000000001;0.010401250105636346;2;axe_out_channels1_0,axe_out_channels1_1,axe_xx1_0,axe_yy1_0,axe_out_channels1_2;13;[V f, U (1, f), ULambda y, U (3, h), T (32, c), Hoist_vars [c], T (28, x),  T (3, w), T (4, c), T (1, f),  Lambda_apply y [((Iter 4), (Arg 11)), ((Iter 1), (Arg 12))], T (2, x),  T (2, f), T (4, f)];53.49152612686157
22;MobilNet_3;0.5102144000000001;0.024970477833633858;1;axe_xx_0,axe_yy_0,axe_xx_1,axe_out_channels_0;16;[V f, U (2, f), U (8, y), T (16, c), Hoist_vars [c], T (3, h), T (14, x),  T (3, w), T (8, c), T (4, f), T (4, x), T (7, y), T (1, x)];55.311376333236694
23;MobilNet_3;0.44213070000000004;0.003834912255841071;1;axe_xx_0,axe_yy_0,axe_xx_1,axe_out_channels_0;16;[V f, U (2, f), U (14, y), T (32, c), Hoist_vars [c], T (3, h), T (8, x),  T (3, w), T (4, c), T (4, f), T (1, x), T (4, y), T (7, x)];57.127968549728394
24;MobilNet_3;0.9018447;0.011222791952540187;2;axe_out_channels1_0,axe_out_channels1_1,axe_xx1_0,axe_yy1_0,axe_out_channels1_2;13;[V f, U (1, f), ULambda y, U (3, h), T (32, c), Hoist_vars [c], T (28, x),  T (3, w), T (4, c), T (4, f),  Lambda_apply y [((Iter 4), (Arg 11)), ((Iter 1), (Arg 12))], T (2, x),  T (2, f), T (1, f)];59.37903666496277
25;MobilNet_3;1.2149183;0.03008238240914438;1;axe_xx_0,axe_yy_0,axe_xx_1,axe_out_channels_0;11;[V f, U (2, f), U (14, y), T (16, c), Hoist_vars [c], T (3, h), T (28, x),  T (3, w), T (8, c), T (4, f), T (2, x), T (4, y), T (1, x)];61.243786573410034
26;MobilNet_3;0.3835712;0.00998900258083858;2;axe_out_channels1_0,axe_out_channels1_1,axe_xx1_0,axe_yy1_0,axe_out_channels1_2;66;[V f, U (1, f), ULambda y, U (3, h), T (32, c), Hoist_vars [c], T (1, x),  T (3, w), T (4, c), T (1, f),  Lambda_apply y [((Iter 3), (Arg 10)), ((Iter 2), (Arg 13))], T (56, x),  T (4, f), T (2, f)];63.465728521347046
27;MobilNet_3;0.9250294;0.0040718253940953825;2;axe_xx1_0,axe_yy1_0,axe_xx1_1,axe_out_channels1_0;14;[V f, U (2, f), ULambda y, T (32, c), Hoist_vars [c], T (3, h), T (14, x),  T (3, w), T (4, c), T (4, f), T (1, x),  Lambda_apply y [((Iter 5), (Arg 9)), ((Iter 1), (Arg 11))], T (4, x)];65.70699906349182
28;MobilNet_3;0.32286950000000003;0.002348635784875982;1;axe_out_channels_0,axe_out_channels_1,axe_xx_0,axe_yy_0,axe_out_channels_2;28;[V f, U (1, f), U (14, y), U (3, h), T (128, c), Hoist_vars [c], T (4, x),  T (3, w), T (1, c), T (1, f), T (4, y), T (14, x), T (8, f), T (1, f)];67.55810952186584
29;MobilNet_3;0.9149088000000001;0.021333606824913604;2;axe_out_channels1_0,axe_out_channels1_1,axe_xx1_0,axe_yy1_0,axe_out_channels1_2;11;[V f, U (1, f), ULambda y, U (3, h), T (32, c), Hoist_vars [c], T (28, x),  T (3, w), T (4, c), T (1, f),  Lambda_apply y [((Iter 2), (Arg 10)), ((Iter 3), (Arg 12))], T (2, x),  T (4, f), T (2, f)];69.84581255912781
30;MobilNet_3;0.8751251;0.028314261796663544;1;axe_yy_0,axe_xx_0,axe_out_channels_0;17;[V f, U (4, f), U (4, y), U (3, w), T (32, c), Hoist_vars [c], T (56, x),  T (3, h), T (4, c), T (2, f), T (1, x), T (14, y)];71.70194745063782
31;MobilNet_3;0.8757963;0.0076065942451270544;2;axe_out_channels1_0,axe_out_channels1_1,axe_xx1_0,axe_yy1_0,axe_out_channels1_2;13;[V f, U (1, f), ULambda y, U (3, h), T (32, c), Hoist_vars [c], T (28, x),  T (3, w), T (4, c), T (2, f),  Lambda_apply y [((Iter 5), (Arg 9)), ((Iter 1), (Arg 11))], T (2, x),  T (2, f), T (2, f)];73.93116044998169
32;MobilNet_3;0.7553738999999999;0.016730010486846667;2;axe_out_channels1_0,axe_out_channels1_1,axe_xx1_0,axe_yy1_0,axe_out_channels1_2;11;[V f, U (1, f), ULambda y, U (3, h), T (32, c), Hoist_vars [c], T (28, x),  T (3, w), T (4, c), T (2, f),  Lambda_apply y [((Iter 3), (Arg 10)), ((Iter 2), (Arg 13))], T (2, x),  T (2, f), T (2, f)];76.20757627487183
33;MobilNet_3;0.8697509;0.011306543463410916;2;axe_out_channels1_0,axe_out_channels1_1,axe_xx1_0,axe_yy1_0,axe_out_channels1_2;12;[V f, U (1, f), ULambda y, U (3, h), T (32, c), Hoist_vars [c], T (28, x),  T (3, w), T (4, c), T (1, f),  Lambda_apply y [((Iter 3), (Arg 10)), ((Iter 2), (Arg 13))], T (2, x),  T (2, f), T (4, f)];78.5465042591095
34;MobilNet_3;0.6390828;0.013432966208548247;1;axe_out_channels_0,axe_out_channels_1,axe_xx_0,axe_yy_0,axe_out_channels_2;16;[V f, U (1, f), U (14, y), U (3, h), T (16, c), Hoist_vars [c], T (28, x),  T (3, w), T (8, c), T (1, f), T (4, y), T (2, x), T (8, f), T (1, f)];80.35632729530334
35;MobilNet_3;0.39207169999999997;0.01375578907260503;2;axe_out_channels1_0,axe_out_channels1_1,axe_xx1_0,axe_yy1_0,axe_out_channels1_2;69;[V f, U (1, f), ULambda y, U (3, h), T (32, c), Hoist_vars [c], T (1, x),  T (3, w), T (4, c), T (1, f),  Lambda_apply y [((Iter 3), (Arg 10)), ((Iter 2), (Arg 13))], T (56, x),  T (1, f), T (8, f)];82.55810022354126
36;MobilNet_3;0.9336191000000001;0.02320515642028727;2;axe_out_channels1_0,axe_out_channels1_1,axe_xx1_0,axe_yy1_0,axe_out_channels1_2;14;[V f, U (1, f), ULambda y, U (3, h), T (32, c), Hoist_vars [c], T (28, x),  T (3, w), T (4, c), T (1, f),  Lambda_apply y [((Iter 2), (Arg 10)), ((Iter 3), (Arg 12))], T (2, x),  T (8, f), T (1, f)];84.83497595787048
37;MobilNet_3;1.0816071;0.034649029205592485;2;axe_xx1_0,axe_yy1_0,axe_xx1_1,axe_out_channels1_0;10;[V f, U (2, f), ULambda y, U (3, h), T (32, c), Hoist_vars [c], T (14, x),  T (3, w), T (4, c), T (4, f), T (2, x),  Lambda_apply y [((Iter 2), (Arg 10)), ((Iter 3), (Arg 12))], T (2, x)];87.13960528373718
38;MobilNet_3;0.9252641999999998;0.04470177436702037;2;axe_out_channels1_0,axe_out_channels1_1,axe_xx1_0,axe_yy1_0,axe_out_channels1_2;14;[V f, U (1, f), ULambda y, U (3, h), T (32, c), Hoist_vars [c], T (28, x),  T (3, w), T (4, c), T (4, f),  Lambda_apply y [((Iter 5), (Arg 9)), ((Iter 1), (Arg 11))], T (2, x),  T (1, f), T (2, f)];89.40118169784546
39;MobilNet_3;0.8949137;0.025754797797886156;2;axe_out_channels1_0,axe_out_channels1_1,axe_xx1_0,axe_yy1_0,axe_out_channels1_2;11;[V f, U (1, f), ULambda y, U (3, h), T (32, c), Hoist_vars [c], T (28, x),  T (3, w), T (4, c), T (4, f),  Lambda_apply y [((Iter 2), (Arg 10)), ((Iter 3), (Arg 12))], T (2, x),  T (1, f), T (2, f)];91.66611361503601
40;MobilNet_3;1.0151545;0.007889026229516496;2;axe_xx1_0,axe_yy1_0,axe_xx1_1,axe_out_channels1_0;13;[V f, U (2, f), ULambda y, T (32, c), Hoist_vars [c], T (3, h), T (14, x),  T (3, w), T (4, c), T (4, f), T (4, x),  Lambda_apply y [((Iter 4), (Arg 11)), ((Iter 1), (Arg 12))], T (1, x)];93.90763998031616
41;MobilNet_3;1.0763962;0.010569937803033636;2;axe_xx1_0,axe_yy1_0,axe_xx1_1,axe_out_channels1_0;11;[V f, U (2, f), ULambda y, T (32, c), Hoist_vars [c], T (3, h), T (14, x),  T (3, w), T (4, c), T (4, f), T (4, x),  Lambda_apply y [((Iter 2), (Arg 10)), ((Iter 3), (Arg 12))], T (1, x)];96.18415117263794
42;MobilNet_3;0.8944175999999999;0.029119077146091035;2;axe_out_channels1_0,axe_out_channels1_1,axe_xx1_0,axe_yy1_0,axe_out_channels1_2;14;[V f, U (1, f), ULambda y, U (3, h), T (32, c), Hoist_vars [c], T (28, x),  T (3, w), T (4, c), T (2, f),  Lambda_apply y [((Iter 5), (Arg 9)), ((Iter 1), (Arg 11))], T (2, x),  T (1, f), T (4, f)];98.4451003074646
43;MobilNet_3;0.47576529999999995;0.005076849969223036;1;axe_out_channels_0,axe_out_channels_1,axe_xx_0,axe_yy_0,axe_out_channels_2;15;[V f, U (1, f), U (14, y), U (3, h), T (32, c), Hoist_vars [c], T (14, x),  T (3, w), T (4, c), T (4, f), T (4, y), T (4, x), T (1, f), T (2, f)];100.24231362342834
44;MobilNet_3;0.7914833;0.00905963977263999;2;axe_out_channels1_0,axe_out_channels1_1,axe_xx1_0,axe_yy1_0,axe_out_channels1_2;13;[V f, U (1, f), ULambda y, U (3, h), T (32, c), Hoist_vars [c], T (28, x),  T (3, w), T (4, c), T (1, f),  Lambda_apply y [((Iter 4), (Arg 11)), ((Iter 1), (Arg 12))], T (2, x),  T (4, f), T (2, f)];102.505202293396
45;MobilNet_3;0.42204379999999997;0.004116135901546497;1;axe_yy_0,axe_xx_0,axe_out_channels_0;18;[V f, U (4, f), U (4, y), U (3, w), T (128, c), Hoist_vars [c], T (28, x),  T (3, h), T (1, c), T (2, f), T (2, x), T (14, y)];104.3073320388794
46;MobilNet_3;1.7657688;0.00462432485450579;2;axe_yy1_0,axe_xx1_0,axe_out_channels1_0;10;[V f, U (4, f), ULambda y, U (3, w), T (128, c), Hoist_vars [c], T (56, x),  T (3, h), T (1, c), T (2, f), T (1, x),  Lambda_apply y [((Iter 7), (Arg 4)), ((Iter 4), (Arg 7))]];106.72026634216309
47;MobilNet_3;0.5105913;0.02782045600291267;1;axe_out_channels_0,axe_out_channels_1,axe_xx_0,axe_yy_0,axe_out_channels_2;15;[V f, U (1, f), U (14, y), U (3, h), T (16, c), Hoist_vars [c], T (56, x),  T (3, w), T (8, c), T (1, f), T (4, y), T (1, x), T (8, f), T (1, f)];108.61310839653015
48;MobilNet_3;0.7121368;0.007582166811670675;1;axe_out_channels_0,axe_out_channels_1,axe_xx_0,axe_yy_0,axe_out_channels_2;18;[V f, U (1, f), U (14, y), U (3, h), T (32, c), Hoist_vars [c], T (14, x),  T (3, w), T (4, c), T (1, f), T (4, y), T (4, x), T (8, f), T (1, f)];110.41357398033142
49;MobilNet_3;0.8465290999999999;0.030910581924156657;1;axe_xx_0,axe_yy_0,axe_xx_1,axe_out_channels_0;14;[V f, U (2, f), U (8, y), T (16, c), Hoist_vars [c], T (3, h), T (28, x),  T (3, w), T (8, c), T (4, f), T (1, x), T (7, y), T (2, x)];112.20505547523499
50;MobilNet_3;1.8077979;0.0052873897425856665;2;axe_yy1_0,axe_xx1_0,axe_out_channels1_0;10;[V f, U (4, f), ULambda y, U (3, w), T (128, c), Hoist_vars [c], T (56, x),  T (3, h), T (1, c), T (2, f), T (1, x),  Lambda_apply y [((Iter 7), (Arg 5)), ((Iter 3), (Arg 7))]];114.62320137023926
51;MobilNet_3;1.0901291;0.02420844694915391;2;axe_xx1_0,axe_yy1_0,axe_xx1_1,axe_out_channels1_0;11;[V f, U (2, f), ULambda y, U (3, h), T (32, c), Hoist_vars [c], T (14, x),  T (3, w), T (4, c), T (4, f), T (1, x),  Lambda_apply y [((Iter 2), (Arg 10)), ((Iter 3), (Arg 12))], T (4, x)];116.90603876113892
52;MobilNet_3;0.6357419;0.016149602220797882;1;axe_xx_0,axe_yy_0,axe_xx_1,axe_out_channels_0;14;[V f, U (2, f), U (8, y), T (32, c), Hoist_vars [c], T (3, h), T (28, x),  T (3, w), T (4, c), T (4, f), T (1, x), T (7, y), T (2, x)];118.7047438621521
53;MobilNet_3;1.4323048;0.006279373452821568;1;axe_yy_0,axe_xx_0,axe_out_channels_0;11;[V f, U (4, f), U (7, y), U (3, w), T (128, c), Hoist_vars [c], T (56, x),  T (3, h), T (1, c), T (2, f), T (1, x), T (8, y)];120.64114928245544
54;MobilNet_3;0.885211;0.004679649153515678;1;axe_out_channels_0,axe_out_channels_1,axe_xx_0,axe_yy_0,axe_out_channels_2;18;[V f, U (1, f), U (14, y), U (3, h), T (16, c), Hoist_vars [c], T (14, x),  T (3, w), T (8, c), T (1, f), T (4, y), T (4, x), T (8, f), T (1, f)];122.42710971832275
55;MobilNet_3;0.4969152;0.005460605054387263;1;axe_out_channels_0,axe_out_channels_1,axe_xx_0,axe_yy_0,axe_out_channels_2;12;[V f, U (1, f), U (14, y), U (3, h), T (32, c), Hoist_vars [c], T (28, x),  T (3, w), T (4, c), T (2, f), T (4, y), T (2, x), T (2, f), T (2, f)];124.23786401748657
56;MobilNet_3;0.7505805;0.01643202354702548;2;axe_out_channels1_0,axe_out_channels1_1,axe_xx1_0,axe_yy1_0,axe_out_channels1_2;11;[V f, U (1, f), ULambda y, U (3, h), T (32, c), Hoist_vars [c], T (28, x),  T (3, w), T (4, c), T (2, f),  Lambda_apply y [((Iter 2), (Arg 10)), ((Iter 3), (Arg 12))], T (2, x),  T (1, f), T (4, f)];126.50255560874939
57;MobilNet_3;0.7894743;0.016999797628501352;1;axe_out_channels_0,axe_out_channels_1,axe_xx_0,axe_yy_0,axe_out_channels_2;13;[V f, U (1, f), U (14, y), U (3, h), T (16, c), Hoist_vars [c], T (28, x),  T (3, w), T (8, c), T (4, f), T (4, y), T (2, x), T (1, f), T (2, f)];128.33364248275757
58;MobilNet_3;1.3339118;0.014313724852741896;1;axe_yy_0,axe_xx_0,axe_out_channels_0;12;[V f, U (4, f), U (7, y), U (3, h), T (16, c), Hoist_vars [c], T (28, x),  T (3, w), T (8, c), T (2, f), T (2, x), T (8, y)];130.20909786224365
59;MobilNet_3;0.6099041;0.014367209314616405;1;axe_out_channels_0,axe_out_channels_1,axe_xx_0,axe_yy_0,axe_out_channels_2;11;[V f, U (1, f), U (14, y), U (3, h), T (16, c), Hoist_vars [c], T (56, x),  T (3, w), T (8, c), T (2, f), T (4, y), T (1, x), T (2, f), T (2, f)];132.07655835151672
60;MobilNet_3;0.8926257;0.002706833502452635;1;axe_out_channels_0,axe_out_channels_1,axe_xx_0,axe_yy_0,axe_out_channels_2;18;[V f, U (1, f), U (14, y), U (3, h), T (16, c), Hoist_vars [c], T (14, x),  T (3, w), T (8, c), T (1, f), T (4, y), T (4, x), T (1, f), T (8, f)];133.8846173286438
61;MobilNet_3;1.3504715;0.014093882795383298;2;axe_xx1_0,axe_yy1_0,axe_xx1_1,axe_out_channels1_0;12;[V f, U (2, f), ULambda y, U (3, h), T (32, c), Hoist_vars [c], T (28, x),  T (3, w), T (4, c), T (4, f), T (1, x),  Lambda_apply y [((Iter 5), (Arg 9)), ((Iter 1), (Arg 11))], T (2, x)];136.1755073070526
62;MobilNet_3;0.6013817;0.0074294426177203875;1;axe_out_channels_0,axe_out_channels_1,axe_xx_0,axe_yy_0,axe_out_channels_2;13;[V f, U (1, f), U (14, y), U (3, h), T (16, c), Hoist_vars [c], T (28, x),  T (3, w), T (8, c), T (2, f), T (4, y), T (2, x), T (4, f), T (1, f)];137.99747347831726
63;MobilNet_3;0.7064524999999999;0.004806926382835506;1;axe_out_channels_0,axe_out_channels_1,axe_xx_0,axe_yy_0,axe_out_channels_2;15;[V f, U (1, f), U (14, y), U (3, h), T (32, c), Hoist_vars [c], T (14, x),  T (3, w), T (4, c), T (1, f), T (4, y), T (4, x), T (4, f), T (2, f)];139.79726481437683
64;MobilNet_3;0.7727225;0.006091854188176188;2;axe_out_channels1_0,axe_out_channels1_1,axe_xx1_0,axe_yy1_0,axe_out_channels1_2;17;[V f, U (1, f), ULambda y, U (3, h), T (32, c), Hoist_vars [c], T (28, x),  T (3, w), T (4, c), T (1, f),  Lambda_apply y [((Iter 5), (Arg 9)), ((Iter 1), (Arg 11))], T (2, x),  T (8, f), T (1, f)];142.0416328907013
65;MobilNet_3;0.4921679;0.026916885412134894;1;axe_out_channels_0,axe_out_channels_1,axe_xx_0,axe_yy_0,axe_out_channels_2;12;[V f, U (1, f), U (14, y), U (3, h), T (16, c), Hoist_vars [c], T (56, x),  T (3, w), T (8, c), T (1, f), T (4, y), T (1, x), T (2, f), T (4, f)];143.9307577610016
66;MobilNet_3;0.5816901;0.012767195560889637;1;axe_out_channels_0,axe_out_channels_1,axe_xx_0,axe_yy_0,axe_out_channels_2;13;[V f, U (1, f), U (14, y), U (3, h), T (16, c), Hoist_vars [c], T (28, x),  T (3, w), T (8, c), T (2, f), T (4, y), T (2, x), T (1, f), T (4, f)];145.7470464706421
67;MobilNet_3;1.1283135;0.008045816630398743;2;axe_yy1_0,axe_xx1_0,axe_out_channels1_0;11;[V f, U (4, f), ULambda y, U (3, w), T (64, c), Hoist_vars [c], T (28, x),  T (3, h), T (2, c), T (2, f), T (2, x),  Lambda_apply y [((Iter 7), (Arg 4)), ((Iter 4), (Arg 7))]];148.06299090385437
68;MobilNet_3;0.6595028;0.008838105416886559;1;axe_out_channels_0,axe_out_channels_1,axe_xx_0,axe_yy_0,axe_out_channels_2;16;[V f, U (1, f), U (14, y), U (3, h), T (32, c), Hoist_vars [c], T (28, x),  T (3, w), T (4, c), T (8, f), T (4, y), T (2, x), T (1, f), T (1, f)];149.8847541809082
69;MobilNet_3;0.44099189999999994;0.0019149751147208153;1;axe_xx_0,axe_yy_0,axe_xx_1,axe_out_channels_0;16;[V f, U (2, f), U (14, y), T (32, c), Hoist_vars [c], T (3, h), T (8, x),  T (3, w), T (4, c), T (4, f), T (7, x), T (4, y), T (1, x)];151.68143224716187
70;MobilNet_3;0.9287405;0.014446461893834079;2;axe_out_channels1_0,axe_out_channels1_1,axe_xx1_0,axe_yy1_0,axe_out_channels1_2;11;[V f, U (1, f), ULambda y, U (3, h), T (32, c), Hoist_vars [c], T (28, x),  T (3, w), T (4, c), T (1, f),  Lambda_apply y [((Iter 2), (Arg 10)), ((Iter 3), (Arg 12))], T (2, x),  T (2, f), T (4, f)];153.97450590133667
71;MobilNet_3;0.4746726;0.006288123252608842;1;axe_xx_0,axe_yy_0,axe_xx_1,axe_out_channels_0;15;[V f, U (2, f), U (8, y), T (16, c), Hoist_vars [c], T (3, h), T (14, x),  T (3, w), T (8, c), T (4, f), T (2, x), T (7, y), T (2, x)];155.7597427368164
72;MobilNet_3;1.2015272;0.021836129976715142;1;axe_xx_0,axe_yy_0,axe_xx_1,axe_out_channels_0;11;[V f, U (2, f), U (14, y), T (16, c), Hoist_vars [c], T (3, h), T (28, x),  T (3, w), T (8, c), T (4, f), T (1, x), T (4, y), T (2, x)];157.58526587486267
73;MobilNet_3;0.6442647000000001;0.009794998377233145;1;axe_out_channels_0,axe_out_channels_1,axe_xx_0,axe_yy_0,axe_out_channels_2;13;[V f, U (1, f), U (14, y), U (3, h), T (16, c), Hoist_vars [c], T (28, x),  T (3, w), T (8, c), T (1, f), T (4, y), T (2, x), T (2, f), T (4, f)];159.37610697746277
74;MobilNet_3;0.8654576;0.008817108247038826;2;axe_out_channels1_0,axe_out_channels1_1,axe_xx1_0,axe_yy1_0,axe_out_channels1_2;12;[V f, U (1, f), ULambda y, U (3, h), T (32, c), Hoist_vars [c], T (28, x),  T (3, w), T (4, c), T (4, f),  Lambda_apply y [((Iter 3), (Arg 10)), ((Iter 2), (Arg 13))], T (2, x),  T (1, f), T (2, f)];161.64673566818237
75;MobilNet_3;0.7402903000000001;0.005082267211589747;2;axe_out_channels1_0,axe_out_channels1_1,axe_xx1_0,axe_yy1_0,axe_out_channels1_2;11;[V f, U (1, f), ULambda y, U (3, h), T (32, c), Hoist_vars [c], T (28, x),  T (3, w), T (4, c), T (2, f),  Lambda_apply y [((Iter 2), (Arg 10)), ((Iter 3), (Arg 12))], T (2, x),  T (4, f), T (1, f)];163.91687607765198
76;MobilNet_3;0.40583540000000007;0.004447607676043381;1;axe_yy_0,axe_xx_0,axe_out_channels_0;14;[V f, U (4, f), U (7, y), T (32, c), Hoist_vars [c], T (3, h), T (14, x),  T (3, w), T (4, c), T (2, f), T (4, x), T (8, y)];165.8388123512268
77;MobilNet_3;1.2666642000000001;0.012823312105692503;2;axe_xx1_0,axe_yy1_0,axe_xx1_1,axe_out_channels1_0;10;[V f, U (2, f), ULambda y, T (32, c), Hoist_vars [c], T (3, h), T (14, x),  T (3, w), T (4, c), T (4, f), T (4, x),  Lambda_apply y [((Iter 1), (Arg 11)), ((Iter 3), (Arg 15))], T (1, x)];167.80576300621033
78;MobilNet_3;0.6441875999999999;0.03702351104960198;1;axe_out_channels_0,axe_out_channels_1,axe_xx_0,axe_yy_0,axe_out_channels_2;12;[V f, U (1, f), U (14, y), U (3, h), T (16, c), Hoist_vars [c], T (56, x),  T (3, w), T (8, c), T (4, f), T (4, y), T (1, x), T (2, f), T (1, f)];169.72358536720276
79;MobilNet_3;0.5234303;0.0009977339374803353;1;axe_yy_0,axe_xx_0,axe_out_channels_0;14;[V f, U (4, f), U (7, y), U (3, w), T (128, c), Hoist_vars [c], T (14, x),  T (3, h), T (1, c), T (2, f), T (4, x), T (8, y)];171.6871497631073
80;MobilNet_3;1.120928;0.01675007352819678;2;axe_xx1_0,axe_yy1_0,axe_xx1_1,axe_out_channels1_0;13;[V f, U (2, f), ULambda y, U (3, h), T (32, c), Hoist_vars [c], T (14, x),  T (3, w), T (4, c), T (4, f), T (1, x),  Lambda_apply y [((Iter 4), (Arg 11)), ((Iter 1), (Arg 12))], T (4, x)];173.9487006664276
81;MobilNet_3;0.7062919999999999;0.0048025651895627465;1;axe_out_channels_0,axe_out_channels_1,axe_xx_0,axe_yy_0,axe_out_channels_2;15;[V f, U (1, f), U (14, y), U (3, h), T (32, c), Hoist_vars [c], T (14, x),  T (3, w), T (4, c), T (1, f), T (4, y), T (4, x), T (2, f), T (4, f)];175.75617718696594
82;MobilNet_3;0.6164023000000001;0.01992177875617535;1;axe_out_channels_0,axe_out_channels_1,axe_xx_0,axe_yy_0,axe_out_channels_2;12;[V f, U (1, f), U (14, y), U (3, h), T (16, c), Hoist_vars [c], T (56, x),  T (3, w), T (8, c), T (2, f), T (4, y), T (1, x), T (4, f), T (1, f)];177.62493324279785
83;MobilNet_3;1.0110836;0.009560544871501812;1;axe_yy_0,axe_xx_0,axe_out_channels_0;12;[V f, U (4, f), U (7, y), U (3, w), T (32, c), Hoist_vars [c], T (28, x),  T (3, h), T (4, c), T (2, f), T (2, x), T (8, y)];179.51648235321045
84;MobilNet_3;0.8965297;0.03289450116068033;2;axe_out_channels1_0,axe_out_channels1_1,axe_xx1_0,axe_yy1_0,axe_out_channels1_2;15;[V f, U (1, f), ULambda y, U (3, h), T (32, c), Hoist_vars [c], T (28, x),  T (3, w), T (4, c), T (1, f),  Lambda_apply y [((Iter 3), (Arg 10)), ((Iter 2), (Arg 13))], T (2, x),  T (1, f), T (8, f)];181.79396319389343
85;MobilNet_3;1.0282092999999999;0.006321366735920272;2;axe_yy1_0,axe_xx1_0,axe_out_channels1_0;11;[V f, U (4, f), ULambda y, U (3, w), T (128, c), Hoist_vars [c], T (28, x),  T (3, h), T (1, c), T (2, f), T (2, x),  Lambda_apply y [((Iter 7), (Arg 6)), ((Iter 2), (Arg 7))]];184.1238968372345
86;MobilNet_3;1.1685756;0.012261588397919748;2;axe_xx1_0,axe_yy1_0,axe_xx1_1,axe_out_channels1_0;12;[V f, U (2, f), ULambda y, T (32, c), Hoist_vars [c], T (3, h), T (14, x),  T (3, w), T (4, c), T (4, f), T (4, x),  Lambda_apply y [((Iter 3), (Arg 10)), ((Iter 2), (Arg 13))], T (1, x)];186.39690446853638
87;MobilNet_3;0.32374949999999997;0.0015012435678463242;1;axe_out_channels_0,axe_out_channels_1,axe_xx_0,axe_yy_0,axe_out_channels_2;25;[V f, U (1, f), U (14, y), U (3, h), T (128, c), Hoist_vars [c], T (4, x),  T (3, w), T (1, c), T (1, f), T (4, y), T (14, x), T (2, f), T (4, f)];188.2373504638672
88;MobilNet_3;0.8765276;0.02318000536755762;2;axe_out_channels1_0,axe_out_channels1_1,axe_xx1_0,axe_yy1_0,axe_out_channels1_2;11;[V f, U (1, f), ULambda y, U (3, h), T (32, c), Hoist_vars [c], T (28, x),  T (3, w), T (4, c), T (4, f),  Lambda_apply y [((Iter 2), (Arg 10)), ((Iter 3), (Arg 12))], T (2, x),  T (2, f), T (1, f)];190.49873900413513
89;MobilNet_3;0.708732;0.002954204901492117;1;axe_out_channels_0,axe_out_channels_1,axe_xx_0,axe_yy_0,axe_out_channels_2;18;[V f, U (1, f), U (14, y), U (3, h), T (32, c), Hoist_vars [c], T (14, x),  T (3, w), T (4, c), T (1, f), T (4, y), T (4, x), T (1, f), T (8, f)];192.2879180908203
90;MobilNet_3;0.44210099999999997;0.0052759553258154;1;axe_xx_0,axe_yy_0,axe_xx_1,axe_out_channels_0;15;[V f, U (2, f), U (8, y), T (32, c), Hoist_vars [c], T (3, h), T (14, x),  T (3, w), T (4, c), T (4, f), T (2, x), T (7, y), T (2, x)];194.0578269958496
91;MobilNet_3;0.938902;0.022834752413809983;2;axe_xx1_0,axe_yy1_0,axe_xx1_1,axe_out_channels1_0;13;[V f, U (2, f), ULambda y, U (3, h), T (32, c), Hoist_vars [c], T (14, x),  T (3, w), T (4, c), T (4, f), T (2, x),  Lambda_apply y [((Iter 5), (Arg 9)), ((Iter 1), (Arg 11))], T (2, x)];196.28501749038696
92;MobilNet_3;0.5836566999999999;0.0017265646266502851;1;axe_yy_0,axe_xx_0,axe_out_channels_0;14;[V f, U (4, f), U (7, y), U (3, w), T (32, c), Hoist_vars [c], T (14, x),  T (3, h), T (4, c), T (2, f), T (4, x), T (8, y)];198.23983645439148
93;MobilNet_3;0.6383434999999998;0.029323458555395553;1;axe_out_channels_0,axe_out_channels_1,axe_xx_0,axe_yy_0,axe_out_channels_2;15;[V f, U (1, f), U (14, y), U (3, h), T (16, c), Hoist_vars [c], T (56, x),  T (3, w), T (8, c), T (8, f), T (4, y), T (1, x), T (1, f), T (1, f)];200.0949559211731
94;MobilNet_3;0.886666;0.015537469394981933;1;axe_xx_0,axe_yy_0,axe_xx_1,axe_out_channels_0;13;[V f, U (2, f), U (14, y), T (16, c), Hoist_vars [c], T (3, h), T (14, x),  T (3, w), T (8, c), T (4, f), T (1, x), T (4, y), T (4, x)];201.89830017089844
95;MobilNet_3;0.3888531;0.015582311545146322;2;axe_out_channels1_0,axe_out_channels1_1,axe_xx1_0,axe_yy1_0,axe_out_channels1_2;69;[V f, U (1, f), ULambda y, U (3, h), T (32, c), Hoist_vars [c], T (1, x),  T (3, w), T (4, c), T (1, f),  Lambda_apply y [((Iter 3), (Arg 10)), ((Iter 2), (Arg 13))], T (56, x),  T (8, f), T (1, f)];204.07112073898315
96;MobilNet_3;0.8931492000000001;0.005965522253751133;1;axe_out_channels_0,axe_out_channels_1,axe_xx_0,axe_yy_0,axe_out_channels_2;15;[V f, U (1, f), U (14, y), U (3, h), T (16, c), Hoist_vars [c], T (14, x),  T (3, w), T (8, c), T (1, f), T (4, y), T (4, x), T (4, f), T (2, f)];205.86331701278687
97;MobilNet_3;0.6285550000000001;0.008402319132239646;1;axe_out_channels_0,axe_out_channels_1,axe_xx_0,axe_yy_0,axe_out_channels_2;13;[V f, U (1, f), U (14, y), U (3, h), T (16, c), Hoist_vars [c], T (28, x),  T (3, w), T (8, c), T (1, f), T (4, y), T (2, x), T (4, f), T (2, f)];207.6668119430542
98;MobilNet_3;0.6394230000000001;0.013186250164470552;1;axe_out_channels_0,axe_out_channels_1,axe_xx_0,axe_yy_0,axe_out_channels_2;16;[V f, U (1, f), U (14, y), U (3, h), T (16, c), Hoist_vars [c], T (28, x),  T (3, w), T (8, c), T (1, f), T (4, y), T (2, x), T (1, f), T (8, f)];209.47035002708435
99;MobilNet_3;0.5722503999999999;0.00619403686136916;1;axe_out_channels_0,axe_out_channels_1,axe_xx_0,axe_yy_0,axe_out_channels_2;14;[V f, U (1, f), U (14, y), U (3, h), T (32, c), Hoist_vars [c], T (14, x),  T (3, w), T (4, c), T (2, f), T (4, y), T (4, x), T (2, f), T (2, f)];211.24670267105103
100;MobilNet_3;0.6863841;0.017013141341033988;1;axe_xx_0,axe_yy_0,axe_xx_1,axe_out_channels_0;13;[V f, U (2, f), U (14, y), T (32, c), Hoist_vars [c], T (3, h), T (14, x),  T (3, w), T (4, c), T (4, f), T (4, x), T (4, y), T (1, x)];213.01207160949707
101;MobilNet_3;0.32161720000000005;0.0015726385980256218;1;axe_out_channels_0,axe_out_channels_1,axe_xx_0,axe_yy_0,axe_out_channels_2;25;[V f, U (1, f), U (14, y), U (3, h), T (128, c), Hoist_vars [c], T (4, x),  T (3, w), T (1, c), T (1, f), T (4, y), T (14, x), T (4, f), T (2, f)];214.81791925430298
102;MobilNet_3;0.5719679;0.008516541521650699;1;axe_out_channels_0,axe_out_channels_1,axe_xx_0,axe_yy_0,axe_out_channels_2;16;[V f, U (1, f), U (14, y), U (3, h), T (32, c), Hoist_vars [c], T (28, x),  T (3, w), T (4, c), T (1, f), T (4, y), T (2, x), T (8, f), T (1, f)];216.60893058776855
103;MobilNet_3;0.9669360000000001;0.055226170151477974;2;axe_out_channels1_0,axe_out_channels1_1,axe_xx1_0,axe_yy1_0,axe_out_channels1_2;17;[V f, U (1, f), ULambda y, U (3, h), T (32, c), Hoist_vars [c], T (28, x),  T (3, w), T (4, c), T (8, f),  Lambda_apply y [((Iter 5), (Arg 9)), ((Iter 1), (Arg 11))], T (2, x),  T (1, f), T (1, f)];218.81441569328308
104;MobilNet_3;0.9627853;0.005978285691567428;2;axe_yy1_0,axe_xx1_0,axe_out_channels1_0;11;[V f, U (4, f), ULambda y, U (3, w), T (128, c), Hoist_vars [c], T (28, x),  T (3, h), T (1, c), T (2, f), T (2, x),  Lambda_apply y [((Iter 7), (Arg 5)), ((Iter 3), (Arg 7))]];221.0947072505951
105;MobilNet_3;0.5761045;0.02021063037735341;1;axe_out_channels_0,axe_out_channels_1,axe_xx_0,axe_yy_0,axe_out_channels_2;15;[V f, U (1, f), U (14, y), U (3, h), T (16, c), Hoist_vars [c], T (14, x),  T (3, w), T (8, c), T (4, f), T (4, y), T (4, x), T (1, f), T (2, f)];222.84416508674622
106;MobilNet_3;0.9122642000000001;0.04598174979228172;2;axe_out_channels1_0,axe_out_channels1_1,axe_xx1_0,axe_yy1_0,axe_out_channels1_2;12;[V f, U (1, f), ULambda y, U (3, h), T (32, c), Hoist_vars [c], T (28, x),  T (3, w), T (4, c), T (4, f),  Lambda_apply y [((Iter 3), (Arg 10)), ((Iter 2), (Arg 13))], T (2, x),  T (2, f), T (1, f)];225.08485174179077
107;MobilNet_3;1.2856347000000004;0.021406557135840436;2;axe_yy1_0,axe_xx1_0,axe_out_channels1_0;11;[V f, U (4, f), ULambda y, U (3, w), T (64, c), Hoist_vars [c], T (28, x),  T (3, h), T (2, c), T (2, f), T (2, x),  Lambda_apply y [((Iter 7), (Arg 6)), ((Iter 2), (Arg 7))]];227.39398407936096
108;MobilNet_3;1.1945921;0.01993106275365164;2;axe_xx1_0,axe_yy1_0,axe_xx1_1,axe_out_channels1_0;11;[V f, U (2, f), ULambda y, U (3, h), T (32, c), Hoist_vars [c], T (14, x),  T (3, w), T (4, c), T (4, f), T (4, x),  Lambda_apply y [((Iter 2), (Arg 10)), ((Iter 3), (Arg 12))], T (1, x)];229.67968487739563
109;MobilNet_3;0.5125965000000001;0.029940563248709924;1;axe_out_channels_0,axe_out_channels_1,axe_xx_0,axe_yy_0,axe_out_channels_2;15;[V f, U (1, f), U (14, y), U (3, h), T (16, c), Hoist_vars [c], T (56, x),  T (3, w), T (8, c), T (1, f), T (4, y), T (1, x), T (1, f), T (8, f)];231.53082060813904
110;MobilNet_3;0.6285945999999999;0.050871909514387206;1;axe_out_channels_0,axe_out_channels_1,axe_xx_0,axe_yy_0,axe_out_channels_2;18;[V f, U (1, f), U (14, y), U (3, h), T (32, c), Hoist_vars [c], T (14, x),  T (3, w), T (4, c), T (8, f), T (4, y), T (4, x), T (1, f), T (1, f)];233.31350803375244
111;MobilNet_3;0.8023672999999999;0.020164855298513803;1;axe_yy_0,axe_xx_0,axe_out_channels_0;12;[V f, U (4, f), U (7, y), U (3, w), T (64, c), Hoist_vars [c], T (28, x),  T (3, h), T (2, c), T (2, f), T (2, x), T (8, y)];235.14790511131287
112;MobilNet_3;0.44297529999999996;0.003407462899284446;1;axe_out_channels_0,axe_out_channels_1,axe_xx_0,axe_yy_0,axe_out_channels_2;15;[V f, U (1, f), U (14, y), U (3, h), T (64, c), Hoist_vars [c], T (14, x),  T (3, w), T (2, c), T (4, f), T (4, y), T (4, x), T (1, f), T (2, f)];236.90346240997314
113;MobilNet_3;0.4300882;0.005452944668708829;1;axe_yy_0,axe_xx_0,axe_out_channels_0;18;[V f, U (4, f), U (4, y), U (3, w), T (64, c), Hoist_vars [c], T (28, x),  T (3, h), T (2, c), T (2, f), T (2, x), T (14, y)];238.65321350097656
114;MobilNet_3;0.5738143000000001;0.006645166785717288;1;axe_out_channels_0,axe_out_channels_1,axe_xx_0,axe_yy_0,axe_out_channels_2;13;[V f, U (1, f), U (14, y), U (3, h), T (32, c), Hoist_vars [c], T (28, x),  T (3, w), T (4, c), T (1, f), T (4, y), T (2, x), T (2, f), T (4, f)];240.4449553489685
115;MobilNet_3;0.38146610000000003;0.005095625524898778;2;axe_out_channels1_0,axe_out_channels1_1,axe_xx1_0,axe_yy1_0,axe_out_channels1_2;66;[V f, U (1, f), ULambda y, U (3, h), T (64, c), Hoist_vars [c], T (1, x),  T (3, w), T (2, c), T (1, f),  Lambda_apply y [((Iter 3), (Arg 10)), ((Iter 2), (Arg 13))], T (56, x),  T (4, f), T (2, f)];242.65164947509766
116;MobilNet_3;0.4917289;0.030817462528410715;1;axe_out_channels_0,axe_out_channels_1,axe_xx_0,axe_yy_0,axe_out_channels_2;12;[V f, U (1, f), U (14, y), U (3, h), T (16, c), Hoist_vars [c], T (56, x),  T (3, w), T (8, c), T (1, f), T (4, y), T (1, x), T (4, f), T (2, f)];244.49141836166382
117;MobilNet_3;0.7422489999999999;0.024777155123217823;1;axe_xx_0,axe_yy_0,axe_xx_1,axe_out_channels_0;12;[V f, U (2, f), U (14, y), T (32, c), Hoist_vars [c], T (3, h), T (14, x),  T (3, w), T (4, c), T (4, f), T (2, x), T (4, y), T (2, x)];246.24847221374512
118;MobilNet_3;0.7009753;0.022503759552794742;1;axe_out_channels_0,axe_out_channels_1,axe_xx_0,axe_yy_0,axe_out_channels_2;13;[V f, U (1, f), U (14, y), U (3, h), T (32, c), Hoist_vars [c], T (28, x),  T (3, w), T (4, c), T (4, f), T (4, y), T (2, x), T (1, f), T (2, f)];248.02527809143066
119;MobilNet_3;0.5179736;0.005170534715094751;1;axe_out_channels_0,axe_out_channels_1,axe_xx_0,axe_yy_0,axe_out_channels_2;15;[V f, U (1, f), U (14, y), U (3, h), T (64, c), Hoist_vars [c], T (14, x),  T (3, w), T (2, c), T (2, f), T (4, y), T (4, x), T (1, f), T (4, f)];249.80922555923462
120;MobilNet_3;0.5679757;0.003451479249539225;1;axe_out_channels_0,axe_out_channels_1,axe_xx_0,axe_yy_0,axe_out_channels_2;16;[V f, U (1, f), U (14, y), U (3, h), T (32, c), Hoist_vars [c], T (28, x),  T (3, w), T (4, c), T (1, f), T (4, y), T (2, x), T (1, f), T (8, f)];251.5599217414856
121;MobilNet_3;1.2155729;0.015338639329810227;2;axe_xx1_0,axe_yy1_0,axe_xx1_1,axe_out_channels1_0;12;[V f, U (2, f), ULambda y, T (32, c), Hoist_vars [c], T (3, h), T (14, x),  T (3, w), T (4, c), T (4, f), T (2, x),  Lambda_apply y [((Iter 4), (Arg 11)), ((Iter 1), (Arg 12))], T (2, x)];253.752779006958
122;MobilNet_3;0.7427492000000001;0.02944562190818867;1;axe_yy_0,axe_xx_0,axe_out_channels_0;12;[V f, U (4, f), U (7, y), U (3, w), T (128, c), Hoist_vars [c], T (28, x),  T (3, h), T (1, c), T (2, f), T (2, x), T (8, y)];255.5614631175995
123;MobilNet_3;0.7814501;0.0031079319313653013;2;axe_out_channels1_0,axe_out_channels1_1,axe_xx1_0,axe_yy1_0,axe_out_channels1_2;14;[V f, U (1, f), ULambda y, U (3, h), T (32, c), Hoist_vars [c], T (28, x),  T (3, w), T (4, c), T (1, f),  Lambda_apply y [((Iter 5), (Arg 9)), ((Iter 1), (Arg 11))], T (2, x),  T (4, f), T (2, f)];257.76164746284485
124;MobilNet_3;0.7980148999999999;0.06725720057428794;1;axe_xx_0,axe_yy_0,axe_xx_1,axe_out_channels_0;13;[V f, U (2, f), U (8, y), T (16, c), Hoist_vars [c], T (3, h), T (56, x),  T (3, w), T (8, c), T (4, f), T (1, x), T (7, y), T (1, x)];259.5640766620636
125;MobilNet_3;0.5280907;0.00971411286788452;1;axe_yy_0,axe_xx_0,axe_out_channels_0;14;[V f, U (4, f), U (7, y), T (16, c), Hoist_vars [c], T (3, h), T (14, x),  T (3, w), T (8, c), T (2, f), T (4, x), T (8, y)];261.4159803390503
126;MobilNet_3;0.6102288;0.01071300189302701;1;axe_yy_0,axe_xx_0,axe_out_channels_0;14;[V f, U (4, f), U (7, y), U (3, h), T (16, c), Hoist_vars [c], T (14, x),  T (3, w), T (8, c), T (2, f), T (4, x), T (8, y)];263.32825994491577
127;MobilNet_3;0.7905317999999999;0.007026657652113128;2;axe_out_channels1_0,axe_out_channels1_1,axe_xx1_0,axe_yy1_0,axe_out_channels1_2;16;[V f, U (1, f), ULambda y, U (3, h), T (32, c), Hoist_vars [c], T (28, x),  T (3, w), T (4, c), T (1, f),  Lambda_apply y [((Iter 4), (Arg 11)), ((Iter 1), (Arg 12))], T (2, x),  T (8, f), T (1, f)];265.5437114238739
128;MobilNet_3;0.7681848;0.01051986286792752;2;axe_out_channels1_0,axe_out_channels1_1,axe_xx1_0,axe_yy1_0,axe_out_channels1_2;12;[V f, U (1, f), ULambda y, U (3, h), T (32, c), Hoist_vars [c], T (28, x),  T (3, w), T (4, c), T (2, f),  Lambda_apply y [((Iter 3), (Arg 10)), ((Iter 2), (Arg 13))], T (2, x),  T (4, f), T (1, f)];267.7672348022461
129;MobilNet_3;0.6012432999999999;0.002043925637101322;1;axe_out_channels_0,axe_out_channels_1,axe_xx_0,axe_yy_0,axe_out_channels_2;15;[V f, U (1, f), U (14, y), U (3, h), T (32, c), Hoist_vars [c], T (14, x),  T (3, w), T (4, c), T (2, f), T (4, y), T (4, x), T (1, f), T (4, f)];269.5205748081207
130;MobilNet_3;1.200315;0.023132903116556757;2;axe_xx1_0,axe_yy1_0,axe_xx1_1,axe_out_channels1_0;11;[V f, U (2, f), ULambda y, T (32, c), Hoist_vars [c], T (3, h), T (14, x),  T (3, w), T (4, c), T (4, f), T (2, x),  Lambda_apply y [((Iter 3), (Arg 10)), ((Iter 2), (Arg 13))], T (2, x)];271.7657480239868
131;MobilNet_3;0.5084796;0.01253229386185944;1;axe_xx_0,axe_yy_0,axe_xx_1,axe_out_channels_0;16;[V f, U (2, f), U (14, y), T (16, c), Hoist_vars [c], T (3, h), T (8, x),  T (3, w), T (8, c), T (4, f), T (1, x), T (4, y), T (7, x)];273.5132920742035
132;MobilNet_3;0.6318539;0.0021740324031623744;1;axe_out_channels_0,axe_out_channels_1,axe_xx_0,axe_yy_0,axe_out_channels_2;18;[V f, U (1, f), U (14, y), U (3, h), T (64, c), Hoist_vars [c], T (14, x),  T (3, w), T (2, c), T (1, f), T (4, y), T (4, x), T (8, f), T (1, f)];275.2613742351532
133;MobilNet_3;1.2106585;0.015428515056543845;1;axe_yy_0,axe_xx_0,axe_out_channels_0;12;[V f, U (4, f), U (7, y), T (16, c), Hoist_vars [c], T (3, h), T (28, x),  T (3, w), T (8, c), T (2, f), T (2, x), T (8, y)];277.0395975112915
134;MobilNet_3;1.3197950999999999;0.011481208894972682;2;axe_xx1_0,axe_yy1_0,axe_xx1_1,axe_out_channels1_0;9;[V f, U (2, f), ULambda y, T (32, c), Hoist_vars [c], T (3, h), T (14, x),  T (3, w), T (4, c), T (4, f), T (2, x),  Lambda_apply y [((Iter 1), (Arg 11)), ((Iter 3), (Arg 15))], T (2, x)];278.9765295982361
135;MobilNet_3;0.9224336;0.005480727710806306;2;axe_out_channels1_0,axe_out_channels1_1,axe_xx1_0,axe_yy1_0,axe_out_channels1_2;16;[V f, U (1, f), ULambda y, U (3, h), T (32, c), Hoist_vars [c], T (28, x),  T (3, w), T (4, c), T (8, f),  Lambda_apply y [((Iter 4), (Arg 11)), ((Iter 1), (Arg 12))], T (2, x),  T (1, f), T (1, f)];281.181565284729
136;MobilNet_3;0.6163867;0.019212108682026545;1;axe_out_channels_0,axe_out_channels_1,axe_xx_0,axe_yy_0,axe_out_channels_2;12;[V f, U (1, f), U (14, y), U (3, h), T (16, c), Hoist_vars [c], T (56, x),  T (3, w), T (8, c), T (2, f), T (4, y), T (1, x), T (1, f), T (4, f)];282.99986600875854
137;MobilNet_3;0.35905390000000004;0.0011455899309962428;2;axe_out_channels1_0,axe_out_channels1_1,axe_xx1_0,axe_yy1_0,axe_out_channels1_2;66;[V f, U (1, f), ULambda y, U (3, h), T (128, c), Hoist_vars [c], T (1, x),  T (3, w), T (1, c), T (1, f),  Lambda_apply y [((Iter 3), (Arg 10)), ((Iter 2), (Arg 13))], T (56, x),  T (4, f), T (2, f)];285.1659595966339
138;MobilNet_3;0.3596543;0.0016598627081780052;2;axe_out_channels1_0,axe_out_channels1_1,axe_xx1_0,axe_yy1_0,axe_out_channels1_2;69;[V f, U (1, f), ULambda y, U (3, h), T (128, c), Hoist_vars [c], T (1, x),  T (3, w), T (1, c), T (1, f),  Lambda_apply y [((Iter 3), (Arg 10)), ((Iter 2), (Arg 13))], T (56, x),  T (8, f), T (1, f)];287.2957663536072
139;MobilNet_3;0.6291786;0.004634670607497355;1;axe_out_channels_0,axe_out_channels_1,axe_xx_0,axe_yy_0,axe_out_channels_2;18;[V f, U (1, f), U (14, y), U (3, h), T (64, c), Hoist_vars [c], T (14, x),  T (3, w), T (2, c), T (1, f), T (4, y), T (4, x), T (1, f), T (8, f)];289.0499303340912
140;MobilNet_3;0.7836447;0.005943969297531737;2;axe_out_channels1_0,axe_out_channels1_1,axe_xx1_0,axe_yy1_0,axe_out_channels1_2;14;[V f, U (1, f), ULambda y, U (3, h), T (32, c), Hoist_vars [c], T (28, x),  T (3, w), T (4, c), T (1, f),  Lambda_apply y [((Iter 5), (Arg 9)), ((Iter 1), (Arg 11))], T (2, x),  T (2, f), T (4, f)];291.23325061798096
141;MobilNet_3;0.8550951;0.01535872965742934;2;axe_out_channels1_0,axe_out_channels1_1,axe_xx1_0,axe_yy1_0,axe_out_channels1_2;15;[V f, U (1, f), ULambda y, U (3, h), T (32, c), Hoist_vars [c], T (28, x),  T (3, w), T (4, c), T (8, f),  Lambda_apply y [((Iter 3), (Arg 10)), ((Iter 2), (Arg 13))], T (2, x),  T (1, f), T (1, f)];293.4335403442383
142;MobilNet_3;1.1766999;0.008054107044856042;2;axe_yy1_0,axe_xx1_0,axe_out_channels1_0;11;[V f, U (4, f), ULambda y, U (3, w), T (64, c), Hoist_vars [c], T (28, x),  T (3, h), T (2, c), T (2, f), T (2, x),  Lambda_apply y [((Iter 7), (Arg 5)), ((Iter 3), (Arg 7))]];295.69797348976135
143;MobilNet_3;0.9399103;0.007613613689306805;2;axe_xx1_0,axe_yy1_0,axe_xx1_1,axe_out_channels1_0;13;[V f, U (2, f), ULambda y, T (32, c), Hoist_vars [c], T (3, h), T (14, x),  T (3, w), T (4, c), T (4, f), T (2, x),  Lambda_apply y [((Iter 5), (Arg 9)), ((Iter 1), (Arg 11))], T (2, x)];297.87618613243103
144;MobilNet_3;0.5242903;0.005139248953884203;1;axe_out_channels_0,axe_out_channels_1,axe_xx_0,axe_yy_0,axe_out_channels_2;14;[V f, U (1, f), U (14, y), U (3, h), T (64, c), Hoist_vars [c], T (14, x),  T (3, w), T (2, c), T (2, f), T (4, y), T (4, x), T (2, f), T (2, f)];299.62480187416077
145;MobilNet_3;1.1579753000000002;0.020133679117587993;2;axe_xx1_0,axe_yy1_0,axe_xx1_1,axe_out_channels1_0;10;[V f, U (2, f), ULambda y, T (32, c), Hoist_vars [c], T (3, h), T (14, x),  T (3, w), T (4, c), T (4, f), T (2, x),  Lambda_apply y [((Iter 2), (Arg 10)), ((Iter 3), (Arg 12))], T (2, x)];301.82953238487244
146;MobilNet_3;1.3860637;0.013482755712761356;2;axe_xx1_0,axe_yy1_0,axe_xx1_1,axe_out_channels1_0;12;[V f, U (2, f), ULambda y, T (32, c), Hoist_vars [c], T (3, h), T (28, x),  T (3, w), T (4, c), T (4, f), T (2, x),  Lambda_apply y [((Iter 5), (Arg 9)), ((Iter 1), (Arg 11))], T (1, x)];304.04033970832825
147;MobilNet_3;0.7343284999999999;0.010371216334162516;1;axe_out_channels_0,axe_out_channels_1,axe_xx_0,axe_yy_0,axe_out_channels_2;15;[V f, U (1, f), U (14, y), U (3, h), T (16, c), Hoist_vars [c], T (14, x),  T (3, w), T (8, c), T (2, f), T (4, y), T (4, x), T (1, f), T (4, f)];305.79799699783325
148;MobilNet_3;0.7638038999999999;0.010051010152715976;2;axe_out_channels1_0,axe_out_channels1_1,axe_xx1_0,axe_yy1_0,axe_out_channels1_2;12;[V f, U (1, f), ULambda y, U (3, h), T (32, c), Hoist_vars [c], T (28, x),  T (3, w), T (4, c), T (2, f),  Lambda_apply y [((Iter 3), (Arg 10)), ((Iter 2), (Arg 13))], T (2, x),  T (1, f), T (4, f)];308.0094940662384
149;MobilNet_3;0.8628247;0.05067286378339002;1;axe_out_channels_0,axe_out_channels_1,axe_xx_0,axe_yy_0,axe_out_channels_2;18;[V f, U (1, f), U (14, y), U (3, h), T (16, c), Hoist_vars [c], T (14, x),  T (3, w), T (8, c), T (8, f), T (4, y), T (4, x), T (1, f), T (1, f)];309.80825686454773
150;MobilNet_3;0.8497984000000001;0.0082290138194075;2;axe_out_channels1_0,axe_out_channels1_1,axe_xx1_0,axe_yy1_0,axe_out_channels1_2;12;[V f, U (1, f), ULambda y, U (3, h), T (32, c), Hoist_vars [c], T (28, x),  T (3, w), T (4, c), T (1, f),  Lambda_apply y [((Iter 3), (Arg 10)), ((Iter 2), (Arg 13))], T (2, x),  T (4, f), T (2, f)];312.0203902721405
151;MobilNet_3;0.37092590000000003;0.00244525501533071;2;axe_out_channels1_0,axe_out_channels1_1,axe_xx1_0,axe_yy1_0,axe_out_channels1_2;66;[V f, U (1, f), ULambda y, U (3, h), T (64, c), Hoist_vars [c], T (1, x),  T (3, w), T (2, c), T (1, f),  Lambda_apply y [((Iter 3), (Arg 10)), ((Iter 2), (Arg 13))], T (56, x),  T (2, f), T (4, f)];314.19102597236633
152;MobilNet_3;0.4649089;0.014498333265930946;1;axe_yy_0,axe_xx_0,axe_out_channels_0;18;[V f, U (4, f), U (4, y), U (3, w), T (32, c), Hoist_vars [c], T (28, x),  T (3, h), T (4, c), T (2, f), T (2, x), T (14, y)];315.94526529312134
153;MobilNet_3;1.3775650000000002;0.017290235834134846;2;axe_yy1_0,axe_xx1_0,axe_out_channels1_0;11;[V f, U (4, f), ULambda y, U (3, w), T (32, c), Hoist_vars [c], T (28, x),  T (3, h), T (4, c), T (2, f), T (2, x),  Lambda_apply y [((Iter 7), (Arg 4)), ((Iter 4), (Arg 7))]];318.2296073436737
154;MobilNet_3;0.7331897;0.007234096889729902;1;axe_out_channels_0,axe_out_channels_1,axe_xx_0,axe_yy_0,axe_out_channels_2;15;[V f, U (1, f), U (14, y), U (3, h), T (16, c), Hoist_vars [c], T (14, x),  T (3, w), T (8, c), T (2, f), T (4, y), T (4, x), T (4, f), T (1, f)];319.97934913635254
155;MobilNet_3;0.5729766;0.008450853781719348;1;axe_out_channels_0,axe_out_channels_1,axe_xx_0,axe_yy_0,axe_out_channels_2;15;[V f, U (1, f), U (14, y), U (3, h), T (16, c), Hoist_vars [c], T (14, x),  T (3, w), T (8, c), T (4, f), T (4, y), T (4, x), T (2, f), T (1, f)];321.723158121109
156;MobilNet_3;0.359826;0.0016127215506714053;2;axe_out_channels1_0,axe_out_channels1_1,axe_xx1_0,axe_yy1_0,axe_out_channels1_2;66;[V f, U (1, f), ULambda y, U (3, h), T (128, c), Hoist_vars [c], T (1, x),  T (3, w), T (1, c), T (1, f),  Lambda_apply y [((Iter 3), (Arg 10)), ((Iter 2), (Arg 13))], T (56, x),  T (2, f), T (4, f)];323.8680462837219
157;MobilNet_3;0.4378691;0.004346726594806715;1;axe_out_channels_0,axe_out_channels_1,axe_xx_0,axe_yy_0,axe_out_channels_2;15;[V f, U (1, f), U (14, y), U (3, h), T (64, c), Hoist_vars [c], T (14, x),  T (3, w), T (2, c), T (4, f), T (4, y), T (4, x), T (2, f), T (1, f)];325.60693621635437
158;MobilNet_3;0.49067109999999997;0.0053313227711328775;1;axe_out_channels_0,axe_out_channels_1,axe_xx_0,axe_yy_0,axe_out_channels_2;15;[V f, U (1, f), U (14, y), U (3, h), T (32, c), Hoist_vars [c], T (14, x),  T (3, w), T (4, c), T (4, f), T (4, y), T (4, x), T (2, f), T (1, f)];327.33706188201904
159;MobilNet_3;0.8997259;0.003753390372716399;1;axe_out_channels_0,axe_out_channels_1,axe_xx_0,axe_yy_0,axe_out_channels_2;15;[V f, U (1, f), U (14, y), U (3, h), T (16, c), Hoist_vars [c], T (14, x),  T (3, w), T (8, c), T (1, f), T (4, y), T (4, x), T (2, f), T (4, f)];329.09164690971375
160;MobilNet_3;0.6059958000000001;0.018442979975047423;1;axe_xx_0,axe_yy_0,axe_xx_1,axe_out_channels_0;16;[V f, U (2, f), U (8, y), T (16, c), Hoist_vars [c], T (3, h), T (14, x),  T (3, w), T (8, c), T (4, f), T (1, x), T (7, y), T (4, x)];330.80327439308167
161;MobilNet_3;0.6352458000000001;0.00267375731135046;1;axe_out_channels_0,axe_out_channels_1,axe_xx_0,axe_yy_0,axe_out_channels_2;15;[V f, U (1, f), U (14, y), U (3, h), T (64, c), Hoist_vars [c], T (14, x),  T (3, w), T (2, c), T (1, f), T (4, y), T (4, x), T (4, f), T (2, f)];332.5487666130066
162;MobilNet_3;0.8472436;0.02472226386963782;1;axe_out_channels_0,axe_out_channels_1,axe_xx_0,axe_yy_0,axe_out_channels_2;13;[V f, U (1, f), U (14, y), U (3, h), T (16, c), Hoist_vars [c], T (28, x),  T (3, w), T (8, c), T (4, f), T (4, y), T (2, x), T (2, f), T (1, f)];334.3131275177002
163;MobilNet_3;1.2038415;0.01165508044802778;2;axe_xx1_0,axe_yy1_0,axe_xx1_1,axe_out_channels1_0;13;[V f, U (2, f), ULambda y, U (3, h), T (32, c), Hoist_vars [c], T (14, x),  T (3, w), T (4, c), T (4, f), T (4, x),  Lambda_apply y [((Iter 4), (Arg 11)), ((Iter 1), (Arg 12))], T (1, x)];336.54135251045227
164;MobilNet_3;0.8139726999999999;0.008448552764231267;2;axe_out_channels1_0,axe_out_channels1_1,axe_xx1_0,axe_yy1_0,axe_out_channels1_2;13;[V f, U (1, f), ULambda y, U (3, h), T (32, c), Hoist_vars [c], T (28, x),  T (3, w), T (4, c), T (2, f),  Lambda_apply y [((Iter 4), (Arg 11)), ((Iter 1), (Arg 12))], T (2, x),  T (4, f), T (1, f)];338.72206568717957
165;MobilNet_3;0.5245572999999999;0.014150623527251383;1;axe_out_channels_0,axe_out_channels_1,axe_xx_0,axe_yy_0,axe_out_channels_2;18;[V f, U (1, f), U (14, y), U (3, h), T (64, c), Hoist_vars [c], T (14, x),  T (3, w), T (2, c), T (8, f), T (4, y), T (4, x), T (1, f), T (1, f)];340.5072875022888
166;MobilNet_3;0.3757527;0.009186499290262858;2;axe_out_channels1_0,axe_out_channels1_1,axe_xx1_0,axe_yy1_0,axe_out_channels1_2;66;[V f, U (1, f), ULambda y, U (3, h), T (32, c), Hoist_vars [c], T (1, x),  T (3, w), T (4, c), T (1, f),  Lambda_apply y [((Iter 3), (Arg 10)), ((Iter 2), (Arg 13))], T (56, x),  T (2, f), T (4, f)];342.6930887699127
167;MobilNet_3;0.4319591;0.005736641045943172;1;axe_xx_0,axe_yy_0,axe_xx_1,axe_out_channels_0;16;[V f, U (2, f), U (8, y), T (32, c), Hoist_vars [c], T (3, h), T (14, x),  T (3, w), T (4, c), T (4, f), T (4, x), T (7, y), T (1, x)];344.41001868247986
168;MobilNet_3;0.35837189999999997;0.0018360949022313557;2;axe_out_channels1_0,axe_out_channels1_1,axe_xx1_0,axe_yy1_0,axe_out_channels1_2;69;[V f, U (1, f), ULambda y, U (3, h), T (128, c), Hoist_vars [c], T (1, x),  T (3, w), T (1, c), T (1, f),  Lambda_apply y [((Iter 3), (Arg 10)), ((Iter 2), (Arg 13))], T (56, x),  T (1, f), T (8, f)];346.53782534599304
169;MobilNet_3;0.5502979000000001;0.002239455891505779;1;axe_yy_0,axe_xx_0,axe_out_channels_0;14;[V f, U (4, f), U (7, y), U (3, w), T (64, c), Hoist_vars [c], T (14, x),  T (3, h), T (2, c), T (2, f), T (4, x), T (8, y)];348.4488847255707
170;MobilNet_3;0.8533322;0.010406324805617019;2;axe_out_channels1_0,axe_out_channels1_1,axe_xx1_0,axe_yy1_0,axe_out_channels1_2;15;[V f, U (1, f), ULambda y, U (3, h), T (32, c), Hoist_vars [c], T (28, x),  T (3, w), T (4, c), T (1, f),  Lambda_apply y [((Iter 3), (Arg 10)), ((Iter 2), (Arg 13))], T (2, x),  T (8, f), T (1, f)];350.6498739719391
171;MobilNet_3;0.6077491999999999;0.00552637482985003;1;axe_out_channels_0,axe_out_channels_1,axe_xx_0,axe_yy_0,axe_out_channels_2;15;[V f, U (1, f), U (14, y), U (3, h), T (32, c), Hoist_vars [c], T (14, x),  T (3, w), T (4, c), T (2, f), T (4, y), T (4, x), T (4, f), T (1, f)];352.4549458026886
172;MobilNet_3;0.7566516999999999;0.012274850891558713;1;axe_xx_0,axe_yy_0,axe_xx_1,axe_out_channels_0;13;[V f, U (2, f), U (14, y), T (32, c), Hoist_vars [c], T (3, h), T (14, x),  T (3, w), T (4, c), T (4, f), T (1, x), T (4, y), T (4, x)];354.2068040370941
173;MobilNet_3;0.8619171;0.02056070392496325;1;axe_out_channels_0,axe_out_channels_1,axe_xx_0,axe_yy_0,axe_out_channels_2;16;[V f, U (1, f), U (14, y), U (3, h), T (16, c), Hoist_vars [c], T (28, x),  T (3, w), T (8, c), T (8, f), T (4, y), T (2, x), T (1, f), T (1, f)];355.97374963760376
174;MobilNet_3;0.8927888000000002;0.054301623793032244;1;axe_xx_0,axe_yy_0,axe_xx_1,axe_out_channels_0;12;[V f, U (2, f), U (14, y), T (16, c), Hoist_vars [c], T (3, h), T (14, x),  T (3, w), T (8, c), T (4, f), T (2, x), T (4, y), T (2, x)];357.7338557243347
175;MobilNet_3;0.5156476;0.004759415430491436;1;axe_out_channels_0,axe_out_channels_1,axe_xx_0,axe_yy_0,axe_out_channels_2;13;[V f, U (1, f), U (14, y), U (3, h), T (32, c), Hoist_vars [c], T (28, x),  T (3, w), T (4, c), T (2, f), T (4, y), T (2, x), T (4, f), T (1, f)];359.5375964641571
176;MobilNet_3;0.7807758;0.006875782803434104;2;axe_out_channels1_0,axe_out_channels1_1,axe_xx1_0,axe_yy1_0,axe_out_channels1_2;16;[V f, U (1, f), ULambda y, U (3, h), T (32, c), Hoist_vars [c], T (28, x),  T (3, w), T (4, c), T (1, f),  Lambda_apply y [((Iter 4), (Arg 11)), ((Iter 1), (Arg 12))], T (2, x),  T (1, f), T (8, f)];361.7443301677704
177;MobilNet_3;1.3146631000000002;0.017039486133390323;2;axe_xx1_0,axe_yy1_0,axe_xx1_1,axe_out_channels1_0;10;[V f, U (2, f), ULambda y, T (32, c), Hoist_vars [c], T (3, h), T (14, x),  T (3, w), T (4, c), T (4, f), T (1, x),  Lambda_apply y [((Iter 1), (Arg 11)), ((Iter 3), (Arg 15))], T (4, x)];363.68638491630554
178;MobilNet_3;0.716361;0.01348892134308747;1;axe_out_channels_0,axe_out_channels_1,axe_xx_0,axe_yy_0,axe_out_channels_2;13;[V f, U (1, f), U (14, y), U (3, h), T (32, c), Hoist_vars [c], T (28, x),  T (3, w), T (4, c), T (4, f), T (4, y), T (2, x), T (2, f), T (1, f)];365.45130228996277
179;MobilNet_3;1.1717689999999998;0.01823931883048273;2;axe_xx1_0,axe_yy1_0,axe_xx1_1,axe_out_channels1_0;11;[V f, U (2, f), ULambda y, T (32, c), Hoist_vars [c], T (3, h), T (14, x),  T (3, w), T (4, c), T (4, f), T (1, x),  Lambda_apply y [((Iter 2), (Arg 10)), ((Iter 3), (Arg 12))], T (4, x)];367.6504237651825
180;MobilNet_3;0.5672695999999999;0.008437046962059654;1;axe_yy_0,axe_xx_0,axe_out_channels_0;17;[V f, U (4, f), U (4, y), U (3, w), T (128, c), Hoist_vars [c], T (56, x),  T (3, h), T (1, c), T (2, f), T (1, x), T (14, y)];369.43405294418335
181;MobilNet_3;0.5194121;0.005131034329450563;1;axe_out_channels_0,axe_out_channels_1,axe_xx_0,axe_yy_0,axe_out_channels_2;15;[V f, U (1, f), U (14, y), U (3, h), T (64, c), Hoist_vars [c], T (14, x),  T (3, w), T (2, c), T (2, f), T (4, y), T (4, x), T (4, f), T (1, f)];371.15494656562805
182;MobilNet_3;0.5723448000000001;0.0037896215325544354;1;axe_yy_0,axe_xx_0,axe_out_channels_0;14;[V f, U (4, f), U (7, y), U (3, h), T (32, c), Hoist_vars [c], T (14, x),  T (3, w), T (4, c), T (2, f), T (4, x), T (8, y)];373.0656051635742
183;MobilNet_3;0.9505546;0.009533349025395032;2;axe_xx1_0,axe_yy1_0,axe_xx1_1,axe_out_channels1_0;14;[V f, U (2, f), ULambda y, U (3, h), T (32, c), Hoist_vars [c], T (14, x),  T (3, w), T (4, c), T (4, f), T (4, x),  Lambda_apply y [((Iter 5), (Arg 9)), ((Iter 1), (Arg 11))], T (1, x)];375.268846988678
184;MobilNet_3;1.386567;0.012265051740616562;2;axe_xx1_0,axe_yy1_0,axe_xx1_1,axe_out_channels1_0;12;[V f, U (2, f), ULambda y, T (32, c), Hoist_vars [c], T (3, h), T (28, x),  T (3, w), T (4, c), T (4, f), T (1, x),  Lambda_apply y [((Iter 5), (Arg 9)), ((Iter 1), (Arg 11))], T (2, x)];377.5143241882324
185;MobilNet_3;0.40840430000000005;0.0036186657776036686;1;axe_xx_0,axe_yy_0,axe_xx_1,axe_out_channels_0;16;[V f, U (2, f), U (8, y), T (64, c), Hoist_vars [c], T (3, h), T (14, x),  T (3, w), T (2, c), T (4, f), T (4, x), T (7, y), T (1, x)];379.2759759426117
186;MobilNet_3;0.9267447000000001;0.008067477028786619;2;axe_out_channels1_0,axe_out_channels1_1,axe_xx1_0,axe_yy1_0,axe_out_channels1_2;14;[V f, U (1, f), ULambda y, U (3, h), T (32, c), Hoist_vars [c], T (28, x),  T (3, w), T (4, c), T (2, f),  Lambda_apply y [((Iter 5), (Arg 9)), ((Iter 1), (Arg 11))], T (2, x),  T (4, f), T (1, f)];381.4692454338074
187;MobilNet_3;0.3719686;0.00334373280032959;2;axe_out_channels1_0,axe_out_channels1_1,axe_xx1_0,axe_yy1_0,axe_out_channels1_2;69;[V f, U (1, f), ULambda y, U (3, h), T (64, c), Hoist_vars [c], T (1, x),  T (3, w), T (2, c), T (1, f),  Lambda_apply y [((Iter 3), (Arg 10)), ((Iter 2), (Arg 13))], T (56, x),  T (1, f), T (8, f)];383.6387186050415
188;MobilNet_3;0.9452822;0.008435709961823027;2;axe_xx1_0,axe_yy1_0,axe_xx1_1,axe_out_channels1_0;14;[V f, U (2, f), ULambda y, U (3, h), T (32, c), Hoist_vars [c], T (14, x),  T (3, w), T (4, c), T (4, f), T (1, x),  Lambda_apply y [((Iter 5), (Arg 9)), ((Iter 1), (Arg 11))], T (4, x)];385.84962010383606
189;MobilNet_3;0.9291388999999999;0.033137746502893035;2;axe_out_channels1_0,axe_out_channels1_1,axe_xx1_0,axe_yy1_0,axe_out_channels1_2;14;[V f, U (1, f), ULambda y, U (3, h), T (32, c), Hoist_vars [c], T (28, x),  T (3, w), T (4, c), T (4, f),  Lambda_apply y [((Iter 5), (Arg 9)), ((Iter 1), (Arg 11))], T (2, x),  T (2, f), T (1, f)];388.04774355888367
190;MobilNet_3;0.6297328;0.004595168349473171;1;axe_out_channels_0,axe_out_channels_1,axe_xx_0,axe_yy_0,axe_out_channels_2;15;[V f, U (1, f), U (14, y), U (3, h), T (64, c), Hoist_vars [c], T (14, x),  T (3, w), T (2, c), T (1, f), T (4, y), T (4, x), T (2, f), T (4, f)];389.799204826355
191;MobilNet_3;0.4011723;0.003562992563842925;1;axe_xx_0,axe_yy_0,axe_xx_1,axe_out_channels_0;16;[V f, U (2, f), U (14, y), T (64, c), Hoist_vars [c], T (3, h), T (8, x),  T (3, w), T (2, c), T (4, f), T (7, x), T (4, y), T (1, x)];391.53604340553284
192;MobilNet_3;0.520586;0.004468476809831267;1;axe_xx_0,axe_yy_0,axe_xx_1,axe_out_channels_0;16;[V f, U (2, f), U (14, y), T (16, c), Hoist_vars [c], T (3, h), T (8, x),  T (3, w), T (8, c), T (4, f), T (7, x), T (4, y), T (1, x)];393.2768518924713
193;MobilNet_3;0.7826211000000001;0.005252570807709306;2;axe_out_channels1_0,axe_out_channels1_1,axe_xx1_0,axe_yy1_0,axe_out_channels1_2;17;[V f, U (1, f), ULambda y, U (3, h), T (32, c), Hoist_vars [c], T (28, x),  T (3, w), T (4, c), T (1, f),  Lambda_apply y [((Iter 5), (Arg 9)), ((Iter 1), (Arg 11))], T (2, x),  T (1, f), T (8, f)];395.4467616081238
194;MobilNet_3;0.6374673000000001;0.03704551999648539;1;axe_out_channels_0,axe_out_channels_1,axe_xx_0,axe_yy_0,axe_out_channels_2;12;[V f, U (1, f), U (14, y), U (3, h), T (16, c), Hoist_vars [c], T (56, x),  T (3, w), T (8, c), T (4, f), T (4, y), T (1, x), T (1, f), T (2, f)];397.2664043903351
195;MobilNet_3;0.411968;0.005731589988825089;1;axe_xx_0,axe_yy_0,axe_xx_1,axe_out_channels_0;15;[V f, U (2, f), U (8, y), T (64, c), Hoist_vars [c], T (3, h), T (14, x),  T (3, w), T (2, c), T (4, f), T (2, x), T (7, y), T (2, x)];399.02322244644165
196;MobilNet_3;0.9318703000000002;0.01027345405450378;2;axe_out_channels1_0,axe_out_channels1_1,axe_xx1_0,axe_yy1_0,axe_out_channels1_2;13;[V f, U (1, f), ULambda y, U (3, h), T (32, c), Hoist_vars [c], T (28, x),  T (3, w), T (4, c), T (4, f),  Lambda_apply y [((Iter 4), (Arg 11)), ((Iter 1), (Arg 12))], T (2, x),  T (1, f), T (2, f)];401.25212240219116
197;MobilNet_3;0.4404885;0.007487160733549125;1;axe_xx_0,axe_yy_0,axe_xx_1,axe_out_channels_0;16;[V f, U (2, f), U (8, y), T (64, c), Hoist_vars [c], T (3, h), T (14, x),  T (3, w), T (2, c), T (4, f), T (1, x), T (7, y), T (4, x)];402.98731327056885
198;MobilNet_3;0.8112545000000001;0.0035363958842301456;2;axe_out_channels1_0,axe_out_channels1_1,axe_xx1_0,axe_yy1_0,axe_out_channels1_2;12;[V f, U (1, f), ULambda y, U (3, h), T (32, c), Hoist_vars [c], T (28, x),  T (3, w), T (4, c), T (2, f),  Lambda_apply y [((Iter 4), (Arg 11)), ((Iter 1), (Arg 12))], T (2, x),  T (2, f), T (2, f)];405.1885313987732
199;MobilNet_3;0.7333091;0.00504656509816332;1;axe_out_channels_0,axe_out_channels_1,axe_xx_0,axe_yy_0,axe_out_channels_2;14;[V f, U (1, f), U (14, y), U (3, h), T (16, c), Hoist_vars [c], T (14, x),  T (3, w), T (8, c), T (2, f), T (4, y), T (4, x), T (2, f), T (2, f)];406.9434914588928
