perf, CACHE_MISS_L1, CACHE_MISS_L2
70.25,862740,222020
70.38,861775,215497
69.53,862808,212707
69.80,862666,219022
67.57,931638,259635
67.46,931138,268983
64.19,930769,272013
64.88,928342,268211
67.47,1069019,191507
67.30,1072802,216818
65.92,1068242,234200
66.27,1068382,234679
61.30,1349550,135794
59.74,1348852,177028
60.02,1352197,204022
57.15,1348401,237438
52.39,1856380,144736
52.27,1858648,176808
51.35,1862321,202417
49.94,1789004,246769
37.34,2669725,188777
38.12,2676795,203164
36.97,2694742,218219
36.89,2690488,291057
23.97,4687991,254353
24.45,4831114,243652
23.99,4733369,315210
23.46,4749862,302797
12.81,9149986,314872
12.99,9105492,335407
12.90,9155640,264289
13.05,9209058,247225
7.14,17959501,433564
7.06,17937570,445685
7.12,17867220,444788
7.02,18137298,581249
67.88,861280,241962
68.05,862743,256366
68.88,860827,265525
66.75,858717,288502
67.43,935046,276105
67.71,933531,294647
65.17,930460,321005
65.57,929860,344717
67.95,1073839,181465
66.33,1071688,233231
63.73,1071297,287299
60.86,1068471,358180
63.61,1354445,139463
62.57,1352964,184078
61.03,1350323,237739
58.03,1346139,356808
55.05,1767000,126251
54.46,1773893,172027
53.01,1765770,223143
49.45,1780800,357750
40.61,2701175,122344
39.88,2702519,186669
39.24,2733333,239215
37.72,2721533,362602
24.37,5076823,116652
24.06,5043400,188713
23.85,5031994,257688
23.74,4984281,334071
13.24,9108697,118129
13.23,9201805,168485
13.12,9154648,254356
13.02,9223912,298624
7.22,17995237,98596
7.17,17822112,179298
7.20,17989876,234649
7.16,18158995,242071
50.15,860939,490335
50.02,859253,502774
51.16,855765,501034
49.91,837163,545174
50.77,935688,626603
47.13,924237,695873
50.17,927553,714063
47.35,916308,777028
54.03,1075258,396148
54.16,1070129,493910
48.70,1065034,617145
45.33,1052673,808975
51.94,1344182,315852
50.29,1348329,424325
47.68,1347466,537863
43.68,1333348,664229
48.44,1584879,298948
45.81,1596694,427862
43.26,1594848,517146
41.54,1590626,649872
39.59,2082665,310446
37.01,2103702,452491
34.31,2122130,613172
32.43,2107704,755901
29.37,2746364,310050
27.19,2779337,466116
26.66,2776298,598869
25.27,2747803,674283
24.38,2756892,310050
23.33,2750721,479832
22.84,2726665,694474
21.48,2664110,540174
16.36,4388070,307461
16.09,4381718,571987
15.46,4392107,745595
15.19,4365122,567624
40.92,836667,557323
40.55,832342,571886
39.16,824908,587684
40.86,800385,603077
38.52,893846,542544
40.33,889780,558693
38.90,875838,576079
33.68,850102,591034
39.28,984263,539375
35.85,979985,554361
39.76,976443,567984
38.91,944609,575031
38.39,1164312,540734
38.26,1161955,556729
37.24,1159126,570183
38.47,1133212,581284
35.87,1146616,544668
37.76,1133117,559340
35.44,1141422,569229
35.28,1099061,582589
39.79,1591730,575643
35.98,1600731,812052
31.96,1606491,993197
32.35,1554361,634244
31.52,2460241,576996
29.90,2519379,839604
27.48,2521366,1048699
26.10,2480861,859367
28.25,2664170,575137
26.30,2653923,880416
24.16,2624794,1262710
22.10,2578205,808262
17.21,4416469,573334
16.38,4410792,1086795
14.99,4394278,1402343
14.95,4311564,878985
73.27,1229666,206163
71.64,1229310,221798
73.00,1228939,237773
72.30,1293966,253601
71.16,1294520,261343
68.83,1293082,289713
71.41,1418543,187330
69.89,1418583,240150
64.09,1421618,306075
67.52,1664563,129513
64.86,1660988,199034
60.75,1662888,297827
60.06,1039726,115609
60.97,1048643,168212
57.35,1040962,233034
48.02,1668471,104436
46.13,1668723,164074
44.95,1654895,205671
33.10,2827852,115056
32.83,2834587,173546
32.29,2885949,212688
24.09,4733593,102038
24.00,4735075,154146
24.03,4706496,174296
12.10,9459572,147668
12.09,9477372,196957
11.98,9479412,206267
64.66,1228078,338633
64.17,1226977,354136
60.74,1225643,392670
64.95,1292995,382243
62.71,1294169,425312
59.62,1288949,475782
66.78,1420534,256635
64.80,1417842,373410
59.19,1420956,513438
62.81,1666901,204469
59.08,1662246,323045
52.79,1666375,507574
57.01,1081590,178030
52.85,1091022,283027
52.64,1087782,371657
45.62,1721540,178590
43.23,1704176,284899
42.54,1720746,343622
33.01,2978137,189923
31.96,2952254,297015
30.58,2974398,417050
23.99,4663364,172014
23.87,4661151,263576
21.95,4650718,307007
12.50,9279799,179248
12.49,9261269,313518
12.38,9290173,365813
45.93,1216768,834648
44.52,1215984,868918
46.84,1211789,866984
42.07,1288894,1018310
45.37,1279334,966429
41.05,1274676,1064867
47.70,1410131,682783
45.65,1403901,953664
42.16,1398408,1070703
46.74,1642841,598112
42.98,1634256,923178
37.74,1620262,1133313
47.63,925411,552576
40.56,931692,819207
38.98,900592,938696
40.88,1128273,568279
34.98,1095518,876816
35.51,1075971,1068730
32.44,1552075,572546
28.45,1565705,912043
27.52,1450614,1296713
29.10,1532992,569871
25.36,1522511,904731
22.24,1482997,1299815
21.89,2326885,573057
20.77,2319507,1089587
18.46,2263130,1410993
33.05,1183486,1391077
34.17,1178852,1345489
31.65,1171479,1447998
35.28,1223613,1291705
32.17,1220384,1413361
32.31,1205251,1415583
34.82,1298514,1173598
31.55,1293348,1425196
32.46,1273451,1462020
37.06,1409525,1092835
31.15,1412256,1427536
33.11,1380057,1408987
33.81,1296524,1073046
30.36,1285287,1445087
29.78,1254547,1526778
33.06,1487630,1069867
29.39,1468213,1524475
27.25,1413140,1669244
28.84,1875194,1091350
27.29,1819221,1622449
22.81,1743341,2041164
29.99,1916025,1095495
24.47,1905935,1684403
21.71,1853554,2162836
24.60,2531637,1098524
21.35,2540794,2066671
17.78,2438244,2433192
53.12,938306,242663
49.78,937582,227358
50.50,940091,247096
52.89,939857,247779
48.54,939410,255919
62.93,997057,193698
63.55,998211,186821
63.01,996998,178819
63.28,995898,195800
64.38,995387,194637
62.64,1029954,196661
64.20,1058519,221324
63.53,1059214,233944
64.46,1052094,245408
64.16,1051990,258911
62.71,1212352,205924
62.49,1212801,204311
63.47,1218534,212307
62.05,1209987,247583
60.31,1211377,263683
60.08,1507528,152670
58.84,1503423,170038
58.45,1505003,194369
58.36,1498806,224505
55.26,1492520,283930
47.84,2308621,176340
48.22,2305623,208595
46.53,2312056,216672
45.95,2307670,289064
44.02,2294812,406577
33.26,3650364,294274
34.10,3619687,293231
35.66,3597495,265332
31.88,3638481,388723
32.39,3616080,484770
22.15,5152155,227698
22.63,5224897,282366
21.89,5159018,318908
21.87,5137736,438673
21.10,5164862,495248
12.74,9885242,389586
12.23,9835574,615300
12.70,9822178,412597
12.31,9852157,598240
12.04,9883089,584563
49.87,935769,239065
46.22,935207,261189
48.23,936486,253345
49.55,934610,264991
46.63,930084,288611
65.13,997652,173293
64.88,997528,188436
63.58,997614,206455
61.11,993257,226053
60.02,991068,260380
67.74,1060113,164949
64.71,1058487,201026
63.97,1055494,235539
62.28,1057458,285599
59.75,1055942,330580
67.51,1219320,131984
64.93,1217538,175658
62.38,1217618,223441
59.30,1214422,294134
56.71,1214561,399547
61.06,1508876,123810
60.46,1506300,163759
59.26,1507347,207426
57.87,1497920,278739
53.19,1488543,428020
51.71,2288471,111541
50.87,2290286,168099
49.32,2286991,221957
48.14,2287628,295235
42.95,2274585,453840
37.65,3587603,111529
37.58,3583138,180717
35.93,3583131,265601
35.51,3590038,355429
34.51,3581208,419041
24.15,5261757,106492
23.89,5253342,179403
23.27,5196539,311765
22.74,5201471,434301
22.37,5296527,485236
13.43,9910687,103302
13.31,9942815,180861
13.33,9900376,232867
13.23,9930901,261897
12.60,9943853,280729
42.19,935986,388731
42.54,932854,412241
42.05,927471,426840
41.89,917408,434861
39.90,891832,440068
47.40,997889,327423
47.20,996265,336701
44.73,989111,352618
45.44,984838,373814
46.58,962754,420707
48.58,1067736,294017
46.37,1065483,308406
47.77,1057300,322928
42.78,1049074,345193
47.92,1036066,374853
47.38,1223290,284219
47.68,1222143,297585
47.43,1221120,308671
46.52,1216138,325517
46.62,1200844,349507
45.87,1506859,281121
44.89,1501062,295941
45.00,1501527,306968
44.58,1488599,323757
43.29,1467518,350651
48.87,2139597,304936
45.97,2149528,424546
43.85,2143255,545738
40.34,2147612,694176
38.97,2148970,354579
39.07,3028881,305177
37.32,3056765,425777
37.12,3038767,562067
32.67,3116299,734467
32.98,3118039,421336
29.15,3668822,310082
28.12,3686550,486415
26.43,3721347,725503
24.71,3738520,939763
24.00,3751346,523847
22.63,5773578,301930
22.15,5771730,568528
21.75,5766641,727514
21.63,5758338,557898
21.16,5687087,479258
38.26,926413,550481
37.42,920684,562631
37.48,908304,572679
38.23,888384,584593
36.72,831226,603169
37.62,979557,540333
36.61,979706,553271
36.00,970770,564683
37.99,944660,578047
38.11,891964,596991
35.25,1038053,540178
37.51,1039844,554110
37.79,1032647,563897
36.49,1011223,583257
37.84,957081,591988
36.74,1171319,541238
36.89,1159152,555237
35.11,1118475,568561
37.18,1137873,582281
35.70,1106678,590938
36.86,1381986,540937
35.21,1382437,554492
34.06,1364026,564576
35.16,1350267,587179
35.81,1295477,570400
44.78,1910485,568455
41.40,1888020,732194
38.23,1879722,897236
33.21,1886721,667626
33.00,1817554,592698
38.82,2774886,571393
35.65,2778785,750607
36.14,2744784,925524
31.06,2790386,773099
29.99,2652098,636557
30.45,3410221,570301
28.50,3442985,868515
25.24,3487212,1223141
23.78,3555335,999198
23.24,3601947,672964
24.33,5860720,575665
22.79,5858378,1047518
22.37,5823640,1235430
22.33,5714238,788833
22.41,5609073,787006
50.30,1161927,548536
53.15,1158868,389855
55.57,1157803,439491
66.30,1194173,208194
64.43,1186650,226223
67.10,1185618,238725
67.64,1233922,171557
67.54,1228456,213120
67.14,1228096,251271
65.24,1334771,141120
62.57,1336416,209855
60.98,1336529,295285
61.78,1539396,122300
60.31,1535933,182924
59.88,1521026,296331
54.47,1644986,111436
54.63,1629015,179214
51.75,1644491,290738
48.05,1602975,117287
45.62,1606357,189116
45.45,1648925,228744
36.31,2177252,134090
35.34,2179547,167594
34.18,2164507,231077
27.17,3818801,107918
26.62,3819106,178368
25.50,3817821,214929
51.43,1160080,577939
49.26,1156112,577257
50.35,1153704,563192
61.73,1195376,311089
58.78,1185955,346185
59.07,1185046,373208
63.35,1234200,237539
62.12,1228977,334116
57.62,1226322,409211
63.03,1337641,203312
59.28,1336144,331909
52.98,1333943,498133
63.47,1525272,184986
58.29,1525779,307144
53.96,1520121,509264
54.51,1684851,183813
50.69,1662559,310289
47.05,1638251,486509
46.13,1646855,183189
44.74,1707172,293699
43.05,1677228,383072
35.79,2231294,179624
34.49,2221695,297822
32.74,2241929,384175
26.33,3818391,179064
25.90,3819996,314238
24.90,3817322,362741
38.48,1158715,1046570
37.47,1149626,1060774
38.22,1143668,1094035
44.06,1188642,819366
39.90,1177406,932657
41.09,1171770,919888
47.68,1231838,671689
43.89,1223527,881474
42.99,1213222,934643
46.43,1337653,598023
43.31,1325176,915652
40.51,1313858,1113282
47.65,1503506,559729
42.75,1500213,896847
39.04,1483913,1117986
44.50,1615546,563013
37.92,1608033,924487
32.94,1597089,1181212
41.62,1387693,564774
35.10,1260868,862987
33.80,1443190,1111940
34.93,1366007,567538
29.76,1351231,972811
28.06,1453717,1355871
28.72,1938618,566032
26.71,1933693,1081307
19.95,1898313,1372292
30.40,1146029,1477300
32.13,1135769,1430594
30.65,1124446,1496343
31.25,1170155,1400168
31.70,1156735,1440287
31.05,1143554,1467676
35.07,1203789,1179046
30.56,1187093,1459475
30.72,1168548,1480347
35.11,1267647,1090553
30.43,1247404,1444617
29.73,1225900,1535054
34.60,1366532,1064917
31.94,1344626,1414082
31.31,1309128,1486963
35.58,1415167,1079765
29.96,1384075,1442730
28.53,1329256,1590251
36.01,1616616,1085144
28.35,1601512,1517769
29.01,1484695,1583229
30.92,1787598,1094256
23.47,1779035,1727640
22.59,1815142,1980266
29.26,2299266,1092711
24.97,2319150,1816225
23.79,2257190,2062040
47.88,1952212,536683
51.50,1963290,434927
53.45,1922105,419854
63.72,1902996,244479
62.38,1904360,255824
61.86,1892880,275988
67.91,1890790,207810
65.05,1879762,244856
63.95,1876849,288498
68.75,1951184,183500
64.48,1958008,256883
62.46,1958398,333459
62.39,2155367,153625
60.51,2131310,223173
55.67,2155115,341298
54.22,2167313,126595
53.68,2157810,204030
52.17,2134155,297744
47.02,2223906,125389
45.97,2220264,182401
44.76,2213699,242209
36.52,2358731,97547
34.53,2362472,206503
34.76,2352741,220606
26.35,3888594,97318
25.62,3888082,168407
25.04,3888913,197404
45.10,1933105,678642
44.11,1960533,669915
49.58,1898669,580670
57.28,1904654,347893
57.92,1895209,373437
55.24,1919669,409160
63.04,1901124,262676
59.89,1905991,385468
57.20,1905540,405551
63.72,1958637,232019
59.53,1965832,355814
55.04,1964270,501784
58.61,2152672,211136
54.70,2146983,334681
51.08,2134078,536926
53.93,2178266,201903
51.29,2169721,335133
46.71,2187390,501239
45.79,2273200,192664
44.26,2257754,310427
43.23,2248841,402041
35.45,2419386,174413
35.69,2427153,293077
33.66,2422881,355135
26.50,3884366,173930
25.14,3883165,309746
24.61,3884980,354093
34.15,2023307,1166853
34.82,2000299,1148168
35.58,1971557,1197486
39.77,1989558,874667
39.94,1976105,931687
38.51,1966533,954380
47.13,1961141,697714
41.77,1965363,907937
40.06,1963981,983284
48.36,2031199,622404
40.05,2054680,942774
36.84,2056746,1143197
45.21,2199154,581881
38.82,2212837,914708
36.11,2206600,1162142
43.50,2223709,576319
36.46,2255932,921096
35.51,2178704,1125736
39.76,1931660,574554
35.29,1952196,865586
30.12,2326354,1270708
35.11,1708747,575287
29.93,1721222,971015
28.91,1739501,1216335
27.97,2258701,568728
24.50,2251203,1083604
19.78,2189494,1380630
31.02,1978280,1469262
29.28,1993621,1542778
28.62,2016718,1578061
30.18,2051028,1453038
28.76,2040938,1572706
28.01,2079932,1602105
34.39,2006853,1167892
29.72,2043521,1489707
29.73,2025995,1551493
34.54,2062626,1105169
29.70,2074992,1467145
28.64,2088274,1560406
33.71,2168899,1079621
31.49,2127807,1392762
28.41,2164041,1568073
33.49,2107001,1091441
31.40,2077058,1403917
26.96,2125362,1636599
35.07,2239234,1093628
27.84,2260972,1536059
25.25,2250265,1752202
32.34,2047413,1100699
23.62,2096985,1747613
22.82,2113977,1971746
29.50,2577115,1099900
21.53,2646392,1947648
17.20,2526793,2349107
51.88,1756762,571052
53.54,1754968,509076
48.51,1750373,670756
68.79,1780317,239993
63.36,1780066,277425
62.06,1779849,314048
69.06,1815783,203133
67.74,1822457,262935
63.48,1820238,300026
69.20,1916655,169558
63.80,1919475,272484
61.40,1918523,374397
64.45,2105030,151284
61.16,2105937,243608
55.34,2102945,399659
62.92,1356051,142890
59.75,1349734,230707
55.72,1340266,330432
51.17,1722909,148782
50.12,1716292,225434
47.07,1737693,282230
34.66,2078576,151654
37.39,2073492,210710
36.12,2068501,245443
32.91,3839731,131939
31.84,3843140,232047
30.65,3859789,259842
47.86,1755021,729014
46.34,1755184,725186
47.20,1745088,827711
59.47,1783412,379680
58.75,1781525,421232
56.46,1781785,471430
62.67,1821850,325964
58.16,1818943,450149
55.55,1819602,504165
63.26,1924243,287081
55.87,1903862,474536
50.12,1917451,659990
58.39,2106776,266374
54.98,2103489,437784
45.66,2099698,724387
58.42,1409309,260110
53.68,1404433,417183
49.72,1392504,562366
49.55,1793159,265891
46.90,1773628,416161
42.35,1774897,509818
38.60,1906482,255598
36.73,1899679,413338
34.08,1895870,498910
37.63,2879062,252878
34.81,2895738,452244
32.76,2898325,534094
34.92,1749496,1609017
29.79,1746949,1493812
29.84,1745542,1561082
37.13,1765125,1084817
37.19,1771914,1106610
34.92,1769077,1136362
41.19,1814713,927467
36.74,1812377,1124395
36.50,1800354,1144255
42.33,1911342,866041
35.54,1894732,1221371
35.09,1882861,1327172
40.37,2105178,825840
35.04,2085416,1248337
32.19,2077332,1411734
40.63,1567140,825365
37.31,1565191,1169628
34.03,1499339,1250447
37.09,1639234,829112
34.60,1564563,1150485
28.28,1536796,1473237
32.68,1634702,831899
30.17,1625072,1360568
23.57,1585500,1665138
36.65,2239920,833759
27.58,2217914,1504215
22.94,2112612,1780159
26.84,1698526,1702228
27.29,1703424,1756273
25.68,1715841,1796727
26.71,1726455,1720646
26.21,1725265,1772331
26.55,1724833,1763487
27.09,1755824,1655980
26.44,1750060,1757095
26.38,1744711,1762479
28.19,1801566,1591414
25.34,1805466,1803031
25.14,1789493,1844953
28.28,1904143,1582203
24.31,1893123,1856775
24.23,1879981,1896167
27.16,1870873,1585124
25.54,1828964,1804254
24.97,1785625,1866622
27.73,1982182,1601711
23.20,1926116,1940393
23.19,1865201,2016491
25.69,1906655,1608058
21.97,1903874,2052135
21.07,1873437,2185697
27.98,2084787,1608104
23.18,2061712,2422472
18.93,1959970,2361381
46.21,1849827,701643
50.83,1846775,579136
48.50,1850739,654817
62.06,1864045,277075
57.68,1862136,299837
64.27,1865275,287363
69.81,1900918,210581
66.91,1901552,268802
65.56,1901876,302970
66.74,1996116,177580
63.09,2001252,283741
61.07,1996220,388608
62.08,2194594,157246
58.84,2183438,250033
55.98,2181750,405688
62.13,1445745,145574
57.57,1442188,235063
57.33,1433168,311234
48.48,1732210,146108
49.07,1731157,225256
47.19,1746752,277291
38.75,2074586,132892
37.31,2074042,214552
36.29,2073057,249166
31.29,3843716,132687
29.08,3839301,231672
29.46,3846029,263486
46.57,1849353,685650
58.40,1835587,415782
45.78,1844155,786344
59.65,1867030,387448
56.74,1869360,432467
54.14,1868094,476770
61.67,1910717,330288
58.47,1907712,449428
56.09,1903740,504426
62.12,2004662,289729
55.92,1996498,470652
49.19,1991915,677326
59.42,2182667,271870
53.61,2180986,439119
45.53,2180146,722705
58.24,1491787,263545
52.43,1480052,407417
50.20,1474828,533597
48.16,1777385,266125
47.56,1798209,419059
44.31,1762978,486204
39.97,1919806,254308
36.33,1916711,412824
34.24,1909672,496669
35.26,2836909,254743
32.67,2834624,455887
30.27,2831224,527599
33.47,1845556,1240683
31.37,1845285,1342973
30.96,1847970,1378008
36.28,1871894,1061063
35.10,1870241,1124567
34.05,1871839,1174353
41.33,1906302,917007
37.08,1907367,1135359
35.06,1897408,1185282
41.11,1992082,861615
35.20,1993573,1240432
35.14,1972861,1311522
39.97,2178555,828320
35.79,2153475,1228198
32.72,2150012,1430320
42.08,1619606,825471
35.16,1601281,1124643
33.99,1557400,1257096
40.01,1653301,827967
31.54,1628073,1174070
29.30,1523353,1348245
34.39,1624520,833024
27.07,1611893,1351659
22.69,1578282,1640368
34.81,2175110,835581
28.97,2158989,1473580
21.48,2085426,1803791
23.90,1835918,2099072
25.76,1824266,1789850
26.09,1819508,1787884
26.84,1828728,1722057
25.80,1838867,1794933
25.48,1838565,1817410
26.68,1872297,1653738
25.10,1867473,1796963
25.87,1859679,1798969
27.95,1913688,1591730
25.77,1904149,1760613
25.11,1905961,1844788
27.12,2017776,1585927
24.85,1995840,1835626
25.32,1977969,1829065
27.64,1954477,1590761
24.34,1945757,1859281
24.72,1896652,1929165
27.64,2070232,1600217
22.96,2027492,1938049
21.98,1976986,2128207
25.37,1964579,1605981
22.01,1967527,2039452
21.15,1953731,2154544
27.40,2143960,1604187
22.48,2120771,2046817
19.71,2027839,2267985
