perf, CACHE_MISS_L1, CACHE_MISS_L2
81.01,382168,60582
74.69,665855,104679
59.04,1006198,171551
41.28,2062558,307167
33.75,2766426,418817
21.69,5446172,638817
10.82,10868954,1225677
82.68,396991,58847
75.62,672191,104780
61.50,952080,183766
41.12,1973852,332729
34.15,2781774,480348
20.85,5461623,741691
10.54,10889768,1516441
84.13,347359,60941
76.46,523480,110004
65.35,744743,188507
43.07,1409623,358199
40.89,1439302,488779
26.77,2385229,709932
15.03,4692626,1335435
85.00,382571,63620
75.73,530760,113489
67.37,504521,189797
48.59,779517,348399
42.44,726883,396636
31.14,1115523,567616
18.73,2025698,1031885
84.58,395313,60871
77.64,518708,111843
65.87,452365,191595
48.51,698519,354981
42.57,629547,365902
30.73,947250,461869
19.56,1729205,907427
83.60,447023,60946
70.96,450377,106703
65.02,417174,182762
47.78,594603,329930
41.14,598339,323087
29.51,872309,315395
19.35,1556563,551204
82.72,583605,57272
77.50,614906,103565
67.53,595809,182833
47.66,773062,338547
39.89,776320,391222
26.56,1064961,444565
18.68,1696209,577151
76.89,1059202,54742
77.95,1066723,99087
64.01,1027797,184285
51.03,1198161,336180
42.63,1154757,373453
26.13,1429213,309217
23.42,2111858,599396
81.46,397218,41442
78.39,673320,50012
66.18,953173,68882
46.15,1990085,96243
38.74,2772193,87340
23.94,5474410,129151
12.08,10892128,237086
81.54,357069,63520
78.03,537019,54131
69.43,743476,58152
49.13,1412229,111743
47.32,1412048,81897
33.39,2403604,117594
18.37,4713576,232612
81.82,394551,41154
79.63,525284,58830
72.06,451085,58690
54.19,699470,88195
50.23,607839,71912
36.52,964437,76910
23.19,1766595,125806
86.19,448400,42582
78.31,454779,54105
71.86,422317,68390
58.35,606062,66464
48.98,575127,80014
35.11,884631,71574
22.48,1583573,120964
83.74,575429,42061
79.93,615331,50751
71.18,596817,63422
53.08,784890,94647
46.52,738178,59267
31.91,1052121,72143
22.17,1712826,75694
86.77,1059055,38599
81.03,1067814,50058
71.70,1027199,60653
55.45,1215948,97606
47.48,1123455,68405
31.54,1444867,72407
25.54,2084643,136669
79.26,349705,32146
81.33,532533,33807
71.97,740731,37330
51.77,1372658,34618
48.08,1398780,35083
34.62,2391286,34463
19.14,4688376,35929
84.61,400168,33514
81.73,538423,33450
74.72,457255,33868
58.22,688080,32850
49.71,612902,36054
37.27,980487,56580
23.65,1782523,36903
84.30,577236,31588
80.89,617092,34445
71.59,598951,36847
55.83,781764,35094
48.46,732320,31543
32.25,1069176,33019
22.75,1737949,30610
85.63,1060799,31637
83.03,1071727,32894
74.61,1029782,34831
59.29,1230599,34876
49.49,1128619,37440
31.02,1467677,50846
26.78,2120456,35034
84.74,384385,30116
78.85,557388,30048
74.05,511393,31636
57.31,809827,30211
50.38,701246,30484
38.22,1134526,31052
23.68,2068256,30738
86.80,451072,30206
76.59,444356,29660
74.44,414398,30597
58.68,591893,30657
51.18,572491,30358
35.86,903424,30925
23.66,1618181,30284
87.03,576989,29936
81.08,617125,29627
73.55,595727,31047
55.90,779527,30221
47.35,738375,49882
32.35,1072017,31310
22.52,1749271,30783
85.85,1063012,29394
81.72,1073207,30068
74.67,1035677,30108
57.77,1235096,30691
49.53,1128313,30547
32.31,1461735,31295
26.78,2104428,31176
84.15,401011,30228
80.06,541156,29671
75.09,447264,30390
56.61,697447,45278
50.41,611006,30732
37.77,973453,30290
23.76,1778791,30006
85.68,1062587,29484
79.78,1074580,29893
72.85,1039120,30048
58.79,1233845,29470
49.76,1129587,29848
31.55,1509919,49061
26.83,2115481,30361
86.70,458414,29185
81.11,462795,29046
75.69,418489,29067
59.27,606057,28905
49.32,583818,28989
35.06,934689,39234
22.65,1673808,31945
85.17,589371,28910
81.05,625423,29011
73.00,604543,29030
56.30,791518,29138
46.29,752160,29156
32.22,1118766,29496
22.17,1808098,28984
85.72,1066861,28977
81.47,1083934,29244
75.42,1049884,28859
57.95,1253176,29355
48.93,1150358,37485
31.56,1494409,29234
25.85,2167860,39568
86.89,597503,28674
80.99,643947,28700
74.14,621181,28642
56.41,850113,28616
47.68,734813,28688
33.00,999966,28620
23.05,1516018,28647
86.33,1075169,28739
77.34,1106496,28719
74.16,1083420,28651
57.21,1313737,28935
49.79,1150264,28695
32.55,1400758,28704
26.45,1871501,28936
85.80,1095785,28680
82.62,1140666,28654
74.34,1127229,28629
62.35,1419377,28834
53.37,1235110,28578
40.20,1612543,28543
28.66,2290262,28612
78.98,397208,72006
69.46,632329,110508
57.21,1031035,183132
39.26,2061357,326187
24.12,3935394,597216
17.54,5438145,649561
10.49,10879373,1132496
78.78,410574,59161
72.22,640795,102331
58.58,1014458,177778
39.17,2030441,324340
23.72,3926612,605394
17.09,5440795,752345
10.22,10865269,1324287
80.30,436105,58263
70.16,642043,107776
57.12,994378,193481
39.62,1923309,360226
24.21,3662064,690342
18.02,5140233,1024581
10.20,10202351,1906903
81.23,399776,60615
69.22,569138,125514
60.13,843992,199739
40.13,1505187,402617
25.71,2714026,758975
21.20,2801920,946911
13.08,5222194,1738305
81.99,396630,61558
71.43,559156,113345
60.86,792380,202199
40.55,1388510,391752
25.30,2557481,741199
20.71,2422056,923037
13.23,4436859,1621078
81.57,443491,61411
72.16,503804,111067
64.00,478478,196767
45.70,704025,342495
29.34,1162134,649009
22.59,1100172,674485
15.10,1960597,1229460
79.39,413588,65493
75.86,425819,101038
63.92,474179,182434
45.68,668427,336280
30.22,997341,644101
19.88,917102,633547
14.19,1627978,1165692
84.37,666740,55743
75.80,681012,98470
66.38,669167,190981
49.38,822241,345588
33.60,1118694,634143
29.36,1067987,531020
18.65,1709504,883012
82.58,410837,40276
73.18,650266,51400
59.17,1040215,91237
43.56,2043159,73609
27.72,3967941,93556
19.96,5445875,123076
11.66,10890585,251795
81.60,437548,43155
73.63,645167,50039
62.83,1007774,66119
44.17,1924747,80637
28.33,3716178,147032
21.30,5144339,141079
12.88,10216627,139482
80.87,397553,44380
74.99,561501,59687
65.10,789476,83350
45.16,1362119,98880
30.66,2598057,103541
25.43,2430796,123941
16.72,4483515,199788
81.81,446428,42280
76.67,508327,51574
70.77,483969,64018
51.73,698961,85358
35.50,1175066,103656
27.41,1114659,97426
18.79,1987515,120848
84.60,412513,38145
76.66,434833,46885
70.17,483137,60948
50.75,696136,83390
34.51,1051864,103559
23.60,927804,106665
17.10,1629576,141868
83.77,668273,37255
79.49,687295,51368
71.51,675120,59707
57.46,833100,77286
41.64,1137115,91635
36.68,1079532,66724
22.78,1740189,169333
81.86,436071,32429
76.49,647081,32836
65.09,1002833,35505
44.16,1930798,64355
29.53,3731860,33497
21.95,5153070,33130
12.93,10241815,34519
81.55,399584,33526
76.68,566235,35074
66.77,807888,34156
47.89,1364045,35377
31.83,2604508,33726
25.80,2440829,37329
17.20,4502515,40168
86.28,415334,31391
78.48,437692,32372
72.34,491431,35267
52.18,710153,40810
36.52,1076725,34189
24.37,948609,36426
18.13,1664907,35884
85.27,668775,31352
79.87,692274,32463
74.38,684522,33288
57.33,845590,39553
42.65,1174231,36616
37.28,1096397,36770
24.10,1766825,35823
83.97,402573,30573
75.74,573992,30492
66.73,869193,30986
47.82,1471548,30506
31.46,2721317,30516
25.96,2838118,30460
16.60,5264910,49812
82.71,448567,30687
77.29,525902,30884
71.27,492629,30393
53.61,714243,29984
35.63,1216489,53904
27.96,1147561,30964
18.74,2058177,30861
86.07,415746,29665
79.75,440247,29885
71.68,500500,30485
52.55,722473,30016
36.79,1108878,30428
24.22,971345,30934
17.95,1691974,31786
85.56,670630,29967
82.20,700700,29976
74.38,687356,30339
58.42,872139,31343
42.32,1191214,30273
37.40,1121905,30475
23.95,1817513,31454
81.76,397874,30620
77.13,566262,29758
67.62,820838,29996
47.81,1359127,29742
31.79,2506204,29849
26.16,2446163,30419
17.26,4501123,30888
84.93,671405,29586
82.12,698348,29684
74.43,689375,30184
57.97,869383,29953
42.42,1203280,29598
37.44,1130104,30501
23.98,1836139,30825
84.03,449434,29245
77.96,537209,29207
72.73,513246,29069
53.88,726267,28993
36.43,1234880,28932
27.52,1171396,29930
18.80,2075404,29297
85.20,420052,28972
78.84,453913,28967
72.26,511478,29219
50.01,752945,41524
36.62,1153312,29190
23.92,1011183,29045
17.59,1783512,29413
86.18,673900,28905
81.29,704361,28814
73.42,697058,28830
57.09,890971,28789
41.40,1247221,28899
36.64,1165120,29260
23.38,1896280,29463
86.48,428203,28636
78.28,473495,28640
72.37,530651,28808
52.76,800232,28774
36.68,1247865,28630
24.84,890545,28747
18.93,1450299,28703
85.27,680466,28835
81.66,724784,28556
73.26,733943,28658
57.77,963854,28652
41.19,1373219,28599
38.15,1052407,28651
24.43,1590929,29307
85.76,695340,28636
78.22,769265,33537
77.08,787414,28592
59.26,1105242,28794
44.52,1634162,28708
40.37,1241725,28622
19.74,1957726,28648
83.63,261832,33289
77.45,460518,33801
68.17,750388,33131
54.50,1492758,34696
37.62,2878784,37667
26.62,4534818,32942
13.42,9064591,33851
75.19,460469,59399
66.74,761412,60991
52.75,1509013,63879
37.56,2880724,59796
26.48,4542527,53236
13.40,9065213,54864
65.22,752107,107600
51.43,1506399,109864
36.26,2884327,108083
26.03,4544684,83337
13.31,9068709,96369
49.57,1494471,207109
34.98,2891224,200186
26.04,4544480,128535
13.31,9065121,134560
32.86,2889857,386664
25.21,4542600,237767
13.07,9072892,264898
24.31,4543259,394565
12.80,9072617,478659
12.51,9064969,770236
82.91,280746,32441
78.79,473985,32345
69.74,747660,32799
53.94,1503267,32548
38.51,2871707,33021
26.64,4546887,33483
13.42,9087744,33558
77.28,472196,57907
68.22,761414,60101
51.82,1514612,76576
38.20,2872712,60593
26.24,4551728,70905
13.30,9089855,63659
64.98,752040,106241
52.27,1499758,108618
37.03,2875736,110981
26.07,4555726,98146
13.35,9089008,91628
49.82,1510921,205910
35.70,2873559,208502
25.83,4559422,163274
13.27,9088721,162514
33.59,2882700,402679
25.01,4560010,300183
13.05,9087574,302931
23.85,4560674,527055
12.62,9088146,608280
12.48,9086683,928597
83.14,325660,32788
78.93,495909,32910
70.80,725904,33326
58.09,1308377,33678
43.96,2380602,44414
40.72,1989196,34164
29.35,3525429,34983
77.95,496801,59916
67.57,757229,71323
56.90,1319968,61560
44.31,2386181,61624
39.65,2018020,59810
28.93,3533289,59617
66.66,742121,110200
55.73,1323169,111763
42.61,2401017,111898
39.50,2061405,94960
28.45,3547316,94818
52.26,1353387,208608
40.44,2426086,214268
38.67,2102626,177995
27.88,3585464,184614
37.57,2447403,413559
35.05,2184849,340770
26.91,3663796,321293
32.47,2321906,597609
24.69,3819966,601205
20.74,4128899,1126305
82.84,376461,33328
80.12,508370,33512
73.62,465572,32926
62.35,597143,47944
53.11,790356,33531
40.73,533097,33813
31.27,657276,39589
74.53,509399,62178
71.39,488619,63097
63.09,629182,62036
51.89,798423,59629
40.74,542127,58285
31.79,668202,62983
69.70,493630,107585
60.20,663155,108374
50.00,835837,109524
39.22,564213,95028
31.75,689545,97530
58.00,699022,204728
48.27,886853,207770
38.69,618389,169537
30.43,756455,192385
43.65,987339,402624
35.48,732663,303717
29.97,866754,309119
33.45,941807,511639
26.87,1090265,554903
23.34,1522607,917444
83.98,391945,34155
80.69,489723,34956
73.81,407299,33112
58.57,498504,47103
53.94,604048,33084
40.48,372271,33839
31.87,416434,34739
78.55,492921,60292
73.91,423566,60597
61.03,521807,76272
52.40,631153,60475
39.97,381032,60357
31.47,427415,60019
70.08,438869,110614
59.20,556333,120837
50.31,664413,112249
39.28,400254,93531
31.20,447228,94018
56.82,604497,205567
47.98,736410,206332
38.04,467544,161490
30.54,513184,166408
43.02,868091,389729
36.53,596285,287358
29.33,644527,285852
33.64,839063,481084
27.13,896170,486875
23.61,1384885,821264
85.02,454373,33398
79.70,419319,40567
74.03,387660,33424
66.28,398286,32697
54.02,426413,32803
41.31,315263,32255
32.84,316134,32122
78.68,448785,60120
73.25,400203,60011
64.58,429726,59633
52.83,456333,59653
39.92,313213,56042
32.50,315913,55954
68.69,418938,106415
62.71,456786,106857
49.87,482927,107121
40.28,303107,81994
32.11,301726,82102
57.35,534269,202532
48.15,584639,201253
38.71,369344,137143
30.95,367593,139446
43.46,760842,379151
37.00,503275,206321
29.81,503567,219002
34.21,781167,357758
27.76,776473,355134
24.64,1323081,605236
84.64,634466,34755
81.42,635191,32442
75.11,634420,33241
62.00,667038,34647
52.15,694880,32467
40.59,565818,32326
30.97,564019,42651
78.36,646748,60194
74.39,638293,59305
62.53,675829,59862
48.36,717677,67531
40.61,537675,56780
31.92,530031,56929
69.53,617695,108166
59.97,662190,108957
48.30,689021,107885
39.85,485830,85117
31.98,479589,82239
56.46,754071,197723
46.17,787115,203888
38.31,555073,134455
30.59,548451,131113
40.77,975748,382878
36.32,694636,214240
29.54,680339,179694
33.73,968640,326058
27.77,953813,294443
24.59,1500032,550678
83.98,1173317,32715
82.63,1164405,31980
77.34,1187117,31932
64.39,1241390,32522
51.04,1283512,32244
43.51,1107532,32603
29.76,1099938,32006
80.18,1165980,58827
72.36,1184853,58887
57.99,1283404,71454
50.00,1291455,59329
42.89,1088398,57231
29.31,1079891,56636
73.49,1110252,106448
61.60,1162236,109166
48.59,1184456,107471
42.55,970062,87614
28.33,975503,95292
56.82,1252028,209857
46.72,1277034,199882
40.21,1034435,138932
28.75,1031414,131019
39.36,1465316,401383
38.57,1166042,213844
27.92,1163183,201930
34.96,1444916,356032
27.19,1433550,318055
24.31,1964968,632112
81.46,761193,96131
74.11,595175,150580
66.64,580554,211303
50.40,1176057,398055
33.48,2277142,674393
24.32,2601377,632525
20.16,5181336,991671
82.62,760529,90056
75.80,596430,149694
65.45,578984,221517
48.90,1172768,430463
33.92,2278418,791189
24.13,2595331,777266
17.34,5153746,1385363
81.68,759719,91587
75.43,596456,159620
63.28,568858,270375
50.43,1127300,500753
32.59,2165397,906019
22.59,2512037,1245590
16.35,4951487,1928069
77.79,681942,102222
76.03,509384,167126
67.81,466079,285997
50.84,852355,551778
33.29,1558391,997469
28.45,1484612,650342
21.05,2829255,957376
77.25,685372,107964
74.44,524445,171684
66.56,467720,280322
50.65,844829,544222
34.58,1527909,988686
27.82,1469167,656116
21.16,2686406,910132
81.19,677796,100152
73.59,548970,172339
67.70,483575,273383
51.89,746932,511085
37.05,1236127,940565
30.54,1117388,425485
23.71,1963736,663470
79.66,673179,98248
72.54,613605,173835
69.10,513087,256064
49.65,765798,491945
32.20,1333256,904271
26.20,1142850,416823
22.45,1999123,637825
84.73,659898,91207
76.82,733120,149977
69.05,738837,239762
53.40,1005550,467332
35.64,1457035,842855
29.74,1320435,421005
29.22,2166894,743690
83.42,761572,49768
81.89,602758,58574
70.83,602845,91626
59.85,1217346,82065
43.79,2317446,108415
29.14,2611691,104421
23.06,5186265,430405
83.98,760626,55889
79.97,602249,59744
74.37,583312,67865
58.40,1178505,95171
42.09,2246271,158623
30.27,2530216,104654
25.45,4988462,151263
85.22,680448,52067
81.98,532988,61116
76.78,477151,70190
63.33,870834,97967
45.85,1565255,179503
34.67,1490096,126711
28.51,2721346,169960
85.12,679976,49028
81.00,555072,57934
75.78,495543,81079
62.20,767680,103353
50.59,1256500,93919
35.05,1140308,140291
27.64,2014321,337449
84.88,675488,50363
81.94,604022,60019
76.57,522711,59216
57.31,784519,115402
45.12,1258388,97981
32.58,1157371,85157
29.04,2035253,107994
86.30,659728,43444
81.60,739857,64551
82.32,753149,55383
64.45,1017211,58547
49.69,1482530,102285
35.54,1329761,92330
39.53,2184718,149966
85.42,762868,33410
83.62,597753,34135
77.67,596358,34585
62.58,1191326,34563
46.68,2268679,33050
31.34,2563394,35359
25.85,5042936,33282
87.12,685474,33501
83.37,539077,33847
73.44,491520,44117
62.78,887928,44297
49.60,1604638,34939
36.12,1522345,35955
30.14,2781904,35630
86.89,678123,34790
83.09,615438,35030
79.25,531195,35119
63.67,805597,34507
46.92,1296226,35040
33.71,1194022,33769
29.35,2099830,34025
88.54,664923,32718
85.16,742802,33204
82.22,761790,35222
66.55,1039903,35155
53.35,1514030,34366
35.96,1369037,52599
43.08,2225563,34311
87.82,692029,30399
82.90,524126,30735
78.41,480513,31348
64.73,910534,30319
49.89,1662746,29940
35.76,1581631,30610
29.03,2989459,29855
87.23,689453,30956
82.85,570700,30669
77.20,509056,30805
66.09,807346,31240
52.48,1342719,30611
36.95,1223806,31083
30.05,2172208,30115
84.43,683840,29828
83.37,614831,30323
79.71,540753,30494
62.80,832068,30599
47.67,1348207,30362
33.58,1240876,32223
29.23,2199753,32936
88.41,668878,29907
86.20,748291,30488
80.93,770471,30555
65.35,1080485,30318
51.07,1576747,30136
35.83,1413451,31373
41.84,2319962,30387
86.97,690464,29982
84.39,536537,30145
79.74,493887,30013
64.81,904838,29702
49.54,1647423,30281
35.53,1578756,31576
30.22,2878024,31309
87.68,673048,29868
85.93,755717,29719
82.95,769667,30451
66.14,1060728,29586
51.54,1569742,30816
35.51,1430146,30604
41.47,2337952,29767
81.14,700465,41046
83.05,572542,29161
77.07,514501,29112
65.69,842559,29133
51.59,1407638,29004
36.18,1289529,28964
29.65,2282632,28921
87.25,687539,28884
81.76,621348,28841
79.20,552781,29032
60.94,864691,28878
45.91,1429878,28867
32.47,1308705,29217
28.37,2323539,29287
86.35,674137,28813
85.29,760921,29244
83.01,780822,29112
64.87,1107579,28914
49.99,1644438,29133
33.90,1478327,44330
38.92,2445664,29155
85.59,707112,28686
83.61,635356,28529
77.92,585367,28597
61.59,974708,28744
46.36,1562077,28670
32.41,1295956,28736
29.77,2217605,28677
85.21,693634,28739
79.23,787410,36139
80.86,812300,28604
62.25,1221037,28647
48.14,1837618,28553
33.98,1484466,28747
41.91,2370294,28663
85.58,726435,28563
85.39,796471,28581
78.81,864572,28782
65.81,1213717,28519
51.66,1845767,28588
38.92,1833525,28642
40.01,3100169,28638
81.34,1138233,32927
76.42,335249,36061
77.12,298607,34390
70.91,567936,34116
60.49,1155125,35599
45.59,1613723,35086
31.35,3196165,34658
75.96,315064,61901
75.75,299563,63957
69.27,595102,63299
58.56,1133787,65021
44.38,1617194,55654
31.07,3201760,55447
70.51,298216,109064
67.20,593869,111304
58.13,1133657,110111
44.40,1611715,69456
30.79,3204186,70837
62.89,592316,210109
55.70,1134549,211427
42.46,1614133,133156
30.11,3205540,120641
49.08,1132129,385554
40.68,1616127,211944
28.74,3211492,236194
36.84,1617352,373662
26.88,3205598,400667
24.89,3203102,662675
82.33,1143137,32693
76.69,365646,34361
77.23,317912,34886
69.77,609755,46246
60.84,1166561,34354
46.04,1618361,36798
31.65,3196886,35605
75.48,342497,60497
75.55,317623,62803
69.82,609986,63995
59.69,1168852,62391
45.57,1618274,58804
31.36,3214298,59404
72.71,323539,110101
66.88,609829,111456
56.06,1184864,126618
43.46,1627228,98569
31.02,3217911,78877
65.83,606239,206835
54.21,1167281,206666
44.22,1624551,135016
30.29,3220303,138417
50.70,1161969,396819
41.53,1628791,237036
29.33,3218528,249369
35.58,1629044,451771
27.24,3217857,456952
23.56,3212300,821912
81.75,1144357,32706
76.58,405017,34426
77.25,354837,35129
72.36,578886,33617
63.91,1051386,34513
55.26,1015227,34773
36.73,1843230,35978
76.53,400087,63873
75.42,352935,63379
71.36,605599,64120
61.97,1053308,63980
53.50,1020104,60276
35.59,1871947,68273
73.35,355242,116218
68.91,603555,114593
60.77,1052603,112850
53.26,1034622,93392
36.29,1904829,96517
62.27,610763,216039
56.16,1064179,207314
51.02,1066598,174030
34.84,1927169,175446
49.99,1079442,390669
45.15,1113417,312546
33.61,1987373,327025
40.33,1207124,553323
30.75,2095150,622708
25.14,2309292,1104092
82.40,1149603,33046
76.05,485053,35624
76.48,400696,35255
73.55,515583,33720
67.16,706294,34535
57.92,618255,35558
37.58,762824,35731
75.25,462609,63279
75.02,400256,64314
71.98,532399,64138
65.51,703367,63875
55.83,627075,60946
36.46,784342,72685
73.50,403904,112985
68.91,533334,116094
62.69,715412,112573
55.07,631482,97132
36.76,789938,99888
64.59,556353,212026
59.10,751453,209431
53.84,677011,176406
35.44,862849,181244
50.80,827515,400122
48.29,751344,302675
32.65,962595,351661
42.00,898026,491500
30.79,1140949,596594
26.22,1492651,937499
82.06,1149728,32969
76.81,507656,35315
78.62,408024,35503
72.21,487159,33704
65.92,635704,42189
56.80,602249,34593
37.56,554028,35258
74.54,486503,63804
74.49,415678,64794
72.25,520436,64377
66.76,643879,62625
56.97,611067,61210
37.40,568382,61613
73.43,411730,112348
70.33,520923,115911
63.56,656510,113925
54.26,628662,109039
36.92,593098,97218
64.60,550688,218198
60.75,708996,199200
52.11,678079,195089
35.70,658848,176066
53.10,794957,376701
46.55,753192,342535
33.82,777217,322420
40.07,848705,454084
30.88,994992,559885
25.58,1394395,840520
81.77,1157962,33281
76.48,604565,34818
78.40,450004,34184
73.60,489008,33481
66.56,581340,34161
58.01,446731,35073
38.23,343371,33654
74.33,588104,63341
76.77,451651,63068
68.65,520465,75595
65.03,591221,63745
57.63,463480,59196
36.58,359925,74364
73.19,450544,110099
70.72,516793,112185
60.25,609178,125716
55.45,453536,92156
36.54,335528,88941
63.75,568610,204221
57.49,678451,206596
51.54,504601,153901
36.28,404302,150333
50.77,802988,405896
48.25,625974,260648
34.59,537745,240824
41.26,832119,411616
32.67,802251,366522
26.75,1309929,610366
81.19,1152555,34056
76.36,761379,34367
78.18,645862,34819
73.87,685009,32593
64.90,763315,40321
56.14,708696,33794
38.23,591491,33380
76.58,747228,62096
74.39,651646,61488
70.87,708597,61691
65.54,779142,61929
53.90,693886,58193
37.80,589460,58843
73.24,624329,104622
69.28,674433,109732
63.92,758260,111709
52.21,627660,92141
37.40,510214,91448
65.32,715966,198939
58.33,825363,202675
50.53,663368,153159
35.73,573953,152861
49.74,968888,394181
45.68,767618,239226
33.98,703703,251377
39.26,1029448,336788
31.96,971298,365720
27.76,1489460,586964
81.81,1148919,33121
72.30,1180819,33051
79.28,1183564,32609
75.70,1226773,31734
66.67,1265162,32556
54.91,1130132,32615
45.04,1122913,32861
73.48,1181816,59576
76.70,1187828,58631
71.21,1241644,59415
62.34,1266641,60429
54.07,1130657,57937
44.48,1123139,59976
73.24,1053627,105364
69.62,1106432,108540
61.71,1145526,107909
50.93,954775,90455
43.82,863586,94311
62.86,1097619,202980
56.62,1188537,204439
50.87,986951,149443
42.04,925773,156592
50.12,1365968,384379
45.29,1113459,227512
39.91,1057610,260624
41.52,1388802,345641
37.00,1308712,369400
31.84,1822490,631624
86.64,1961063,33169
87.09,349476,31534
84.41,306080,31467
73.86,564634,31793
63.21,1101533,32549
50.28,1561117,32506
39.62,3075375,31534
86.64,330310,57583
81.81,305827,56862
74.85,564634,58014
62.45,1102379,59101
50.01,1558321,50513
38.06,3080759,63270
77.10,304256,98472
70.42,564934,103528
60.58,1101901,103931
48.96,1560474,66595
39.03,3076739,68615
67.11,566167,186054
55.19,1101056,191367
46.79,1561061,108587
35.83,3076948,113698
47.12,1102582,351006
45.18,1567647,176041
37.13,3074576,202130
39.48,1573446,256390
35.31,3069524,329851
33.66,3071809,455006
86.67,1962877,32487
85.77,376073,32312
84.09,343697,32184
77.02,576576,32706
63.47,1048408,32798
52.38,1543255,34285
40.20,2930769,33935
85.19,374671,58944
81.64,352249,59707
75.22,578411,59657
64.38,1049123,60170
52.27,1543460,59281
39.88,2949860,57740
77.70,344616,104751
72.20,578050,106297
62.30,1051790,108281
51.49,1539231,99390
39.25,2939550,81556
67.47,580457,201010
55.57,1077810,211905
49.75,1540337,166902
38.84,2940998,144730
51.85,1069532,373628
43.90,1546101,249192
37.43,2934193,246520
40.93,1545465,270525
35.58,2951370,358359
32.72,2980176,558081
86.14,1963834,33195
86.94,459676,33354
86.01,409374,33496
78.37,606385,33953
68.38,972333,34662
57.60,808286,34150
61.70,1182913,34380
85.13,461067,61603
84.21,409487,60873
72.34,612768,69149
68.24,973760,61481
57.35,815602,59656
59.95,1193679,58879
80.68,401978,106971
74.37,607378,109050
64.33,979647,112001
57.74,818068,97221
59.99,1181125,93388
68.62,622535,209520
61.44,1009293,212619
53.95,849646,172976
55.84,1221520,168283
53.87,1062289,382070
47.98,917254,309798
50.91,1314185,328727
39.89,1071395,448788
43.26,1458875,587098
38.06,1821820,741178
86.97,1966800,33312
88.39,561839,33991
85.15,499753,33433
79.04,572774,33642
71.64,634225,33577
57.92,494947,34445
64.06,354992,33022
84.12,572968,60026
82.26,505240,60476
75.10,585739,61138
69.76,642926,62490
58.43,513378,58569
62.59,365761,56911
77.74,486276,110105
75.43,584251,111818
67.95,656438,110331
58.82,478480,92841
61.62,336274,89215
67.17,623610,206755
61.13,734573,204376
53.82,535338,158303
59.22,396265,132760
52.25,879628,397148
49.06,651176,203692
54.22,533458,183013
42.86,865957,248822
48.96,810526,254352
39.90,1344214,468324
86.72,1963091,33207
85.96,608641,33472
85.67,514410,33612
79.83,576718,33889
70.54,629431,33223
58.18,521719,34453
62.62,354334,33216
85.19,612531,60409
81.41,522605,61097
77.45,587137,62198
69.75,649111,60285
59.08,517190,58753
61.40,368894,56954
78.61,504046,109194
72.09,588563,113299
66.41,655026,112071
56.08,487251,93456
60.84,329098,82937
66.27,632348,202072
57.62,742083,219106
53.50,538444,155162
58.19,393664,114929
50.69,893326,413004
49.05,650100,204758
54.91,528214,159100
42.15,883381,236660
48.78,808191,247197
38.05,1350548,503324
84.57,1975380,33066
86.04,800229,33532
81.18,654438,42032
78.50,683446,33156
72.05,719775,32945
59.01,681953,34395
60.98,507612,31865
85.06,790473,60247
82.69,664263,60720
76.73,703641,60669
69.36,750378,61124
58.76,710749,59591
60.94,517420,54069
78.58,630965,107247
73.92,690602,109573
65.16,737609,107379
56.62,669111,100496
60.68,402441,58888
66.90,756178,194658
62.55,818466,197892
52.76,719023,180620
57.43,462130,79074
51.39,998455,378192
45.65,888239,320136
52.75,603410,141173
40.00,978524,244050
42.37,887807,253268
38.61,1447766,456944
87.28,1975411,33806
87.02,1166674,33005
85.74,1101709,32272
79.62,1139654,32785
69.97,1174887,31926
57.45,1168059,32743
56.59,966216,31861
84.41,1172723,60425
80.62,1114257,58827
75.77,1160210,59859
61.86,1243869,72459
57.36,1181135,55929
55.04,968065,54669
78.20,972814,105844
73.16,1054699,108464
65.84,1097093,106304
53.02,918027,59270
56.08,651636,70101
65.62,1103834,194356
59.57,1171820,200759
52.13,976979,81847
55.12,702874,77534
50.71,1338147,368318
47.96,1106770,125235
51.11,849285,131608
39.76,1268805,280972
43.84,1126531,264081
36.31,1662481,523125
87.91,1958742,32969
88.24,1942470,32418
84.25,1994175,31496
78.69,1992110,32060
70.37,2029014,31695
54.60,1899519,41642
54.08,1898093,32247
83.94,1943089,59010
83.09,2000987,58877
73.08,2020323,58051
66.67,2052646,58337
55.26,1904506,56391
53.33,1898535,56559
80.01,1504078,104428
73.12,1589607,105208
65.77,1552637,106566
50.61,1196813,56257
53.39,1268687,62561
67.21,1578598,194206
58.76,1566790,202052
48.74,1229499,102436
51.02,1329261,85316
50.62,1738385,383273
47.00,1381844,149203
47.78,1444471,140823
42.41,1650269,244540
42.97,1692030,264764
34.17,2185779,557164
82.95,1212158,33966
81.77,507164,34724
78.25,305671,34253
66.34,564016,51203
61.23,1097716,34435
45.89,1540623,31988
33.19,3047821,53399
81.55,504319,62413
74.02,305160,61535
68.98,559263,62749
59.57,1097894,60622
46.04,1541905,51660
34.61,3051483,53100
73.33,302815,108484
65.13,560740,110742
58.30,1097284,108423
44.16,1541019,72348
34.20,3053683,71924
64.13,560681,206210
54.26,1098675,200889
42.34,1543368,118639
33.50,3054714,119922
47.78,1104318,386372
41.36,1545512,183514
31.97,3053955,196553
36.48,1544051,302545
30.20,3052918,307049
28.25,3052853,545626
84.04,1207445,33887
82.58,523645,34008
78.36,335562,33486
70.09,586180,34228
62.25,1131191,33495
47.42,1658050,34188
34.70,3068837,33298
82.47,535956,62461
76.54,330123,62449
68.36,588428,61901
59.89,1137515,61881
46.27,1665628,59868
34.28,3076717,58419
71.50,323495,106982
65.66,587723,111060
56.60,1136140,111328
45.31,1645905,104005
34.05,3089057,87606
61.35,587384,205901
55.49,1133384,206771
43.30,1646402,190971
32.83,3088470,150304
49.00,1133664,395891
39.53,1622748,329330
31.75,3092533,260446
36.81,1571960,344440
28.88,3092679,482173
26.88,3090549,641990
85.84,1214480,34355
81.54,568516,34627
78.73,367666,34606
71.93,602497,35202
65.03,1073014,34827
54.32,912966,35499
37.00,1751965,35162
80.45,567872,63844
76.38,370511,64267
70.47,604625,65176
61.86,1078228,63399
54.85,915382,61538
35.99,1795138,62752
73.86,367362,111313
68.53,604459,113395
61.08,1075209,114893
53.39,927662,97426
36.08,1806857,96853
63.45,606227,215927
57.40,1088083,215271
50.41,957063,176097
35.17,1844769,178082
51.08,1100403,400896
44.17,1025101,327670
33.48,1907605,323495
40.22,1129991,543205
30.42,2021644,586859
27.75,2247468,965793
85.15,1212245,35343
81.67,613125,34700
79.78,419300,35215
73.58,554744,35627
64.16,796638,34939
57.12,606896,35924
36.92,830471,35938
79.18,626019,62914
75.57,429145,64389
72.12,554386,65843
64.99,798654,64712
55.33,613099,62096
36.86,847875,61130
74.23,426590,112642
66.83,561012,116091
61.82,816016,117196
53.59,630228,102243
36.16,861803,98604
64.75,580743,211718
55.51,854499,231977
51.33,670107,181329
35.26,913785,185523
52.42,922306,403182
45.30,763256,315678
33.56,1011939,331285
38.01,939054,545224
30.47,1207420,590521
26.63,1601939,1008828
85.81,1214444,36007
82.16,614867,34711
79.64,431716,35216
73.55,537801,35618
65.11,689431,34826
56.92,500383,35860
36.48,577853,35038
80.64,630799,62968
77.44,447529,63856
69.74,542481,71828
64.95,713119,62610
55.75,523850,62440
35.94,595181,61047
72.90,438744,113977
69.10,548960,117044
62.60,724620,114298
53.99,527779,100994
35.73,616084,98588
65.48,574652,211513
58.42,779383,208297
50.11,571399,172643
34.89,680578,175483
49.67,879612,409614
45.52,676411,295982
32.63,801214,307797
40.80,881650,505571
31.51,1035752,548646
26.53,1488815,944439
85.38,1215300,34615
81.85,738993,34700
78.98,479730,34551
73.35,517310,34934
67.22,580372,34521
57.01,493706,35748
37.66,339876,33050
81.76,733199,62839
77.16,489858,63492
72.08,522300,62760
66.57,588563,62894
54.09,517554,62530
36.77,348295,57480
75.84,489455,112722
69.74,540737,114372
63.75,608322,113186
53.96,528185,107238
36.90,337917,83116
64.11,604453,207358
57.92,696892,207009
49.54,598177,195581
35.26,419498,158588
51.80,849308,392704
44.96,728671,353097
34.39,546805,235494
39.95,849179,425652
32.99,822909,350979
27.58,1355303,651913
82.28,1213814,35443
83.33,888791,34686
81.22,669966,33417
76.49,702318,34191
64.76,746175,33948
53.48,672701,34389
37.44,574012,33528
80.81,896626,63145
77.71,690564,61181
73.58,723861,61788
65.17,771478,61400
53.21,672282,59206
37.02,575999,56906
75.70,667327,106766
71.26,711230,112810
63.46,748168,110675
51.86,606114,87407
36.78,495268,81722
66.11,791775,204031
58.35,843237,202924
48.69,653622,138258
35.80,564438,124712
51.17,1029739,397824
45.39,790326,211738
34.41,699018,195788
37.94,1036490,354695
31.80,973999,317712
27.57,1521772,557896
86.86,1167143,33876
86.41,1176679,33442
84.50,1190738,32264
76.55,1227914,31821
70.22,1301741,32815
56.40,1122243,32324
50.52,1125883,32560
84.47,1190912,59787
81.62,1204939,61167
73.89,1284523,60019
66.43,1280901,59792
55.91,1125912,57239
49.55,1124480,56919
74.67,1130036,115329
70.32,1151903,106462
62.44,1155003,108694
54.51,921914,84215
48.86,802541,84886
65.50,1234440,204465
57.75,1213541,200257
51.91,956779,133034
47.16,861817,133450
52.62,1409897,381721
47.02,1111069,207840
43.69,991540,217066
42.56,1394689,313790
39.02,1262177,335888
33.47,1811737,636611
80.26,386043,60336
72.90,657137,108819
57.10,1018048,164757
40.16,2060338,308867
26.45,3937449,573438
20.92,5446708,637646
10.87,10879272,1159870
81.61,400188,58603
73.04,666755,107342
57.68,1017345,187559
41.16,2038155,335627
27.06,3925498,611851
20.44,5466089,735885
10.73,10898979,1414129
83.69,380244,59820
74.68,568674,117501
61.53,827102,198478
45.41,1577539,360499
28.12,3031462,705951
26.11,3283323,919161
13.95,6512696,1784816
82.85,378706,61037
74.09,538797,114581
63.88,619206,199337
51.13,1004759,362241
33.37,1729392,717079
29.05,1652247,682433
18.18,2944856,1272359
83.36,389212,62514
75.19,535318,113978
67.44,554388,192968
49.92,878133,357157
34.34,1472481,686066
30.93,1340349,580646
17.99,2405151,1088689
84.20,436734,60492
76.46,444528,110833
66.25,420949,183180
52.23,601029,331719
33.03,933982,623280
31.00,867870,361074
19.74,1570431,668292
84.68,515386,57618
77.55,554730,103991
65.04,550565,185834
51.44,725033,334782
34.60,1018097,654529
26.30,995623,351109
18.85,1643197,634954
81.59,928293,56208
74.37,955359,114933
63.92,900597,185845
50.39,1083310,367414
36.00,1317595,665295
29.65,1313210,334282
23.64,1960850,540313
83.60,401410,42073
76.04,670204,55035
63.39,1020772,73302
46.46,2066428,107926
30.49,3980592,141535
23.57,5466829,106899
12.21,10902803,123383
84.24,381257,41001
76.28,577598,55265
66.99,836652,72864
52.11,1603752,97836
34.93,3128129,98867
30.78,3295330,184131
17.02,6542346,268106
84.66,392702,42668
79.92,539770,52265
70.78,565153,55249
58.92,896474,85922
41.05,1538089,97518
35.72,1356403,133772
22.46,2429567,125065
85.19,439012,45812
80.38,445126,51488
73.48,426635,61291
60.83,609981,78891
41.81,958244,83194
35.77,879324,77599
23.01,1601163,119715
86.52,519161,39787
76.77,556698,53438
68.07,557593,97144
56.61,727931,93277
45.81,1040066,72368
30.95,1006384,69224
22.38,1671466,80735
82.84,927856,40295
80.66,940470,51707
72.90,907865,64192
61.00,1080350,69983
46.46,1344982,117302
33.16,1329042,107761
25.67,1963260,98167
85.04,381692,32215
79.44,574271,33953
69.02,842662,35601
54.84,1581182,34426
36.16,3141848,34270
32.07,3299773,35045
17.59,6563000,34562
85.77,395265,32829
76.33,553219,56241
73.18,577138,36003
62.01,900165,33710
42.41,1555624,34113
37.19,1361697,35144
22.75,2460075,35496
86.69,519808,31876
77.01,559184,33416
73.86,566394,34522
61.10,737188,34243
45.97,1047330,34871
30.77,1024156,47237
22.53,1708726,35048
87.47,928651,31356
83.32,944142,35023
73.36,915896,37025
61.05,1095238,33347
48.98,1370849,35208
34.67,1349399,34893
25.96,2003899,35278
86.30,383334,30249
81.12,547294,30598
73.77,640301,31348
61.48,1006582,30346
41.50,1814188,30564
35.83,1691732,39824
22.06,2990300,30590
86.31,444094,30138
80.85,459578,30212
76.07,426660,30487
63.47,607183,30349
43.48,977075,29753
37.01,903079,31018
23.33,1649713,30717
83.76,519383,38013
82.13,561765,29611
73.98,562445,30522
59.53,733800,38908
47.66,1058086,30871
30.77,1033984,48052
22.62,1726629,30446
87.06,931095,29908
81.95,947797,30217
74.30,919688,30115
63.03,1087152,30144
49.27,1380622,30658
34.55,1354961,30817
25.57,2005027,39039
86.92,395968,29995
81.50,547568,29841
74.38,561387,30463
61.78,873909,29833
42.07,1549710,29695
37.07,1367695,29997
22.51,2470482,31324
84.61,933543,29788
79.96,950431,29406
67.94,924074,38833
59.73,1109433,38066
48.86,1393374,30396
34.42,1360993,31092
25.22,2021623,43510
87.36,451329,29067
81.83,470849,29059
75.52,437728,29074
61.67,629512,43918
42.26,1009249,28866
36.34,929761,28968
22.70,1697346,29336
85.09,524668,28894
82.79,569522,28738
74.25,574030,29039
61.16,754524,28885
46.96,1090249,28998
30.47,1076449,29002
21.73,1792947,29202
82.97,936435,28972
81.11,958380,29315
75.12,929026,29065
62.68,1116322,29053
48.20,1417120,29032
34.44,1390616,29147
25.10,2068578,29224
86.77,534649,28686
83.18,587354,28750
74.65,599708,28595
60.05,796485,28683
46.94,1198037,28778
31.89,955033,28725
23.06,1486574,28650
86.45,946792,28677
81.92,978725,28603
74.16,959203,28681
61.98,1175867,28574
47.33,1520449,28640
34.84,1302034,28803
25.72,1792835,28715
88.03,962655,28577
83.24,1014590,28597
75.51,1010814,28537
62.90,1259907,28592
48.54,1723030,33804
39.14,1485223,28536
28.29,2195425,28612
81.68,384481,63171
71.67,642605,108300
59.04,1018282,177606
39.58,2044328,325310
25.97,3786671,576312
19.88,5443502,566437
10.62,10870401,1121361
82.09,399067,57839
72.01,650644,104053
59.92,1005334,180054
39.97,2007067,321582
24.92,3756756,620858
19.07,5447853,715206
10.56,10878430,1339261
81.84,413830,60610
72.47,607015,110392
60.09,885233,193035
39.91,1735192,360231
26.09,3252484,696278
21.67,4309308,984295
11.98,8536319,2011637
81.29,372819,61855
73.29,534664,112799
59.56,707536,211205
41.21,1246964,393672
27.43,2176687,730307
23.41,2225557,826567
14.78,3986893,1464201
81.01,382147,60972
73.90,534878,114345
63.64,653856,200770
43.74,1139141,371828
28.98,1940148,723651
24.94,1850591,737575
15.65,3303679,1372981
81.37,427324,61217
74.20,452151,112751
65.05,444043,188641
47.63,649863,343449
30.77,1014245,634944
25.46,936090,542185
17.55,1678069,901909
84.47,459899,58359
73.65,488706,103215
64.63,510191,181514
43.73,689655,339515
29.28,996567,648110
22.61,956073,419784
16.34,1613367,837109
83.67,797408,58192
78.10,804288,98711
65.71,783202,181986
47.96,945987,339231
34.98,1225235,647106
28.75,1213549,486255
22.18,1839017,671133
79.90,405521,42365
75.11,652917,55801
62.04,1021635,69916
44.51,2050259,70455
29.07,3812951,120723
21.61,5452401,144769
12.13,10891794,123233
82.84,416942,40865
75.81,612125,54791
65.49,894385,77843
45.14,1770109,76442
30.61,3326585,149622
25.38,4321868,125537
14.82,8555736,167624
81.68,382803,42148
75.95,541767,54095
68.72,662832,63524
49.27,1162749,87687
33.74,2010272,127688
29.71,1872639,107804
19.54,3344959,246672
82.44,421943,41239
78.80,455432,49944
70.11,450047,68022
51.56,652354,90349
36.77,1037189,135317
31.06,946892,83569
20.56,1707175,215195
85.37,460471,40385
79.68,493309,53280
70.62,514125,56479
51.54,702627,80033
37.32,1023778,80382
26.74,964605,68895
19.11,1637387,213481
84.76,798714,39895
78.92,807213,52420
72.16,793038,63572
57.22,963814,76606
40.85,1255706,142643
35.20,1215220,66256
24.38,1850393,89551
84.11,416147,32405
78.16,614602,34671
66.83,907460,35115
47.26,1773704,33943
32.37,3341602,34700
25.92,4334353,35614
15.21,8563594,34779
84.04,385542,32593
79.56,545548,33054
69.60,661597,37418
50.79,1170102,34397
35.47,2045962,34878
30.85,1877675,36714
20.25,3360824,36541
86.08,459944,31657
80.22,496158,33034
72.90,520062,33975
53.66,711738,33854
38.57,1051130,34568
27.34,979689,33519
19.84,1675277,47390
85.70,800595,32180
77.61,820803,48531
74.28,800917,34469
59.69,972291,34934
42.73,1294113,60816
36.15,1234674,33901
25.41,1887681,34440
84.91,374143,29883
78.85,543858,30011
68.47,722312,29982
50.80,1263793,30261
34.76,2261354,29825
29.14,2253840,48052
19.11,4066871,42565
82.95,432320,29985
80.62,471151,30420
73.55,469251,30682
55.25,674614,30189
38.18,1068243,30228
31.95,975622,30249
21.52,1767828,31333
87.35,462523,30191
80.70,498851,30290
73.70,524939,30619
53.52,719356,30238
37.59,1069546,43729
27.33,995911,32130
20.06,1704761,30871
85.83,801184,29706
82.74,814229,29537
73.58,812181,30594
59.53,981049,30047
44.41,1302981,30470
36.38,1253818,31332
25.39,1914281,31547
81.08,386278,29664
79.03,548777,30380
69.68,666451,29770
51.16,1157851,30361
35.70,2032775,29706
30.24,1892235,29797
20.05,3377642,29974
85.99,800778,29399
81.89,814266,29570
74.07,800656,30755
59.95,985270,30045
43.51,1308004,31007
36.02,1255389,30321
25.46,1918451,30371
85.63,436056,29215
81.34,481497,29262
73.93,464878,28909
55.36,679621,28918
38.53,1109077,28863
31.24,1006001,29720
21.09,1805096,29276
84.92,465521,28801
80.59,509336,29052
73.30,538988,28934
52.45,746890,29055
38.31,1115435,28946
26.92,1034838,29217
19.61,1781379,29184
86.60,803570,28921
81.71,821397,29029
71.45,820159,29123
58.74,1008939,28994
42.84,1365572,29371
35.33,1286659,29143
24.97,1986059,29176
86.36,475400,28629
80.26,526670,28626
71.38,568712,28636
53.23,802875,28690
37.99,1216782,29017
27.87,918344,28766
20.88,1460530,28590
85.92,813346,28950
81.00,843747,28507
72.76,843501,28599
59.14,1075355,28778
42.98,1469973,28636
36.58,1172074,28669
25.77,1684105,28703
88.08,824629,28587
83.60,881182,28581
75.19,898455,28589
63.90,1188375,28581
49.30,1618693,28546
39.80,1350255,28607
23.95,2073336,28610
79.08,397875,64760
70.81,644024,110637
58.17,1017984,179303
39.84,2052578,319731
25.50,3803921,579485
19.88,5444513,565828
10.99,10871477,1047540
81.30,405322,58955
71.81,653611,105334
58.11,1010945,182079
39.34,2033454,331280
24.77,3776825,636437
18.53,5452513,747471
10.30,10900056,1453648
82.01,412842,59660
72.99,603759,108508
58.24,899977,193828
40.41,1757527,359468
26.18,3259564,693498
20.52,4219743,994417
11.65,8359173,1856091
82.06,384483,61975
73.10,549033,113931
61.18,729056,196921
42.28,1254406,373033
28.12,2255183,704859
22.77,2234071,825984
14.59,4019173,1527032
83.34,390297,61987
72.89,546200,114520
62.45,672024,200236
43.16,1149991,364615
28.65,1989294,723437
23.99,1850651,783769
15.26,3341688,1408119
81.73,441878,62069
76.51,471411,112496
65.87,445911,188712
46.28,654006,340396
31.50,1039194,625261
25.64,942030,534367
16.07,1714699,975672
84.01,462057,57572
74.24,493167,103490
66.63,512873,184392
44.20,694312,338718
31.10,1000990,625473
23.21,958889,434908
16.30,1632490,841922
84.41,804358,58252
75.95,810025,101311
65.43,786451,183338
50.12,948352,348063
34.85,1231234,665606
29.17,1197963,417960
21.78,1840564,590641
82.29,406416,41714
75.54,655130,51484
62.94,1023161,59198
42.91,2062877,83764
29.73,3854959,94485
21.96,5457537,83657
11.96,10902064,249744
83.50,413907,41427
74.71,608537,55285
65.29,907090,64521
44.20,1791914,85545
31.27,3342448,107592
24.84,4234088,206736
15.11,8397824,127424
83.58,391482,41006
76.05,550373,56660
68.00,675883,57585
48.91,1164308,102508
34.89,2061825,138878
30.37,1865960,125226
19.47,3400682,198140
83.25,439972,42560
77.45,476152,57657
69.74,453598,62161
54.16,659511,72866
36.30,1048891,139581
30.90,952137,126826
20.76,1742116,106110
84.15,462788,40774
78.50,494320,53070
68.40,517737,58534
52.12,709875,74721
34.74,1042010,157557
25.90,973330,95217
18.99,1645396,172050
84.20,804930,38113
77.90,812902,46679
70.25,790687,64128
53.93,986414,119120
42.36,1257641,118153
34.08,1208792,83234
23.63,1859088,127092
83.29,412752,33213
78.73,611123,33191
65.77,904319,33533
46.61,1796532,34277
32.14,3365517,46556
26.44,4244801,35116
15.04,8419519,34789
84.34,393103,32830
79.12,555220,32953
69.96,699517,34984
51.16,1173666,33556
36.01,2090595,33844
30.96,1880570,35593
20.14,3401366,35315
85.29,466502,31781
78.63,499218,33200
72.46,525175,33163
53.88,718765,34414
38.55,1054717,34945
27.12,993199,36119
20.31,1684640,33261
84.75,807905,31901
81.55,816516,32177
74.04,801310,34220
60.02,971699,34442
44.23,1279560,35594
35.43,1226818,34192
24.61,1886804,33851
83.94,388013,30209
79.08,559589,30028
69.87,744967,30394
50.14,1266261,30335
35.36,2323470,30304
30.10,2255543,31133
19.33,4069098,30377
85.59,443985,30168
80.06,468069,30257
73.08,459016,29755
55.17,669988,30063
38.28,1086915,30410
32.01,984888,31294
21.17,1790196,30983
85.77,466742,29816
80.09,506440,29716
72.84,527814,30340
53.76,725195,30116
38.89,1075332,30220
27.22,1003974,31562
20.35,1715666,30513
85.19,807906,30103
80.95,819691,30053
74.67,805238,30607
59.90,980331,30118
44.28,1300482,30214
35.62,1245406,31450
24.61,1914214,30215
85.58,396905,30057
78.25,562560,29880
70.06,697509,29973
51.51,1155213,30984
36.42,2066635,30072
30.85,1880458,30846
20.14,3387878,30382
85.90,806593,29464
82.28,820340,29829
74.09,806116,30142
59.79,983697,29311
44.48,1308073,29920
35.91,1249910,30170
24.53,1924431,29455
85.29,451625,29358
79.66,502411,29047
73.56,460068,29344
55.61,683105,28972
38.95,1111432,29155
31.62,1010131,29037
21.07,1824319,30570
85.67,471478,28938
81.68,508792,28833
71.77,541301,29303
52.73,750359,28799
38.40,1120945,28976
26.78,1045687,29227
19.74,1787545,29091
85.18,814239,28978
81.45,826898,28816
