perf, CACHE_MISS_L1, CACHE_MISS_L2
49.26,68519,13384
51.16,68658,12044
49.92,68638,12577
45.67,68644,12614
48.80,72609,12069
45.65,72629,12860
52.39,72562,13244
51.55,72627,12724
51.89,79773,11774
50.83,79796,13039
51.63,79996,15120
52.68,79498,15163
50.98,93904,11654
49.62,94066,13629
47.32,94278,15371
44.03,94603,17532
43.77,121282,11743
38.17,121659,13406
43.80,121049,13895
44.19,121579,15183
35.44,172668,11826
36.66,174240,13809
36.17,172699,14665
35.75,179406,16249
24.52,276073,11836
24.53,275749,13982
24.39,275388,14920
23.16,282289,15497
13.76,395260,11837
13.55,391327,13761
13.37,395808,14088
12.36,444436,12129
7.84,824989,11723
7.73,819892,14127
7.77,832542,14772
7.28,910672,12040
42.92,63987,13794
45.84,64480,16991
47.56,65807,13387
48.32,68575,12222
55.28,65372,11991
48.87,66202,12235
51.20,67464,12435
48.90,70227,12550
55.39,68514,11940
47.26,69460,12331
51.54,70592,12536
45.58,73250,12745
53.94,74810,11736
49.80,75810,12938
50.71,76990,13588
45.17,79467,17552
51.84,87318,11933
49.11,88300,12860
47.67,89457,13579
46.16,90074,12661
47.56,66915,11583
46.19,67760,13073
42.45,68922,18411
41.89,71657,13537
41.96,67069,11370
41.15,67623,13468
38.38,68687,17026
34.70,69445,13209
36.71,64815,11726
35.78,69503,13590
29.58,67044,15277
26.10,75514,12536
25.41,62696,11359
26.01,64801,13473
24.22,67149,13803
18.60,70045,12048
