[Task MobilNet_01] Current/Best:    0.00/   0.00 GFLOPS | Progress: (0/792) | 0.00 s
[Task MobilNet_01] Current/Best:    6.23/ 110.63 GFLOPS | Progress: (64/792) | 56.38 s
[Task MobilNet_01] Current/Best:   13.96/ 119.18 GFLOPS | Progress: (128/792) | 96.28 s
[Task MobilNet_01] Current/Best:   64.41/ 121.35 GFLOPS | Progress: (192/792) | 135.07 s
[Task MobilNet_01] Current/Best:   17.62/ 121.35 GFLOPS | Progress: (256/792) | 185.65 s
[Task MobilNet_01] Current/Best:   33.18/ 121.35 GFLOPS | Progress: (320/792) | 238.82 s
[Task MobilNet_01] Current/Best:   16.49/ 121.35 GFLOPS | Progress: (384/792) | 291.32 s
[Task MobilNet_01] Current/Best:    9.39/ 121.35 GFLOPS | Progress: (448/792) | 345.24 s
[Task MobilNet_01] Current/Best:   17.31/ 121.35 GFLOPS | Progress: (512/792) | 406.73 s
[Task MobilNet_01] Current/Best:   13.70/ 121.35 GFLOPS | Progress: (576/792) | 458.90 s
[Task MobilNet_01] Current/Best:   23.59/ 121.35 GFLOPS | Progress: (640/792) | 522.61 s
[Task MobilNet_01] Current/Best:   23.84/ 121.35 GFLOPS | Progress: (704/792) | 590.27 s
[Task MobilNet_01] Current/Best:    4.59/ 121.35 GFLOPS | Progress: (768/792) | 654.10 s
[Task MobilNet_01] Current/Best:    4.21/ 121.35 GFLOPS | Progress: (792/792) | 677.87 s
 Done.
[Task MobilNet_02] Current/Best:    0.00/   0.00 GFLOPS | Progress: (0/980) | 0.00 s
[Task MobilNet_02] Current/Best:   20.52/ 103.05 GFLOPS | Progress: (64/980) | 60.57 s
[Task MobilNet_02] Current/Best:    8.27/ 107.36 GFLOPS | Progress: (128/980) | 103.71 s
[Task MobilNet_02] Current/Best:   32.12/ 107.36 GFLOPS | Progress: (192/980) | 146.13 s
[Task MobilNet_02] Current/Best:   22.83/ 107.36 GFLOPS | Progress: (256/980) | 199.95 s
[Task MobilNet_02] Current/Best:   44.65/ 107.36 GFLOPS | Progress: (320/980) | 257.21 s
[Task MobilNet_02] Current/Best:    2.13/ 107.36 GFLOPS | Progress: (384/980) | 311.02 s
[Task MobilNet_02] Current/Best:   16.04/ 107.36 GFLOPS | Progress: (448/980) | 359.22 s
[Task MobilNet_02] Current/Best:   22.06/ 107.36 GFLOPS | Progress: (512/980) | 416.40 s
[Task MobilNet_02] Current/Best:   27.04/ 107.36 GFLOPS | Progress: (576/980) | 470.21 s
[Task MobilNet_02] Current/Best:   12.78/ 107.36 GFLOPS | Progress: (640/980) | 533.07 s
[Task MobilNet_02] Current/Best:   15.60/ 107.36 GFLOPS | Progress: (704/980) | 590.57 s
[Task MobilNet_02] Current/Best:   16.78/ 107.36 GFLOPS | Progress: (768/980) | 659.75 s
[Task MobilNet_02] Current/Best:   11.84/ 107.36 GFLOPS | Progress: (832/980) | 721.66 s
[Task MobilNet_02] Current/Best:   11.06/ 107.36 GFLOPS | Progress: (896/980) | 786.81 s
[Task MobilNet_02] Current/Best:    4.17/ 107.36 GFLOPS | Progress: (960/980) | 854.37 s
[Task MobilNet_02] Current/Best:   17.06/ 107.36 GFLOPS | Progress: (980/980) | 880.89 s
 Done.
[Task MobilNet_03] Current/Best:    0.00/   0.00 GFLOPS | Progress: (0/1280) | 0.00 s
[Task MobilNet_03] Current/Best:   28.83/ 122.65 GFLOPS | Progress: (64/1280) | 89.68 s
[Task MobilNet_03] Current/Best:   97.34/ 125.48 GFLOPS | Progress: (128/1280) | 139.54 s
[Task MobilNet_03] Current/Best:    6.53/ 125.48 GFLOPS | Progress: (192/1280) | 188.85 s
[Task MobilNet_03] Current/Best:   50.83/ 125.48 GFLOPS | Progress: (256/1280) | 236.90 s
[Task MobilNet_03] Current/Best:   57.72/ 125.48 GFLOPS | Progress: (320/1280) | 303.26 s
[Task MobilNet_03] Current/Best:   58.14/ 125.48 GFLOPS | Progress: (384/1280) | 368.84 s
[Task MobilNet_03] Current/Best:   36.47/ 125.48 GFLOPS | Progress: (448/1280) | 488.12 s
[Task MobilNet_03] Current/Best:   39.45/ 125.48 GFLOPS | Progress: (512/1280) | 563.93 s
[Task MobilNet_03] Current/Best:   33.08/ 125.48 GFLOPS | Progress: (576/1280) | 659.20 s
[Task MobilNet_03] Current/Best:   48.97/ 125.48 GFLOPS | Progress: (640/1280) | 721.79 s
[Task MobilNet_03] Current/Best:   38.44/ 125.48 GFLOPS | Progress: (704/1280) | 809.07 s
[Task MobilNet_03] Current/Best:    8.55/ 125.48 GFLOPS | Progress: (768/1280) | 902.86 s
[Task MobilNet_03] Current/Best:    4.27/ 125.48 GFLOPS | Progress: (832/1280) | 988.07 s
[Task MobilNet_03] Current/Best:   40.79/ 125.48 GFLOPS | Progress: (896/1280) | 1078.58 s
[Task MobilNet_03] Current/Best:    4.18/ 125.48 GFLOPS | Progress: (960/1280) | 1213.00 s
[Task MobilNet_03] Current/Best:   13.26/ 125.48 GFLOPS | Progress: (1024/1280) | 1312.19 s
[Task MobilNet_03] Current/Best:    7.45/ 125.48 GFLOPS | Progress: (1088/1280) | 1473.67 s
[Task MobilNet_03] Current/Best:    6.92/ 125.48 GFLOPS | Progress: (1152/1280) | 1574.62 s
[Task MobilNet_03] Current/Best:   33.10/ 125.48 GFLOPS | Progress: (1216/1280) | 1702.37 s
[Task MobilNet_03] Current/Best:    4.47/ 125.48 GFLOPS | Progress: (1280/1280) | 1830.11 s
 Done.
[Task MobilNet_04] Current/Best:    0.00/   0.00 GFLOPS | Progress: (0/1024) | 0.00 s
[Task MobilNet_04] Current/Best:   32.17/  91.35 GFLOPS | Progress: (64/1024) | 51.07 s
[Task MobilNet_04] Current/Best:   16.93/ 108.66 GFLOPS | Progress: (128/1024) | 88.93 s
[Task MobilNet_04] Current/Best:   44.15/ 110.81 GFLOPS | Progress: (192/1024) | 126.17 s
[Task MobilNet_04] Current/Best:   30.94/ 110.81 GFLOPS | Progress: (256/1024) | 166.31 s
[Task MobilNet_04] Current/Best:   16.35/ 110.81 GFLOPS | Progress: (320/1024) | 211.57 s
[Task MobilNet_04] Current/Best:   11.96/ 110.81 GFLOPS | Progress: (384/1024) | 259.93 s
[Task MobilNet_04] Current/Best:   23.33/ 110.81 GFLOPS | Progress: (448/1024) | 304.45 s
[Task MobilNet_04] Current/Best:    4.22/ 110.81 GFLOPS | Progress: (512/1024) | 363.13 s
[Task MobilNet_04] Current/Best:   27.28/ 110.81 GFLOPS | Progress: (576/1024) | 410.78 s
[Task MobilNet_04] Current/Best:    8.44/ 110.81 GFLOPS | Progress: (640/1024) | 461.72 s
[Task MobilNet_04] Current/Best:    8.45/ 110.81 GFLOPS | Progress: (704/1024) | 516.24 s
[Task MobilNet_04] Current/Best:   25.91/ 110.81 GFLOPS | Progress: (768/1024) | 572.75 s
[Task MobilNet_04] Current/Best:   32.52/ 110.81 GFLOPS | Progress: (832/1024) | 625.17 s
[Task MobilNet_04] Current/Best:    5.36/ 110.81 GFLOPS | Progress: (896/1024) | 688.04 s
[Task MobilNet_04] Current/Best:   11.51/ 110.81 GFLOPS | Progress: (960/1024) | 747.82 s
[Task MobilNet_04] Current/Best:    8.22/ 110.81 GFLOPS | Progress: (1024/1024) | 811.85 s
 Done.
[Task MobilNet_05] Current/Best:    0.00/   0.00 GFLOPS | Progress: (0/1296) | 0.00 s
[Task MobilNet_05] Current/Best:   43.07/ 104.87 GFLOPS | Progress: (64/1296) | 97.91 s
[Task MobilNet_05] Current/Best:   22.74/ 106.16 GFLOPS | Progress: (128/1296) | 150.61 s
[Task MobilNet_05] Current/Best:   27.60/ 122.49 GFLOPS | Progress: (192/1296) | 199.49 s
[Task MobilNet_05] Current/Best:   14.20/ 122.49 GFLOPS | Progress: (256/1296) | 248.47 s
[Task MobilNet_05] Current/Best:   13.15/ 122.49 GFLOPS | Progress: (320/1296) | 303.08 s
[Task MobilNet_05] Current/Best:   62.76/ 122.49 GFLOPS | Progress: (384/1296) | 405.16 s
[Task MobilNet_05] Current/Best:    8.34/ 122.49 GFLOPS | Progress: (448/1296) | 481.58 s
[Task MobilNet_05] Current/Best:    9.77/ 122.49 GFLOPS | Progress: (512/1296) | 580.98 s
[Task MobilNet_05] Current/Best:    6.53/ 122.49 GFLOPS | Progress: (576/1296) | 675.62 s
[Task MobilNet_05] Current/Best:   12.22/ 122.49 GFLOPS | Progress: (640/1296) | 745.20 s
[Task MobilNet_05] Current/Best:   32.27/ 122.49 GFLOPS | Progress: (704/1296) | 843.05 s
[Task MobilNet_05] Current/Best:    2.11/ 122.49 GFLOPS | Progress: (768/1296) | 938.75 s
[Task MobilNet_05] Current/Best:   22.09/ 122.49 GFLOPS | Progress: (832/1296) | 1030.54 s
[Task MobilNet_05] Current/Best:   14.76/ 122.49 GFLOPS | Progress: (896/1296) | 1150.77 s
[Task MobilNet_05] Current/Best:    8.33/ 122.49 GFLOPS | Progress: (960/1296) | 1262.49 s
[Task MobilNet_05] Current/Best:   24.50/ 122.49 GFLOPS | Progress: (1024/1296) | 1380.35 s
[Task MobilNet_05] Current/Best:   25.71/ 122.49 GFLOPS | Progress: (1088/1296) | 1486.27 s
[Task MobilNet_05] Current/Best:    4.21/ 122.49 GFLOPS | Progress: (1152/1296) | 1594.48 s
[Task MobilNet_05] Current/Best:   10.93/ 122.49 GFLOPS | Progress: (1216/1296) | 1724.23 s
[Task MobilNet_05] Current/Best:    8.32/ 122.49 GFLOPS | Progress: (1280/1296) | 1869.81 s
[Task MobilNet_05] Current/Best:    9.67/ 122.49 GFLOPS | Progress: (1296/1296) | 1910.82 s
 Done.
[Task MobilNet_06] Current/Best:    0.00/   0.00 GFLOPS | Progress: (0/972) | 0.00 s
[Task MobilNet_06] Current/Best:   32.86/  79.29 GFLOPS | Progress: (64/972) | 59.54 s
[Task MobilNet_06] Current/Best:   33.25/  99.94 GFLOPS | Progress: (128/972) | 97.88 s
[Task MobilNet_06] Current/Best:   50.88/  99.94 GFLOPS | Progress: (192/972) | 136.77 s
[Task MobilNet_06] Current/Best:    8.33/  99.94 GFLOPS | Progress: (256/972) | 184.73 s
[Task MobilNet_06] Current/Best:   23.73/  99.94 GFLOPS | Progress: (320/972) | 229.84 s
[Task MobilNet_06] Current/Best:   22.91/  99.94 GFLOPS | Progress: (384/972) | 278.79 s
[Task MobilNet_06] Current/Best:   16.60/  99.94 GFLOPS | Progress: (448/972) | 323.58 s
[Task MobilNet_06] Current/Best:   36.37/  99.94 GFLOPS | Progress: (512/972) | 372.70 s
[Task MobilNet_06] Current/Best:    8.34/  99.94 GFLOPS | Progress: (576/972) | 423.61 s
[Task MobilNet_06] Current/Best:    8.26/  99.94 GFLOPS | Progress: (640/972) | 479.28 s
[Task MobilNet_06] Current/Best:   24.65/  99.94 GFLOPS | Progress: (704/972) | 539.26 s
[Task MobilNet_06] Current/Best:   16.44/  99.94 GFLOPS | Progress: (768/972) | 595.06 s
[Task MobilNet_06] Current/Best:    6.07/  99.94 GFLOPS | Progress: (832/972) | 658.01 s
[Task MobilNet_06] Current/Best:   18.17/  99.94 GFLOPS | Progress: (896/972) | 724.07 s
[Task MobilNet_06] Current/Best:    8.43/  99.94 GFLOPS | Progress: (960/972) | 784.86 s
[Task MobilNet_06] Current/Best:   14.40/  99.94 GFLOPS | Progress: (972/972) | 797.68 s
 Done.
[Task MobilNet_07] Current/Best:    0.00/   0.00 GFLOPS | Progress: (0/1200) | 0.00 s
[Task MobilNet_07] Current/Best:   17.91/  93.46 GFLOPS | Progress: (64/1200) | 128.85 s
[Task MobilNet_07] Current/Best:   88.19/ 110.88 GFLOPS | Progress: (128/1200) | 205.43 s
[Task MobilNet_07] Current/Best:   53.27/ 110.88 GFLOPS | Progress: (192/1200) | 284.75 s
[Task MobilNet_07] Current/Best:    4.20/ 110.88 GFLOPS | Progress: (256/1200) | 427.14 s
[Task MobilNet_07] Current/Best:   53.21/ 110.88 GFLOPS | Progress: (320/1200) | 552.39 s
[Task MobilNet_07] Current/Best:   16.52/ 110.88 GFLOPS | Progress: (384/1200) | 657.54 s
[Task MobilNet_07] Current/Best:   16.30/ 110.88 GFLOPS | Progress: (448/1200) | 768.22 s
[Task MobilNet_07] Current/Best:   35.55/ 110.88 GFLOPS | Progress: (512/1200) | 868.06 s
[Task MobilNet_07] Current/Best:   26.15/ 110.88 GFLOPS | Progress: (576/1200) | 997.35 s
[Task MobilNet_07] Current/Best:   19.79/ 110.88 GFLOPS | Progress: (640/1200) | 1132.04 s
[Task MobilNet_07] Current/Best:    4.18/ 110.88 GFLOPS | Progress: (704/1200) | 1270.70 s
[Task MobilNet_07] Current/Best:    3.65/ 110.88 GFLOPS | Progress: (768/1200) | 1400.89 s
[Task MobilNet_07] Current/Best:   24.36/ 110.88 GFLOPS | Progress: (832/1200) | 1540.47 s
[Task MobilNet_07] Current/Best:   16.84/ 110.88 GFLOPS | Progress: (896/1200) | 1700.16 s
[Task MobilNet_07] Current/Best:   12.70/ 110.88 GFLOPS | Progress: (960/1200) | 1849.13 s
[Task MobilNet_07] Current/Best:   16.50/ 110.88 GFLOPS | Progress: (1024/1200) | 2001.21 s
[Task MobilNet_07] Current/Best:   20.68/ 110.88 GFLOPS | Progress: (1088/1200) | 2139.06 s
[Task MobilNet_07] Current/Best:   19.61/ 110.88 GFLOPS | Progress: (1152/1200) | 2290.17 s
[Task MobilNet_07] Current/Best:    4.92/ 110.88 GFLOPS | Progress: (1200/1200) | 2406.06 s
 Done.
[Task MobilNet_08] Current/Best:    0.00/   0.00 GFLOPS | Progress: (0/800) | 0.00 s
[Task MobilNet_08] Current/Best:    2.10/  62.92 GFLOPS | Progress: (64/800) | 88.37 s
[Task MobilNet_08] Current/Best:   14.02/  75.29 GFLOPS | Progress: (128/800) | 154.07 s
[Task MobilNet_08] Current/Best:   46.10/  75.29 GFLOPS | Progress: (192/800) | 220.34 s
[Task MobilNet_08] Current/Best:    1.05/  75.29 GFLOPS | Progress: (256/800) | 303.07 s
[Task MobilNet_08] Current/Best:   34.82/  75.29 GFLOPS | Progress: (320/800) | 378.56 s
[Task MobilNet_08] Current/Best:   13.48/  75.29 GFLOPS | Progress: (384/800) | 461.29 s
[Task MobilNet_08] Current/Best:   10.45/  75.29 GFLOPS | Progress: (448/800) | 550.42 s
[Task MobilNet_08] Current/Best:   17.38/  75.29 GFLOPS | Progress: (512/800) | 633.87 s
[Task MobilNet_08] Current/Best:   13.89/  75.29 GFLOPS | Progress: (576/800) | 722.19 s
[Task MobilNet_08] Current/Best:    7.23/  75.29 GFLOPS | Progress: (640/800) | 810.52 s
[Task MobilNet_08] Current/Best:   23.60/  75.29 GFLOPS | Progress: (704/800) | 905.41 s
[Task MobilNet_08] Current/Best:    4.16/  75.29 GFLOPS | Progress: (768/800) | 997.59 s
[Task MobilNet_08] Current/Best:    2.10/  75.29 GFLOPS | Progress: (800/800) | 1052.59 s
 Done.
[Task MobilNet_09] Current/Best:    0.00/   0.00 GFLOPS | Progress: (0/968) | 0.00 s
[Task MobilNet_09] Current/Best:    7.37/  60.82 GFLOPS | Progress: (64/968) | 290.92 s
[Task MobilNet_09] Current/Best:    4.17/  72.98 GFLOPS | Progress: (128/968) | 502.10 s
[Task MobilNet_09] Current/Best:   27.10/  72.98 GFLOPS | Progress: (192/968) | 722.49 s
[Task MobilNet_09] Current/Best:   13.98/  72.98 GFLOPS | Progress: (256/968) | 976.67 s
[Task MobilNet_09] Current/Best:    6.60/  72.98 GFLOPS | Progress: (320/968) | 1241.11 s
[Task MobilNet_09] Current/Best:   25.67/  72.98 GFLOPS | Progress: (384/968) | 1462.68 s
[Task MobilNet_09] Current/Best:   10.32/  72.98 GFLOPS | Progress: (448/968) | 1742.99 s
[Task MobilNet_09] Current/Best:   13.96/  72.98 GFLOPS | Progress: (512/968) | 1990.50 s
[Task MobilNet_09] Current/Best:    8.19/  72.98 GFLOPS | Progress: (576/968) | 2276.26 s
[Task MobilNet_09] Current/Best:    1.83/  72.98 GFLOPS | Progress: (640/968) | 2585.44 s
[Task MobilNet_09] Current/Best:   10.47/  72.98 GFLOPS | Progress: (704/968) | 2862.23 s
[Task MobilNet_09] Current/Best:    6.58/  72.98 GFLOPS | Progress: (768/968) | 3170.05 s
[Task MobilNet_09] Current/Best:    6.67/  72.98 GFLOPS | Progress: (832/968) | 3457.52 s
[Task MobilNet_09] Current/Best:    7.25/  72.98 GFLOPS | Progress: (896/968) | 3768.82 s
[Task MobilNet_09] Current/Best:   13.93/  72.98 GFLOPS | Progress: (960/968) | 4102.49 s
[Task MobilNet_09] Current/Best:    4.17/  72.98 GFLOPS | Progress: (968/968) | 4152.55 s
 Done.
[Task ResNet18_01] Current/Best:    0.00/   0.00 GFLOPS | Progress: (0/308) | 0.00 s
[Task ResNet18_01] Current/Best:   99.18/ 116.44 GFLOPS | Progress: (64/308) | 53.22 s
[Task ResNet18_01] Current/Best:   13.41/ 120.79 GFLOPS | Progress: (128/308) | 92.90 s
[Task ResNet18_01] Current/Best:   33.40/ 120.79 GFLOPS | Progress: (192/308) | 149.76 s
[Task ResNet18_01] Current/Best:   20.41/ 120.79 GFLOPS | Progress: (256/308) | 209.70 s
[Task ResNet18_01] Current/Best:   25.98/ 120.79 GFLOPS | Progress: (308/308) | 259.49 s
 Done.
[Task ResNet18_02] Current/Best:    0.00/   0.00 GFLOPS | Progress: (0/980) | 0.00 s
[Task ResNet18_02] Current/Best:   23.79/ 118.82 GFLOPS | Progress: (64/980) | 49.36 s
[Task ResNet18_02] Current/Best:   17.12/ 122.40 GFLOPS | Progress: (128/980) | 84.28 s
[Task ResNet18_02] Current/Best:   53.97/ 122.40 GFLOPS | Progress: (192/980) | 117.41 s
[Task ResNet18_02] Current/Best:    2.20/ 122.57 GFLOPS | Progress: (256/980) | 166.52 s
[Task ResNet18_02] Current/Best:   18.68/ 122.57 GFLOPS | Progress: (320/980) | 207.30 s
[Task ResNet18_02] Current/Best:   36.07/ 122.57 GFLOPS | Progress: (384/980) | 242.55 s
[Task ResNet18_02] Current/Best:    8.14/ 122.57 GFLOPS | Progress: (448/980) | 289.94 s
[Task ResNet18_02] Current/Best:   25.23/ 122.57 GFLOPS | Progress: (512/980) | 326.06 s
[Task ResNet18_02] Current/Best:    6.41/ 122.57 GFLOPS | Progress: (576/980) | 371.45 s
[Task ResNet18_02] Current/Best:   11.22/ 122.57 GFLOPS | Progress: (640/980) | 423.04 s
[Task ResNet18_02] Current/Best:   10.22/ 122.57 GFLOPS | Progress: (704/980) | 471.35 s
[Task ResNet18_02] Current/Best:   24.55/ 122.57 GFLOPS | Progress: (768/980) | 518.76 s
[Task ResNet18_02] Current/Best:    1.10/ 122.57 GFLOPS | Progress: (832/980) | 575.71 s
[Task ResNet18_02] Current/Best:   25.72/ 122.57 GFLOPS | Progress: (896/980) | 627.74 s
[Task ResNet18_02] Current/Best:    4.33/ 122.57 GFLOPS | Progress: (960/980) | 684.41 s
[Task ResNet18_02] Current/Best:    6.27/ 122.57 GFLOPS | Progress: (980/980) | 704.51 s
 Done.
[Task ResNet18_03] Current/Best:    0.00/   0.00 GFLOPS | Progress: (0/980) | 0.00 s
[Task ResNet18_03] Current/Best:    5.74/  84.12 GFLOPS | Progress: (64/980) | 35.11 s
[Task ResNet18_03] Current/Best:    4.34/  95.90 GFLOPS | Progress: (128/980) | 65.57 s
[Task ResNet18_03] Current/Best:    9.28/  95.90 GFLOPS | Progress: (192/980) | 97.08 s
[Task ResNet18_03] Current/Best:   26.22/  95.90 GFLOPS | Progress: (256/980) | 130.40 s
[Task ResNet18_03] Current/Best:   18.68/  95.90 GFLOPS | Progress: (320/980) | 162.19 s
[Task ResNet18_03] Current/Best:   20.23/  95.90 GFLOPS | Progress: (384/980) | 194.02 s
[Task ResNet18_03] Current/Best:   35.76/  95.90 GFLOPS | Progress: (448/980) | 226.83 s
[Task ResNet18_03] Current/Best:    4.58/  95.90 GFLOPS | Progress: (512/980) | 258.98 s
[Task ResNet18_03] Current/Best:   17.74/  95.90 GFLOPS | Progress: (576/980) | 291.55 s
[Task ResNet18_03] Current/Best:    6.43/  95.90 GFLOPS | Progress: (640/980) | 325.49 s
[Task ResNet18_03] Current/Best:   14.76/  95.90 GFLOPS | Progress: (704/980) | 359.60 s
[Task ResNet18_03] Current/Best:   11.49/  95.90 GFLOPS | Progress: (768/980) | 393.67 s
[Task ResNet18_03] Current/Best:   16.99/  95.90 GFLOPS | Progress: (832/980) | 428.57 s
[Task ResNet18_03] Current/Best:   13.28/  95.90 GFLOPS | Progress: (896/980) | 463.54 s
[Task ResNet18_03] Current/Best:   20.40/  95.90 GFLOPS | Progress: (960/980) | 496.96 s
[Task ResNet18_03] Current/Best:   16.37/  95.90 GFLOPS | Progress: (980/980) | 507.39 s
 Done.
[Task ResNet18_04] Current/Best:    0.00/   0.00 GFLOPS | Progress: (0/896) | 0.00 s
[Task ResNet18_04] Current/Best:    4.40/ 106.40 GFLOPS | Progress: (64/896) | 41.09 s
[Task ResNet18_04] Current/Best:   12.56/ 107.19 GFLOPS | Progress: (128/896) | 72.36 s
[Task ResNet18_04] Current/Best:   74.14/ 109.42 GFLOPS | Progress: (192/896) | 105.37 s
[Task ResNet18_04] Current/Best:   25.80/ 109.42 GFLOPS | Progress: (256/896) | 141.31 s
[Task ResNet18_04] Current/Best:    4.16/ 109.42 GFLOPS | Progress: (320/896) | 176.75 s
[Task ResNet18_04] Current/Best:   12.93/ 109.42 GFLOPS | Progress: (384/896) | 215.56 s
[Task ResNet18_04] Current/Best:   45.61/ 109.42 GFLOPS | Progress: (448/896) | 253.69 s
[Task ResNet18_04] Current/Best:    4.12/ 109.42 GFLOPS | Progress: (512/896) | 290.96 s
[Task ResNet18_04] Current/Best:   30.49/ 109.42 GFLOPS | Progress: (576/896) | 333.29 s
[Task ResNet18_04] Current/Best:   27.54/ 109.42 GFLOPS | Progress: (640/896) | 372.91 s
[Task ResNet18_04] Current/Best:   24.82/ 109.42 GFLOPS | Progress: (704/896) | 412.10 s
[Task ResNet18_04] Current/Best:   16.44/ 109.42 GFLOPS | Progress: (768/896) | 454.81 s
[Task ResNet18_04] Current/Best:   17.25/ 109.42 GFLOPS | Progress: (832/896) | 495.83 s
[Task ResNet18_04] Current/Best:    4.29/ 109.42 GFLOPS | Progress: (896/896) | 535.37 s
 Done.
[Task ResNet18_05] Current/Best:    0.00/   0.00 GFLOPS | Progress: (0/896) | 0.00 s
[Task ResNet18_05] Current/Best:   33.79/  59.03 GFLOPS | Progress: (64/896) | 33.62 s
[Task ResNet18_05] Current/Best:   39.59/  68.63 GFLOPS | Progress: (128/896) | 63.17 s
[Task ResNet18_05] Current/Best:    9.80/  72.56 GFLOPS | Progress: (192/896) | 93.50 s
[Task ResNet18_05] Current/Best:   29.15/  72.56 GFLOPS | Progress: (256/896) | 125.25 s
[Task ResNet18_05] Current/Best:   29.45/  72.56 GFLOPS | Progress: (320/896) | 157.54 s
[Task ResNet18_05] Current/Best:   19.80/  72.56 GFLOPS | Progress: (384/896) | 189.19 s
[Task ResNet18_05] Current/Best:   10.15/  72.56 GFLOPS | Progress: (448/896) | 220.83 s
[Task ResNet18_05] Current/Best:   35.62/  72.56 GFLOPS | Progress: (512/896) | 252.37 s
[Task ResNet18_05] Current/Best:   24.89/  72.56 GFLOPS | Progress: (576/896) | 285.72 s
[Task ResNet18_05] Current/Best:    3.59/  72.56 GFLOPS | Progress: (640/896) | 317.33 s
[Task ResNet18_05] Current/Best:    7.95/  72.56 GFLOPS | Progress: (704/896) | 349.69 s
[Task ResNet18_05] Current/Best:   16.88/  72.56 GFLOPS | Progress: (768/896) | 383.32 s
[Task ResNet18_05] Current/Best:   21.26/  72.56 GFLOPS | Progress: (832/896) | 416.11 s
[Task ResNet18_05] Current/Best:    3.62/  72.56 GFLOPS | Progress: (896/896) | 447.17 s
 Done.
[Task ResNet18_06] Current/Best:    0.00/   0.00 GFLOPS | Progress: (0/1024) | 0.00 s
[Task ResNet18_06] Current/Best:   45.01/ 115.95 GFLOPS | Progress: (64/1024) | 43.79 s
[Task ResNet18_06] Current/Best:   98.78/ 121.44 GFLOPS | Progress: (128/1024) | 75.21 s
[Task ResNet18_06] Current/Best:    2.13/ 121.44 GFLOPS | Progress: (192/1024) | 108.03 s
[Task ResNet18_06] Current/Best:   30.51/ 121.44 GFLOPS | Progress: (256/1024) | 141.01 s
[Task ResNet18_06] Current/Best:    4.24/ 121.44 GFLOPS | Progress: (320/1024) | 184.60 s
[Task ResNet18_06] Current/Best:   31.30/ 121.44 GFLOPS | Progress: (384/1024) | 222.03 s
[Task ResNet18_06] Current/Best:   16.65/ 121.44 GFLOPS | Progress: (448/1024) | 269.92 s
[Task ResNet18_06] Current/Best:   24.76/ 121.44 GFLOPS | Progress: (512/1024) | 316.70 s
[Task ResNet18_06] Current/Best:   31.59/ 121.44 GFLOPS | Progress: (576/1024) | 364.24 s
[Task ResNet18_06] Current/Best:   27.88/ 121.44 GFLOPS | Progress: (640/1024) | 406.73 s
[Task ResNet18_06] Current/Best:    8.44/ 121.44 GFLOPS | Progress: (704/1024) | 447.41 s
[Task ResNet18_06] Current/Best:    9.75/ 121.44 GFLOPS | Progress: (768/1024) | 501.80 s
[Task ResNet18_06] Current/Best:    6.60/ 121.44 GFLOPS | Progress: (832/1024) | 548.18 s
[Task ResNet18_06] Current/Best:    2.14/ 121.44 GFLOPS | Progress: (896/1024) | 601.26 s
[Task ResNet18_06] Current/Best:   12.27/ 121.44 GFLOPS | Progress: (960/1024) | 655.55 s
[Task ResNet18_06] Current/Best:   23.04/ 121.44 GFLOPS | Progress: (1024/1024) | 705.59 s
 Done.
[Task ResNet18_07] Current/Best:    0.00/   0.00 GFLOPS | Progress: (0/864) | 0.00 s
[Task ResNet18_07] Current/Best:   35.63/  86.19 GFLOPS | Progress: (64/864) | 41.55 s
[Task ResNet18_07] Current/Best:   32.69/ 101.03 GFLOPS | Progress: (128/864) | 71.42 s
[Task ResNet18_07] Current/Best:    2.11/ 101.50 GFLOPS | Progress: (192/864) | 103.29 s
[Task ResNet18_07] Current/Best:   14.92/ 101.50 GFLOPS | Progress: (256/864) | 143.33 s
[Task ResNet18_07] Current/Best:   55.87/ 101.50 GFLOPS | Progress: (320/864) | 175.26 s
[Task ResNet18_07] Current/Best:    1.06/ 101.50 GFLOPS | Progress: (384/864) | 213.69 s
[Task ResNet18_07] Current/Best:    7.27/ 101.50 GFLOPS | Progress: (448/864) | 251.98 s
[Task ResNet18_07] Current/Best:    3.63/ 101.50 GFLOPS | Progress: (512/864) | 287.27 s
[Task ResNet18_07] Current/Best:    8.46/ 101.50 GFLOPS | Progress: (576/864) | 325.25 s
[Task ResNet18_07] Current/Best:    2.14/ 101.50 GFLOPS | Progress: (640/864) | 363.94 s
[Task ResNet18_07] Current/Best:   27.85/ 101.50 GFLOPS | Progress: (704/864) | 405.01 s
[Task ResNet18_07] Current/Best:    7.00/ 101.50 GFLOPS | Progress: (768/864) | 446.97 s
[Task ResNet18_07] Current/Best:   13.76/ 101.50 GFLOPS | Progress: (832/864) | 488.22 s
[Task ResNet18_07] Current/Best:   22.03/ 101.50 GFLOPS | Progress: (864/864) | 508.30 s
 Done.
[Task ResNet18_08] Current/Best:    0.00/   0.00 GFLOPS | Progress: (0/1152) | 0.00 s
[Task ResNet18_08] Current/Best:   40.19/ 102.04 GFLOPS | Progress: (64/1152) | 66.12 s
[Task ResNet18_08] Current/Best:   46.36/ 122.85 GFLOPS | Progress: (128/1152) | 102.76 s
[Task ResNet18_08] Current/Best:   23.93/ 122.85 GFLOPS | Progress: (192/1152) | 140.50 s
[Task ResNet18_08] Current/Best:   24.32/ 122.85 GFLOPS | Progress: (256/1152) | 179.46 s
[Task ResNet18_08] Current/Best:   16.78/ 122.85 GFLOPS | Progress: (320/1152) | 251.83 s
[Task ResNet18_08] Current/Best:    4.25/ 122.85 GFLOPS | Progress: (384/1152) | 301.45 s
[Task ResNet18_08] Current/Best:    8.45/ 122.85 GFLOPS | Progress: (448/1152) | 351.29 s
[Task ResNet18_08] Current/Best:   25.32/ 122.85 GFLOPS | Progress: (512/1152) | 413.67 s
[Task ResNet18_08] Current/Best:   16.87/ 122.85 GFLOPS | Progress: (576/1152) | 456.04 s
[Task ResNet18_08] Current/Best:    4.28/ 122.85 GFLOPS | Progress: (640/1152) | 521.39 s
[Task ResNet18_08] Current/Best:   13.26/ 122.85 GFLOPS | Progress: (704/1152) | 577.69 s
[Task ResNet18_08] Current/Best:    4.81/ 122.85 GFLOPS | Progress: (768/1152) | 640.78 s
[Task ResNet18_08] Current/Best:   23.62/ 122.85 GFLOPS | Progress: (832/1152) | 708.18 s
[Task ResNet18_08] Current/Best:   32.02/ 122.85 GFLOPS | Progress: (896/1152) | 784.07 s
[Task ResNet18_08] Current/Best:   16.63/ 122.85 GFLOPS | Progress: (960/1152) | 847.10 s
[Task ResNet18_08] Current/Best:    2.14/ 122.85 GFLOPS | Progress: (1024/1152) | 914.08 s
[Task ResNet18_08] Current/Best:    2.14/ 122.85 GFLOPS | Progress: (1088/1152) | 1004.82 s
[Task ResNet18_08] Current/Best:   23.69/ 122.85 GFLOPS | Progress: (1152/1152) | 1085.12 s
 Done.
[Task ResNet18_09] Current/Best:    0.00/   0.00 GFLOPS | Progress: (0/972) | 0.00 s
[Task ResNet18_09] Current/Best:   55.44/ 102.22 GFLOPS | Progress: (64/972) | 55.68 s
[Task ResNet18_09] Current/Best:   41.08/ 111.30 GFLOPS | Progress: (128/972) | 91.75 s
[Task ResNet18_09] Current/Best:   38.80/ 111.30 GFLOPS | Progress: (192/972) | 127.11 s
[Task ResNet18_09] Current/Best:   16.57/ 111.30 GFLOPS | Progress: (256/972) | 163.39 s
[Task ResNet18_09] Current/Best:    7.29/ 111.30 GFLOPS | Progress: (320/972) | 211.01 s
[Task ResNet18_09] Current/Best:   10.73/ 111.30 GFLOPS | Progress: (384/972) | 259.71 s
[Task ResNet18_09] Current/Best:   13.22/ 111.30 GFLOPS | Progress: (448/972) | 305.55 s
[Task ResNet18_09] Current/Best:    8.29/ 111.30 GFLOPS | Progress: (512/972) | 358.23 s
[Task ResNet18_09] Current/Best:    4.20/ 111.30 GFLOPS | Progress: (576/972) | 404.91 s
[Task ResNet18_09] Current/Best:   14.51/ 111.30 GFLOPS | Progress: (640/972) | 451.67 s
[Task ResNet18_09] Current/Best:   28.40/ 111.30 GFLOPS | Progress: (704/972) | 506.31 s
[Task ResNet18_09] Current/Best:    2.12/ 111.30 GFLOPS | Progress: (768/972) | 556.83 s
[Task ResNet18_09] Current/Best:   25.85/ 111.30 GFLOPS | Progress: (832/972) | 620.26 s
[Task ResNet18_09] Current/Best:   16.55/ 111.30 GFLOPS | Progress: (896/972) | 678.06 s
[Task ResNet18_09] Current/Best:   25.19/ 111.30 GFLOPS | Progress: (960/972) | 737.48 s
[Task ResNet18_09] Current/Best:    7.94/ 111.30 GFLOPS | Progress: (972/972) | 748.82 s
 Done.
[Task ResNet18_10] Current/Best:    0.00/   0.00 GFLOPS | Progress: (0/800) | 0.00 s
[Task ResNet18_10] Current/Best:    2.10/  63.39 GFLOPS | Progress: (64/800) | 88.95 s
[Task ResNet18_10] Current/Best:   24.50/  75.28 GFLOPS | Progress: (128/800) | 155.77 s
[Task ResNet18_10] Current/Best:   25.85/  75.28 GFLOPS | Progress: (192/800) | 223.20 s
[Task ResNet18_10] Current/Best:   10.49/  75.28 GFLOPS | Progress: (256/800) | 307.28 s
[Task ResNet18_10] Current/Best:    1.83/  75.28 GFLOPS | Progress: (320/800) | 383.82 s
[Task ResNet18_10] Current/Best:   14.01/  75.28 GFLOPS | Progress: (384/800) | 468.78 s
[Task ResNet18_10] Current/Best:   15.55/  75.28 GFLOPS | Progress: (448/800) | 554.16 s
[Task ResNet18_10] Current/Best:   10.50/  75.28 GFLOPS | Progress: (512/800) | 635.99 s
[Task ResNet18_10] Current/Best:    1.83/  75.28 GFLOPS | Progress: (576/800) | 729.70 s
[Task ResNet18_10] Current/Best:   13.94/  75.28 GFLOPS | Progress: (640/800) | 824.65 s
[Task ResNet18_10] Current/Best:    8.17/  75.28 GFLOPS | Progress: (704/800) | 916.36 s
[Task ResNet18_10] Current/Best:   17.20/  75.28 GFLOPS | Progress: (768/800) | 1009.93 s
[Task ResNet18_10] Current/Best:   13.92/  75.28 GFLOPS | Progress: (800/800) | 1059.90 s
 Done.
[Task ResNet18_11] Current/Best:    0.00/   0.00 GFLOPS | Progress: (0/720) | 0.00 s
[Task ResNet18_11] Current/Best:   10.95/  58.14 GFLOPS | Progress: (64/720) | 28.66 s
[Task ResNet18_11] Current/Best:   29.32/  59.91 GFLOPS | Progress: (128/720) | 53.27 s
[Task ResNet18_11] Current/Best:    8.81/  59.91 GFLOPS | Progress: (192/720) | 79.07 s
[Task ResNet18_11] Current/Best:   24.34/  59.91 GFLOPS | Progress: (256/720) | 106.95 s
[Task ResNet18_11] Current/Best:    7.50/  59.91 GFLOPS | Progress: (320/720) | 134.41 s
[Task ResNet18_11] Current/Best:    8.76/  59.91 GFLOPS | Progress: (384/720) | 162.10 s
[Task ResNet18_11] Current/Best:    4.59/  59.91 GFLOPS | Progress: (448/720) | 189.00 s
[Task ResNet18_11] Current/Best:   21.67/  59.91 GFLOPS | Progress: (512/720) | 216.87 s
[Task ResNet18_11] Current/Best:   21.09/  59.91 GFLOPS | Progress: (576/720) | 244.90 s
[Task ResNet18_11] Current/Best:    8.93/  59.91 GFLOPS | Progress: (640/720) | 273.33 s
[Task ResNet18_11] Current/Best:   14.20/  59.91 GFLOPS | Progress: (704/720) | 302.10 s
[Task ResNet18_11] Current/Best:   16.86/  59.91 GFLOPS | Progress: (720/720) | 308.76 s
 Done.
[Task ResNet18_12] Current/Best:    0.00/   0.00 GFLOPS | Progress: (0/800) | 0.00 s
[Task ResNet18_12] Current/Best:    2.10/  74.96 GFLOPS | Progress: (64/800) | 88.53 s
[Task ResNet18_12] Current/Best:   14.14/  80.46 GFLOPS | Progress: (128/800) | 155.17 s
[Task ResNet18_12] Current/Best:    6.66/  89.89 GFLOPS | Progress: (192/800) | 223.15 s
[Task ResNet18_12] Current/Best:    1.83/  89.89 GFLOPS | Progress: (256/800) | 306.59 s
[Task ResNet18_12] Current/Best:   31.94/  89.89 GFLOPS | Progress: (320/800) | 383.71 s
[Task ResNet18_12] Current/Best:   14.14/  89.89 GFLOPS | Progress: (384/800) | 456.28 s
[Task ResNet18_12] Current/Best:   15.70/  89.89 GFLOPS | Progress: (448/800) | 543.76 s
[Task ResNet18_12] Current/Best:    8.19/  89.89 GFLOPS | Progress: (512/800) | 627.42 s
[Task ResNet18_12] Current/Best:   19.53/  89.89 GFLOPS | Progress: (576/800) | 716.93 s
[Task ResNet18_12] Current/Best:   17.70/  89.89 GFLOPS | Progress: (640/800) | 805.89 s
[Task ResNet18_12] Current/Best:    3.62/  89.89 GFLOPS | Progress: (704/800) | 903.72 s
[Task ResNet18_12] Current/Best:    7.21/  89.89 GFLOPS | Progress: (768/800) | 996.25 s
[Task ResNet18_12] Current/Best:    3.66/  89.89 GFLOPS | Progress: (800/800) | 1043.63 s
 Done.
[Task Yolo9000_00] Current/Best:    0.00/   0.00 GFLOPS | Progress: (0/216) | 0.00 s
[Task Yolo9000_00] Current/Best:   10.25/  69.54 GFLOPS | Progress: (64/216) | 189.77 s
[Task Yolo9000_00] Current/Best:    7.68/  72.93 GFLOPS | Progress: (128/216) | 364.33 s
[Task Yolo9000_00] Current/Best:   16.45/  72.93 GFLOPS | Progress: (192/216) | 564.29 s
[Task Yolo9000_00] Current/Best:    4.66/  72.93 GFLOPS | Progress: (216/216) | 638.05 s
 Done.
[Task Yolo9000_02] Current/Best:    0.00/   0.00 GFLOPS | Progress: (0/756) | 0.00 s
[Task Yolo9000_02] Current/Best:    4.41/ 119.27 GFLOPS | Progress: (64/756) | 253.09 s
[Task Yolo9000_02] Current/Best:    4.45/ 123.07 GFLOPS | Progress: (128/756) | 406.23 s
[Task Yolo9000_02] Current/Best:   20.87/ 123.07 GFLOPS | Progress: (192/756) | 586.23 s
[Task Yolo9000_02] Current/Best:   11.79/ 123.07 GFLOPS | Progress: (256/756) | 886.88 s
[Task Yolo9000_02] Current/Best:   31.89/ 123.07 GFLOPS | Progress: (320/756) | 1058.45 s
[Task Yolo9000_02] Current/Best:    9.32/ 123.07 GFLOPS | Progress: (384/756) | 1347.94 s
[Task Yolo9000_02] Current/Best:   34.89/ 123.07 GFLOPS | Progress: (448/756) | 1532.29 s
[Task Yolo9000_02] Current/Best:   12.51/ 123.07 GFLOPS | Progress: (512/756) | 1855.88 s
[Task Yolo9000_02] Current/Best:   26.00/ 123.07 GFLOPS | Progress: (576/756) | 2205.56 s
[Task Yolo9000_02] Current/Best:   31.14/ 123.07 GFLOPS | Progress: (640/756) | 2532.85 s
[Task Yolo9000_02] Current/Best:   19.65/ 123.07 GFLOPS | Progress: (704/756) | 2921.46 s
[Task Yolo9000_02] Current/Best:   14.14/ 123.07 GFLOPS | Progress: (756/756) | 3213.10 s
 Done.
[Task Yolo9000_04] Current/Best:    0.00/   0.00 GFLOPS | Progress: (0/1008) | 0.00 s
[Task Yolo9000_04] Current/Best:    5.93/ 121.89 GFLOPS | Progress: (64/1008) | 205.84 s
[Task Yolo9000_04] Current/Best:    7.01/ 126.63 GFLOPS | Progress: (128/1008) | 316.61 s
[Task Yolo9000_04] Current/Best:   47.16/ 126.63 GFLOPS | Progress: (192/1008) | 420.15 s
[Task Yolo9000_04] Current/Best:   28.80/ 126.63 GFLOPS | Progress: (256/1008) | 595.13 s
[Task Yolo9000_04] Current/Best:    8.80/ 126.63 GFLOPS | Progress: (320/1008) | 793.08 s
[Task Yolo9000_04] Current/Best:    7.72/ 126.63 GFLOPS | Progress: (384/1008) | 966.02 s
[Task Yolo9000_04] Current/Best:   17.30/ 126.63 GFLOPS | Progress: (448/1008) | 1119.65 s
[Task Yolo9000_04] Current/Best:   14.69/ 126.63 GFLOPS | Progress: (512/1008) | 1348.03 s
[Task Yolo9000_04] Current/Best:   42.43/ 126.63 GFLOPS | Progress: (576/1008) | 1629.57 s
[Task Yolo9000_04] Current/Best:   42.56/ 126.63 GFLOPS | Progress: (640/1008) | 1814.48 s
[Task Yolo9000_04] Current/Best:   16.74/ 126.63 GFLOPS | Progress: (704/1008) | 2107.01 s
[Task Yolo9000_04] Current/Best:   13.86/ 126.63 GFLOPS | Progress: (768/1008) | 2326.52 s
[Task Yolo9000_04] Current/Best:   15.88/ 126.63 GFLOPS | Progress: (832/1008) | 2622.53 s
[Task Yolo9000_04] Current/Best:   22.35/ 126.63 GFLOPS | Progress: (896/1008) | 2904.48 s
[Task Yolo9000_04] Current/Best:   22.33/ 126.63 GFLOPS | Progress: (960/1008) | 3184.42 s
...47%, 0.01 MB, 53 KB/s, 0 seconds passed...94%, 0.02 MB, 107 KB/s, 0 seconds passed...100%, 0.02 MB, 160 KB/s, 0 seconds passed
[Task Yolo9000_04] Current/Best:    0.00/   0.00 GFLOPS | Progress: (0/1008) | 0.00 s
[Task Yolo9000_04] Current/Best:    5.94/ 124.54 GFLOPS | Progress: (64/1008) | 202.68 s
[Task Yolo9000_04] Current/Best:   17.46/ 127.34 GFLOPS | Progress: (128/1008) | 300.13 s
[Task Yolo9000_04] Current/Best:   32.78/ 127.34 GFLOPS | Progress: (192/1008) | 403.21 s
[Task Yolo9000_04] Current/Best:   23.28/ 127.34 GFLOPS | Progress: (256/1008) | 569.83 s
[Task Yolo9000_04] Current/Best:   33.77/ 127.34 GFLOPS | Progress: (320/1008) | 722.09 s
[Task Yolo9000_04] Current/Best:   46.02/ 127.34 GFLOPS | Progress: (384/1008) | 902.53 s
[Task Yolo9000_04] Current/Best:   50.55/ 127.34 GFLOPS | Progress: (448/1008) | 1020.14 s
[Task Yolo9000_04] Current/Best:    4.23/ 127.34 GFLOPS | Progress: (512/1008) | 1251.70 s
[Task Yolo9000_04] Current/Best:   34.28/ 127.34 GFLOPS | Progress: (576/1008) | 1518.60 s
[Task Yolo9000_04] Current/Best:   25.50/ 127.34 GFLOPS | Progress: (640/1008) | 1742.56 s
[Task Yolo9000_04] Current/Best:   28.10/ 127.34 GFLOPS | Progress: (704/1008) | 1978.29 s
[Task Yolo9000_04] Current/Best:    4.58/ 127.34 GFLOPS | Progress: (768/1008) | 2207.87 s
[Task Yolo9000_04] Current/Best:   28.45/ 127.34 GFLOPS | Progress: (832/1008) | 2535.05 s
[Task Yolo9000_04] Current/Best:   16.79/ 127.34 GFLOPS | Progress: (896/1008) | 2838.74 s
[Task Yolo9000_04] Current/Best:    8.43/ 127.34 GFLOPS | Progress: (960/1008) | 3133.76 s
[Task Yolo9000_04] Current/Best:    7.41/ 127.34 GFLOPS | Progress: (1008/1008) | 3395.38 s
 Done.
[Task Yolo9000_05] Current/Best:    0.00/   0.00 GFLOPS | Progress: (0/1008) | 0.00 s
[Task Yolo9000_05] Current/Best:    1.27/ 103.73 GFLOPS | Progress: (64/1008) | 102.44 s
[Task Yolo9000_05] Current/Best:    6.61/ 103.73 GFLOPS | Progress: (128/1008) | 180.67 s
[Task Yolo9000_05] Current/Best:   12.19/ 107.04 GFLOPS | Progress: (192/1008) | 257.91 s
[Task Yolo9000_05] Current/Best:   39.18/ 107.04 GFLOPS | Progress: (256/1008) | 352.45 s
[Task Yolo9000_05] Current/Best:   35.22/ 107.04 GFLOPS | Progress: (320/1008) | 435.67 s
[Task Yolo9000_05] Current/Best:    8.83/ 107.04 GFLOPS | Progress: (384/1008) | 531.83 s
[Task Yolo9000_05] Current/Best:   18.24/ 107.04 GFLOPS | Progress: (448/1008) | 625.70 s
[Task Yolo9000_05] Current/Best:    8.33/ 107.04 GFLOPS | Progress: (512/1008) | 717.39 s
[Task Yolo9000_05] Current/Best:   10.53/ 107.04 GFLOPS | Progress: (576/1008) | 800.37 s
[Task Yolo9000_05] Current/Best:    2.36/ 107.04 GFLOPS | Progress: (640/1008) | 901.44 s
[Task Yolo9000_05] Current/Best:    4.92/ 107.04 GFLOPS | Progress: (704/1008) | 1002.58 s
[Task Yolo9000_05] Current/Best:   13.53/ 107.04 GFLOPS | Progress: (768/1008) | 1112.88 s
[Task Yolo9000_05] Current/Best:    2.26/ 107.04 GFLOPS | Progress: (832/1008) | 1225.32 s
[Task Yolo9000_05] Current/Best:   24.88/ 107.04 GFLOPS | Progress: (896/1008) | 1334.83 s
[Task Yolo9000_05] Current/Best:    5.20/ 107.04 GFLOPS | Progress: (960/1008) | 1445.92 s
[Task Yolo9000_05] Current/Best:    9.56/ 107.04 GFLOPS | Progress: (1008/1008) | 1526.84 s
 Done.
[Task Yolo9000_08] Current/Best:    0.00/   0.00 GFLOPS | Progress: (0/1296) | 0.00 s
[Task Yolo9000_08] Current/Best:   96.82/ 111.81 GFLOPS | Progress: (64/1296) | 218.26 s
[Task Yolo9000_08] Current/Best:   21.03/ 126.08 GFLOPS | Progress: (128/1296) | 306.64 s
[Task Yolo9000_08] Current/Best:   12.62/ 126.99 GFLOPS | Progress: (192/1296) | 385.28 s
[Task Yolo9000_08] Current/Best:   27.99/ 126.99 GFLOPS | Progress: (256/1296) | 469.68 s
[Task Yolo9000_08] Current/Best:   20.68/ 126.99 GFLOPS | Progress: (320/1296) | 689.05 s
[Task Yolo9000_08] Current/Best:   27.06/ 126.99 GFLOPS | Progress: (384/1296) | 793.81 s
[Task Yolo9000_08] Current/Best:   44.15/ 126.99 GFLOPS | Progress: (448/1296) | 967.77 s
[Task Yolo9000_08] Current/Best:   34.19/ 126.99 GFLOPS | Progress: (512/1296) | 1110.47 s
[Task Yolo9000_08] Current/Best:   45.55/ 126.99 GFLOPS | Progress: (576/1296) | 1282.54 s
[Task Yolo9000_08] Current/Best:   27.56/ 126.99 GFLOPS | Progress: (640/1296) | 1467.36 s
[Task Yolo9000_08] Current/Best:   26.07/ 126.99 GFLOPS | Progress: (704/1296) | 1634.49 s
[Task Yolo9000_08] Current/Best:    4.43/ 126.99 GFLOPS | Progress: (768/1296) | 1824.21 s
[Task Yolo9000_08] Current/Best:   33.37/ 126.99 GFLOPS | Progress: (832/1296) | 2050.15 s
[Task Yolo9000_08] Current/Best:    8.49/ 126.99 GFLOPS | Progress: (896/1296) | 2277.23 s
[Task Yolo9000_08] Current/Best:   17.11/ 126.99 GFLOPS | Progress: (960/1296) | 2506.79 s
[Task Yolo9000_08] Current/Best:   23.09/ 126.99 GFLOPS | Progress: (1024/1296) | 2769.22 s
[Task Yolo9000_08] Current/Best:    8.51/ 126.99 GFLOPS | Progress: (1088/1296) | 3048.12 s
[Task Yolo9000_08] Current/Best:    8.47/ 126.99 GFLOPS | Progress: (1152/1296) | 3326.29 s
[Task Yolo9000_08] Current/Best:    8.56/ 126.99 GFLOPS | Progress: (1216/1296) | 3646.44 s
[Task Yolo9000_08] Current/Best:   23.07/ 126.99 GFLOPS | Progress: (1280/1296) | 3929.15 s
[Task Yolo9000_08] Current/Best:   14.79/ 126.99 GFLOPS | Progress: (1296/1296) | 3994.93 s
 Done.
[Task Yolo9000_09] Current/Best:    0.00/   0.00 GFLOPS | Progress: (0/1296) | 0.00 s
[Task Yolo9000_09] Current/Best:   39.86/ 110.80 GFLOPS | Progress: (64/1296) | 73.15 s
[Task Yolo9000_09] Current/Best:   32.80/ 110.92 GFLOPS | Progress: (128/1296) | 125.64 s
[Task Yolo9000_09] Current/Best:   33.72/ 110.92 GFLOPS | Progress: (192/1296) | 179.16 s
[Task Yolo9000_09] Current/Best:   39.43/ 110.92 GFLOPS | Progress: (256/1296) | 247.69 s
[Task Yolo9000_09] Current/Best:   23.17/ 110.92 GFLOPS | Progress: (320/1296) | 309.28 s
[Task Yolo9000_09] Current/Best:   10.86/ 110.92 GFLOPS | Progress: (384/1296) | 370.11 s
[Task Yolo9000_09] Current/Best:   43.83/ 110.92 GFLOPS | Progress: (448/1296) | 438.21 s
[Task Yolo9000_09] Current/Best:   39.88/ 110.92 GFLOPS | Progress: (512/1296) | 500.73 s
[Task Yolo9000_09] Current/Best:   36.52/ 110.92 GFLOPS | Progress: (576/1296) | 567.87 s
[Task Yolo9000_09] Current/Best:   10.88/ 110.92 GFLOPS | Progress: (640/1296) | 637.07 s
[Task Yolo9000_09] Current/Best:   17.70/ 110.92 GFLOPS | Progress: (704/1296) | 709.79 s
[Task Yolo9000_09] Current/Best:   18.67/ 110.92 GFLOPS | Progress: (768/1296) | 790.77 s
[Task Yolo9000_09] Current/Best:    5.16/ 110.92 GFLOPS | Progress: (832/1296) | 870.11 s
[Task Yolo9000_09] Current/Best:    5.15/ 110.92 GFLOPS | Progress: (896/1296) | 945.10 s
[Task Yolo9000_09] Current/Best:    2.57/ 110.92 GFLOPS | Progress: (960/1296) | 1026.93 s
[Task Yolo9000_09] Current/Best:   15.85/ 110.92 GFLOPS | Progress: (1024/1296) | 1105.72 s
[Task Yolo9000_09] Current/Best:   34.25/ 110.92 GFLOPS | Progress: (1088/1296) | 1190.71 s
[Task Yolo9000_09] Current/Best:   12.38/ 110.92 GFLOPS | Progress: (1152/1296) | 1279.11 s
[Task Yolo9000_09] Current/Best:   26.58/ 110.92 GFLOPS | Progress: (1216/1296) | 1370.00 s
[Task Yolo9000_09] Current/Best:    3.06/ 110.92 GFLOPS | Progress: (1280/1296) | 1459.73 s
[Task Yolo9000_09] Current/Best:   13.95/ 110.92 GFLOPS | Progress: (1296/1296) | 1478.51 s
 Done.
[Task Yolo9000_12] Current/Best:    0.00/   0.00 GFLOPS | Progress: (0/1440) | 0.00 s
[Task Yolo9000_12] Current/Best:   33.79/ 109.60 GFLOPS | Progress: (64/1440) | 213.76 s
[Task Yolo9000_12] Current/Best:   21.32/ 122.77 GFLOPS | Progress: (128/1440) | 295.88 s
[Task Yolo9000_12] Current/Best:    3.82/ 122.77 GFLOPS | Progress: (192/1440) | 385.14 s
[Task Yolo9000_12] Current/Best:   29.62/ 122.77 GFLOPS | Progress: (256/1440) | 474.18 s
[Task Yolo9000_12] Current/Best:   22.09/ 122.77 GFLOPS | Progress: (320/1440) | 612.57 s
[Task Yolo9000_12] Current/Best:   16.73/ 122.77 GFLOPS | Progress: (384/1440) | 771.31 s
[Task Yolo9000_12] Current/Best:   20.80/ 122.77 GFLOPS | Progress: (448/1440) | 1000.13 s
[Task Yolo9000_12] Current/Best:   21.83/ 122.77 GFLOPS | Progress: (512/1440) | 1126.12 s
[Task Yolo9000_12] Current/Best:   19.22/ 122.77 GFLOPS | Progress: (576/1440) | 1298.83 s
[Task Yolo9000_12] Current/Best:   15.78/ 122.77 GFLOPS | Progress: (640/1440) | 1475.63 s
[Task Yolo9000_12] Current/Best:   31.41/ 122.77 GFLOPS | Progress: (704/1440) | 1597.76 s
[Task Yolo9000_12] Current/Best:   13.61/ 122.77 GFLOPS | Progress: (768/1440) | 1832.86 s
[Task Yolo9000_12] Current/Best:   15.38/ 122.77 GFLOPS | Progress: (832/1440) | 2082.46 s
[Task Yolo9000_12] Current/Best:   15.52/ 122.77 GFLOPS | Progress: (896/1440) | 2298.91 s
[Task Yolo9000_12] Current/Best:    4.43/ 122.77 GFLOPS | Progress: (960/1440) | 2493.38 s
[Task Yolo9000_12] Current/Best:    3.94/ 122.77 GFLOPS | Progress: (1024/1440) | 2733.66 s
[Task Yolo9000_12] Current/Best:   15.68/ 122.77 GFLOPS | Progress: (1088/1440) | 2998.46 s
[Task Yolo9000_12] Current/Best:   16.85/ 122.77 GFLOPS | Progress: (1152/1440) | 3220.19 s
[Task Yolo9000_12] Current/Best:   21.62/ 122.77 GFLOPS | Progress: (1216/1440) | 3473.88 s
[Task Yolo9000_12] Current/Best:    7.18/ 122.77 GFLOPS | Progress: (1280/1440) | 3766.49 s
[Task Yolo9000_12] Current/Best:   10.81/ 122.77 GFLOPS | Progress: (1344/1440) | 4077.08 s
[Task Yolo9000_12] Current/Best:    7.88/ 122.77 GFLOPS | Progress: (1408/1440) | 4357.99 s
[Task Yolo9000_12] Current/Best:   16.80/ 122.77 GFLOPS | Progress: (1440/1440) | 4486.27 s
 Done.
[Task Yolo9000_13] Current/Best:    0.00/   0.00 GFLOPS | Progress: (0/1440) | 0.00 s
[Task Yolo9000_13] Current/Best:   34.34/ 101.17 GFLOPS | Progress: (64/1440) | 56.67 s
[Task Yolo9000_13] Current/Best:   18.64/ 112.16 GFLOPS | Progress: (128/1440) | 98.36 s
[Task Yolo9000_13] Current/Best:   33.88/ 112.16 GFLOPS | Progress: (192/1440) | 140.17 s
[Task Yolo9000_13] Current/Best:   10.39/ 112.16 GFLOPS | Progress: (256/1440) | 182.12 s
[Task Yolo9000_13] Current/Best:   16.71/ 112.16 GFLOPS | Progress: (320/1440) | 236.66 s
[Task Yolo9000_13] Current/Best:   11.13/ 112.16 GFLOPS | Progress: (384/1440) | 280.88 s
[Task Yolo9000_13] Current/Best:   25.20/ 112.16 GFLOPS | Progress: (448/1440) | 342.50 s
[Task Yolo9000_13] Current/Best:   20.54/ 112.16 GFLOPS | Progress: (512/1440) | 393.24 s
[Task Yolo9000_13] Current/Best:    3.50/ 112.16 GFLOPS | Progress: (576/1440) | 467.22 s
[Task Yolo9000_13] Current/Best:    4.40/ 112.16 GFLOPS | Progress: (640/1440) | 513.50 s
[Task Yolo9000_13] Current/Best:   10.37/ 112.16 GFLOPS | Progress: (704/1440) | 573.10 s
[Task Yolo9000_13] Current/Best:   22.22/ 112.16 GFLOPS | Progress: (768/1440) | 626.61 s
[Task Yolo9000_13] Current/Best:    2.04/ 112.16 GFLOPS | Progress: (832/1440) | 689.02 s
[Task Yolo9000_13] Current/Best:    7.84/ 112.16 GFLOPS | Progress: (896/1440) | 764.09 s
[Task Yolo9000_13] Current/Best:    4.25/ 112.16 GFLOPS | Progress: (960/1440) | 828.17 s
[Task Yolo9000_13] Current/Best:    5.93/ 112.16 GFLOPS | Progress: (1024/1440) | 889.26 s
[Task Yolo9000_13] Current/Best:    2.16/ 112.16 GFLOPS | Progress: (1088/1440) | 957.53 s
[Task Yolo9000_13] Current/Best:    7.76/ 112.16 GFLOPS | Progress: (1152/1440) | 1023.48 s
[Task Yolo9000_13] Current/Best:   17.04/ 112.16 GFLOPS | Progress: (1216/1440) | 1101.59 s
[Task Yolo9000_13] Current/Best:    1.10/ 112.16 GFLOPS | Progress: (1280/1440) | 1178.04 s
[Task Yolo9000_13] Current/Best:    7.07/ 112.16 GFLOPS | Progress: (1344/1440) | 1257.61 s
[Task Yolo9000_13] Current/Best:    2.02/ 112.16 GFLOPS | Progress: (1408/1440) | 1338.76 s
[Task Yolo9000_13] Current/Best:   17.03/ 112.16 GFLOPS | Progress: (1440/1440) | 1375.75 s
 Done.
[Task Yolo9000_18] Current/Best:    0.00/   0.00 GFLOPS | Progress: (0/1320) | 0.00 s
[Task Yolo9000_18] Current/Best:   54.02/  85.02 GFLOPS | Progress: (64/1320) | 243.42 s
[Task Yolo9000_18] Current/Best:   20.43/  98.82 GFLOPS | Progress: (128/1320) | 378.55 s
[Task Yolo9000_18] Current/Best:   14.08/ 103.88 GFLOPS | Progress: (192/1320) | 516.30 s
[Task Yolo9000_18] Current/Best:   12.25/ 103.88 GFLOPS | Progress: (256/1320) | 714.49 s
[Task Yolo9000_18] Current/Best:   16.71/ 103.88 GFLOPS | Progress: (320/1320) | 946.03 s
[Task Yolo9000_18] Current/Best:   22.53/ 103.88 GFLOPS | Progress: (384/1320) | 1122.45 s
[Task Yolo9000_18] Current/Best:    6.30/ 103.88 GFLOPS | Progress: (448/1320) | 1379.72 s
[Task Yolo9000_18] Current/Best:    5.40/ 103.88 GFLOPS | Progress: (512/1320) | 1676.64 s
[Task Yolo9000_18] Current/Best:   37.92/ 103.88 GFLOPS | Progress: (576/1320) | 1905.84 s
[Task Yolo9000_18] Current/Best:   32.95/ 103.88 GFLOPS | Progress: (640/1320) | 2169.26 s
[Task Yolo9000_18] Current/Best:    4.44/ 103.88 GFLOPS | Progress: (704/1320) | 2408.08 s
[Task Yolo9000_18] Current/Best:   17.61/ 103.88 GFLOPS | Progress: (768/1320) | 2657.80 s
[Task Yolo9000_18] Current/Best:   16.36/ 103.88 GFLOPS | Progress: (832/1320) | 2990.07 s
[Task Yolo9000_18] Current/Best:   10.85/ 103.88 GFLOPS | Progress: (896/1320) | 3268.22 s
[Task Yolo9000_18] Current/Best:   15.77/ 103.88 GFLOPS | Progress: (960/1320) | 3604.48 s
[Task Yolo9000_18] Current/Best:   14.88/ 103.88 GFLOPS | Progress: (1024/1320) | 3914.47 s
[Task Yolo9000_18] Current/Best:    5.98/ 103.88 GFLOPS | Progress: (1088/1320) | 4189.58 s
[Task Yolo9000_18] Current/Best:   10.81/ 103.88 GFLOPS | Progress: (1152/1320) | 4492.84 s
[Task Yolo9000_18] Current/Best:    3.56/ 103.88 GFLOPS | Progress: (1216/1320) | 4852.90 s
[Task Yolo9000_18] Current/Best:   15.63/ 103.88 GFLOPS | Progress: (1280/1320) | 5239.73 s
[Task Yolo9000_18] Current/Best:   15.78/ 103.88 GFLOPS | Progress: (1320/1320) | 5495.31 s
 Done.
[Task Yolo9000_19] Current/Best:    0.00/   0.00 GFLOPS | Progress: (0/1320) | 0.00 s
[Task Yolo9000_19] Current/Best:   47.88/  97.21 GFLOPS | Progress: (64/1320) | 67.24 s
[Task Yolo9000_19] Current/Best:   19.35/ 102.35 GFLOPS | Progress: (128/1320) | 107.91 s
[Task Yolo9000_19] Current/Best:    1.06/ 102.35 GFLOPS | Progress: (192/1320) | 151.42 s
[Task Yolo9000_19] Current/Best:   16.58/ 102.35 GFLOPS | Progress: (256/1320) | 195.25 s
[Task Yolo9000_19] Current/Best:   11.60/ 102.35 GFLOPS | Progress: (320/1320) | 238.20 s
[Task Yolo9000_19] Current/Best:   24.81/ 102.35 GFLOPS | Progress: (384/1320) | 282.91 s
[Task Yolo9000_19] Current/Best:   15.80/ 102.35 GFLOPS | Progress: (448/1320) | 328.04 s
[Task Yolo9000_19] Current/Best:    2.34/ 102.35 GFLOPS | Progress: (512/1320) | 388.96 s
[Task Yolo9000_19] Current/Best:    7.89/ 102.35 GFLOPS | Progress: (576/1320) | 447.99 s
[Task Yolo9000_19] Current/Best:    8.81/ 102.35 GFLOPS | Progress: (640/1320) | 500.98 s
[Task Yolo9000_19] Current/Best:   11.89/ 102.35 GFLOPS | Progress: (704/1320) | 561.19 s
[Task Yolo9000_19] Current/Best:    8.48/ 102.35 GFLOPS | Progress: (768/1320) | 621.58 s
[Task Yolo9000_19] Current/Best:    4.50/ 102.35 GFLOPS | Progress: (832/1320) | 686.55 s
[Task Yolo9000_19] Current/Best:    2.27/ 102.35 GFLOPS | Progress: (896/1320) | 758.29 s
[Task Yolo9000_19] Current/Best:    3.94/ 102.35 GFLOPS | Progress: (960/1320) | 839.11 s
[Task Yolo9000_19] Current/Best:   22.47/ 102.35 GFLOPS | Progress: (1024/1320) | 919.29 s
[Task Yolo9000_19] Current/Best:   22.30/ 102.35 GFLOPS | Progress: (1088/1320) | 996.62 s
[Task Yolo9000_19] Current/Best:    4.15/ 102.35 GFLOPS | Progress: (1152/1320) | 1078.48 s
[Task Yolo9000_19] Current/Best:    3.84/ 102.35 GFLOPS | Progress: (1216/1320) | 1158.28 s
[Task Yolo9000_19] Current/Best:   17.99/ 102.35 GFLOPS | Progress: (1280/1320) | 1235.52 s
[Task Yolo9000_19] Current/Best:    8.97/ 102.35 GFLOPS | Progress: (1320/1320) | 1284.46 s
 Done.
[Task Yolo9000_23] Current/Best:    0.00/   0.00 GFLOPS | Progress: (0/1320) | 0.00 s
[Task Yolo9000_23] Current/Best:    0.00/   0.00 GFLOPS | Progress: (64/1320) | 371.80 s
[Task Yolo9000_23] Current/Best:    0.00/   0.00 GFLOPS | Progress: (128/1320) | 814.63 s
[Task Yolo9000_23] Current/Best:    0.00/   0.00 GFLOPS | Progress: (192/1320) | 1206.16 s
