perf,CACHE_MISS_L1,CACHE_MISS_L2,scheme
35.11,1305028,1060124,"[V f; U (4, f); U (7, y); T (512, c); Hoist_vars [c]; T (3, w); T (3, h); T (7, x); T (1, c); T (16, f); T (1, y); T (1, f)]"
22.80,1307236,1059854,"[V f; U (4, f); U (7, y); T (512, c); Hoist_vars [c]; T (3, w); T (3, h); T (7, x); T (1, c); T (8, f); T (1, y); T (2, f)]"
30.25,1305783,1059087,"[V f; U (4, f); U (7, y); T (512, c); Hoist_vars [c]; T (3, w); T (3, h); T (7, x); T (1, c); T (4, f); T (1, y); T (4, f)]"
38.67,1279603,1052989,"[V f; U (4, f); U (7, y); T (256, c); Hoist_vars [c]; T (3, w); T (3, h); T (7, x); T (2, c); T (16, f); T (1, y); T (1, f)]"
33.94,1287636,1052929,"[V f; U (4, f); U (7, y); T (256, c); Hoist_vars [c]; T (3, w); T (3, h); T (7, x); T (2, c); T (8, f); T (1, y); T (2, f)]"
33.87,1280389,1053062,"[V f; U (4, f); U (7, y); T (256, c); Hoist_vars [c]; T (3, w); T (3, h); T (7, x); T (2, c); T (2, f); T (1, y); T (8, f)]"
39.99,1335655,1048909,"[V f; U (4, f); U (7, y); T (128, c); Hoist_vars [c]; T (3, w); T (3, h); T (7, x); T (4, c); T (4, f); T (1, y); T (4, f)]"
34.00,1338877,1049118,"[V f; U (4, f); U (7, y); T (128, c); Hoist_vars [c]; T (3, w); T (3, h); T (7, x); T (4, c); T (2, f); T (1, y); T (8, f)]"
32.66,1327684,1048107,"[V f; U (4, f); U (7, y); T (128, c); Hoist_vars [c]; T (3, w); T (3, h); T (7, x); T (4, c); T (1, f); T (1, y); T (16, f)]"
38.37,1432075,712789,"[V f; U (4, f); U (7, y); T (64, c); Hoist_vars [c]; T (3, w); T (3, h); T (7, x); T (8, c); T (16, f); T (1, y); T (1, f)]"
37.01,1428254,727651,"[V f; U (4, f); U (7, y); T (64, c); Hoist_vars [c]; T (3, w); T (3, h); T (7, x); T (8, c); T (8, f); T (1, y); T (2, f)]"
36.68,1435550,717701,"[V f; U (4, f); U (7, y); T (64, c); Hoist_vars [c]; T (3, w); T (3, h); T (7, x); T (8, c); T (4, f); T (1, y); T (4, f)]"
41.69,1442157,721404,"[V f; U (4, f); U (7, y); T (64, c); Hoist_vars [c]; T (3, w); T (3, h); T (7, x); T (8, c); T (2, f); T (1, y); T (8, f)]"
52.90,1637405,350441,"[V f; U (4, f); U (7, y); T (32, c); Hoist_vars [c]; T (3, w); T (3, h); T (7, x); T (16, c); T (8, f); T (1, y); T (2, f)]"
51.27,1980505,474004,"[V f; U (4, f); U (7, y); T (16, c); Hoist_vars [c]; T (3, w); T (3, h); T (7, x); T (32, c); T (16, f); T (1, y); T (1, f)]"
53.75,2016164,482152,"[V f; U (4, f); U (7, y); T (16, c); Hoist_vars [c]; T (3, w); T (3, h); T (7, x); T (32, c); T (8, f); T (1, y); T (2, f)]"
56.07,1952838,480993,"[V f; U (4, f); U (7, y); T (16, c); Hoist_vars [c]; T (3, w); T (3, h); T (7, x); T (32, c); T (4, f); T (1, y); T (4, f)]"
54.96,1974899,471933,"[V f; U (4, f); U (7, y); T (16, c); Hoist_vars [c]; T (3, w); T (3, h); T (7, x); T (32, c); T (2, f); T (1, y); T (8, f)]"
49.43,2169642,898001,"[V f; U (4, f); U (7, y); T (8, c); Hoist_vars [c]; T (3, w); T (3, h); T (7, x); T (64, c); T (8, f); T (1, y); T (2, f)]"
48.35,2180362,897514,"[V f; U (4, f); U (7, y); T (8, c); Hoist_vars [c]; T (3, w); T (3, h); T (7, x); T (64, c); T (4, f); T (1, y); T (4, f)]"
49.29,2126697,880952,"[V f; U (4, f); U (7, y); T (8, c); Hoist_vars [c]; T (3, w); T (3, h); T (7, x); T (64, c); T (2, f); T (1, y); T (8, f)]"
49.68,2176263,891603,"[V f; U (4, f); U (7, y); T (8, c); Hoist_vars [c]; T (3, w); T (3, h); T (7, x); T (64, c); T (1, f); T (1, y); T (16, f)]"
38.59,2769265,1181298,"[V f; U (4, f); U (7, y); T (4, c); Hoist_vars [c]; T (3, w); T (3, h); T (7, x); T (128, c); T (16, f); T (1, y); T (1, f)]"
38.53,2754033,1183976,"[V f; U (4, f); U (7, y); T (4, c); Hoist_vars [c]; T (3, w); T (3, h); T (7, x); T (128, c); T (8, f); T (1, y); T (2, f)]"
38.62,2763697,1179184,"[V f; U (4, f); U (7, y); T (4, c); Hoist_vars [c]; T (3, w); T (3, h); T (7, x); T (128, c); T (4, f); T (1, y); T (4, f)]"
39.02,2683985,1182437,"[V f; U (4, f); U (7, y); T (4, c); Hoist_vars [c]; T (3, w); T (3, h); T (7, x); T (128, c); T (2, f); T (1, y); T (8, f)]"
38.74,2748414,1182444,"[V f; U (4, f); U (7, y); T (4, c); Hoist_vars [c]; T (3, w); T (3, h); T (7, x); T (128, c); T (1, f); T (1, y); T (16, f)]"
33.46,3008211,1146782,"[V f; U (4, f); U (7, y); T (2, c); Hoist_vars [c]; T (3, w); T (3, h); T (7, x); T (256, c); T (8, f); T (1, y); T (2, f)]"
33.07,3003144,1169675,"[V f; U (4, f); U (7, y); T (2, c); Hoist_vars [c]; T (3, w); T (3, h); T (7, x); T (256, c); T (2, f); T (1, y); T (8, f)]"
33.42,2955879,1159130,"[V f; U (4, f); U (7, y); T (2, c); Hoist_vars [c]; T (3, w); T (3, h); T (7, x); T (256, c); T (1, f); T (1, y); T (16, f)]"
20.71,4560893,1581226,"[V f; U (4, f); U (7, y); T (1, c); Hoist_vars [c]; T (3, w); T (3, h); T (7, x); T (512, c); T (16, f); T (1, y); T (1, f)]"
20.50,4558181,1580530,"[V f; U (4, f); U (7, y); T (1, c); Hoist_vars [c]; T (3, w); T (3, h); T (7, x); T (512, c); T (4, f); T (1, y); T (4, f)]"
19.69,4580890,1576475,"[V f; U (4, f); U (7, y); T (1, c); Hoist_vars [c]; T (3, w); T (3, h); T (7, x); T (512, c); T (2, f); T (1, y); T (8, f)]"
46.93,1337622,353149,"[V f; U (2, f); U (7, y); U (3, h); T (128, c); Hoist_vars [c]; T (7, x); T (3, w); T (32, f); T (4, c); T (1, c)]"
65.00,1878056,168928,"[V f; U (2, f); U (7, y); U (3, h); T (16, c); Hoist_vars [c]; T (7, x); T (3, w); T (32, f); T (32, c); T (1, c)]"
65.07,2711817,164385,"[V f; U (2, f); U (7, y); U (3, h); T (8, c); Hoist_vars [c]; T (7, x); T (3, w); T (32, f); T (64, c); T (1, c)]"
52.85,4021996,170264,"[V f; U (2, f); U (7, y); U (3, h); T (4, c); Hoist_vars [c]; T (7, x); T (3, w); T (32, f); T (128, c); T (1, c)]"
22.37,8164281,166146,"[V f; U (2, f); U (7, y); U (3, h); T (1, c); Hoist_vars [c]; T (7, x); T (3, w); T (32, f); T (512, c); T (1, c)]"
36.47,1287563,980071,"[V f; U (2, f); U (7, y); U (3, h); T (256, c); Hoist_vars [c]; T (7, x); T (3, w); T (32, f); T (1, c); T (2, c)]"
42.18,1332784,335025,"[V f; U (2, f); U (7, y); U (3, h); T (128, c); Hoist_vars [c]; T (7, x); T (3, w); T (32, f); T (2, c); T (2, c)]"
61.07,1905170,165863,"[V f; U (2, f); U (7, y); U (3, h); T (16, c); Hoist_vars [c]; T (7, x); T (3, w); T (32, f); T (16, c); T (2, c)]"
65.51,2723867,164355,"[V f; U (2, f); U (7, y); U (3, h); T (8, c); Hoist_vars [c]; T (7, x); T (3, w); T (32, f); T (32, c); T (2, c)]"
52.87,4076298,180083,"[V f; U (2, f); U (7, y); U (3, h); T (4, c); Hoist_vars [c]; T (7, x); T (3, w); T (32, f); T (64, c); T (2, c)]"
43.85,3906648,163304,"[V f; U (2, f); U (7, y); U (3, h); T (2, c); Hoist_vars [c]; T (7, x); T (3, w); T (32, f); T (128, c); T (2, c)]"
23.20,8137723,165396,"[V f; U (2, f); U (7, y); U (3, h); T (1, c); Hoist_vars [c]; T (7, x); T (3, w); T (32, f); T (256, c); T (2, c)]"
60.23,1426251,197238,"[V f; U (2, f); U (7, y); U (3, h); T (64, c); Hoist_vars [c]; T (7, x); T (3, w); T (32, f); T (2, c); T (4, c)]"
63.51,1908076,168991,"[V f; U (2, f); U (7, y); U (3, h); T (16, c); Hoist_vars [c]; T (7, x); T (3, w); T (32, f); T (8, c); T (4, c)]"
65.48,2702109,165700,"[V f; U (2, f); U (7, y); U (3, h); T (8, c); Hoist_vars [c]; T (7, x); T (3, w); T (32, f); T (16, c); T (4, c)]"
52.91,4103983,169693,"[V f; U (2, f); U (7, y); U (3, h); T (4, c); Hoist_vars [c]; T (7, x); T (3, w); T (32, f); T (32, c); T (4, c)]"
43.10,3795232,163663,"[V f; U (2, f); U (7, y); U (3, h); T (2, c); Hoist_vars [c]; T (7, x); T (3, w); T (32, f); T (64, c); T (4, c)]"
62.32,1421079,197697,"[V f; U (2, f); U (7, y); U (3, h); T (64, c); Hoist_vars [c]; T (7, x); T (3, w); T (32, f); T (1, c); T (8, c)]"
67.59,1596230,184877,"[V f; U (2, f); U (7, y); U (3, h); T (32, c); Hoist_vars [c]; T (7, x); T (3, w); T (32, f); T (2, c); T (8, c)]"
62.03,1875815,170169,"[V f; U (2, f); U (7, y); U (3, h); T (16, c); Hoist_vars [c]; T (7, x); T (3, w); T (32, f); T (4, c); T (8, c)]"
65.34,2712066,164199,"[V f; U (2, f); U (7, y); U (3, h); T (8, c); Hoist_vars [c]; T (7, x); T (3, w); T (32, f); T (8, c); T (8, c)]"
52.60,4096773,170540,"[V f; U (2, f); U (7, y); U (3, h); T (4, c); Hoist_vars [c]; T (7, x); T (3, w); T (32, f); T (16, c); T (8, c)]"
42.99,3867597,163403,"[V f; U (2, f); U (7, y); U (3, h); T (2, c); Hoist_vars [c]; T (7, x); T (3, w); T (32, f); T (32, c); T (8, c)]"
22.86,8149919,166478,"[V f; U (2, f); U (7, y); U (3, h); T (1, c); Hoist_vars [c]; T (7, x); T (3, w); T (32, f); T (64, c); T (8, c)]"
65.47,1919391,169543,"[V f; U (2, f); U (7, y); U (3, h); T (16, c); Hoist_vars [c]; T (7, x); T (3, w); T (32, f); T (2, c); T (16, c)]"
65.38,2713198,163517,"[V f; U (2, f); U (7, y); U (3, h); T (8, c); Hoist_vars [c]; T (7, x); T (3, w); T (32, f); T (4, c); T (16, c)]"
41.64,3871797,163312,"[V f; U (2, f); U (7, y); U (3, h); T (2, c); Hoist_vars [c]; T (7, x); T (3, w); T (32, f); T (16, c); T (16, c)]"
23.09,8162441,167197,"[V f; U (2, f); U (7, y); U (3, h); T (1, c); Hoist_vars [c]; T (7, x); T (3, w); T (32, f); T (32, c); T (16, c)]"
62.90,2749899,161930,"[V f; U (2, f); U (7, y); U (3, h); T (8, c); Hoist_vars [c]; T (7, x); T (3, w); T (32, f); T (2, c); T (32, c)]"
22.94,8173511,166152,"[V f; U (2, f); U (7, y); U (3, h); T (1, c); Hoist_vars [c]; T (7, x); T (3, w); T (32, f); T (16, c); T (32, c)]"
62.67,2710583,163758,"[V f; U (2, f); U (7, y); U (3, h); T (8, c); Hoist_vars [c]; T (7, x); T (3, w); T (32, f); T (1, c); T (64, c)]"
42.90,3738557,163948,"[V f; U (2, f); U (7, y); U (3, h); T (2, c); Hoist_vars [c]; T (7, x); T (3, w); T (32, f); T (4, c); T (64, c)]"
51.10,4061695,168331,"[V f; U (2, f); U (7, y); U (3, h); T (4, c); Hoist_vars [c]; T (7, x); T (3, w); T (32, f); T (1, c); T (128, c)]"
44.21,3885815,163619,"[V f; U (2, f); U (7, y); U (3, h); T (2, c); Hoist_vars [c]; T (7, x); T (3, w); T (32, f); T (2, c); T (128, c)]"
23.18,8139501,166534,"[V f; U (2, f); U (7, y); U (3, h); T (1, c); Hoist_vars [c]; T (7, x); T (3, w); T (32, f); T (4, c); T (128, c)]"
43.86,3922630,162904,"[V f; U (2, f); U (7, y); U (3, h); T (2, c); Hoist_vars [c]; T (7, x); T (3, w); T (32, f); T (1, c); T (256, c)]"
21.75,8153765,166015,"[V f; U (2, f); U (7, y); U (3, h); T (1, c); Hoist_vars [c]; T (7, x); T (3, w); T (32, f); T (1, c); T (512, c)]"
29.46,1183264,1052401,"[V f; U (4, f); U (7, y); U (3, h); T (512, c); Hoist_vars [c]; T (3, w); T (7, x); T (1, c); T (16, f); T (1, y); T (1, f)]"
25.36,1182062,1052290,"[V f; U (4, f); U (7, y); U (3, h); T (512, c); Hoist_vars [c]; T (3, w); T (7, x); T (1, c); T (8, f); T (1, y); T (2, f)]"
30.69,1180998,1052332,"[V f; U (4, f); U (7, y); U (3, h); T (512, c); Hoist_vars [c]; T (3, w); T (7, x); T (1, c); T (4, f); T (1, y); T (4, f)]"
25.85,1181668,1052382,"[V f; U (4, f); U (7, y); U (3, h); T (512, c); Hoist_vars [c]; T (3, w); T (7, x); T (1, c); T (1, f); T (1, y); T (16, f)]"
29.88,1140602,1056748,"[V f; U (4, f); U (7, y); U (3, h); T (256, c); Hoist_vars [c]; T (3, w); T (7, x); T (2, c); T (16, f); T (1, y); T (1, f)]"
34.50,1136902,1056511,"[V f; U (4, f); U (7, y); U (3, h); T (256, c); Hoist_vars [c]; T (3, w); T (7, x); T (2, c); T (8, f); T (1, y); T (2, f)]"
29.86,1144991,1056657,"[V f; U (4, f); U (7, y); U (3, h); T (256, c); Hoist_vars [c]; T (3, w); T (7, x); T (2, c); T (4, f); T (1, y); T (4, f)]"
33.24,1144731,1056819,"[V f; U (4, f); U (7, y); U (3, h); T (256, c); Hoist_vars [c]; T (3, w); T (7, x); T (2, c); T (2, f); T (1, y); T (8, f)]"
35.91,1152270,1051414,"[V f; U (4, f); U (7, y); U (3, h); T (128, c); Hoist_vars [c]; T (3, w); T (7, x); T (4, c); T (8, f); T (1, y); T (2, f)]"
34.50,1157933,1050564,"[V f; U (4, f); U (7, y); U (3, h); T (128, c); Hoist_vars [c]; T (3, w); T (7, x); T (4, c); T (4, f); T (1, y); T (4, f)]"
36.00,1152535,1051566,"[V f; U (4, f); U (7, y); U (3, h); T (128, c); Hoist_vars [c]; T (3, w); T (7, x); T (4, c); T (2, f); T (1, y); T (8, f)]"
32.00,1189776,720267,"[V f; U (4, f); U (7, y); U (3, h); T (64, c); Hoist_vars [c]; T (3, w); T (7, x); T (8, c); T (16, f); T (1, y); T (1, f)]"
40.32,1188167,723020,"[V f; U (4, f); U (7, y); U (3, h); T (64, c); Hoist_vars [c]; T (3, w); T (7, x); T (8, c); T (8, f); T (1, y); T (2, f)]"
39.93,1192219,715186,"[V f; U (4, f); U (7, y); U (3, h); T (64, c); Hoist_vars [c]; T (3, w); T (7, x); T (8, c); T (4, f); T (1, y); T (4, f)]"
32.66,1194049,702758,"[V f; U (4, f); U (7, y); U (3, h); T (64, c); Hoist_vars [c]; T (3, w); T (7, x); T (8, c); T (1, f); T (1, y); T (16, f)]"
56.53,1286130,326020,"[V f; U (4, f); U (7, y); U (3, h); T (32, c); Hoist_vars [c]; T (3, w); T (7, x); T (16, c); T (4, f); T (1, y); T (4, f)]"
56.18,1283339,334089,"[V f; U (4, f); U (7, y); U (3, h); T (32, c); Hoist_vars [c]; T (3, w); T (7, x); T (16, c); T (2, f); T (1, y); T (8, f)]"
58.02,1291690,323220,"[V f; U (4, f); U (7, y); U (3, h); T (32, c); Hoist_vars [c]; T (3, w); T (7, x); T (16, c); T (1, f); T (1, y); T (16, f)]"
57.31,1424061,462137,"[V f; U (4, f); U (7, y); U (3, h); T (16, c); Hoist_vars [c]; T (3, w); T (7, x); T (32, c); T (8, f); T (1, y); T (2, f)]"
57.45,1434459,455741,"[V f; U (4, f); U (7, y); U (3, h); T (16, c); Hoist_vars [c]; T (3, w); T (7, x); T (32, c); T (4, f); T (1, y); T (4, f)]"
57.08,1435427,454713,"[V f; U (4, f); U (7, y); U (3, h); T (16, c); Hoist_vars [c]; T (3, w); T (7, x); T (32, c); T (2, f); T (1, y); T (8, f)]"
53.55,1753059,787791,"[V f; U (4, f); U (7, y); U (3, h); T (8, c); Hoist_vars [c]; T (3, w); T (7, x); T (64, c); T (8, f); T (1, y); T (2, f)]"
53.70,1741867,760336,"[V f; U (4, f); U (7, y); U (3, h); T (8, c); Hoist_vars [c]; T (3, w); T (7, x); T (64, c); T (4, f); T (1, y); T (4, f)]"
51.78,1762801,784747,"[V f; U (4, f); U (7, y); U (3, h); T (8, c); Hoist_vars [c]; T (3, w); T (7, x); T (64, c); T (2, f); T (1, y); T (8, f)]"
49.14,1764451,780434,"[V f; U (4, f); U (7, y); U (3, h); T (8, c); Hoist_vars [c]; T (3, w); T (7, x); T (64, c); T (1, f); T (1, y); T (16, f)]"
40.76,2337002,1170032,"[V f; U (4, f); U (7, y); U (3, h); T (2, c); Hoist_vars [c]; T (3, w); T (7, x); T (256, c); T (16, f); T (1, y); T (1, f)]"
41.24,2353639,1171159,"[V f; U (4, f); U (7, y); U (3, h); T (2, c); Hoist_vars [c]; T (3, w); T (7, x); T (256, c); T (2, f); T (1, y); T (8, f)]"
41.29,2350011,1175064,"[V f; U (4, f); U (7, y); U (3, h); T (2, c); Hoist_vars [c]; T (3, w); T (7, x); T (256, c); T (1, f); T (1, y); T (16, f)]"
32.56,3318363,1434334,"[V f; U (4, f); U (7, y); U (3, h); T (1, c); Hoist_vars [c]; T (3, w); T (7, x); T (512, c); T (8, f); T (1, y); T (2, f)]"
30.71,3305296,1437491,"[V f; U (4, f); U (7, y); U (3, h); T (1, c); Hoist_vars [c]; T (3, w); T (7, x); T (512, c); T (1, f); T (1, y); T (16, f)]"
33.88,3722951,1061917,"[V f; U (2, f); U (7, y); U (3, w); T (512, c); Hoist_vars [c]; T (7, x); T (3, h); T (32, f); T (1, c); T (1, y); T (1, c)]"
45.08,3595657,338225,"[V f; U (2, f); U (7, y); U (3, w); T (128, c); Hoist_vars [c]; T (7, x); T (3, h); T (32, f); T (4, c); T (1, y); T (1, c)]"
53.54,3868314,190922,"[V f; U (2, f); U (7, y); U (3, w); T (16, c); Hoist_vars [c]; T (7, x); T (3, h); T (32, f); T (32, c); T (1, y); T (1, c)]"
30.46,5401676,176124,"[V f; U (2, f); U (7, y); U (3, w); T (2, c); Hoist_vars [c]; T (7, x); T (3, h); T (32, f); T (256, c); T (1, y); T (1, c)]"
22.38,8245278,167183,"[V f; U (2, f); U (7, y); U (3, w); T (1, c); Hoist_vars [c]; T (7, x); T (3, h); T (32, f); T (512, c); T (1, y); T (1, c)]"
30.24,3914172,991033,"[V f; U (2, f); U (7, y); U (3, w); T (256, c); Hoist_vars [c]; T (7, x); T (3, h); T (32, f); T (1, c); T (1, y); T (2, c)]"
39.21,3592754,314101,"[V f; U (2, f); U (7, y); U (3, w); T (128, c); Hoist_vars [c]; T (7, x); T (3, h); T (32, f); T (2, c); T (1, y); T (2, c)]"
49.50,3561825,216857,"[V f; U (2, f); U (7, y); U (3, w); T (64, c); Hoist_vars [c]; T (7, x); T (3, h); T (32, f); T (4, c); T (1, y); T (2, c)]"
47.14,3696719,202779,"[V f; U (2, f); U (7, y); U (3, w); T (32, c); Hoist_vars [c]; T (7, x); T (3, h); T (32, f); T (8, c); T (1, y); T (2, c)]"
54.65,3855414,190493,"[V f; U (2, f); U (7, y); U (3, w); T (16, c); Hoist_vars [c]; T (7, x); T (3, h); T (32, f); T (16, c); T (1, y); T (2, c)]"
49.17,4599797,173556,"[V f; U (2, f); U (7, y); U (3, w); T (8, c); Hoist_vars [c]; T (7, x); T (3, h); T (32, f); T (32, c); T (1, y); T (2, c)]"
30.72,5384857,173880,"[V f; U (2, f); U (7, y); U (3, w); T (2, c); Hoist_vars [c]; T (7, x); T (3, h); T (32, f); T (128, c); T (1, y); T (2, c)]"
22.47,8309458,166100,"[V f; U (2, f); U (7, y); U (3, w); T (1, c); Hoist_vars [c]; T (7, x); T (3, h); T (32, f); T (256, c); T (1, y); T (2, c)]"
51.17,3667252,199441,"[V f; U (2, f); U (7, y); U (3, w); T (32, c); Hoist_vars [c]; T (7, x); T (3, h); T (32, f); T (4, c); T (1, y); T (4, c)]"
49.35,4602142,174954,"[V f; U (2, f); U (7, y); U (3, w); T (8, c); Hoist_vars [c]; T (7, x); T (3, h); T (32, f); T (16, c); T (1, y); T (4, c)]"
40.79,5725391,173678,"[V f; U (2, f); U (7, y); U (3, w); T (4, c); Hoist_vars [c]; T (7, x); T (3, h); T (32, f); T (32, c); T (1, y); T (4, c)]"
48.05,3680925,197211,"[V f; U (2, f); U (7, y); U (3, w); T (32, c); Hoist_vars [c]; T (7, x); T (3, h); T (32, f); T (2, c); T (1, y); T (8, c)]"
39.43,5760879,173952,"[V f; U (2, f); U (7, y); U (3, w); T (4, c); Hoist_vars [c]; T (7, x); T (3, h); T (32, f); T (16, c); T (1, y); T (8, c)]"
30.90,5445126,173797,"[V f; U (2, f); U (7, y); U (3, w); T (2, c); Hoist_vars [c]; T (7, x); T (3, h); T (32, f); T (32, c); T (1, y); T (8, c)]"
22.34,8300345,167595,"[V f; U (2, f); U (7, y); U (3, w); T (1, c); Hoist_vars [c]; T (7, x); T (3, h); T (32, f); T (64, c); T (1, y); T (8, c)]"
50.93,3638200,202049,"[V f; U (2, f); U (7, y); U (3, w); T (32, c); Hoist_vars [c]; T (7, x); T (3, h); T (32, f); T (1, c); T (1, y); T (16, c)]"
52.78,3874294,188066,"[V f; U (2, f); U (7, y); U (3, w); T (16, c); Hoist_vars [c]; T (7, x); T (3, h); T (32, f); T (2, c); T (1, y); T (16, c)]"
49.34,4605244,173872,"[V f; U (2, f); U (7, y); U (3, w); T (8, c); Hoist_vars [c]; T (7, x); T (3, h); T (32, f); T (4, c); T (1, y); T (16, c)]"
22.61,8264861,166586,"[V f; U (2, f); U (7, y); U (3, w); T (1, c); Hoist_vars [c]; T (7, x); T (3, h); T (32, f); T (32, c); T (1, y); T (16, c)]"
52.60,3880401,191543,"[V f; U (2, f); U (7, y); U (3, w); T (16, c); Hoist_vars [c]; T (7, x); T (3, h); T (32, f); T (1, c); T (1, y); T (32, c)]"
48.59,4601618,172039,"[V f; U (2, f); U (7, y); U (3, w); T (8, c); Hoist_vars [c]; T (7, x); T (3, h); T (32, f); T (2, c); T (1, y); T (32, c)]"
40.52,5698431,174498,"[V f; U (2, f); U (7, y); U (3, w); T (4, c); Hoist_vars [c]; T (7, x); T (3, h); T (32, f); T (4, c); T (1, y); T (32, c)]"
30.94,5413489,173481,"[V f; U (2, f); U (7, y); U (3, w); T (2, c); Hoist_vars [c]; T (7, x); T (3, h); T (32, f); T (8, c); T (1, y); T (32, c)]"
22.67,8265842,166708,"[V f; U (2, f); U (7, y); U (3, w); T (1, c); Hoist_vars [c]; T (7, x); T (3, h); T (32, f); T (16, c); T (1, y); T (32, c)]"
40.56,5709522,173961,"[V f; U (2, f); U (7, y); U (3, w); T (4, c); Hoist_vars [c]; T (7, x); T (3, h); T (32, f); T (2, c); T (1, y); T (64, c)]"
22.36,8311845,167059,"[V f; U (2, f); U (7, y); U (3, w); T (1, c); Hoist_vars [c]; T (7, x); T (3, h); T (32, f); T (8, c); T (1, y); T (64, c)]"
30.96,5408677,174960,"[V f; U (2, f); U (7, y); U (3, w); T (2, c); Hoist_vars [c]; T (7, x); T (3, h); T (32, f); T (2, c); T (1, y); T (128, c)]"
30.11,5359321,177054,"[V f; U (2, f); U (7, y); U (3, w); T (2, c); Hoist_vars [c]; T (7, x); T (3, h); T (32, f); T (1, c); T (1, y); T (256, c)]"
22.65,8265096,166085,"[V f; U (2, f); U (7, y); U (3, w); T (1, c); Hoist_vars [c]; T (7, x); T (3, h); T (32, f); T (2, c); T (1, y); T (256, c)]"
33.45,3016563,1062363,"[V f; U (4, f); U (7, y); U (3, w); T (512, c); Hoist_vars [c]; T (3, h); T (7, x); T (1, c); T (16, f); T (1, y); T (1, f)]"
31.99,3025538,1062799,"[V f; U (4, f); U (7, y); U (3, w); T (512, c); Hoist_vars [c]; T (3, h); T (7, x); T (1, c); T (8, f); T (1, y); T (2, f)]"
31.26,3044109,1062626,"[V f; U (4, f); U (7, y); U (3, w); T (512, c); Hoist_vars [c]; T (3, h); T (7, x); T (1, c); T (4, f); T (1, y); T (4, f)]"
34.55,2998164,1066262,"[V f; U (4, f); U (7, y); U (3, w); T (512, c); Hoist_vars [c]; T (3, h); T (7, x); T (1, c); T (1, f); T (1, y); T (16, f)]"
36.80,2931013,1061454,"[V f; U (4, f); U (7, y); U (3, w); T (256, c); Hoist_vars [c]; T (3, h); T (7, x); T (2, c); T (16, f); T (1, y); T (1, f)]"
35.28,2917199,1061558,"[V f; U (4, f); U (7, y); U (3, w); T (256, c); Hoist_vars [c]; T (3, h); T (7, x); T (2, c); T (8, f); T (1, y); T (2, f)]"
36.14,2927933,1061036,"[V f; U (4, f); U (7, y); U (3, w); T (256, c); Hoist_vars [c]; T (3, h); T (7, x); T (2, c); T (2, f); T (1, y); T (8, f)]"
36.82,2946075,1061028,"[V f; U (4, f); U (7, y); U (3, w); T (256, c); Hoist_vars [c]; T (3, h); T (7, x); T (2, c); T (1, f); T (1, y); T (16, f)]"
34.30,2960627,1052867,"[V f; U (4, f); U (7, y); U (3, w); T (128, c); Hoist_vars [c]; T (3, h); T (7, x); T (4, c); T (4, f); T (1, y); T (4, f)]"
40.59,2907107,743081,"[V f; U (4, f); U (7, y); U (3, w); T (64, c); Hoist_vars [c]; T (3, h); T (7, x); T (8, c); T (16, f); T (1, y); T (1, f)]"
38.71,2995510,733119,"[V f; U (4, f); U (7, y); U (3, w); T (64, c); Hoist_vars [c]; T (3, h); T (7, x); T (8, c); T (4, f); T (1, y); T (4, f)]"
40.25,2893966,720068,"[V f; U (4, f); U (7, y); U (3, w); T (64, c); Hoist_vars [c]; T (3, h); T (7, x); T (8, c); T (2, f); T (1, y); T (8, f)]"
37.62,2954648,750428,"[V f; U (4, f); U (7, y); U (3, w); T (64, c); Hoist_vars [c]; T (3, h); T (7, x); T (8, c); T (1, f); T (1, y); T (16, f)]"
58.18,2725294,352808,"[V f; U (4, f); U (7, y); U (3, w); T (32, c); Hoist_vars [c]; T (3, h); T (7, x); T (16, c); T (16, f); T (1, y); T (1, f)]"
52.52,2742328,358167,"[V f; U (4, f); U (7, y); U (3, w); T (32, c); Hoist_vars [c]; T (3, h); T (7, x); T (16, c); T (8, f); T (1, y); T (2, f)]"
57.23,2719124,347894,"[V f; U (4, f); U (7, y); U (3, w); T (32, c); Hoist_vars [c]; T (3, h); T (7, x); T (16, c); T (4, f); T (1, y); T (4, f)]"
58.43,2780016,341354,"[V f; U (4, f); U (7, y); U (3, w); T (32, c); Hoist_vars [c]; T (3, h); T (7, x); T (16, c); T (2, f); T (1, y); T (8, f)]"
57.00,2899565,486950,"[V f; U (4, f); U (7, y); U (3, w); T (16, c); Hoist_vars [c]; T (3, h); T (7, x); T (32, c); T (8, f); T (1, y); T (2, f)]"
54.37,2896125,482657,"[V f; U (4, f); U (7, y); U (3, w); T (16, c); Hoist_vars [c]; T (3, h); T (7, x); T (32, c); T (4, f); T (1, y); T (4, f)]"
58.79,2912568,482694,"[V f; U (4, f); U (7, y); U (3, w); T (16, c); Hoist_vars [c]; T (3, h); T (7, x); T (32, c); T (2, f); T (1, y); T (8, f)]"
58.93,2879288,487607,"[V f; U (4, f); U (7, y); U (3, w); T (16, c); Hoist_vars [c]; T (3, h); T (7, x); T (32, c); T (1, f); T (1, y); T (16, f)]"
54.96,3318428,941704,"[V f; U (4, f); U (7, y); U (3, w); T (8, c); Hoist_vars [c]; T (3, h); T (7, x); T (64, c); T (8, f); T (1, y); T (2, f)]"
50.13,3346023,940146,"[V f; U (4, f); U (7, y); U (3, w); T (8, c); Hoist_vars [c]; T (3, h); T (7, x); T (64, c); T (2, f); T (1, y); T (8, f)]"
47.66,3662571,1163678,"[V f; U (4, f); U (7, y); U (3, w); T (4, c); Hoist_vars [c]; T (3, h); T (7, x); T (128, c); T (8, f); T (1, y); T (2, f)]"
45.17,3652993,936284,"[V f; U (4, f); U (7, y); U (3, w); T (4, c); Hoist_vars [c]; T (3, h); T (7, x); T (128, c); T (2, f); T (1, y); T (8, f)]"
47.82,3919972,1171140,"[V f; U (4, f); U (7, y); U (3, w); T (4, c); Hoist_vars [c]; T (3, h); T (7, x); T (128, c); T (1, f); T (1, y); T (16, f)]"
39.54,3501377,1193276,"[V f; U (4, f); U (7, y); U (3, w); T (2, c); Hoist_vars [c]; T (3, h); T (7, x); T (256, c); T (4, f); T (1, y); T (4, f)]"
42.03,3472691,1200594,"[V f; U (4, f); U (7, y); U (3, w); T (2, c); Hoist_vars [c]; T (3, h); T (7, x); T (256, c); T (2, f); T (1, y); T (8, f)]"
41.33,3455228,1201729,"[V f; U (4, f); U (7, y); U (3, w); T (2, c); Hoist_vars [c]; T (3, h); T (7, x); T (256, c); T (1, f); T (1, y); T (16, f)]"
30.39,4510851,1576157,"[V f; U (4, f); U (7, y); U (3, w); T (1, c); Hoist_vars [c]; T (3, h); T (7, x); T (512, c); T (16, f); T (1, y); T (1, f)]"
30.27,4511743,1625370,"[V f; U (4, f); U (7, y); U (3, w); T (1, c); Hoist_vars [c]; T (3, h); T (7, x); T (512, c); T (8, f); T (1, y); T (2, f)]"
31.80,4517846,1551334,"[V f; U (4, f); U (7, y); U (3, w); T (1, c); Hoist_vars [c]; T (3, h); T (7, x); T (512, c); T (4, f); T (1, y); T (4, f)]"
30.76,4515240,1541956,"[V f; U (4, f); U (7, y); U (3, w); T (1, c); Hoist_vars [c]; T (3, h); T (7, x); T (512, c); T (1, f); T (1, y); T (16, f)]"
27.04,2230975,2088366,"[V f; U (4, f); ULambda y; U (3, h); T (512, c); Hoist_vars [c]; T (3, w); T (7, x); T (1, c); T (8, f); Lambda_apply y [((Iter 1), (Arg 3)); ((Iter 1), (Arg 4))]; T (2, f)]"
32.40,2230286,2088579,"[V f; U (4, f); ULambda y; U (3, h); T (512, c); Hoist_vars [c]; T (3, w); T (7, x); T (1, c); T (2, f); Lambda_apply y [((Iter 1), (Arg 3)); ((Iter 1), (Arg 4))]; T (8, f)]"
31.05,2228867,2086815,"[V f; U (4, f); ULambda y; U (3, h); T (512, c); Hoist_vars [c]; T (3, w); T (7, x); T (1, c); T (1, f); Lambda_apply y [((Iter 1), (Arg 3)); ((Iter 1), (Arg 4))]; T (16, f)]"
35.06,2159527,2088595,"[V f; U (4, f); ULambda y; U (3, h); T (256, c); Hoist_vars [c]; T (3, w); T (7, x); T (2, c); T (16, f); Lambda_apply y [((Iter 1), (Arg 3)); ((Iter 1), (Arg 4))]; T (1, f)]"
35.19,2158069,2089633,"[V f; U (4, f); ULambda y; U (3, h); T (256, c); Hoist_vars [c]; T (3, w); T (7, x); T (2, c); T (4, f); Lambda_apply y [((Iter 1), (Arg 3)); ((Iter 1), (Arg 4))]; T (4, f)]"
36.15,2159410,2087859,"[V f; U (4, f); ULambda y; U (3, h); T (256, c); Hoist_vars [c]; T (3, w); T (7, x); T (2, c); T (1, f); Lambda_apply y [((Iter 1), (Arg 3)); ((Iter 1), (Arg 4))]; T (16, f)]"
36.36,2177370,2084000,"[V f; U (4, f); ULambda y; U (3, h); T (128, c); Hoist_vars [c]; T (3, w); T (7, x); T (4, c); T (8, f); Lambda_apply y [((Iter 1), (Arg 3)); ((Iter 1), (Arg 4))]; T (2, f)]"
31.19,2173148,2087904,"[V f; U (4, f); ULambda y; U (3, h); T (128, c); Hoist_vars [c]; T (3, w); T (7, x); T (4, c); T (4, f); Lambda_apply y [((Iter 1), (Arg 3)); ((Iter 1), (Arg 4))]; T (4, f)]"
40.10,2214995,1371245,"[V f; U (4, f); ULambda y; U (3, h); T (64, c); Hoist_vars [c]; T (3, w); T (7, x); T (8, c); T (4, f); Lambda_apply y [((Iter 1), (Arg 3)); ((Iter 1), (Arg 4))]; T (4, f)]"
37.91,2213374,1357631,"[V f; U (4, f); ULambda y; U (3, h); T (64, c); Hoist_vars [c]; T (3, w); T (7, x); T (8, c); T (1, f); Lambda_apply y [((Iter 1), (Arg 3)); ((Iter 1), (Arg 4))]; T (16, f)]"
48.11,2307867,631654,"[V f; U (4, f); ULambda y; U (3, h); T (32, c); Hoist_vars [c]; T (3, w); T (7, x); T (16, c); T (8, f); Lambda_apply y [((Iter 1), (Arg 3)); ((Iter 1), (Arg 4))]; T (2, f)]"
57.01,2305966,622453,"[V f; U (4, f); ULambda y; U (3, h); T (32, c); Hoist_vars [c]; T (3, w); T (7, x); T (16, c); T (4, f); Lambda_apply y [((Iter 1), (Arg 3)); ((Iter 1), (Arg 4))]; T (4, f)]"
44.88,2305618,640222,"[V f; U (4, f); ULambda y; U (3, h); T (32, c); Hoist_vars [c]; T (3, w); T (7, x); T (16, c); T (2, f); Lambda_apply y [((Iter 1), (Arg 3)); ((Iter 1), (Arg 4))]; T (8, f)]"
38.42,2310164,621720,"[V f; U (4, f); ULambda y; U (3, h); T (32, c); Hoist_vars [c]; T (3, w); T (7, x); T (16, c); T (1, f); Lambda_apply y [((Iter 1), (Arg 3)); ((Iter 1), (Arg 4))]; T (16, f)]"
48.83,2414045,882641,"[V f; U (4, f); ULambda y; U (3, h); T (16, c); Hoist_vars [c]; T (3, w); T (7, x); T (32, c); T (16, f); Lambda_apply y [((Iter 1), (Arg 3)); ((Iter 1), (Arg 4))]; T (1, f)]"
47.71,2418372,828141,"[V f; U (4, f); ULambda y; U (3, h); T (16, c); Hoist_vars [c]; T (3, w); T (7, x); T (32, c); T (8, f); Lambda_apply y [((Iter 1), (Arg 3)); ((Iter 1), (Arg 4))]; T (2, f)]"
49.50,2419078,838747,"[V f; U (4, f); ULambda y; U (3, h); T (16, c); Hoist_vars [c]; T (3, w); T (7, x); T (32, c); T (4, f); Lambda_apply y [((Iter 1), (Arg 3)); ((Iter 1), (Arg 4))]; T (4, f)]"
47.74,2419360,807481,"[V f; U (4, f); ULambda y; U (3, h); T (16, c); Hoist_vars [c]; T (3, w); T (7, x); T (32, c); T (1, f); Lambda_apply y [((Iter 1), (Arg 3)); ((Iter 1), (Arg 4))]; T (16, f)]"
45.29,2718198,1441821,"[V f; U (4, f); ULambda y; U (3, h); T (8, c); Hoist_vars [c]; T (3, w); T (7, x); T (64, c); T (16, f); Lambda_apply y [((Iter 1), (Arg 3)); ((Iter 1), (Arg 4))]; T (1, f)]"
45.78,2706848,1415035,"[V f; U (4, f); ULambda y; U (3, h); T (8, c); Hoist_vars [c]; T (3, w); T (7, x); T (64, c); T (8, f); Lambda_apply y [((Iter 1), (Arg 3)); ((Iter 1), (Arg 4))]; T (2, f)]"
49.69,2714049,1499970,"[V f; U (4, f); ULambda y; U (3, h); T (8, c); Hoist_vars [c]; T (3, w); T (7, x); T (64, c); T (4, f); Lambda_apply y [((Iter 1), (Arg 3)); ((Iter 1), (Arg 4))]; T (4, f)]"
44.98,2704487,1420088,"[V f; U (4, f); ULambda y; U (3, h); T (8, c); Hoist_vars [c]; T (3, w); T (7, x); T (64, c); T (2, f); Lambda_apply y [((Iter 1), (Arg 3)); ((Iter 1), (Arg 4))]; T (8, f)]"
49.29,2713491,1461399,"[V f; U (4, f); ULambda y; U (3, h); T (8, c); Hoist_vars [c]; T (3, w); T (7, x); T (64, c); T (1, f); Lambda_apply y [((Iter 1), (Arg 3)); ((Iter 1), (Arg 4))]; T (16, f)]"
46.03,3059347,1975233,"[V f; U (4, f); ULambda y; U (3, h); T (4, c); Hoist_vars [c]; T (3, w); T (7, x); T (128, c); T (8, f); Lambda_apply y [((Iter 1), (Arg 3)); ((Iter 1), (Arg 4))]; T (2, f)]"
43.51,3041713,1955735,"[V f; U (4, f); ULambda y; U (3, h); T (4, c); Hoist_vars [c]; T (3, w); T (7, x); T (128, c); T (2, f); Lambda_apply y [((Iter 1), (Arg 3)); ((Iter 1), (Arg 4))]; T (8, f)]"
43.43,3049156,1901165,"[V f; U (4, f); ULambda y; U (3, h); T (4, c); Hoist_vars [c]; T (3, w); T (7, x); T (128, c); T (1, f); Lambda_apply y [((Iter 1), (Arg 3)); ((Iter 1), (Arg 4))]; T (16, f)]"
43.68,3075006,1932062,"[V f; U (4, f); ULambda y; U (3, h); T (2, c); Hoist_vars [c]; T (3, w); T (7, x); T (256, c); T (16, f); Lambda_apply y [((Iter 1), (Arg 3)); ((Iter 1), (Arg 4))]; T (1, f)]"
40.30,3065590,1869720,"[V f; U (4, f); ULambda y; U (3, h); T (2, c); Hoist_vars [c]; T (3, w); T (7, x); T (256, c); T (8, f); Lambda_apply y [((Iter 1), (Arg 3)); ((Iter 1), (Arg 4))]; T (2, f)]"
39.24,3078593,1835058,"[V f; U (4, f); ULambda y; U (3, h); T (2, c); Hoist_vars [c]; T (3, w); T (7, x); T (256, c); T (4, f); Lambda_apply y [((Iter 1), (Arg 3)); ((Iter 1), (Arg 4))]; T (4, f)]"
27.94,3790743,2411742,"[V f; U (4, f); ULambda y; U (3, h); T (1, c); Hoist_vars [c]; T (3, w); T (7, x); T (512, c); T (16, f); Lambda_apply y [((Iter 1), (Arg 3)); ((Iter 1), (Arg 4))]; T (1, f)]"
32.32,3789780,2587874,"[V f; U (4, f); ULambda y; U (3, h); T (1, c); Hoist_vars [c]; T (3, w); T (7, x); T (512, c); T (8, f); Lambda_apply y [((Iter 1), (Arg 3)); ((Iter 1), (Arg 4))]; T (2, f)]"
33.68,3815675,2539108,"[V f; U (4, f); ULambda y; U (3, h); T (1, c); Hoist_vars [c]; T (3, w); T (7, x); T (512, c); T (4, f); Lambda_apply y [((Iter 1), (Arg 3)); ((Iter 1), (Arg 4))]; T (4, f)]"
30.77,3838182,2622663,"[V f; U (4, f); ULambda y; U (3, h); T (1, c); Hoist_vars [c]; T (3, w); T (7, x); T (512, c); T (1, f); Lambda_apply y [((Iter 1), (Arg 3)); ((Iter 1), (Arg 4))]; T (16, f)]"
