perf,CACHE_MISS_L1,CACHE_MISS_L2,scheme
84.06,464411,137003,"[V f; U (2, f); U (8, y); T (32, c); Hoist_vars [c]; T (14, x); T (1, c); T (3, w); T (3, h); T (8, x); T (14, y); T (2, f); T (1, y)]"
60.61,308716,91634,"[V f; U (2, f); U (8, y); T (4, c); Hoist_vars [c]; T (4, x); T (8, c); T (3, w); T (3, h); T (28, x); T (14, y); T (2, f); T (1, y)]"
71.26,1325611,73009,"[V f; U (2, f); U (14, y); T (16, c); Hoist_vars [c]; T (112, x); T (2, c); T (3, w); T (3, h); T (1, x); T (1, y); T (2, f); T (8, y)]"
52.19,2673468,116434,"[V f; U (2, f); U (14, y); T (8, c); Hoist_vars [c]; T (56, x); T (4, c); T (3, w); T (3, h); T (2, x); T (8, y); T (2, f); T (1, y)]"
82.24,578755,105642,"[V f; U (2, f); U (14, y); T (32, c); Hoist_vars [c]; T (16, x); T (1, c); T (3, w); T (3, h); T (7, x); T (2, y); T (2, f); T (4, y)]"
86.82,1056964,74510,"[V f; U (4, f); U (8, y); T (16, c); Hoist_vars [c]; T (3, w); T (3, h); T (112, x); T (1, y); T (2, c); T (14, y)]"
71.19,657409,115657,"[V f; U (2, f); U (4, y); U (3, h); T (8, c); Hoist_vars [c]; T (28, x); T (4, c); T (3, w); T (4, x); T (7, y); T (2, f); T (4, y)]"
70.73,1051364,78033,"[V f; U (2, f); U (4, y); U (3, h); T (4, c); Hoist_vars [c]; T (28, x); T (8, c); T (3, w); T (4, x); T (4, y); T (2, f); T (7, y)]"
70.56,1054984,75122,"[V f; U (2, f); U (4, y); U (3, h); T (4, c); Hoist_vars [c]; T (28, x); T (8, c); T (3, w); T (4, x); T (1, y); T (2, f); T (28, y)]"
81.26,413104,73947,"[V f; U (2, f); U (4, y); U (3, h); T (16, c); Hoist_vars [c]; T (16, x); T (2, c); T (3, w); T (7, x); T (2, y); T (2, f); T (14, y)]"
75.14,921478,73094,"[V f; U (2, f); U (4, y); U (3, h); T (2, c); Hoist_vars [c]; T (14, x); T (16, c); T (3, w); T (8, x); T (2, y); T (2, f); T (14, y)]"
75.32,375858,103566,"[V f; U (2, f); U (4, y); U (3, h); T (2, c); Hoist_vars [c]; T (8, x); T (16, c); T (3, w); T (14, x); T (14, y); T (2, f); T (2, y)]"
69.81,364229,56414,"[V f; U (2, f); U (4, y); U (3, h); T (1, c); Hoist_vars [c]; T (8, x); T (32, c); T (3, w); T (14, x); T (1, y); T (2, f); T (28, y)]"
70.99,370931,81641,"[V f; U (2, f); U (4, y); U (3, h); T (1, c); Hoist_vars [c]; T (7, x); T (32, c); T (3, w); T (16, x); T (28, y); T (2, f); T (1, y)]"
79.59,526087,73130,"[V f; U (2, f); U (4, y); U (3, h); T (16, c); Hoist_vars [c]; T (4, x); T (2, c); T (3, w); T (28, x); T (14, y); T (2, f); T (2, y)]"
89.69,297995,62530,"[V f; U (2, f); U (7, y); U (3, h); T (32, c); Hoist_vars [c]; T (112, x); T (1, c); T (3, w); T (1, x); T (1, y); T (2, f); T (16, y)]"
91.48,306560,66018,"[V f; U (2, f); U (7, y); U (3, h); T (32, c); Hoist_vars [c]; T (56, x); T (1, c); T (3, w); T (2, x); T (1, y); T (2, f); T (16, y)]"
75.36,608728,123763,"[V f; U (2, f); U (7, y); U (3, h); T (8, c); Hoist_vars [c]; T (16, x); T (4, c); T (3, w); T (7, x); T (4, y); T (2, f); T (4, y)]"
76.97,304795,115209,"[V f; U (2, f); U (7, y); U (3, h); T (2, c); Hoist_vars [c]; T (8, x); T (16, c); T (3, w); T (14, x); T (16, y); T (2, f); T (1, y)]"
89.86,332932,142107,"[V f; U (2, f); U (7, y); U (3, h); T (32, c); Hoist_vars [c]; T (7, x); T (1, c); T (3, w); T (16, x); T (8, y); T (2, f); T (2, y)]"
66.01,289318,110679,"[V f; U (2, f); U (7, y); U (3, h); T (1, c); Hoist_vars [c]; T (7, x); T (32, c); T (3, w); T (16, x); T (8, y); T (2, f); T (2, y)]"
89.25,361490,98778,"[V f; U (2, f); U (7, y); U (3, h); T (16, c); Hoist_vars [c]; T (4, x); T (2, c); T (3, w); T (28, x); T (16, y); T (2, f); T (1, y)]"
61.61,345946,82891,"[V f; U (2, f); U (7, y); U (3, h); T (1, c); Hoist_vars [c]; T (4, x); T (32, c); T (3, w); T (28, x); T (16, y); T (2, f); T (1, y)]"
72.04,336086,58619,"[V f; U (2, f); U (7, y); U (3, h); T (2, c); Hoist_vars [c]; T (4, x); T (16, c); T (3, w); T (28, x); T (2, y); T (2, f); T (8, y)]"
78.62,555895,87900,"[V f; U (2, f); U (7, y); U (3, h); T (8, c); Hoist_vars [c]; T (2, x); T (4, c); T (3, w); T (56, x); T (16, y); T (2, f); T (1, y)]"
64.39,857292,117283,"[V f; U (2, f); U (7, y); U (3, h); T (1, c); Hoist_vars [c]; T (1, x); T (32, c); T (3, w); T (112, x); T (8, y); T (2, f); T (2, y)]"
44.17,5438875,94184,"[V f; U (2, f); U (8, y); U (3, h); T (1, c); Hoist_vars [c]; T (112, x); T (32, c); T (3, w); T (1, x); T (14, y); T (2, f); T (1, y)]"
91.13,270716,135597,"[V f; U (2, f); U (8, y); U (3, h); T (32, c); Hoist_vars [c]; T (14, x); T (1, c); T (3, w); T (8, x); T (14, y); T (2, f); T (1, y)]"
89.38,317770,129732,"[V f; U (2, f); U (8, y); U (3, h); T (16, c); Hoist_vars [c]; T (7, x); T (2, c); T (3, w); T (16, x); T (7, y); T (2, f); T (2, y)]"
91.56,311895,80934,"[V f; U (2, f); U (8, y); U (3, h); T (32, c); Hoist_vars [c]; T (7, x); T (1, c); T (3, w); T (16, x); T (2, y); T (2, f); T (7, y)]"
50.36,675272,133669,"[V f; U (2, f); U (14, y); U (3, h); T (2, c); Hoist_vars [c]; T (8, x); T (16, c); T (3, w); T (14, x); T (8, y); T (2, f); T (1, y)]"
61.82,428242,89767,"[V f; U (2, f); U (14, y); U (3, h); T (4, c); Hoist_vars [c]; T (7, x); T (8, c); T (3, w); T (16, x); T (1, y); T (2, f); T (8, y)]"
52.12,431394,84045,"[V f; U (2, f); U (14, y); U (3, h); T (2, c); Hoist_vars [c]; T (7, x); T (16, c); T (3, w); T (16, x); T (1, y); T (2, f); T (8, y)]"
84.91,1451413,74634,"[V f; U (4, f); U (4, y); U (3, h); T (8, c); Hoist_vars [c]; T (3, w); T (112, x); T (2, y); T (4, c); T (14, y)]"
68.18,2202529,59318,"[V f; U (4, f); U (4, y); U (3, h); T (1, c); Hoist_vars [c]; T (3, w); T (112, x); T (2, y); T (32, c); T (14, y)]"
65.97,1549024,63043,"[V f; U (4, f); U (7, y); U (3, h); T (2, c); Hoist_vars [c]; T (3, w); T (112, x); T (2, y); T (16, c); T (8, y)]"
67.40,1557386,59845,"[V f; U (4, f); U (7, y); U (3, h); T (2, c); Hoist_vars [c]; T (3, w); T (112, x); T (1, y); T (16, c); T (16, y)]"
48.00,4938207,91390,"[V f; U (2, f); U (7, y); U (3, w); T (1, c); Hoist_vars [c]; T (56, x); T (32, c); T (3, h); T (16, y); T (1, x); T (2, f); T (2, x)]"
51.23,1042056,98367,"[V f; U (2, f); U (7, y); U (3, w); T (1, c); Hoist_vars [c]; T (1, x); T (32, c); T (3, h); T (16, y); T (56, x); T (2, f); T (2, x)]"
69.06,598363,81601,"[V f; U (2, f); U (7, y); U (3, w); T (8, c); Hoist_vars [c]; T (14, x); T (4, c); T (3, h); T (16, y); T (2, x); T (2, f); T (4, x)]"
60.36,368062,64482,"[V f; U (2, f); U (7, y); U (3, w); T (1, c); Hoist_vars [c]; T (4, x); T (32, c); T (3, h); T (16, y); T (7, x); T (2, f); T (4, x)]"
78.70,1003438,52033,"[V f; U (2, f); U (7, y); U (3, w); T (16, c); Hoist_vars [c]; T (1, x); T (2, c); T (3, h); T (16, y); T (2, x); T (2, f); T (56, x)]"
52.40,1052418,52107,"[V f; U (2, f); U (7, y); U (3, w); T (1, c); Hoist_vars [c]; T (1, x); T (32, c); T (3, h); T (16, y); T (1, x); T (2, f); T (112, x)]"
76.42,503996,84111,"[V f; U (2, f); U (8, y); U (3, w); T (16, c); Hoist_vars [c]; T (56, x); T (2, c); T (3, h); T (14, y); T (2, x); T (2, f); T (1, x)]"
81.50,269833,73473,"[V f; U (2, f); U (8, y); U (3, w); T (32, c); Hoist_vars [c]; T (56, x); T (1, c); T (3, h); T (14, y); T (1, x); T (2, f); T (2, x)]"
81.03,986933,98186,"[V f; U (2, f); U (8, y); U (3, w); T (32, c); Hoist_vars [c]; T (1, x); T (1, c); T (3, h); T (14, y); T (56, x); T (2, f); T (2, x)]"
76.44,977791,53550,"[V f; U (2, f); U (8, y); U (3, w); T (8, c); Hoist_vars [c]; T (1, x); T (4, c); T (3, h); T (14, y); T (8, x); T (2, f); T (14, x)]"
84.97,980450,134102,"[V f; U (4, f); U (7, y); U (3, w); T (16, c); Hoist_vars [c]; T (3, h); T (112, x); T (8, y); T (2, c); T (2, y)]"
58.28,1556354,125498,"[V f; U (4, f); U (7, y); U (3, w); T (2, c); Hoist_vars [c]; T (3, h); T (112, x); T (4, y); T (16, c); T (4, y)]"
69.98,1383512,74574,"[V f; U (4, f); U (8, y); U (3, w); T (4, c); Hoist_vars [c]; T (3, h); T (112, x); T (1, y); T (8, c); T (14, y)]"
82.81,725501,96173,"[V f; U (2, f); ULambda y; T (32, c); Hoist_vars [c]; T (56, x); T (1, c); T (3, w); T (3, h); T (2, x); T (4, y); T (2, f); Lambda_apply y [((Iter 1), (Arg 8)); ((Iter 2), (Arg 10))]]"
84.07,309750,86934,"[V f; U (2, f); ULambda y; T (32, c); Hoist_vars [c]; T (4, x); T (1, c); T (3, w); T (3, h); T (28, x); Lambda_apply y [((Iter 1), (Arg 8)); ((Iter 2), (Arg 10))]; T (2, f); T (4, y)]"
57.37,421606,83152,"[V f; U (2, f); ULambda y; T (4, c); Hoist_vars [c]; T (2, x); T (8, c); T (3, w); T (3, h); T (56, x); T (4, y); T (2, f); Lambda_apply y [((Iter 1), (Arg 8)); ((Iter 2), (Arg 10))]]"
32.05,7258173,66716,"[V f; U (2, f); ULambda y; T (2, c); Hoist_vars [c]; T (56, x); T (16, c); T (3, w); T (3, h); T (2, x); T (1, y); T (2, f); Lambda_apply y [((Iter 3), (Arg 8)); ((Iter 8), (Arg 11))]]"
57.85,1508544,103353,"[V f; U (2, f); ULambda y; T (8, c); Hoist_vars [c]; T (14, x); T (4, c); T (3, w); T (3, h); T (8, x); T (1, y); T (2, f); Lambda_apply y [((Iter 3), (Arg 8)); ((Iter 8), (Arg 11))]]"
87.71,353952,84442,"[V f; U (2, f); ULambda y; T (32, c); Hoist_vars [c]; T (8, x); T (1, c); T (3, w); T (3, h); T (14, x); T (1, y); T (2, f); Lambda_apply y [((Iter 3), (Arg 8)); ((Iter 8), (Arg 11))]]"
81.66,725996,82659,"[V f; U (2, f); ULambda y; T (32, c); Hoist_vars [c]; T (112, x); T (1, c); T (3, w); T (3, h); T (1, x); Lambda_apply y [((Iter 2), (Arg 8)); ((Iter 1), (Arg 12))]; T (2, f); T (4, y)]"
63.41,268971,90339,"[V f; U (2, f); ULambda y; T (8, c); Hoist_vars [c]; T (7, x); T (4, c); T (3, w); T (3, h); T (16, x); Lambda_apply y [((Iter 2), (Arg 8)); ((Iter 1), (Arg 12))]; T (2, f); T (4, y)]"
53.56,2686016,72364,"[V f; U (2, f); ULambda y; T (8, c); Hoist_vars [c]; T (56, x); T (4, c); T (3, w); T (3, h); T (2, x); T (1, y); T (2, f); Lambda_apply y [((Iter 1), (Arg 8)); ((Iter 8), (Arg 13))]]"
42.97,361449,122215,"[V f; U (2, f); ULambda y; T (4, c); Hoist_vars [c]; T (2, x); T (8, c); T (3, w); T (3, h); T (56, x); Lambda_apply y [((Iter 1), (Arg 8)); ((Iter 8), (Arg 13))]; T (2, f); T (1, y)]"
48.61,280579,67504,"[V f; U (2, f); ULambda y; T (4, c); Hoist_vars [c]; T (4, x); T (8, c); T (3, w); T (3, h); T (28, x); T (1, y); T (2, f); Lambda_apply y [((Iter 7), (Arg 8)); ((Iter 4), (Arg 14))]]"
51.66,2678286,86314,"[V f; U (2, f); ULambda y; T (8, c); Hoist_vars [c]; T (112, x); T (4, c); T (3, w); T (3, h); T (1, x); Lambda_apply y [((Iter 2), (Arg 9)); ((Iter 1), (Arg 10))]; T (2, f); T (4, y)]"
31.91,7255596,78265,"[V f; U (2, f); ULambda y; T (2, c); Hoist_vars [c]; T (56, x); T (16, c); T (3, w); T (3, h); T (2, x); Lambda_apply y [((Iter 2), (Arg 9)); ((Iter 1), (Arg 10))]; T (2, f); T (4, y)]"
29.26,286855,98315,"[V f; U (2, f); ULambda y; T (1, c); Hoist_vars [c]; T (4, x); T (32, c); T (3, w); T (3, h); T (28, x); Lambda_apply y [((Iter 2), (Arg 9)); ((Iter 1), (Arg 10))]; T (2, f); T (4, y)]"
26.78,419522,73818,"[V f; U (2, f); ULambda y; T (1, c); Hoist_vars [c]; T (2, x); T (32, c); T (3, w); T (3, h); T (56, x); Lambda_apply y [((Iter 2), (Arg 9)); ((Iter 1), (Arg 10))]; T (2, f); T (4, y)]"
24.20,5834990,138825,"[V f; U (2, f); ULambda y; T (1, c); Hoist_vars [c]; T (14, x); T (32, c); T (3, w); T (3, h); T (8, x); Lambda_apply y [((Iter 5), (Arg 9)); ((Iter 1), (Arg 11))]; T (2, f); T (2, y)]"
50.83,284315,100981,"[V f; U (2, f); ULambda y; T (4, c); Hoist_vars [c]; T (4, x); T (8, c); T (3, w); T (3, h); T (28, x); Lambda_apply y [((Iter 5), (Arg 9)); ((Iter 1), (Arg 11))]; T (2, f); T (2, y)]"
73.13,1313384,99519,"[V f; U (2, f); ULambda y; T (16, c); Hoist_vars [c]; T (112, x); T (2, c); T (3, w); T (3, h); T (1, x); Lambda_apply y [((Iter 11), (Arg 9)); ((Iter 1), (Arg 13))]; T (2, f); T (1, y)]"
18.68,14494507,66330,"[V f; U (2, f); ULambda y; T (1, c); Hoist_vars [c]; T (112, x); T (32, c); T (3, w); T (3, h); T (1, x); T (1, y); T (2, f); Lambda_apply y [((Iter 11), (Arg 9)); ((Iter 1), (Arg 13))]]"
72.86,796425,63395,"[V f; U (2, f); ULambda y; T (8, c); Hoist_vars [c]; T (1, x); T (4, c); T (3, w); T (3, h); T (112, x); T (1, y); T (2, f); Lambda_apply y [((Iter 11), (Arg 9)); ((Iter 1), (Arg 13))]]"
18.63,14481162,67484,"[V f; U (2, f); ULambda y; T (1, c); Hoist_vars [c]; T (56, x); T (32, c); T (3, w); T (3, h); T (2, x); T (1, y); T (2, f); Lambda_apply y [((Iter 9), (Arg 10)); ((Iter 2), (Arg 11))]]"
45.57,2733569,132835,"[V f; U (2, f); ULambda y; T (4, c); Hoist_vars [c]; T (16, x); T (8, c); T (3, w); T (3, h); T (7, x); Lambda_apply y [((Iter 2), (Arg 10)); ((Iter 3), (Arg 12))]; T (2, f); T (2, y)]"
80.76,515039,141416,"[V f; U (2, f); ULambda y; T (32, c); Hoist_vars [c]; T (16, x); T (1, c); T (3, w); T (3, h); T (7, x); Lambda_apply y [((Iter 3), (Arg 10)); ((Iter 2), (Arg 13))]; T (2, f); T (2, y)]"
50.25,2394327,85692,"[V f; U (2, f); ULambda y; T (4, c); Hoist_vars [c]; T (14, x); T (8, c); T (3, w); T (3, h); T (8, x); T (1, y); T (2, f); Lambda_apply y [((Iter 7), (Arg 10)); ((Iter 3), (Arg 14))]]"
81.49,683978,118033,"[V f; U (2, f); ULambda y; T (32, c); Hoist_vars [c]; T (1, x); T (1, c); T (3, w); T (3, h); T (112, x); Lambda_apply y [((Iter 7), (Arg 10)); ((Iter 3), (Arg 14))]; T (2, f); T (1, y)]"
81.33,726130,104604,"[V f; U (2, f); ULambda y; T (32, c); Hoist_vars [c]; T (112, x); T (1, c); T (3, w); T (3, h); T (1, x); T (2, y); T (2, f); Lambda_apply y [((Iter 4), (Arg 11)); ((Iter 1), (Arg 12))]]"
18.65,14494341,106614,"[V f; U (2, f); ULambda y; T (1, c); Hoist_vars [c]; T (56, x); T (32, c); T (3, w); T (3, h); T (2, x); Lambda_apply y [((Iter 4), (Arg 11)); ((Iter 1), (Arg 12))]; T (2, f); T (2, y)]"
81.13,719901,127733,"[V f; U (2, f); ULambda y; T (32, c); Hoist_vars [c]; T (28, x); T (1, c); T (3, w); T (3, h); T (4, x); Lambda_apply y [((Iter 4), (Arg 11)); ((Iter 1), (Arg 12))]; T (2, f); T (2, y)]"
53.09,2562908,122814,"[V f; U (2, f); ULambda y; T (8, c); Hoist_vars [c]; T (28, x); T (4, c); T (3, w); T (3, h); T (4, x); Lambda_apply y [((Iter 4), (Arg 11)); ((Iter 1), (Arg 12))]; T (2, f); T (2, y)]"
84.21,279346,121543,"[V f; U (2, f); ULambda y; T (32, c); Hoist_vars [c]; T (4, x); T (1, c); T (3, w); T (3, h); T (28, x); Lambda_apply y [((Iter 4), (Arg 11)); ((Iter 1), (Arg 12))]; T (2, f); T (2, y)]"
18.53,14503571,81895,"[V f; U (2, f); ULambda y; T (1, c); Hoist_vars [c]; T (28, x); T (32, c); T (3, w); T (3, h); T (4, x); T (1, y); T (2, f); Lambda_apply y [((Iter 5), (Arg 12)); ((Iter 4), (Arg 13))]]"
37.18,5249265,69452,"[V f; U (2, f); ULambda y; T (4, c); Hoist_vars [c]; T (112, x); T (8, c); T (3, w); T (3, h); T (1, x); T (1, y); T (2, f); Lambda_apply y [((Iter 7), (Arg 12)); ((Iter 2), (Arg 14))]]"
60.83,2324970,85707,"[V f; U (2, f); ULambda y; U (3, h); T (4, c); Hoist_vars [c]; T (112, x); T (8, c); T (3, w); T (1, x); T (8, y); T (2, f); Lambda_apply y [((Iter 1), (Arg 4)); ((Iter 2), (Arg 5))]]"
79.87,548691,101374,"[V f; U (2, f); ULambda y; U (3, h); T (8, c); Hoist_vars [c]; T (14, x); T (4, c); T (3, w); T (8, x); Lambda_apply y [((Iter 1), (Arg 4)); ((Iter 2), (Arg 5))]; T (2, f); T (8, y)]"
84.02,476658,73922,"[V f; U (2, f); ULambda y; U (3, h); T (32, c); Hoist_vars [c]; T (4, x); T (1, c); T (3, w); T (28, x); T (8, y); T (2, f); Lambda_apply y [((Iter 1), (Arg 4)); ((Iter 2), (Arg 5))]]"
82.70,692038,65959,"[V f; U (2, f); ULambda y; U (3, h); T (16, c); Hoist_vars [c]; T (2, x); T (2, c); T (3, w); T (56, x); T (8, y); T (2, f); Lambda_apply y [((Iter 1), (Arg 4)); ((Iter 2), (Arg 5))]]"
74.90,999409,111316,"[V f; U (2, f); ULambda y; U (3, h); T (2, c); Hoist_vars [c]; T (14, x); T (16, c); T (3, w); T (8, x); T (8, y); T (2, f); Lambda_apply y [((Iter 2), (Arg 4)); ((Iter 1), (Arg 6))]]"
84.75,388604,75872,"[V f; U (2, f); ULambda y; U (3, h); T (16, c); Hoist_vars [c]; T (8, x); T (2, c); T (3, w); T (14, x); Lambda_apply y [((Iter 2), (Arg 4)); ((Iter 1), (Arg 6))]; T (2, f); T (8, y)]"
78.79,1013731,56172,"[V f; U (2, f); ULambda y; U (3, h); T (8, c); Hoist_vars [c]; T (1, x); T (4, c); T (3, w); T (112, x); Lambda_apply y [((Iter 2), (Arg 4)); ((Iter 1), (Arg 6))]; T (2, f); T (8, y)]"
86.90,302949,69885,"[V f; U (2, f); ULambda y; U (3, h); T (32, c); Hoist_vars [c]; T (28, x); T (1, c); T (3, w); T (4, x); T (2, y); T (2, f); Lambda_apply y [((Iter 7), (Arg 4)); ((Iter 4), (Arg 7))]]"
82.83,377315,70013,"[V f; U (2, f); ULambda y; U (3, h); T (16, c); Hoist_vars [c]; T (7, x); T (2, c); T (3, w); T (16, x); T (2, y); T (2, f); Lambda_apply y [((Iter 7), (Arg 4)); ((Iter 4), (Arg 7))]]"
62.61,2264594,66263,"[V f; U (2, f); ULambda y; U (3, h); T (4, c); Hoist_vars [c]; T (112, x); T (8, c); T (3, w); T (1, x); Lambda_apply y [((Iter 2), (Arg 4)); ((Iter 1), (Arg 8))]; T (2, f); T (7, y)]"
82.40,454302,105524,"[V f; U (2, f); ULambda y; U (3, h); T (16, c); Hoist_vars [c]; T (28, x); T (2, c); T (3, w); T (4, x); T (7, y); T (2, f); Lambda_apply y [((Iter 2), (Arg 4)); ((Iter 1), (Arg 8))]]"
85.22,361538,112592,"[V f; U (2, f); ULambda y; U (3, h); T (32, c); Hoist_vars [c]; T (8, x); T (1, c); T (3, w); T (14, x); T (7, y); T (2, f); Lambda_apply y [((Iter 2), (Arg 4)); ((Iter 1), (Arg 8))]]"
70.55,332130,63914,"[V f; U (2, f); ULambda y; U (3, h); T (1, c); Hoist_vars [c]; T (7, x); T (32, c); T (3, w); T (16, x); Lambda_apply y [((Iter 2), (Arg 4)); ((Iter 1), (Arg 8))]; T (2, f); T (7, y)]"
83.48,626201,61223,"[V f; U (2, f); ULambda y; U (3, h); T (16, c); Hoist_vars [c]; T (2, x); T (2, c); T (3, w); T (56, x); Lambda_apply y [((Iter 2), (Arg 4)); ((Iter 1), (Arg 8))]; T (2, f); T (7, y)]"
72.66,329082,70589,"[V f; U (2, f); ULambda y; U (3, h); T (2, c); Hoist_vars [c]; T (8, x); T (16, c); T (3, w); T (14, x); T (2, y); T (2, f); Lambda_apply y [((Iter 5), (Arg 4)); ((Iter 4), (Arg 9))]]"
71.68,953157,149082,"[V f; U (2, f); ULambda y; U (3, h); T (8, c); Hoist_vars [c]; T (28, x); T (4, c); T (3, w); T (4, x); T (8, y); T (2, f); Lambda_apply y [((Iter 1), (Arg 4)); ((Iter 1), (Arg 10))]]"
59.40,1323997,128132,"[V f; U (2, f); ULambda y; U (3, h); T (2, c); Hoist_vars [c]; T (16, x); T (16, c); T (3, w); T (7, x); T (8, y); T (2, f); Lambda_apply y [((Iter 1), (Arg 4)); ((Iter 1), (Arg 10))]]"
78.17,388033,121442,"[V f; U (2, f); ULambda y; U (3, h); T (8, c); Hoist_vars [c]; T (8, x); T (4, c); T (3, w); T (14, x); T (8, y); T (2, f); Lambda_apply y [((Iter 1), (Arg 4)); ((Iter 1), (Arg 10))]]"
85.72,289963,72711,"[V f; U (2, f); ULambda y; U (3, h); T (32, c); Hoist_vars [c]; T (112, x); T (1, c); T (3, w); T (1, x); T (2, y); T (2, f); Lambda_apply y [((Iter 3), (Arg 4)); ((Iter 4), (Arg 11))]]"
72.98,931109,128715,"[V f; U (2, f); ULambda y; U (3, h); T (8, c); Hoist_vars [c]; T (28, x); T (4, c); T (3, w); T (4, x); Lambda_apply y [((Iter 3), (Arg 4)); ((Iter 4), (Arg 11))]; T (2, f); T (2, y)]"
59.67,458278,67503,"[V f; U (2, f); ULambda y; U (3, h); T (2, c); Hoist_vars [c]; T (2, x); T (16, c); T (3, w); T (56, x); T (2, y); T (2, f); Lambda_apply y [((Iter 3), (Arg 4)); ((Iter 4), (Arg 11))]]"
84.95,761227,104669,"[V f; U (2, f); ULambda y; U (3, h); T (32, c); Hoist_vars [c]; T (1, x); T (1, c); T (3, w); T (112, x); Lambda_apply y [((Iter 3), (Arg 4)); ((Iter 4), (Arg 11))]; T (2, f); T (2, y)]"
80.75,519480,71315,"[V f; U (2, f); ULambda y; U (3, h); T (16, c); Hoist_vars [c]; T (56, x); T (2, c); T (3, w); T (2, x); Lambda_apply y [((Iter 1), (Arg 4)); ((Iter 1), (Arg 12))]; T (2, f); T (7, y)]"
55.81,467582,78383,"[V f; U (2, f); ULambda y; U (3, h); T (2, c); Hoist_vars [c]; T (2, x); T (16, c); T (3, w); T (56, x); Lambda_apply y [((Iter 1), (Arg 4)); ((Iter 1), (Arg 12))]; T (2, f); T (7, y)]"
64.07,788181,109898,"[V f; U (2, f); ULambda y; U (3, h); T (2, c); Hoist_vars [c]; T (1, x); T (16, c); T (3, w); T (112, x); T (7, y); T (2, f); Lambda_apply y [((Iter 1), (Arg 4)); ((Iter 1), (Arg 12))]]"
81.02,379978,104364,"[V f; U (2, f); ULambda y; U (3, h); T (16, c); Hoist_vars [c]; T (14, x); T (2, c); T (3, w); T (8, x); T (2, y); T (2, f); Lambda_apply y [((Iter 1), (Arg 4)); ((Iter 4), (Arg 13))]]"
46.71,787420,134464,"[V f; U (2, f); ULambda y; U (3, h); T (1, c); Hoist_vars [c]; T (8, x); T (32, c); T (3, w); T (14, x); Lambda_apply y [((Iter 1), (Arg 4)); ((Iter 4), (Arg 13))]; T (2, f); T (2, y)]"
37.71,5628601,119440,"[V f; U (2, f); ULambda y; U (3, h); T (1, c); Hoist_vars [c]; T (56, x); T (32, c); T (3, w); T (2, x); Lambda_apply y [((Iter 7), (Arg 4)); ((Iter 2), (Arg 14))]; T (2, f); T (2, y)]"
52.34,2109865,125394,"[V f; U (2, f); ULambda y; U (3, h); T (2, c); Hoist_vars [c]; T (28, x); T (16, c); T (3, w); T (4, x); Lambda_apply y [((Iter 7), (Arg 4)); ((Iter 2), (Arg 14))]; T (2, f); T (2, y)]"
72.08,970354,138723,"[V f; U (2, f); ULambda y; U (3, h); T (4, c); Hoist_vars [c]; T (16, x); T (8, c); T (3, w); T (7, x); T (7, y); T (2, f); Lambda_apply y [((Iter 2), (Arg 5)); ((Iter 1), (Arg 6))]]"
81.11,562006,128721,"[V f; U (2, f); ULambda y; U (3, h); T (8, c); Hoist_vars [c]; T (14, x); T (4, c); T (3, w); T (8, x); T (7, y); T (2, f); Lambda_apply y [((Iter 2), (Arg 5)); ((Iter 1), (Arg 6))]]"
78.96,619868,56245,"[V f; U (2, f); ULambda y; U (3, h); T (8, c); Hoist_vars [c]; T (2, x); T (4, c); T (3, w); T (56, x); T (2, y); T (2, f); Lambda_apply y [((Iter 7), (Arg 5)); ((Iter 3), (Arg 7))]]"
87.87,290171,84152,"[V f; U (2, f); ULambda y; U (3, h); T (32, c); Hoist_vars [c]; T (28, x); T (1, c); T (3, w); T (4, x); Lambda_apply y [((Iter 4), (Arg 5)); ((Iter 1), (Arg 8))]; T (2, f); T (4, y)]"
87.88,373725,91230,"[V f; U (2, f); ULambda y; U (3, h); T (16, c); Hoist_vars [c]; T (8, x); T (2, c); T (3, w); T (14, x); T (4, y); T (2, f); Lambda_apply y [((Iter 4), (Arg 5)); ((Iter 1), (Arg 8))]]"
86.03,373641,103160,"[V f; U (2, f); ULambda y; U (3, h); T (32, c); Hoist_vars [c]; T (7, x); T (1, c); T (3, w); T (16, x); Lambda_apply y [((Iter 4), (Arg 5)); ((Iter 1), (Arg 8))]; T (2, f); T (4, y)]"
74.40,426838,65386,"[V f; U (2, f); ULambda y; U (3, h); T (4, c); Hoist_vars [c]; T (4, x); T (8, c); T (3, w); T (28, x); Lambda_apply y [((Iter 4), (Arg 5)); ((Iter 1), (Arg 8))]; T (2, f); T (4, y)]"
63.16,1007223,72607,"[V f; U (2, f); ULambda y; U (3, h); T (1, c); Hoist_vars [c]; T (1, x); T (32, c); T (3, w); T (112, x); T (4, y); T (2, f); Lambda_apply y [((Iter 4), (Arg 5)); ((Iter 1), (Arg 8))]]"
46.45,4423703,120921,"[V f; U (2, f); ULambda y; U (3, h); T (1, c); Hoist_vars [c]; T (28, x); T (32, c); T (3, w); T (4, x); T (8, y); T (2, f); Lambda_apply y [((Iter 1), (Arg 5)); ((Iter 1), (Arg 9))]]"
40.90,5456829,124551,"[V f; U (2, f); ULambda y; U (3, h); T (1, c); Hoist_vars [c]; T (56, x); T (32, c); T (3, w); T (2, x); T (7, y); T (2, f); Lambda_apply y [((Iter 1), (Arg 5)); ((Iter 1), (Arg 11))]]"
87.94,275509,132484,"[V f; U (2, f); ULambda y; U (3, h); T (32, c); Hoist_vars [c]; T (14, x); T (1, c); T (3, w); T (8, x); T (7, y); T (2, f); Lambda_apply y [((Iter 1), (Arg 5)); ((Iter 1), (Arg 11))]]"
85.70,354039,79641,"[V f; U (2, f); ULambda y; U (3, h); T (16, c); Hoist_vars [c]; T (8, x); T (2, c); T (3, w); T (14, x); Lambda_apply y [((Iter 1), (Arg 5)); ((Iter 1), (Arg 11))]; T (2, f); T (7, y)]"
75.59,477117,65695,"[V f; U (2, f); ULambda y; U (3, h); T (8, c); Hoist_vars [c]; T (2, x); T (4, c); T (3, w); T (56, x); Lambda_apply y [((Iter 1), (Arg 5)); ((Iter 1), (Arg 11))]; T (2, f); T (7, y)]"
81.76,389824,133793,"[V f; U (2, f); ULambda y; U (3, h); T (16, c); Hoist_vars [c]; T (14, x); T (2, c); T (3, w); T (8, x); Lambda_apply y [((Iter 4), (Arg 5)); ((Iter 3), (Arg 12))]; T (2, f); T (2, y)]"
60.98,315526,69310,"[V f; U (2, f); ULambda y; U (3, h); T (2, c); Hoist_vars [c]; T (4, x); T (16, c); T (3, w); T (28, x); T (2, y); T (2, f); Lambda_apply y [((Iter 4), (Arg 5)); ((Iter 3), (Arg 12))]]"
75.57,485849,103851,"[V f; U (2, f); ULambda y; U (3, h); T (8, c); Hoist_vars [c]; T (2, x); T (4, c); T (3, w); T (56, x); Lambda_apply y [((Iter 4), (Arg 5)); ((Iter 3), (Arg 12))]; T (2, f); T (2, y)]"
86.77,737469,99258,"[V f; U (2, f); ULambda y; U (3, h); T (32, c); Hoist_vars [c]; T (1, x); T (1, c); T (3, w); T (112, x); Lambda_apply y [((Iter 4), (Arg 5)); ((Iter 3), (Arg 12))]; T (2, f); T (2, y)]"
76.44,659673,112966,"[V f; U (2, f); ULambda y; U (3, h); T (8, c); Hoist_vars [c]; T (16, x); T (4, c); T (3, w); T (7, x); T (4, y); T (2, f); Lambda_apply y [((Iter 3), (Arg 5)); ((Iter 1), (Arg 13))]]"
77.12,433998,119231,"[V f; U (2, f); ULambda y; U (3, h); T (16, c); Hoist_vars [c]; T (28, x); T (2, c); T (3, w); T (4, x); Lambda_apply y [((Iter 14), (Arg 5)); ((Iter 3), (Arg 14))]; T (2, f); T (1, y)]"
74.48,783743,75164,"[V f; U (2, f); ULambda y; U (3, h); T (8, c); Hoist_vars [c]; T (28, x); T (4, c); T (3, w); T (4, x); T (1, y); T (2, f); Lambda_apply y [((Iter 14), (Arg 5)); ((Iter 3), (Arg 14))]]"
72.27,427210,86685,"[V f; U (2, f); ULambda y; U (3, h); T (4, c); Hoist_vars [c]; T (7, x); T (8, c); T (3, w); T (16, x); T (1, y); T (2, f); Lambda_apply y [((Iter 14), (Arg 5)); ((Iter 3), (Arg 14))]]"
91.36,818690,59555,"[V f; U (2, f); ULambda y; U (3, h); T (32, c); Hoist_vars [c]; T (1, x); T (1, c); T (3, w); T (112, x); Lambda_apply y [((Iter 1), (Arg 6)); ((Iter 1), (Arg 8))]; T (2, f); T (8, y)]"
83.33,533934,99395,"[V f; U (2, f); ULambda y; U (3, h); T (16, c); Hoist_vars [c]; T (112, x); T (2, c); T (3, w); T (1, x); T (7, y); T (2, f); Lambda_apply y [((Iter 1), (Arg 6)); ((Iter 1), (Arg 10))]]"
66.20,362954,80800,"[V f; U (2, f); ULambda y; U (3, h); T (2, c); Hoist_vars [c]; T (8, x); T (16, c); T (3, w); T (14, x); Lambda_apply y [((Iter 1), (Arg 6)); ((Iter 1), (Arg 10))]; T (2, f); T (7, y)]"
76.20,493910,95867,"[V f; U (2, f); ULambda y; U (3, h); T (8, c); Hoist_vars [c]; T (2, x); T (4, c); T (3, w); T (56, x); T (7, y); T (2, f); Lambda_apply y [((Iter 1), (Arg 6)); ((Iter 1), (Arg 10))]]"
68.92,1164083,110178,"[V f; U (2, f); ULambda y; U (3, h); T (4, c); Hoist_vars [c]; T (14, x); T (8, c); T (3, w); T (8, x); Lambda_apply y [((Iter 1), (Arg 6)); ((Iter 2), (Arg 11))]; T (2, f); T (4, y)]"
71.63,306584,100235,"[V f; U (2, f); ULambda y; U (3, h); T (4, c); Hoist_vars [c]; T (4, x); T (8, c); T (3, w); T (28, x); T (4, y); T (2, f); Lambda_apply y [((Iter 1), (Arg 6)); ((Iter 2), (Arg 11))]]"
66.43,732566,75870,"[V f; U (2, f); ULambda y; U (3, h); T (2, c); Hoist_vars [c]; T (1, x); T (16, c); T (3, w); T (112, x); Lambda_apply y [((Iter 1), (Arg 6)); ((Iter 2), (Arg 11))]; T (2, f); T (4, y)]"
60.05,704569,97126,"[V f; U (2, f); ULambda y; U (3, h); T (1, c); Hoist_vars [c]; T (1, x); T (32, c); T (3, w); T (112, x); T (4, y); T (2, f); Lambda_apply y [((Iter 1), (Arg 6)); ((Iter 2), (Arg 11))]]"
84.17,291210,105828,"[V f; U (2, f); ULambda y; U (3, h); T (32, c); Hoist_vars [c]; T (112, x); T (1, c); T (3, w); T (1, x); Lambda_apply y [((Iter 5), (Arg 6)); ((Iter 2), (Arg 13))]; T (2, f); T (2, y)]"
75.79,668065,139886,"[V f; U (2, f); ULambda y; U (3, h); T (8, c); Hoist_vars [c]; T (16, x); T (4, c); T (3, w); T (7, x); Lambda_apply y [((Iter 5), (Arg 6)); ((Iter 2), (Arg 13))]; T (2, f); T (2, y)]"
69.92,381814,88939,"[V f; U (2, f); ULambda y; U (3, h); T (4, c); Hoist_vars [c]; T (7, x); T (8, c); T (3, w); T (16, x); T (2, y); T (2, f); Lambda_apply y [((Iter 5), (Arg 6)); ((Iter 2), (Arg 13))]]"
82.57,435639,117107,"[V f; U (2, f); ULambda y; U (3, h); T (16, c); Hoist_vars [c]; T (28, x); T (2, c); T (3, w); T (4, x); Lambda_apply y [((Iter 7), (Arg 6)); ((Iter 1), (Arg 14))]; T (2, f); T (2, y)]"
52.93,2352012,84991,"[V f; U (2, f); ULambda y; U (3, h); T (1, c); Hoist_vars [c]; T (16, x); T (32, c); T (3, w); T (7, x); T (2, y); T (2, f); Lambda_apply y [((Iter 7), (Arg 6)); ((Iter 1), (Arg 14))]]"
77.14,900332,132658,"[V f; U (2, f); ULambda y; U (3, h); T (8, c); Hoist_vars [c]; T (28, x); T (4, c); T (3, w); T (4, x); Lambda_apply y [((Iter 8), (Arg 7)); ((Iter 7), (Arg 8))]; T (2, f); T (1, y)]"
73.17,1256948,127187,"[V f; U (2, f); ULambda y; U (3, h); T (2, c); Hoist_vars [c]; T (16, x); T (16, c); T (3, w); T (7, x); Lambda_apply y [((Iter 8), (Arg 7)); ((Iter 7), (Arg 8))]; T (2, f); T (1, y)]"
70.24,1102431,102020,"[V f; U (2, f); ULambda y; U (3, h); T (4, c); Hoist_vars [c]; T (16, x); T (8, c); T (3, w); T (7, x); T (1, y); T (2, f); Lambda_apply y [((Iter 8), (Arg 7)); ((Iter 7), (Arg 8))]]"
63.76,2118033,106805,"[V f; U (2, f); ULambda y; U (3, h); T (4, c); Hoist_vars [c]; T (56, x); T (8, c); T (3, w); T (2, x); T (7, y); T (2, f); Lambda_apply y [((Iter 1), (Arg 7)); ((Iter 1), (Arg 9))]]"
88.10,362163,137897,"[V f; U (2, f); ULambda y; U (3, h); T (16, c); Hoist_vars [c]; T (14, x); T (2, c); T (3, w); T (8, x); T (7, y); T (2, f); Lambda_apply y [((Iter 1), (Arg 7)); ((Iter 1), (Arg 9))]]"
79.75,317359,65222,"[V f; U (2, f); ULambda y; U (3, h); T (8, c); Hoist_vars [c]; T (4, x); T (4, c); T (3, w); T (28, x); T (1, y); T (2, f); Lambda_apply y [((Iter 6), (Arg 7)); ((Iter 7), (Arg 10))]]"
86.64,769278,99530,"[V f; U (2, f); ULambda y; U (3, h); T (32, c); Hoist_vars [c]; T (1, x); T (1, c); T (3, w); T (112, x); Lambda_apply y [((Iter 6), (Arg 7)); ((Iter 7), (Arg 10))]; T (2, f); T (1, y)]"
41.01,5356400,97564,"[V f; U (2, f); ULambda y; U (3, h); T (1, c); Hoist_vars [c]; T (56, x); T (32, c); T (3, w); T (2, x); Lambda_apply y [((Iter 5), (Arg 7)); ((Iter 7), (Arg 11))]; T (2, f); T (1, y)]"
50.98,2607117,124848,"[V f; U (2, f); ULambda y; U (3, h); T (1, c); Hoist_vars [c]; T (16, x); T (32, c); T (3, w); T (7, x); Lambda_apply y [((Iter 5), (Arg 7)); ((Iter 7), (Arg 11))]; T (2, f); T (1, y)]"
86.83,717858,112004,"[V f; U (2, f); ULambda y; U (3, h); T (16, c); Hoist_vars [c]; T (1, x); T (2, c); T (3, w); T (112, x); Lambda_apply y [((Iter 5), (Arg 7)); ((Iter 7), (Arg 11))]; T (2, f); T (1, y)]"
83.12,504786,69383,"[V f; U (2, f); ULambda y; U (3, h); T (16, c); Hoist_vars [c]; T (112, x); T (2, c); T (3, w); T (1, x); T (1, y); T (2, f); Lambda_apply y [((Iter 4), (Arg 7)); ((Iter 7), (Arg 12))]]"
54.14,1537112,132531,"[V f; U (2, f); ULambda y; U (3, h); T (2, c); Hoist_vars [c]; T (16, x); T (16, c); T (3, w); T (7, x); Lambda_apply y [((Iter 3), (Arg 7)); ((Iter 7), (Arg 13))]; T (2, f); T (1, y)]"
67.21,513914,101554,"[V f; U (2, f); ULambda y; U (3, h); T (4, c); Hoist_vars [c]; T (8, x); T (8, c); T (3, w); T (14, x); Lambda_apply y [((Iter 2), (Arg 7)); ((Iter 1), (Arg 14))]; T (2, f); T (4, y)]"
76.50,370994,130305,"[V f; U (2, f); ULambda y; U (3, h); T (8, c); Hoist_vars [c]; T (7, x); T (4, c); T (3, w); T (16, x); T (4, y); T (2, f); Lambda_apply y [((Iter 2), (Arg 7)); ((Iter 1), (Arg 14))]]"
69.14,754448,111807,"[V f; U (2, f); ULambda y; U (3, h); T (1, c); Hoist_vars [c]; T (1, x); T (32, c); T (3, w); T (112, x); Lambda_apply y [((Iter 5), (Arg 8)); ((Iter 8), (Arg 9))]; T (2, f); T (1, y)]"
62.34,2005927,111675,"[V f; U (2, f); ULambda y; U (3, h); T (4, c); Hoist_vars [c]; T (28, x); T (8, c); T (3, w); T (4, x); T (4, y); T (2, f); Lambda_apply y [((Iter 1), (Arg 8)); ((Iter 2), (Arg 10))]]"
68.79,1199768,109796,"[V f; U (2, f); ULambda y; U (3, h); T (4, c); Hoist_vars [c]; T (16, x); T (8, c); T (3, w); T (7, x); Lambda_apply y [((Iter 1), (Arg 8)); ((Iter 2), (Arg 10))]; T (2, f); T (4, y)]"
63.31,348777,112210,"[V f; U (2, f); ULambda y; U (3, h); T (2, c); Hoist_vars [c]; T (8, x); T (16, c); T (3, w); T (14, x); T (4, y); T (2, f); Lambda_apply y [((Iter 1), (Arg 8)); ((Iter 2), (Arg 10))]]"
90.93,284362,115804,"[V f; U (2, f); ULambda y; U (3, h); T (32, c); Hoist_vars [c]; T (7, x); T (1, c); T (3, w); T (16, x); T (4, y); T (2, f); Lambda_apply y [((Iter 1), (Arg 8)); ((Iter 2), (Arg 10))]]"
84.93,735503,95451,"[V f; U (2, f); ULambda y; U (3, h); T (16, c); Hoist_vars [c]; T (1, x); T (2, c); T (3, w); T (112, x); T (4, y); T (2, f); Lambda_apply y [((Iter 2), (Arg 8)); ((Iter 1), (Arg 12))]]"
38.87,5305405,67737,"[V f; U (2, f); ULambda y; U (3, h); T (1, c); Hoist_vars [c]; T (112, x); T (32, c); T (3, w); T (1, x); T (1, y); T (2, f); Lambda_apply y [((Iter 7), (Arg 8)); ((Iter 4), (Arg 14))]]"
72.26,1004523,72928,"[V f; U (2, f); ULambda y; U (3, h); T (8, c); Hoist_vars [c]; T (56, x); T (4, c); T (3, w); T (2, x); T (1, y); T (2, f); Lambda_apply y [((Iter 7), (Arg 8)); ((Iter 4), (Arg 14))]]"
62.84,2069890,107839,"[V f; U (2, f); ULambda y; U (3, h); T (4, c); Hoist_vars [c]; T (112, x); T (8, c); T (3, w); T (1, x); Lambda_apply y [((Iter 5), (Arg 9)); ((Iter 1), (Arg 11))]; T (2, f); T (2, y)]"
55.49,2701407,99392,"[V f; U (2, f); ULambda y; U (3, h); T (2, c); Hoist_vars [c]; T (112, x); T (16, c); T (3, w); T (1, x); T (2, y); T (2, f); Lambda_apply y [((Iter 5), (Arg 9)); ((Iter 1), (Arg 11))]]"
70.38,408171,140066,"[V f; U (2, f); ULambda y; U (3, h); T (4, c); Hoist_vars [c]; T (8, x); T (8, c); T (3, w); T (14, x); Lambda_apply y [((Iter 5), (Arg 9)); ((Iter 1), (Arg 11))]; T (2, f); T (2, y)]"
67.39,709730,72002,"[V f; U (2, f); ULambda y; U (3, h); T (1, c); Hoist_vars [c]; T (1, x); T (32, c); T (3, w); T (112, x); T (2, y); T (2, f); Lambda_apply y [((Iter 5), (Arg 9)); ((Iter 1), (Arg 11))]]"
86.49,370356,137552,"[V f; U (2, f); ULambda y; U (3, h); T (16, c); Hoist_vars [c]; T (14, x); T (2, c); T (3, w); T (8, x); Lambda_apply y [((Iter 11), (Arg 9)); ((Iter 1), (Arg 13))]; T (2, f); T (1, y)]"
62.50,418682,63902,"[V f; U (2, f); ULambda y; U (3, h); T (2, c); Hoist_vars [c]; T (2, x); T (16, c); T (3, w); T (56, x); T (1, y); T (2, f); Lambda_apply y [((Iter 11), (Arg 9)); ((Iter 1), (Arg 13))]]"
61.81,2057162,126434,"[V f; U (2, f); ULambda y; U (3, h); T (4, c); Hoist_vars [c]; T (28, x); T (8, c); T (3, w); T (4, x); Lambda_apply y [((Iter 9), (Arg 10)); ((Iter 2), (Arg 11))]; T (2, f); T (1, y)]"
88.58,301293,124867,"[V f; U (2, f); ULambda y; U (3, h); T (32, c); Hoist_vars [c]; T (4, x); T (1, c); T (3, w); T (28, x); Lambda_apply y [((Iter 9), (Arg 10)); ((Iter 2), (Arg 11))]; T (2, f); T (1, y)]"
44.17,2637935,102917,"[V f; U (2, f); ULambda y; U (3, h); T (2, c); Hoist_vars [c]; T (56, x); T (16, c); T (3, w); T (2, x); Lambda_apply y [((Iter 2), (Arg 10)); ((Iter 3), (Arg 12))]; T (2, f); T (2, y)]"
76.18,355153,97632,"[V f; U (2, f); ULambda y; U (3, h); T (8, c); Hoist_vars [c]; T (7, x); T (4, c); T (3, w); T (16, x); T (2, y); T (2, f); Lambda_apply y [((Iter 2), (Arg 10)); ((Iter 3), (Arg 12))]]"
71.78,1033024,131629,"[V f; U (2, f); ULambda y; U (3, h); T (8, c); Hoist_vars [c]; T (28, x); T (4, c); T (3, w); T (4, x); Lambda_apply y [((Iter 3), (Arg 10)); ((Iter 2), (Arg 13))]; T (2, f); T (2, y)]"
77.49,483495,124256,"[V f; U (2, f); ULambda y; U (3, h); T (16, c); Hoist_vars [c]; T (28, x); T (2, c); T (3, w); T (4, x); Lambda_apply y [((Iter 7), (Arg 10)); ((Iter 3), (Arg 14))]; T (2, f); T (1, y)]"
75.56,377316,151841,"[V f; U (2, f); ULambda y; U (3, h); T (8, c); Hoist_vars [c]; T (7, x); T (4, c); T (3, w); T (16, x); Lambda_apply y [((Iter 7), (Arg 10)); ((Iter 3), (Arg 14))]; T (2, f); T (1, y)]"
49.50,259483,105284,"[V f; U (2, f); ULambda y; U (3, h); T (1, c); Hoist_vars [c]; T (4, x); T (32, c); T (3, w); T (28, x); Lambda_apply y [((Iter 7), (Arg 10)); ((Iter 3), (Arg 14))]; T (2, f); T (1, y)]"
62.81,671435,78652,"[V f; U (2, f); ULambda y; U (3, h); T (2, c); Hoist_vars [c]; T (1, x); T (16, c); T (3, w); T (112, x); T (1, y); T (2, f); Lambda_apply y [((Iter 7), (Arg 10)); ((Iter 3), (Arg 14))]]"
60.75,1952932,113798,"[V f; U (2, f); ULambda y; U (3, h); T (4, c); Hoist_vars [c]; T (112, x); T (8, c); T (3, w); T (1, x); Lambda_apply y [((Iter 4), (Arg 11)); ((Iter 1), (Arg 12))]; T (2, f); T (2, y)]"
56.74,364152,119728,"[V f; U (2, f); ULambda y; U (3, h); T (2, c); Hoist_vars [c]; T (7, x); T (16, c); T (3, w); T (16, x); Lambda_apply y [((Iter 4), (Arg 11)); ((Iter 1), (Arg 12))]; T (2, f); T (2, y)]"
56.00,264303,79066,"[V f; U (2, f); ULambda y; U (3, h); T (2, c); Hoist_vars [c]; T (4, x); T (16, c); T (3, w); T (28, x); T (2, y); T (2, f); Lambda_apply y [((Iter 4), (Arg 11)); ((Iter 1), (Arg 12))]]"
82.32,488004,77305,"[V f; U (2, f); ULambda y; U (3, h); T (16, c); Hoist_vars [c]; T (28, x); T (2, c); T (3, w); T (4, x); T (1, y); T (2, f); Lambda_apply y [((Iter 5), (Arg 12)); ((Iter 4), (Arg 13))]]"
73.01,731241,138334,"[V f; U (2, f); ULambda y; U (3, h); T (8, c); Hoist_vars [c]; T (16, x); T (4, c); T (3, w); T (7, x); Lambda_apply y [((Iter 5), (Arg 12)); ((Iter 4), (Arg 13))]; T (2, f); T (1, y)]"
66.82,1739377,225499,"[V f; U (4, f); ULambda y; U (3, h); T (2, c); Hoist_vars [c]; T (3, w); T (112, x); T (7, y); T (16, c); Lambda_apply y [((Iter 3), (Arg 3)); ((Iter 1), (Arg 7))]]"
52.17,2299819,383575,"[V f; U (4, f); ULambda y; U (3, h); T (1, c); Hoist_vars [c]; T (3, w); T (112, x); T (7, y); T (32, c); Lambda_apply y [((Iter 3), (Arg 3)); ((Iter 1), (Arg 7))]]"
73.24,1636099,283106,"[V f; U (4, f); ULambda y; U (3, h); T (4, c); Hoist_vars [c]; T (3, w); T (112, x); T (8, y); T (8, c); Lambda_apply y [((Iter 1), (Arg 4)); ((Iter 2), (Arg 5))]]"
86.51,1108873,123087,"[V f; U (4, f); ULambda y; U (3, h); T (16, c); Hoist_vars [c]; T (3, w); T (112, x); Lambda_apply y [((Iter 7), (Arg 4)); ((Iter 4), (Arg 7))]; T (2, c); T (2, y)]"
79.72,1318746,222327,"[V f; U (4, f); ULambda y; U (3, h); T (8, c); Hoist_vars [c]; T (3, w); T (112, x); Lambda_apply y [((Iter 7), (Arg 4)); ((Iter 4), (Arg 7))]; T (4, c); T (2, y)]"
90.23,1140467,72965,"[V f; U (4, f); ULambda y; U (3, h); T (16, c); Hoist_vars [c]; T (3, w); T (112, x); Lambda_apply y [((Iter 2), (Arg 5)); ((Iter 1), (Arg 6))]; T (2, c); T (7, y)]"
70.34,337281,104538,"[V f; U (2, f); ULambda y; U (3, w); T (8, c); Hoist_vars [c]; T (7, x); T (4, c); T (3, h); Lambda_apply y [((Iter 8), (Arg 7)); ((Iter 7), (Arg 8))]; T (16, x); T (2, f); T (1, x)]"
78.76,252682,94762,"[V f; U (2, f); ULambda y; U (3, w); T (32, c); Hoist_vars [c]; T (28, x); T (1, c); T (3, h); Lambda_apply y [((Iter 8), (Arg 7)); ((Iter 7), (Arg 8))]; T (2, x); T (2, f); T (2, x)]"
71.23,376050,57606,"[V f; U (2, f); ULambda y; U (3, w); T (8, c); Hoist_vars [c]; T (8, x); T (4, c); T (3, h); Lambda_apply y [((Iter 8), (Arg 7)); ((Iter 7), (Arg 8))]; T (2, x); T (2, f); T (7, x)]"
46.30,587586,56931,"[V f; U (2, f); ULambda y; U (3, w); T (2, c); Hoist_vars [c]; T (2, x); T (16, c); T (3, h); Lambda_apply y [((Iter 8), (Arg 7)); ((Iter 7), (Arg 8))]; T (8, x); T (2, f); T (7, x)]"
77.14,367431,56619,"[V f; U (2, f); ULambda y; U (3, w); T (16, c); Hoist_vars [c]; T (14, x); T (2, c); T (3, h); Lambda_apply y [((Iter 8), (Arg 7)); ((Iter 7), (Arg 8))]; T (1, x); T (2, f); T (8, x)]"
58.53,1614954,134306,"[V f; U (4, f); ULambda y; U (3, w); T (2, c); Hoist_vars [c]; T (3, h); T (112, x); Lambda_apply y [((Iter 4), (Arg 5)); ((Iter 1), (Arg 8))]; T (16, c); T (4, y)]"
60.43,1427950,528470,"[V f; U (4, f); ULambda y; U (3, w); T (4, c); Hoist_vars [c]; T (3, h); T (112, x); T (7, y); T (8, c); Lambda_apply y [((Iter 1), (Arg 7)); ((Iter 1), (Arg 9))]]"
