Name, gen, onednn
yolo9000_0, 43.48, 41.62
yolo9000_2, 91.03, 84.42
Yolo9000_4, 85.86, 91.04
yolo9000_5, 82.03, 60.72
yolo9000_8, 50.49, 93.55
yolo9000_9, 91.98, 77.73
yolo9000_12,36.62, 88.82
yolo9000_13,91.45, 85.12
yolo9000_18,15.28, 80.15
yolo9000_19,89.26, 83.49
mobilNet_1, 96.93, 84.82
mobilNet_2, 91.32, 80.37
mobilNet_3, 89.43, 90.93
mobilNet_4, 92.31, 78.42
mobilNet_5, 41.11, 87.14
mobilNet_6, 53.14, 76.38
mobilNet_7, 32.87, 77.40
mobilNet_8, 66.91, 51.20
mobilNet_9, 15.04, 44.67
resNet18_1, 41.71, 85.51
resNet18_2, 95.92, 87.90
resNet18_3, 88.48, 59.91
resNet18_4, 93.83, 78.79
resNet18_5, 91.05, 50.45
resNet18_6, 95.17, 85.94
resNet18_7, 58.20, 75.06
resNet18_8, 50.21, 86.75
resNet18_9, 52.06, 77.91
resNet18_10,64.84, 50.83
resNet18_11,89.26, 58.49
resNet18_12,67.70, 51.40
