name, March 16th, Feb 4th
yolo9000_0, 28.27, 31.51
yolo9000_2, 79.34, 84.82
Yolo9000_4, 88.86, 91.54
yolo9000_5, 68.83, 76.93
yolo9000_8, 53.20, 79.35
yolo9000_9, 87.68, 85.95
yolo9000_12, 36.19, 64.02
yolo9000_13, 86.95, 85.78
yolo9000_18, 28.52, 65.50
yolo9000_19, 76.30, 39.79
mobilNet_1, 91.03, 87.18
mobilNet_2, 80.44, 79.32
mobilNet_3, 92.41, 93.35
mobilNet_4, 86.55, 87.96
mobilNet_5, 49.40, 79.75
mobilNet_6, 75.88, 75.84
mobilNet_7, 41.77, 68.82
mobilNet_8, 61.06, 64.29
mobilNet_9, 23.77, 41.59
resNet18_1, 47.78, 47.39
resNet18_2, 92.32, 91.81
resNet18_3, 81.75, 75.68
resNet18_4, 89.02, 88.09
resNet18_5, 85.63, 84.32
resNet18_6, 95.14, 94.58
resNet18_7, 80.01, 78.71
resNet18_8, 76.75, 39.46
resNet18_9, 80.62, 78.74
resNet18_10,60.68, 63.66
resNet18_11,89.23, 88.54
resNet18_12,65.36, 66.64
