IdRun;MethodParallelization;NameConv;Time(ms);std;NbMicroKernel;AxeFuse1;SizeAxeFuse1;order1;AxeFuse2;SizeAxeFuse2;order2;Schema;Time_search
0;0;ResNet18_05;0.0463134;0.000573840256517439;1;axe_yy1_0,axe_xx1_0,axe_out_channels1_0,axe_xx1_1;224;axe_in_channels1_0,axe_yy1_0,axe_xx1_0,axe_out_channels1_0,axe_xx1_1,axe_w1_0,axe_h1_0,axe_xx1_2,axe_yy1_1,axe_in_channels1_1,axe_out_channels1_1;;;;C:1, Y:2, X:4, F:4, X:7, W:1, H:1, X:1, Y:14, C:64, F:32, ;2.0942935943603516
0;1;ResNet18_05;0.0258644;0.0009059845694050204;1;axe_yy1_0,axe_xx1_0,axe_out_channels1_0,axe_xx1_1;224;axe_yy1_0,axe_xx1_0,axe_out_channels1_0,axe_xx1_1,axe_in_channels1_0,axe_w1_0,axe_h1_0,axe_xx1_2,axe_yy1_1,axe_in_channels1_1,axe_out_channels1_1;;;;C:1, Y:2, X:4, F:4, X:7, W:1, H:1, X:1, Y:14, C:64, F:32, ;2.7770886421203613
0;2;ResNet18_05;0.0467325;0.000738676417655254;1;axe_yy1_0,axe_xx1_0,axe_out_channels1_0,axe_xx1_1;224;axe_in_channels1_0,axe_yy1_0,axe_xx1_0,axe_out_channels1_0,axe_xx1_1,axe_w1_0,axe_h1_0,axe_xx1_2,axe_yy1_1,axe_in_channels1_1,axe_out_channels1_1;;;;C:1, Y:2, X:4, F:4, X:7, W:1, H:1, X:1, Y:14, C:64, F:32, ;3.4691286087036133
1;0;ResNet18_05;0.0388575;0.0009269016398734018;1;axe_yy1_0,axe_xx1_0,axe_out_channels1_0,axe_xx1_1;224;axe_in_channels1_0,axe_yy1_0,axe_xx1_0,axe_out_channels1_0,axe_xx1_1,axe_w1_0,axe_h1_0,axe_xx1_2,axe_yy1_1,axe_in_channels1_1,axe_out_channels1_1;;;;C:1, Y:2, X:7, F:4, X:4, W:1, H:1, X:1, Y:14, C:64, F:32, ;4.161682844161987
1;1;ResNet18_05;0.0217548;0.0006761821943825501;1;axe_yy1_0,axe_xx1_0,axe_out_channels1_0,axe_xx1_1;224;axe_yy1_0,axe_xx1_0,axe_out_channels1_0,axe_xx1_1,axe_in_channels1_0,axe_w1_0,axe_h1_0,axe_xx1_2,axe_yy1_1,axe_in_channels1_1,axe_out_channels1_1;;;;C:1, Y:2, X:7, F:4, X:4, W:1, H:1, X:1, Y:14, C:64, F:32, ;4.847828149795532
1;2;ResNet18_05;0.0390065;0.0006819381570201218;1;axe_yy1_0,axe_xx1_0,axe_out_channels1_0,axe_xx1_1;224;axe_in_channels1_0,axe_yy1_0,axe_xx1_0,axe_out_channels1_0,axe_xx1_1,axe_w1_0,axe_h1_0,axe_xx1_2,axe_yy1_1,axe_in_channels1_1,axe_out_channels1_1;;;;C:1, Y:2, X:7, F:4, X:4, W:1, H:1, X:1, Y:14, C:64, F:32, ;5.540183782577515
2;0;ResNet18_05;0.038433300000000004;0.00044636622856125647;1;axe_yy1_0,axe_xx1_0,axe_out_channels1_0,axe_xx1_1;224;axe_in_channels1_0,axe_yy1_0,axe_xx1_0,axe_out_channels1_0,axe_xx1_1,axe_w1_0,axe_h1_0,axe_xx1_2,axe_yy1_1,axe_in_channels1_1,axe_out_channels1_1;;;;C:1, Y:2, X:14, F:4, X:2, W:1, H:1, X:1, Y:14, C:64, F:32, ;6.2338762283325195
2;1;ResNet18_05;0.0232973;0.0007894391743510079;1;axe_yy1_0,axe_xx1_0,axe_out_channels1_0,axe_xx1_1;224;axe_yy1_0,axe_xx1_0,axe_out_channels1_0,axe_xx1_1,axe_in_channels1_0,axe_w1_0,axe_h1_0,axe_xx1_2,axe_yy1_1,axe_in_channels1_1,axe_out_channels1_1;;;;C:1, Y:2, X:14, F:4, X:2, W:1, H:1, X:1, Y:14, C:64, F:32, ;6.9194018840789795
2;2;ResNet18_05;0.039417799999999996;0.0009593861370689063;1;axe_yy1_0,axe_xx1_0,axe_out_channels1_0,axe_xx1_1;224;axe_in_channels1_0,axe_yy1_0,axe_xx1_0,axe_out_channels1_0,axe_xx1_1,axe_w1_0,axe_h1_0,axe_xx1_2,axe_yy1_1,axe_in_channels1_1,axe_out_channels1_1;;;;C:1, Y:2, X:14, F:4, X:2, W:1, H:1, X:1, Y:14, C:64, F:32, ;7.624126672744751
3;0;ResNet18_05;0.034619199999999996;0.0006616808596294735;1;axe_yy1_0,axe_xx1_0,axe_out_channels1_0,axe_xx1_1;224;axe_in_channels1_0,axe_yy1_0,axe_xx1_0,axe_out_channels1_0,axe_xx1_1,axe_w1_0,axe_h1_0,axe_xx1_2,axe_yy1_1,axe_in_channels1_1,axe_out_channels1_1;;;;C:1, Y:2, X:28, F:4, X:1, W:1, H:1, X:1, Y:14, C:64, F:32, ;8.312867641448975
3;1;ResNet18_05;0.0192936;0.00031488416917971606;1;axe_yy1_0,axe_xx1_0,axe_out_channels1_0,axe_xx1_1;224;axe_yy1_0,axe_xx1_0,axe_out_channels1_0,axe_xx1_1,axe_in_channels1_0,axe_w1_0,axe_h1_0,axe_xx1_2,axe_yy1_1,axe_in_channels1_1,axe_out_channels1_1;;;;C:1, Y:2, X:28, F:4, X:1, W:1, H:1, X:1, Y:14, C:64, F:32, ;8.998807430267334
3;2;ResNet18_05;0.0353104;0.0004426211020726421;1;axe_yy1_0,axe_xx1_0,axe_out_channels1_0,axe_xx1_1;224;axe_in_channels1_0,axe_yy1_0,axe_xx1_0,axe_out_channels1_0,axe_xx1_1,axe_w1_0,axe_h1_0,axe_xx1_2,axe_yy1_1,axe_in_channels1_1,axe_out_channels1_1;;;;C:1, Y:2, X:28, F:4, X:1, W:1, H:1, X:1, Y:14, C:64, F:32, ;9.688985109329224
4;0;ResNet18_05;0.034447399999999996;0.00028368933712777996;1;axe_yy1_0,axe_xx1_0,axe_out_channels1_0,axe_xx1_1;224;axe_in_channels1_0,axe_yy1_0,axe_xx1_0,axe_out_channels1_0,axe_xx1_1,axe_w1_0,axe_h1_0,axe_xx1_2,axe_yy1_1,axe_in_channels1_1,axe_out_channels1_1;;;;C:1, Y:2, X:2, F:4, X:14, W:1, H:1, X:1, Y:14, C:64, F:32, ;10.380172729492188
4;1;ResNet18_05;0.018209499999999997;0.00039665482475321;1;axe_yy1_0,axe_xx1_0,axe_out_channels1_0,axe_xx1_1;224;axe_yy1_0,axe_xx1_0,axe_out_channels1_0,axe_xx1_1,axe_in_channels1_0,axe_w1_0,axe_h1_0,axe_xx1_2,axe_yy1_1,axe_in_channels1_1,axe_out_channels1_1;;;;C:1, Y:2, X:2, F:4, X:14, W:1, H:1, X:1, Y:14, C:64, F:32, ;11.064329385757446
4;2;ResNet18_05;0.0346573;0.0004362240364766698;1;axe_yy1_0,axe_xx1_0,axe_out_channels1_0,axe_xx1_1;224;axe_in_channels1_0,axe_yy1_0,axe_xx1_0,axe_out_channels1_0,axe_xx1_1,axe_w1_0,axe_h1_0,axe_xx1_2,axe_yy1_1,axe_in_channels1_1,axe_out_channels1_1;;;;C:1, Y:2, X:2, F:4, X:14, W:1, H:1, X:1, Y:14, C:64, F:32, ;11.75761103630066
5;0;ResNet18_05;0.20643620000000001;0.0009242708261110493;1;axe_xx1_1;28;axe_out_channels1_0,axe_out_channels1_1,axe_yy1_0,axe_xx1_0,axe_in_channels1_0,axe_xx1_1,axe_w1_0,axe_h1_0,axe_xx1_2,axe_yy1_1,axe_in_channels1_1,axe_out_channels1_2;;;;F:1, F:2, Y:4, X:1, C:1, X:28, W:1, H:1, X:1, Y:7, C:64, F:64, ;12.465670585632324
5;1;ResNet18_05;0.0179111;0.0003129784177862748;1;axe_out_channels1_0,axe_out_channels1_1,axe_yy1_0,axe_xx1_0,axe_xx1_1;224;axe_out_channels1_0,axe_out_channels1_1,axe_yy1_0,axe_xx1_0,axe_xx1_1,axe_in_channels1_0,axe_w1_0,axe_h1_0,axe_xx1_2,axe_yy1_1,axe_in_channels1_1,axe_out_channels1_2;;;;F:1, F:2, Y:4, X:1, C:1, X:28, W:1, H:1, X:1, Y:7, C:64, F:64, ;13.141517877578735
5;2;ResNet18_05;0.0328884;0.0005163694801205825;1;axe_out_channels1_0,axe_out_channels1_1,axe_yy1_0,axe_xx1_0,axe_xx1_1;224;axe_in_channels1_0,axe_out_channels1_0,axe_out_channels1_1,axe_yy1_0,axe_xx1_0,axe_xx1_1,axe_w1_0,axe_h1_0,axe_xx1_2,axe_yy1_1,axe_in_channels1_1,axe_out_channels1_2;;;;F:1, F:2, Y:4, X:1, C:1, X:28, W:1, H:1, X:1, Y:7, C:64, F:64, ;13.823736429214478
6;0;ResNet18_05;0.20650240000000003;0.0013484919132126863;1;axe_xx1_1;28;axe_out_channels1_0,axe_out_channels1_1,axe_yy1_0,axe_xx1_0,axe_in_channels1_0,axe_xx1_1,axe_w1_0,axe_h1_0,axe_xx1_2,axe_yy1_1,axe_in_channels1_1,axe_out_channels1_2;;;;F:2, F:1, Y:4, X:1, C:1, X:28, W:1, H:1, X:1, Y:7, C:64, F:64, ;14.527662992477417
6;1;ResNet18_05;0.0183238;0.00021658107027161847;1;axe_out_channels1_0,axe_out_channels1_1,axe_yy1_0,axe_xx1_0,axe_xx1_1;224;axe_out_channels1_0,axe_out_channels1_1,axe_yy1_0,axe_xx1_0,axe_xx1_1,axe_in_channels1_0,axe_w1_0,axe_h1_0,axe_xx1_2,axe_yy1_1,axe_in_channels1_1,axe_out_channels1_2;;;;F:2, F:1, Y:4, X:1, C:1, X:28, W:1, H:1, X:1, Y:7, C:64, F:64, ;15.203396797180176
6;2;ResNet18_05;0.033265699999999995;0.0005169323069803256;1;axe_out_channels1_0,axe_out_channels1_1,axe_yy1_0,axe_xx1_0,axe_xx1_1;224;axe_in_channels1_0,axe_out_channels1_0,axe_out_channels1_1,axe_yy1_0,axe_xx1_0,axe_xx1_1,axe_w1_0,axe_h1_0,axe_xx1_2,axe_yy1_1,axe_in_channels1_1,axe_out_channels1_2;;;;F:2, F:1, Y:4, X:1, C:1, X:28, W:1, H:1, X:1, Y:7, C:64, F:64, ;15.885681390762329
7;0;ResNet18_05;0.024680700000000007;0.000320853253061271;1;axe_out_channels1_0,axe_out_channels1_1,axe_yy1_0,axe_xx1_0;16;axe_out_channels1_0,axe_out_channels1_1,axe_yy1_0,axe_xx1_0,axe_in_channels1_0,axe_xx1_1,axe_w1_0,axe_h1_0,axe_xx1_2,axe_yy1_1,axe_in_channels1_1,axe_out_channels1_2;;;;F:1, F:2, Y:4, X:2, C:1, X:14, W:1, H:1, X:1, Y:7, C:64, F:64, ;16.571817636489868
7;1;ResNet18_05;0.018096400000000002;0.00043437108559387305;1;axe_out_channels1_0,axe_out_channels1_1,axe_yy1_0,axe_xx1_0,axe_xx1_1;224;axe_out_channels1_0,axe_out_channels1_1,axe_yy1_0,axe_xx1_0,axe_xx1_1,axe_in_channels1_0,axe_w1_0,axe_h1_0,axe_xx1_2,axe_yy1_1,axe_in_channels1_1,axe_out_channels1_2;;;;F:1, F:2, Y:4, X:2, C:1, X:14, W:1, H:1, X:1, Y:7, C:64, F:64, ;17.24615168571472
7;2;ResNet18_05;0.0323491;0.0005668236851085187;1;axe_out_channels1_0,axe_out_channels1_1,axe_yy1_0,axe_xx1_0,axe_xx1_1;224;axe_in_channels1_0,axe_out_channels1_0,axe_out_channels1_1,axe_yy1_0,axe_xx1_0,axe_xx1_1,axe_w1_0,axe_h1_0,axe_xx1_2,axe_yy1_1,axe_in_channels1_1,axe_out_channels1_2;;;;F:1, F:2, Y:4, X:2, C:1, X:14, W:1, H:1, X:1, Y:7, C:64, F:64, ;17.93149161338806
8;0;ResNet18_05;0.024731700000000002;0.00041877298145892784;1;axe_out_channels1_0,axe_out_channels1_1,axe_yy1_0,axe_xx1_0;16;axe_out_channels1_0,axe_out_channels1_1,axe_yy1_0,axe_xx1_0,axe_in_channels1_0,axe_xx1_1,axe_w1_0,axe_h1_0,axe_xx1_2,axe_yy1_1,axe_in_channels1_1,axe_out_channels1_2;;;;F:2, F:1, Y:4, X:2, C:1, X:14, W:1, H:1, X:1, Y:7, C:64, F:64, ;18.61797833442688
8;1;ResNet18_05;0.0177039;0.0002429553251114283;1;axe_out_channels1_0,axe_out_channels1_1,axe_yy1_0,axe_xx1_0,axe_xx1_1;224;axe_out_channels1_0,axe_out_channels1_1,axe_yy1_0,axe_xx1_0,axe_xx1_1,axe_in_channels1_0,axe_w1_0,axe_h1_0,axe_xx1_2,axe_yy1_1,axe_in_channels1_1,axe_out_channels1_2;;;;F:2, F:1, Y:4, X:2, C:1, X:14, W:1, H:1, X:1, Y:7, C:64, F:64, ;19.29260516166687
8;2;ResNet18_05;0.032519;0.0006920611244680643;1;axe_out_channels1_0,axe_out_channels1_1,axe_yy1_0,axe_xx1_0,axe_xx1_1;224;axe_in_channels1_0,axe_out_channels1_0,axe_out_channels1_1,axe_yy1_0,axe_xx1_0,axe_xx1_1,axe_w1_0,axe_h1_0,axe_xx1_2,axe_yy1_1,axe_in_channels1_1,axe_out_channels1_2;;;;F:2, F:1, Y:4, X:2, C:1, X:14, W:1, H:1, X:1, Y:7, C:64, F:64, ;19.974531412124634
9;0;ResNet18_05;0.0183018;0.0004409902039728323;1;axe_out_channels1_0,axe_out_channels1_1,axe_yy1_0,axe_xx1_0;32;axe_out_channels1_0,axe_out_channels1_1,axe_yy1_0,axe_xx1_0,axe_in_channels1_0,axe_xx1_1,axe_w1_0,axe_h1_0,axe_xx1_2,axe_yy1_1,axe_in_channels1_1,axe_out_channels1_2;;;;F:1, F:2, Y:4, X:4, C:1, X:7, W:1, H:1, X:1, Y:7, C:64, F:64, ;20.69291877746582
9;1;ResNet18_05;0.018005900000000002;0.0003670003950951557;1;axe_out_channels1_0,axe_out_channels1_1,axe_yy1_0,axe_xx1_0,axe_xx1_1;224;axe_out_channels1_0,axe_out_channels1_1,axe_yy1_0,axe_xx1_0,axe_xx1_1,axe_in_channels1_0,axe_w1_0,axe_h1_0,axe_xx1_2,axe_yy1_1,axe_in_channels1_1,axe_out_channels1_2;;;;F:1, F:2, Y:4, X:4, C:1, X:7, W:1, H:1, X:1, Y:7, C:64, F:64, ;21.36545205116272
9;2;ResNet18_05;0.032954;0.0002806738320542185;1;axe_out_channels1_0,axe_out_channels1_1,axe_yy1_0,axe_xx1_0,axe_xx1_1;224;axe_in_channels1_0,axe_out_channels1_0,axe_out_channels1_1,axe_yy1_0,axe_xx1_0,axe_xx1_1,axe_w1_0,axe_h1_0,axe_xx1_2,axe_yy1_1,axe_in_channels1_1,axe_out_channels1_2;;;;F:1, F:2, Y:4, X:4, C:1, X:7, W:1, H:1, X:1, Y:7, C:64, F:64, ;22.046923637390137
10;0;ResNet18_05;0.0176421;0.00030097091221578215;1;axe_out_channels1_0,axe_out_channels1_1,axe_yy1_0,axe_xx1_0;32;axe_out_channels1_0,axe_out_channels1_1,axe_yy1_0,axe_xx1_0,axe_in_channels1_0,axe_xx1_1,axe_w1_0,axe_h1_0,axe_xx1_2,axe_yy1_1,axe_in_channels1_1,axe_out_channels1_2;;;;F:2, F:1, Y:4, X:4, C:1, X:7, W:1, H:1, X:1, Y:7, C:64, F:64, ;22.762041568756104
10;1;ResNet18_05;0.018285000000000003;0.0002690840017540992;1;axe_out_channels1_0,axe_out_channels1_1,axe_yy1_0,axe_xx1_0,axe_xx1_1;224;axe_out_channels1_0,axe_out_channels1_1,axe_yy1_0,axe_xx1_0,axe_xx1_1,axe_in_channels1_0,axe_w1_0,axe_h1_0,axe_xx1_2,axe_yy1_1,axe_in_channels1_1,axe_out_channels1_2;;;;F:2, F:1, Y:4, X:4, C:1, X:7, W:1, H:1, X:1, Y:7, C:64, F:64, ;23.435874223709106
10;2;ResNet18_05;0.03288870000000001;0.00041118999258250486;1;axe_out_channels1_0,axe_out_channels1_1,axe_yy1_0,axe_xx1_0,axe_xx1_1;224;axe_in_channels1_0,axe_out_channels1_0,axe_out_channels1_1,axe_yy1_0,axe_xx1_0,axe_xx1_1,axe_w1_0,axe_h1_0,axe_xx1_2,axe_yy1_1,axe_in_channels1_1,axe_out_channels1_2;;;;F:2, F:1, Y:4, X:4, C:1, X:7, W:1, H:1, X:1, Y:7, C:64, F:64, ;24.1167995929718
11;0;ResNet18_05;0.019091900000000002;0.00021459564301262152;1;axe_out_channels1_0,axe_out_channels1_1,axe_yy1_0,axe_xx1_0;56;axe_out_channels1_0,axe_out_channels1_1,axe_yy1_0,axe_xx1_0,axe_in_channels1_0,axe_xx1_1,axe_w1_0,axe_h1_0,axe_xx1_2,axe_yy1_1,axe_in_channels1_1,axe_out_channels1_2;;;;F:1, F:2, Y:4, X:7, C:1, X:4, W:1, H:1, X:1, Y:7, C:64, F:64, ;24.810619115829468
11;1;ResNet18_05;0.0177135;0.000489578236852905;1;axe_out_channels1_0,axe_out_channels1_1,axe_yy1_0,axe_xx1_0,axe_xx1_1;224;axe_out_channels1_0,axe_out_channels1_1,axe_yy1_0,axe_xx1_0,axe_xx1_1,axe_in_channels1_0,axe_w1_0,axe_h1_0,axe_xx1_2,axe_yy1_1,axe_in_channels1_1,axe_out_channels1_2;;;;F:1, F:2, Y:4, X:7, C:1, X:4, W:1, H:1, X:1, Y:7, C:64, F:64, ;25.485642194747925
11;2;ResNet18_05;0.0325371;0.0004788343032824632;1;axe_out_channels1_0,axe_out_channels1_1,axe_yy1_0,axe_xx1_0,axe_xx1_1;224;axe_in_channels1_0,axe_out_channels1_0,axe_out_channels1_1,axe_yy1_0,axe_xx1_0,axe_xx1_1,axe_w1_0,axe_h1_0,axe_xx1_2,axe_yy1_1,axe_in_channels1_1,axe_out_channels1_2;;;;F:1, F:2, Y:4, X:7, C:1, X:4, W:1, H:1, X:1, Y:7, C:64, F:64, ;26.16786789894104
12;0;ResNet18_05;0.018799299999999998;0.00043244422761785163;1;axe_out_channels1_0,axe_out_channels1_1,axe_yy1_0,axe_xx1_0;56;axe_out_channels1_0,axe_out_channels1_1,axe_yy1_0,axe_xx1_0,axe_in_channels1_0,axe_xx1_1,axe_w1_0,axe_h1_0,axe_xx1_2,axe_yy1_1,axe_in_channels1_1,axe_out_channels1_2;;;;F:2, F:1, Y:4, X:7, C:1, X:4, W:1, H:1, X:1, Y:7, C:64, F:64, ;26.862332820892334
12;1;ResNet18_05;0.017935;0.0003896844877590072;1;axe_out_channels1_0,axe_out_channels1_1,axe_yy1_0,axe_xx1_0,axe_xx1_1;224;axe_out_channels1_0,axe_out_channels1_1,axe_yy1_0,axe_xx1_0,axe_xx1_1,axe_in_channels1_0,axe_w1_0,axe_h1_0,axe_xx1_2,axe_yy1_1,axe_in_channels1_1,axe_out_channels1_2;;;;F:2, F:1, Y:4, X:7, C:1, X:4, W:1, H:1, X:1, Y:7, C:64, F:64, ;27.536600351333618
12;2;ResNet18_05;0.032720500000000007;0.0003142273858211602;1;axe_out_channels1_0,axe_out_channels1_1,axe_yy1_0,axe_xx1_0,axe_xx1_1;224;axe_in_channels1_0,axe_out_channels1_0,axe_out_channels1_1,axe_yy1_0,axe_xx1_0,axe_xx1_1,axe_w1_0,axe_h1_0,axe_xx1_2,axe_yy1_1,axe_in_channels1_1,axe_out_channels1_2;;;;F:2, F:1, Y:4, X:7, C:1, X:4, W:1, H:1, X:1, Y:7, C:64, F:64, ;28.216297149658203
13;0;ResNet18_05;0.019314699999999997;0.0004891731901893238;1;axe_out_channels1_0,axe_out_channels1_1,axe_yy1_0,axe_xx1_0;112;axe_out_channels1_0,axe_out_channels1_1,axe_yy1_0,axe_xx1_0,axe_in_channels1_0,axe_xx1_1,axe_w1_0,axe_h1_0,axe_xx1_2,axe_yy1_1,axe_in_channels1_1,axe_out_channels1_2;;;;F:1, F:2, Y:4, X:14, C:1, X:2, W:1, H:1, X:1, Y:7, C:64, F:64, ;28.912395000457764
13;1;ResNet18_05;0.018327000000000003;0.0006263738500288786;1;axe_out_channels1_0,axe_out_channels1_1,axe_yy1_0,axe_xx1_0,axe_xx1_1;224;axe_out_channels1_0,axe_out_channels1_1,axe_yy1_0,axe_xx1_0,axe_xx1_1,axe_in_channels1_0,axe_w1_0,axe_h1_0,axe_xx1_2,axe_yy1_1,axe_in_channels1_1,axe_out_channels1_2;;;;F:1, F:2, Y:4, X:14, C:1, X:2, W:1, H:1, X:1, Y:7, C:64, F:64, ;29.58855414390564
13;2;ResNet18_05;0.03303060000000001;0.00023261521876265917;1;axe_out_channels1_0,axe_out_channels1_1,axe_yy1_0,axe_xx1_0,axe_xx1_1;224;axe_in_channels1_0,axe_out_channels1_0,axe_out_channels1_1,axe_yy1_0,axe_xx1_0,axe_xx1_1,axe_w1_0,axe_h1_0,axe_xx1_2,axe_yy1_1,axe_in_channels1_1,axe_out_channels1_2;;;;F:1, F:2, Y:4, X:14, C:1, X:2, W:1, H:1, X:1, Y:7, C:64, F:64, ;30.269225120544434
14;0;ResNet18_05;0.0187747;0.00030792013574951584;1;axe_out_channels1_0,axe_out_channels1_1,axe_yy1_0,axe_xx1_0;112;axe_out_channels1_0,axe_out_channels1_1,axe_yy1_0,axe_xx1_0,axe_in_channels1_0,axe_xx1_1,axe_w1_0,axe_h1_0,axe_xx1_2,axe_yy1_1,axe_in_channels1_1,axe_out_channels1_2;;;;F:2, F:1, Y:4, X:14, C:1, X:2, W:1, H:1, X:1, Y:7, C:64, F:64, ;30.963942527770996
14;1;ResNet18_05;0.0180835;0.00022282784834934898;1;axe_out_channels1_0,axe_out_channels1_1,axe_yy1_0,axe_xx1_0,axe_xx1_1;224;axe_out_channels1_0,axe_out_channels1_1,axe_yy1_0,axe_xx1_0,axe_xx1_1,axe_in_channels1_0,axe_w1_0,axe_h1_0,axe_xx1_2,axe_yy1_1,axe_in_channels1_1,axe_out_channels1_2;;;;F:2, F:1, Y:4, X:14, C:1, X:2, W:1, H:1, X:1, Y:7, C:64, F:64, ;31.63675546646118
14;2;ResNet18_05;0.032813800000000004;0.0003712615789440098;1;axe_out_channels1_0,axe_out_channels1_1,axe_yy1_0,axe_xx1_0,axe_xx1_1;224;axe_in_channels1_0,axe_out_channels1_0,axe_out_channels1_1,axe_yy1_0,axe_xx1_0,axe_xx1_1,axe_w1_0,axe_h1_0,axe_xx1_2,axe_yy1_1,axe_in_channels1_1,axe_out_channels1_2;;;;F:2, F:1, Y:4, X:14, C:1, X:2, W:1, H:1, X:1, Y:7, C:64, F:64, ;32.316638469696045
15;0;ResNet18_05;0.0183774;0.00020292668626871178;1;axe_out_channels1_0,axe_out_channels1_1,axe_yy1_0,axe_xx1_0;224;axe_out_channels1_0,axe_out_channels1_1,axe_yy1_0,axe_xx1_0,axe_in_channels1_0,axe_xx1_1,axe_w1_0,axe_h1_0,axe_xx1_2,axe_yy1_1,axe_in_channels1_1,axe_out_channels1_2;;;;F:1, F:2, Y:4, X:28, C:1, X:1, W:1, H:1, X:1, Y:7, C:64, F:64, ;32.99067282676697
15;1;ResNet18_05;0.017791500000000002;0.00022047823021786075;1;axe_out_channels1_0,axe_out_channels1_1,axe_yy1_0,axe_xx1_0,axe_xx1_1;224;axe_out_channels1_0,axe_out_channels1_1,axe_yy1_0,axe_xx1_0,axe_xx1_1,axe_in_channels1_0,axe_w1_0,axe_h1_0,axe_xx1_2,axe_yy1_1,axe_in_channels1_1,axe_out_channels1_2;;;;F:1, F:2, Y:4, X:28, C:1, X:1, W:1, H:1, X:1, Y:7, C:64, F:64, ;33.66616201400757
15;2;ResNet18_05;0.0327513;0.00045591535398580225;1;axe_out_channels1_0,axe_out_channels1_1,axe_yy1_0,axe_xx1_0,axe_xx1_1;224;axe_in_channels1_0,axe_out_channels1_0,axe_out_channels1_1,axe_yy1_0,axe_xx1_0,axe_xx1_1,axe_w1_0,axe_h1_0,axe_xx1_2,axe_yy1_1,axe_in_channels1_1,axe_out_channels1_2;;;;F:1, F:2, Y:4, X:28, C:1, X:1, W:1, H:1, X:1, Y:7, C:64, F:64, ;34.34608173370361
16;0;ResNet18_05;0.017908;0.0002872681673976428;1;axe_out_channels1_0,axe_out_channels1_1,axe_yy1_0,axe_xx1_0;224;axe_out_channels1_0,axe_out_channels1_1,axe_yy1_0,axe_xx1_0,axe_in_channels1_0,axe_xx1_1,axe_w1_0,axe_h1_0,axe_xx1_2,axe_yy1_1,axe_in_channels1_1,axe_out_channels1_2;;;;F:2, F:1, Y:4, X:28, C:1, X:1, W:1, H:1, X:1, Y:7, C:64, F:64, ;35.01872539520264
16;1;ResNet18_05;0.017968;9.316222410397945e-05;1;axe_out_channels1_0,axe_out_channels1_1,axe_yy1_0,axe_xx1_0,axe_xx1_1;224;axe_out_channels1_0,axe_out_channels1_1,axe_yy1_0,axe_xx1_0,axe_xx1_1,axe_in_channels1_0,axe_w1_0,axe_h1_0,axe_xx1_2,axe_yy1_1,axe_in_channels1_1,axe_out_channels1_2;;;;F:2, F:1, Y:4, X:28, C:1, X:1, W:1, H:1, X:1, Y:7, C:64, F:64, ;35.69377303123474
16;2;ResNet18_05;0.0323695;0.0005690784216608465;1;axe_out_channels1_0,axe_out_channels1_1,axe_yy1_0,axe_xx1_0,axe_xx1_1;224;axe_in_channels1_0,axe_out_channels1_0,axe_out_channels1_1,axe_yy1_0,axe_xx1_0,axe_xx1_1,axe_w1_0,axe_h1_0,axe_xx1_2,axe_yy1_1,axe_in_channels1_1,axe_out_channels1_2;;;;F:2, F:1, Y:4, X:28, C:1, X:1, W:1, H:1, X:1, Y:7, C:64, F:64, ;36.373260498046875
17;0;ResNet18_05;0.31111720000000004;0.001825063330408013;1;axe_xx1_1;28;axe_out_channels1_0,axe_out_channels1_1,axe_yy1_0,axe_xx1_0,axe_in_channels1_0,axe_xx1_1,axe_w1_0,axe_h1_0,axe_xx1_2,axe_yy1_1,axe_in_channels1_1,axe_out_channels1_2;;;;F:1, F:2, Y:4, X:1, C:2, X:28, W:1, H:1, X:1, Y:7, C:32, F:64, ;37.083977460861206
17;1;ResNet18_05;0.0176109;0.0004451683838728893;1;axe_out_channels1_0,axe_out_channels1_1,axe_yy1_0,axe_xx1_0,axe_xx1_1;224;axe_out_channels1_0,axe_out_channels1_1,axe_yy1_0,axe_xx1_0,axe_xx1_1,axe_in_channels1_0,axe_w1_0,axe_h1_0,axe_xx1_2,axe_yy1_1,axe_in_channels1_1,axe_out_channels1_2;;;;F:1, F:2, Y:4, X:1, C:2, X:28, W:1, H:1, X:1, Y:7, C:32, F:64, ;37.769590616226196
17;2;ResNet18_05;0.047779699999999994;0.00041878277185194583;1;axe_out_channels1_0,axe_out_channels1_1,axe_yy1_0,axe_xx1_0,axe_xx1_1;224;axe_in_channels1_0,axe_out_channels1_0,axe_out_channels1_1,axe_yy1_0,axe_xx1_0,axe_xx1_1,axe_w1_0,axe_h1_0,axe_xx1_2,axe_yy1_1,axe_in_channels1_1,axe_out_channels1_2;;;;F:1, F:2, Y:4, X:1, C:2, X:28, W:1, H:1, X:1, Y:7, C:32, F:64, ;38.45390605926514
18;0;ResNet18_05;0.3115572;0.0020367456296749493;1;axe_xx1_1;28;axe_out_channels1_0,axe_out_channels1_1,axe_yy1_0,axe_xx1_0,axe_in_channels1_0,axe_xx1_1,axe_w1_0,axe_h1_0,axe_xx1_2,axe_yy1_1,axe_in_channels1_1,axe_out_channels1_2;;;;F:2, F:1, Y:4, X:1, C:2, X:28, W:1, H:1, X:1, Y:7, C:32, F:64, ;39.163541078567505
18;1;ResNet18_05;0.017741800000000005;0.0004168483657158801;1;axe_out_channels1_0,axe_out_channels1_1,axe_yy1_0,axe_xx1_0,axe_xx1_1;224;axe_out_channels1_0,axe_out_channels1_1,axe_yy1_0,axe_xx1_0,axe_xx1_1,axe_in_channels1_0,axe_w1_0,axe_h1_0,axe_xx1_2,axe_yy1_1,axe_in_channels1_1,axe_out_channels1_2;;;;F:2, F:1, Y:4, X:1, C:2, X:28, W:1, H:1, X:1, Y:7, C:32, F:64, ;39.84854292869568
18;2;ResNet18_05;0.0474812;0.00046889397522254504;1;axe_out_channels1_0,axe_out_channels1_1,axe_yy1_0,axe_xx1_0,axe_xx1_1;224;axe_in_channels1_0,axe_out_channels1_0,axe_out_channels1_1,axe_yy1_0,axe_xx1_0,axe_xx1_1,axe_w1_0,axe_h1_0,axe_xx1_2,axe_yy1_1,axe_in_channels1_1,axe_out_channels1_2;;;;F:2, F:1, Y:4, X:1, C:2, X:28, W:1, H:1, X:1, Y:7, C:32, F:64, ;40.53308725357056
19;0;ResNet18_05;0.027531900000000005;0.00039557968855844893;1;axe_out_channels1_0,axe_out_channels1_1,axe_yy1_0,axe_xx1_0;16;axe_out_channels1_0,axe_out_channels1_1,axe_yy1_0,axe_xx1_0,axe_in_channels1_0,axe_xx1_1,axe_w1_0,axe_h1_0,axe_xx1_2,axe_yy1_1,axe_in_channels1_1,axe_out_channels1_2;;;;F:1, F:2, Y:4, X:2, C:2, X:14, W:1, H:1, X:1, Y:7, C:32, F:64, ;41.23592948913574
19;1;ResNet18_05;0.017530999999999998;0.00020951038160435005;1;axe_out_channels1_0,axe_out_channels1_1,axe_yy1_0,axe_xx1_0,axe_xx1_1;224;axe_out_channels1_0,axe_out_channels1_1,axe_yy1_0,axe_xx1_0,axe_xx1_1,axe_in_channels1_0,axe_w1_0,axe_h1_0,axe_xx1_2,axe_yy1_1,axe_in_channels1_1,axe_out_channels1_2;;;;F:1, F:2, Y:4, X:2, C:2, X:14, W:1, H:1, X:1, Y:7, C:32, F:64, ;41.9216034412384
19;2;ResNet18_05;0.0471569;0.0007118163316474269;1;axe_out_channels1_0,axe_out_channels1_1,axe_yy1_0,axe_xx1_0,axe_xx1_1;224;axe_in_channels1_0,axe_out_channels1_0,axe_out_channels1_1,axe_yy1_0,axe_xx1_0,axe_xx1_1,axe_w1_0,axe_h1_0,axe_xx1_2,axe_yy1_1,axe_in_channels1_1,axe_out_channels1_2;;;;F:1, F:2, Y:4, X:2, C:2, X:14, W:1, H:1, X:1, Y:7, C:32, F:64, ;42.60490560531616
20;0;ResNet18_05;0.027853;0.000577880437460899;1;axe_out_channels1_0,axe_out_channels1_1,axe_yy1_0,axe_xx1_0;16;axe_out_channels1_0,axe_out_channels1_1,axe_yy1_0,axe_xx1_0,axe_in_channels1_0,axe_xx1_1,axe_w1_0,axe_h1_0,axe_xx1_2,axe_yy1_1,axe_in_channels1_1,axe_out_channels1_2;;;;F:2, F:1, Y:4, X:2, C:2, X:14, W:1, H:1, X:1, Y:7, C:32, F:64, ;43.30725145339966
20;1;ResNet18_05;0.0179026;0.000531867690314048;1;axe_out_channels1_0,axe_out_channels1_1,axe_yy1_0,axe_xx1_0,axe_xx1_1;224;axe_out_channels1_0,axe_out_channels1_1,axe_yy1_0,axe_xx1_0,axe_xx1_1,axe_in_channels1_0,axe_w1_0,axe_h1_0,axe_xx1_2,axe_yy1_1,axe_in_channels1_1,axe_out_channels1_2;;;;F:2, F:1, Y:4, X:2, C:2, X:14, W:1, H:1, X:1, Y:7, C:32, F:64, ;43.99341416358948
20;2;ResNet18_05;0.046613800000000004;0.00026123238696608875;1;axe_out_channels1_0,axe_out_channels1_1,axe_yy1_0,axe_xx1_0,axe_xx1_1;224;axe_in_channels1_0,axe_out_channels1_0,axe_out_channels1_1,axe_yy1_0,axe_xx1_0,axe_xx1_1,axe_w1_0,axe_h1_0,axe_xx1_2,axe_yy1_1,axe_in_channels1_1,axe_out_channels1_2;;;;F:2, F:1, Y:4, X:2, C:2, X:14, W:1, H:1, X:1, Y:7, C:32, F:64, ;44.676307916641235
21;0;ResNet18_05;0.019256500000000003;0.0003921444249253072;1;axe_out_channels1_0,axe_out_channels1_1,axe_yy1_0,axe_xx1_0;32;axe_out_channels1_0,axe_out_channels1_1,axe_yy1_0,axe_xx1_0,axe_in_channels1_0,axe_xx1_1,axe_w1_0,axe_h1_0,axe_xx1_2,axe_yy1_1,axe_in_channels1_1,axe_out_channels1_2;;;;F:1, F:2, Y:4, X:4, C:2, X:7, W:1, H:1, X:1, Y:7, C:32, F:64, ;45.40926122665405
21;1;ResNet18_05;0.017877700000000003;0.00041199588590178874;1;axe_out_channels1_0,axe_out_channels1_1,axe_yy1_0,axe_xx1_0,axe_xx1_1;224;axe_out_channels1_0,axe_out_channels1_1,axe_yy1_0,axe_xx1_0,axe_xx1_1,axe_in_channels1_0,axe_w1_0,axe_h1_0,axe_xx1_2,axe_yy1_1,axe_in_channels1_1,axe_out_channels1_2;;;;F:1, F:2, Y:4, X:4, C:2, X:7, W:1, H:1, X:1, Y:7, C:32, F:64, ;46.09711408615112
21;2;ResNet18_05;0.0477273;0.0007411720515507854;1;axe_out_channels1_0,axe_out_channels1_1,axe_yy1_0,axe_xx1_0,axe_xx1_1;224;axe_in_channels1_0,axe_out_channels1_0,axe_out_channels1_1,axe_yy1_0,axe_xx1_0,axe_xx1_1,axe_w1_0,axe_h1_0,axe_xx1_2,axe_yy1_1,axe_in_channels1_1,axe_out_channels1_2;;;;F:1, F:2, Y:4, X:4, C:2, X:7, W:1, H:1, X:1, Y:7, C:32, F:64, ;46.780742168426514
22;0;ResNet18_05;0.0188954;0.00022011778665069262;1;axe_out_channels1_0,axe_out_channels1_1,axe_yy1_0,axe_xx1_0;32;axe_out_channels1_0,axe_out_channels1_1,axe_yy1_0,axe_xx1_0,axe_in_channels1_0,axe_xx1_1,axe_w1_0,axe_h1_0,axe_xx1_2,axe_yy1_1,axe_in_channels1_1,axe_out_channels1_2;;;;F:2, F:1, Y:4, X:4, C:2, X:7, W:1, H:1, X:1, Y:7, C:32, F:64, ;47.5101957321167
22;1;ResNet18_05;0.017932;0.00015488576435553937;1;axe_out_channels1_0,axe_out_channels1_1,axe_yy1_0,axe_xx1_0,axe_xx1_1;224;axe_out_channels1_0,axe_out_channels1_1,axe_yy1_0,axe_xx1_0,axe_xx1_1,axe_in_channels1_0,axe_w1_0,axe_h1_0,axe_xx1_2,axe_yy1_1,axe_in_channels1_1,axe_out_channels1_2;;;;F:2, F:1, Y:4, X:4, C:2, X:7, W:1, H:1, X:1, Y:7, C:32, F:64, ;48.19691228866577
22;2;ResNet18_05;0.0474336;0.00047220847091088803;1;axe_out_channels1_0,axe_out_channels1_1,axe_yy1_0,axe_xx1_0,axe_xx1_1;224;axe_in_channels1_0,axe_out_channels1_0,axe_out_channels1_1,axe_yy1_0,axe_xx1_0,axe_xx1_1,axe_w1_0,axe_h1_0,axe_xx1_2,axe_yy1_1,axe_in_channels1_1,axe_out_channels1_2;;;;F:2, F:1, Y:4, X:4, C:2, X:7, W:1, H:1, X:1, Y:7, C:32, F:64, ;48.880547285079956
23;0;ResNet18_05;0.018760400000000003;0.00039551085952221275;1;axe_out_channels1_0,axe_out_channels1_1,axe_yy1_0,axe_xx1_0;56;axe_out_channels1_0,axe_out_channels1_1,axe_yy1_0,axe_xx1_0,axe_in_channels1_0,axe_xx1_1,axe_w1_0,axe_h1_0,axe_xx1_2,axe_yy1_1,axe_in_channels1_1,axe_out_channels1_2;;;;F:1, F:2, Y:4, X:7, C:2, X:4, W:1, H:1, X:1, Y:7, C:32, F:64, ;49.59664344787598
23;1;ResNet18_05;0.017971200000000003;0.0002915492411240336;1;axe_out_channels1_0,axe_out_channels1_1,axe_yy1_0,axe_xx1_0,axe_xx1_1;224;axe_out_channels1_0,axe_out_channels1_1,axe_yy1_0,axe_xx1_0,axe_xx1_1,axe_in_channels1_0,axe_w1_0,axe_h1_0,axe_xx1_2,axe_yy1_1,axe_in_channels1_1,axe_out_channels1_2;;;;F:1, F:2, Y:4, X:7, C:2, X:4, W:1, H:1, X:1, Y:7, C:32, F:64, ;50.28310585021973
23;2;ResNet18_05;0.0479078;0.00040889211290999424;1;axe_out_channels1_0,axe_out_channels1_1,axe_yy1_0,axe_xx1_0,axe_xx1_1;224;axe_in_channels1_0,axe_out_channels1_0,axe_out_channels1_1,axe_yy1_0,axe_xx1_0,axe_xx1_1,axe_w1_0,axe_h1_0,axe_xx1_2,axe_yy1_1,axe_in_channels1_1,axe_out_channels1_2;;;;F:1, F:2, Y:4, X:7, C:2, X:4, W:1, H:1, X:1, Y:7, C:32, F:64, ;50.969160079956055
24;0;ResNet18_05;0.0189123;0.0005325716947041026;1;axe_out_channels1_0,axe_out_channels1_1,axe_yy1_0,axe_xx1_0;56;axe_out_channels1_0,axe_out_channels1_1,axe_yy1_0,axe_xx1_0,axe_in_channels1_0,axe_xx1_1,axe_w1_0,axe_h1_0,axe_xx1_2,axe_yy1_1,axe_in_channels1_1,axe_out_channels1_2;;;;F:2, F:1, Y:4, X:7, C:2, X:4, W:1, H:1, X:1, Y:7, C:32, F:64, ;51.67651391029358
24;1;ResNet18_05;0.0176301;0.0004392715447192093;1;axe_out_channels1_0,axe_out_channels1_1,axe_yy1_0,axe_xx1_0,axe_xx1_1;224;axe_out_channels1_0,axe_out_channels1_1,axe_yy1_0,axe_xx1_0,axe_xx1_1,axe_in_channels1_0,axe_w1_0,axe_h1_0,axe_xx1_2,axe_yy1_1,axe_in_channels1_1,axe_out_channels1_2;;;;F:2, F:1, Y:4, X:7, C:2, X:4, W:1, H:1, X:1, Y:7, C:32, F:64, ;52.35936379432678
24;2;ResNet18_05;0.0473979;0.0005219500838202833;1;axe_out_channels1_0,axe_out_channels1_1,axe_yy1_0,axe_xx1_0,axe_xx1_1;224;axe_in_channels1_0,axe_out_channels1_0,axe_out_channels1_1,axe_yy1_0,axe_xx1_0,axe_xx1_1,axe_w1_0,axe_h1_0,axe_xx1_2,axe_yy1_1,axe_in_channels1_1,axe_out_channels1_2;;;;F:2, F:1, Y:4, X:7, C:2, X:4, W:1, H:1, X:1, Y:7, C:32, F:64, ;53.054510831832886
25;0;ResNet18_05;0.081464;0.0006869305641766149;2;axe_yy1_0,axe_xx1_0,axe_out_channels1_0,axe_xx1_1;112;axe_in_channels1_0,axe_yy1_0,axe_xx1_0,axe_out_channels1_0,axe_xx1_1,axe_w1_0,axe_h1_0,axe_xx1_2,axe_yy1_1,axe_in_channels1_1,axe_out_channels1_1;axe_yy2_0,axe_xx2_0,axe_out_channels2_0,axe_xx2_1;112;axe_in_channels2_0,axe_yy2_0,axe_xx2_0,axe_out_channels2_0,axe_xx2_1,axe_w2_0,axe_h2_0,axe_xx2_2,axe_yy2_1,axe_in_channels2_1,axe_out_channels2_1;C:1, Y:1, X:4, F:4, X:7, W:1, H:1, X:1, Y:13, C:64, F:32, ;53.92596387863159
25;1;ResNet18_05;0.0516273;0.0003603290301932396;2;axe_yy1_0,axe_xx1_0,axe_out_channels1_0,axe_xx1_1;112;axe_yy1_0,axe_xx1_0,axe_out_channels1_0,axe_xx1_1,axe_in_channels1_0,axe_w1_0,axe_h1_0,axe_xx1_2,axe_yy1_1,axe_in_channels1_1,axe_out_channels1_1;axe_yy2_0,axe_xx2_0,axe_out_channels2_0,axe_xx2_1;112;axe_yy2_0,axe_xx2_0,axe_out_channels2_0,axe_xx2_1,axe_in_channels2_0,axe_w2_0,axe_h2_0,axe_xx2_2,axe_yy2_1,axe_in_channels2_1,axe_out_channels2_1;C:1, Y:1, X:4, F:4, X:7, W:1, H:1, X:1, Y:13, C:64, F:32, ;54.78726673126221
25;2;ResNet18_05;0.08201689999999999;0.00047720466259247953;2;axe_yy1_0,axe_xx1_0,axe_out_channels1_0,axe_xx1_1;112;axe_in_channels1_0,axe_yy1_0,axe_xx1_0,axe_out_channels1_0,axe_xx1_1,axe_w1_0,axe_h1_0,axe_xx1_2,axe_yy1_1,axe_in_channels1_1,axe_out_channels1_1;axe_yy2_0,axe_xx2_0,axe_out_channels2_0,axe_xx2_1;112;axe_in_channels2_0,axe_yy2_0,axe_xx2_0,axe_out_channels2_0,axe_xx2_1,axe_w2_0,axe_h2_0,axe_xx2_2,axe_yy2_1,axe_in_channels2_1,axe_out_channels2_1;C:1, Y:1, X:4, F:4, X:7, W:1, H:1, X:1, Y:13, C:64, F:32, ;55.660425901412964
26;0;ResNet18_05;0.0877801;0.0008227691596067507;2;axe_yy1_0,axe_xx1_0,axe_out_channels1_0,axe_xx1_1;112;axe_in_channels1_0,axe_yy1_0,axe_xx1_0,axe_out_channels1_0,axe_xx1_1,axe_w1_0,axe_h1_0,axe_xx1_2,axe_yy1_1,axe_in_channels1_1,axe_out_channels1_1;axe_yy2_0,axe_xx2_0,axe_out_channels2_0,axe_xx2_1;112;axe_in_channels2_0,axe_yy2_0,axe_xx2_0,axe_out_channels2_0,axe_xx2_1,axe_w2_0,axe_h2_0,axe_xx2_2,axe_yy2_1,axe_in_channels2_1,axe_out_channels2_1;C:1, Y:1, X:7, F:4, X:4, W:1, H:1, X:1, Y:13, C:64, F:32, ;56.53442883491516
26;1;ResNet18_05;0.053795;0.0005698671775071808;2;axe_yy1_0,axe_xx1_0,axe_out_channels1_0,axe_xx1_1;112;axe_yy1_0,axe_xx1_0,axe_out_channels1_0,axe_xx1_1,axe_in_channels1_0,axe_w1_0,axe_h1_0,axe_xx1_2,axe_yy1_1,axe_in_channels1_1,axe_out_channels1_1;axe_yy2_0,axe_xx2_0,axe_out_channels2_0,axe_xx2_1;112;axe_yy2_0,axe_xx2_0,axe_out_channels2_0,axe_xx2_1,axe_in_channels2_0,axe_w2_0,axe_h2_0,axe_xx2_2,axe_yy2_1,axe_in_channels2_1,axe_out_channels2_1;C:1, Y:1, X:7, F:4, X:4, W:1, H:1, X:1, Y:13, C:64, F:32, ;57.396480560302734
26;2;ResNet18_05;0.0861864;0.0006587406469924281;2;axe_yy1_0,axe_xx1_0,axe_out_channels1_0,axe_xx1_1;112;axe_in_channels1_0,axe_yy1_0,axe_xx1_0,axe_out_channels1_0,axe_xx1_1,axe_w1_0,axe_h1_0,axe_xx1_2,axe_yy1_1,axe_in_channels1_1,axe_out_channels1_1;axe_yy2_0,axe_xx2_0,axe_out_channels2_0,axe_xx2_1;112;axe_in_channels2_0,axe_yy2_0,axe_xx2_0,axe_out_channels2_0,axe_xx2_1,axe_w2_0,axe_h2_0,axe_xx2_2,axe_yy2_1,axe_in_channels2_1,axe_out_channels2_1;C:1, Y:1, X:7, F:4, X:4, W:1, H:1, X:1, Y:13, C:64, F:32, ;58.27087116241455
27;0;ResNet18_05;0.08326930000000002;0.0007281024721836836;2;axe_yy1_0,axe_xx1_0,axe_out_channels1_0,axe_xx1_1;112;axe_in_channels1_0,axe_yy1_0,axe_xx1_0,axe_out_channels1_0,axe_xx1_1,axe_w1_0,axe_h1_0,axe_xx1_2,axe_yy1_1,axe_in_channels1_1,axe_out_channels1_1;axe_yy2_0,axe_xx2_0,axe_out_channels2_0,axe_xx2_1;112;axe_in_channels2_0,axe_yy2_0,axe_xx2_0,axe_out_channels2_0,axe_xx2_1,axe_w2_0,axe_h2_0,axe_xx2_2,axe_yy2_1,axe_in_channels2_1,axe_out_channels2_1;C:1, Y:1, X:14, F:4, X:2, W:1, H:1, X:1, Y:13, C:64, F:32, ;59.14594531059265
27;1;ResNet18_05;0.0519207;0.0008002650873304419;2;axe_yy1_0,axe_xx1_0,axe_out_channels1_0,axe_xx1_1;112;axe_yy1_0,axe_xx1_0,axe_out_channels1_0,axe_xx1_1,axe_in_channels1_0,axe_w1_0,axe_h1_0,axe_xx1_2,axe_yy1_1,axe_in_channels1_1,axe_out_channels1_1;axe_yy2_0,axe_xx2_0,axe_out_channels2_0,axe_xx2_1;112;axe_yy2_0,axe_xx2_0,axe_out_channels2_0,axe_xx2_1,axe_in_channels2_0,axe_w2_0,axe_h2_0,axe_xx2_2,axe_yy2_1,axe_in_channels2_1,axe_out_channels2_1;C:1, Y:1, X:14, F:4, X:2, W:1, H:1, X:1, Y:13, C:64, F:32, ;60.01202178001404
27;2;ResNet18_05;0.0830928;0.0009175063814491945;2;axe_yy1_0,axe_xx1_0,axe_out_channels1_0,axe_xx1_1;112;axe_in_channels1_0,axe_yy1_0,axe_xx1_0,axe_out_channels1_0,axe_xx1_1,axe_w1_0,axe_h1_0,axe_xx1_2,axe_yy1_1,axe_in_channels1_1,axe_out_channels1_1;axe_yy2_0,axe_xx2_0,axe_out_channels2_0,axe_xx2_1;112;axe_in_channels2_0,axe_yy2_0,axe_xx2_0,axe_out_channels2_0,axe_xx2_1,axe_w2_0,axe_h2_0,axe_xx2_2,axe_yy2_1,axe_in_channels2_1,axe_out_channels2_1;C:1, Y:1, X:14, F:4, X:2, W:1, H:1, X:1, Y:13, C:64, F:32, ;60.88711094856262
28;0;ResNet18_05;0.07118110000000001;0.000989755267730362;2;axe_yy1_0,axe_xx1_0,axe_out_channels1_0,axe_xx1_1;112;axe_in_channels1_0,axe_yy1_0,axe_xx1_0,axe_out_channels1_0,axe_xx1_1,axe_w1_0,axe_h1_0,axe_xx1_2,axe_yy1_1,axe_in_channels1_1,axe_out_channels1_1;axe_yy2_0,axe_xx2_0,axe_out_channels2_0,axe_xx2_1;112;axe_in_channels2_0,axe_yy2_0,axe_xx2_0,axe_out_channels2_0,axe_xx2_1,axe_w2_0,axe_h2_0,axe_xx2_2,axe_yy2_1,axe_in_channels2_1,axe_out_channels2_1;C:1, Y:1, X:28, F:4, X:1, W:1, H:1, X:1, Y:13, C:64, F:32, ;61.75672626495361
28;1;ResNet18_05;0.0433489;0.0007362092705202773;2;axe_yy1_0,axe_xx1_0,axe_out_channels1_0,axe_xx1_1;112;axe_yy1_0,axe_xx1_0,axe_out_channels1_0,axe_xx1_1,axe_in_channels1_0,axe_w1_0,axe_h1_0,axe_xx1_2,axe_yy1_1,axe_in_channels1_1,axe_out_channels1_1;axe_yy2_0,axe_xx2_0,axe_out_channels2_0,axe_xx2_1;112;axe_yy2_0,axe_xx2_0,axe_out_channels2_0,axe_xx2_1,axe_in_channels2_0,axe_w2_0,axe_h2_0,axe_xx2_2,axe_yy2_1,axe_in_channels2_1,axe_out_channels2_1;C:1, Y:1, X:28, F:4, X:1, W:1, H:1, X:1, Y:13, C:64, F:32, ;62.613691568374634
28;2;ResNet18_05;0.0719398;0.000984879972382424;2;axe_yy1_0,axe_xx1_0,axe_out_channels1_0,axe_xx1_1;112;axe_in_channels1_0,axe_yy1_0,axe_xx1_0,axe_out_channels1_0,axe_xx1_1,axe_w1_0,axe_h1_0,axe_xx1_2,axe_yy1_1,axe_in_channels1_1,axe_out_channels1_1;axe_yy2_0,axe_xx2_0,axe_out_channels2_0,axe_xx2_1;112;axe_in_channels2_0,axe_yy2_0,axe_xx2_0,axe_out_channels2_0,axe_xx2_1,axe_w2_0,axe_h2_0,axe_xx2_2,axe_yy2_1,axe_in_channels2_1,axe_out_channels2_1;C:1, Y:1, X:28, F:4, X:1, W:1, H:1, X:1, Y:13, C:64, F:32, ;63.48341631889343
29;0;ResNet18_05;0.0782806;0.0008951063847387104;2;axe_yy1_0,axe_xx1_0,axe_out_channels1_0,axe_xx1_1;112;axe_in_channels1_0,axe_yy1_0,axe_xx1_0,axe_out_channels1_0,axe_xx1_1,axe_w1_0,axe_h1_0,axe_xx1_2,axe_yy1_1,axe_in_channels1_1,axe_out_channels1_1;axe_yy2_0,axe_xx2_0,axe_out_channels2_0,axe_xx2_1;224;axe_in_channels2_0,axe_yy2_0,axe_xx2_0,axe_out_channels2_0,axe_xx2_1,axe_w2_0,axe_h2_0,axe_xx2_2,axe_yy2_1,axe_in_channels2_1,axe_out_channels2_1;C:1, Y:1, X:1, F:4, X:28, W:1, H:1, X:1, Y:8, C:64, F:32, ;64.31970381736755
29;1;ResNet18_05;0.0487636;0.00044029744491650314;2;axe_yy1_0,axe_xx1_0,axe_out_channels1_0,axe_xx1_1;112;axe_yy1_0,axe_xx1_0,axe_out_channels1_0,axe_xx1_1,axe_in_channels1_0,axe_w1_0,axe_h1_0,axe_xx1_2,axe_yy1_1,axe_in_channels1_1,axe_out_channels1_1;axe_yy2_0,axe_xx2_0,axe_out_channels2_0,axe_xx2_1;224;axe_yy2_0,axe_xx2_0,axe_out_channels2_0,axe_xx2_1,axe_in_channels2_0,axe_w2_0,axe_h2_0,axe_xx2_2,axe_yy2_1,axe_in_channels2_1,axe_out_channels2_1;C:1, Y:1, X:1, F:4, X:28, W:1, H:1, X:1, Y:8, C:64, F:32, ;65.1434714794159
29;2;ResNet18_05;0.0783152;0.000556124949988761;2;axe_yy1_0,axe_xx1_0,axe_out_channels1_0,axe_xx1_1;112;axe_in_channels1_0,axe_yy1_0,axe_xx1_0,axe_out_channels1_0,axe_xx1_1,axe_w1_0,axe_h1_0,axe_xx1_2,axe_yy1_1,axe_in_channels1_1,axe_out_channels1_1;axe_yy2_0,axe_xx2_0,axe_out_channels2_0,axe_xx2_1;224;axe_in_channels2_0,axe_yy2_0,axe_xx2_0,axe_out_channels2_0,axe_xx2_1,axe_w2_0,axe_h2_0,axe_xx2_2,axe_yy2_1,axe_in_channels2_1,axe_out_channels2_1;C:1, Y:1, X:1, F:4, X:28, W:1, H:1, X:1, Y:8, C:64, F:32, ;65.98071694374084
30;0;ResNet18_05;0.085337;0.0006122744482664589;2;axe_yy1_0,axe_xx1_0,axe_out_channels1_0,axe_xx1_1;112;axe_in_channels1_0,axe_yy1_0,axe_xx1_0,axe_out_channels1_0,axe_xx1_1,axe_w1_0,axe_h1_0,axe_xx1_2,axe_yy1_1,axe_in_channels1_1,axe_out_channels1_1;axe_yy2_0,axe_xx2_0,axe_out_channels2_0,axe_xx2_1;224;axe_in_channels2_0,axe_yy2_0,axe_xx2_0,axe_out_channels2_0,axe_xx2_1,axe_w2_0,axe_h2_0,axe_xx2_2,axe_yy2_1,axe_in_channels2_1,axe_out_channels2_1;C:1, Y:1, X:4, F:4, X:7, W:1, H:1, X:1, Y:8, C:64, F:32, ;66.82403039932251
30;1;ResNet18_05;0.051646700000000004;0.0005512179333076885;2;axe_yy1_0,axe_xx1_0,axe_out_channels1_0,axe_xx1_1;112;axe_yy1_0,axe_xx1_0,axe_out_channels1_0,axe_xx1_1,axe_in_channels1_0,axe_w1_0,axe_h1_0,axe_xx1_2,axe_yy1_1,axe_in_channels1_1,axe_out_channels1_1;axe_yy2_0,axe_xx2_0,axe_out_channels2_0,axe_xx2_1;224;axe_yy2_0,axe_xx2_0,axe_out_channels2_0,axe_xx2_1,axe_in_channels2_0,axe_w2_0,axe_h2_0,axe_xx2_2,axe_yy2_1,axe_in_channels2_1,axe_out_channels2_1;C:1, Y:1, X:4, F:4, X:7, W:1, H:1, X:1, Y:8, C:64, F:32, ;67.65121865272522
30;2;ResNet18_05;0.085499;0.0007342487316979178;2;axe_yy1_0,axe_xx1_0,axe_out_channels1_0,axe_xx1_1;112;axe_in_channels1_0,axe_yy1_0,axe_xx1_0,axe_out_channels1_0,axe_xx1_1,axe_w1_0,axe_h1_0,axe_xx1_2,axe_yy1_1,axe_in_channels1_1,axe_out_channels1_1;axe_yy2_0,axe_xx2_0,axe_out_channels2_0,axe_xx2_1;224;axe_in_channels2_0,axe_yy2_0,axe_xx2_0,axe_out_channels2_0,axe_xx2_1,axe_w2_0,axe_h2_0,axe_xx2_2,axe_yy2_1,axe_in_channels2_1,axe_out_channels2_1;C:1, Y:1, X:4, F:4, X:7, W:1, H:1, X:1, Y:8, C:64, F:32, ;68.4941897392273
31;0;ResNet18_05;0.0829956;0.0005630458595887189;2;axe_yy1_0,axe_xx1_0,axe_out_channels1_0,axe_xx1_1;112;axe_in_channels1_0,axe_yy1_0,axe_xx1_0,axe_out_channels1_0,axe_xx1_1,axe_w1_0,axe_h1_0,axe_xx1_2,axe_yy1_1,axe_in_channels1_1,axe_out_channels1_1;axe_yy2_0,axe_xx2_0,axe_out_channels2_0,axe_xx2_1;224;axe_in_channels2_0,axe_yy2_0,axe_xx2_0,axe_out_channels2_0,axe_xx2_1,axe_w2_0,axe_h2_0,axe_xx2_2,axe_yy2_1,axe_in_channels2_1,axe_out_channels2_1;C:1, Y:1, X:7, F:4, X:4, W:1, H:1, X:1, Y:8, C:64, F:32, ;69.3383960723877
31;1;ResNet18_05;0.051022;0.0008319265592586892;2;axe_yy1_0,axe_xx1_0,axe_out_channels1_0,axe_xx1_1;112;axe_yy1_0,axe_xx1_0,axe_out_channels1_0,axe_xx1_1,axe_in_channels1_0,axe_w1_0,axe_h1_0,axe_xx1_2,axe_yy1_1,axe_in_channels1_1,axe_out_channels1_1;axe_yy2_0,axe_xx2_0,axe_out_channels2_0,axe_xx2_1;224;axe_yy2_0,axe_xx2_0,axe_out_channels2_0,axe_xx2_1,axe_in_channels2_0,axe_w2_0,axe_h2_0,axe_xx2_2,axe_yy2_1,axe_in_channels2_1,axe_out_channels2_1;C:1, Y:1, X:7, F:4, X:4, W:1, H:1, X:1, Y:8, C:64, F:32, ;70.1671290397644
31;2;ResNet18_05;0.08389319999999999;0.0008212870143865675;2;axe_yy1_0,axe_xx1_0,axe_out_channels1_0,axe_xx1_1;112;axe_in_channels1_0,axe_yy1_0,axe_xx1_0,axe_out_channels1_0,axe_xx1_1,axe_w1_0,axe_h1_0,axe_xx1_2,axe_yy1_1,axe_in_channels1_1,axe_out_channels1_1;axe_yy2_0,axe_xx2_0,axe_out_channels2_0,axe_xx2_1;224;axe_in_channels2_0,axe_yy2_0,axe_xx2_0,axe_out_channels2_0,axe_xx2_1,axe_w2_0,axe_h2_0,axe_xx2_2,axe_yy2_1,axe_in_channels2_1,axe_out_channels2_1;C:1, Y:1, X:7, F:4, X:4, W:1, H:1, X:1, Y:8, C:64, F:32, ;71.01313090324402
32;0;ResNet18_05;0.0842977;0.0008103237686258501;2;axe_yy1_0,axe_xx1_0,axe_out_channels1_0,axe_xx1_1;112;axe_in_channels1_0,axe_yy1_0,axe_xx1_0,axe_out_channels1_0,axe_xx1_1,axe_w1_0,axe_h1_0,axe_xx1_2,axe_yy1_1,axe_in_channels1_1,axe_out_channels1_1;axe_yy2_0,axe_xx2_0,axe_out_channels2_0,axe_xx2_1;224;axe_in_channels2_0,axe_yy2_0,axe_xx2_0,axe_out_channels2_0,axe_xx2_1,axe_w2_0,axe_h2_0,axe_xx2_2,axe_yy2_1,axe_in_channels2_1,axe_out_channels2_1;C:1, Y:1, X:14, F:4, X:2, W:1, H:1, X:1, Y:8, C:64, F:32, ;71.8600971698761
32;1;ResNet18_05;0.051273900000000004;0.0006547404753030001;2;axe_yy1_0,axe_xx1_0,axe_out_channels1_0,axe_xx1_1;112;axe_yy1_0,axe_xx1_0,axe_out_channels1_0,axe_xx1_1,axe_in_channels1_0,axe_w1_0,axe_h1_0,axe_xx1_2,axe_yy1_1,axe_in_channels1_1,axe_out_channels1_1;axe_yy2_0,axe_xx2_0,axe_out_channels2_0,axe_xx2_1;224;axe_yy2_0,axe_xx2_0,axe_out_channels2_0,axe_xx2_1,axe_in_channels2_0,axe_w2_0,axe_h2_0,axe_xx2_2,axe_yy2_1,axe_in_channels2_1,axe_out_channels2_1;C:1, Y:1, X:14, F:4, X:2, W:1, H:1, X:1, Y:8, C:64, F:32, ;72.69569039344788
32;2;ResNet18_05;0.08331190000000001;0.0006169597150543942;2;axe_yy1_0,axe_xx1_0,axe_out_channels1_0,axe_xx1_1;112;axe_in_channels1_0,axe_yy1_0,axe_xx1_0,axe_out_channels1_0,axe_xx1_1,axe_w1_0,axe_h1_0,axe_xx1_2,axe_yy1_1,axe_in_channels1_1,axe_out_channels1_1;axe_yy2_0,axe_xx2_0,axe_out_channels2_0,axe_xx2_1;224;axe_in_channels2_0,axe_yy2_0,axe_xx2_0,axe_out_channels2_0,axe_xx2_1,axe_w2_0,axe_h2_0,axe_xx2_2,axe_yy2_1,axe_in_channels2_1,axe_out_channels2_1;C:1, Y:1, X:14, F:4, X:2, W:1, H:1, X:1, Y:8, C:64, F:32, ;73.54174089431763
33;0;ResNet18_05;0.07920769999999999;0.00045445726971850715;2;axe_yy1_0,axe_xx1_0,axe_out_channels1_0,axe_xx1_1;112;axe_in_channels1_0,axe_yy1_0,axe_xx1_0,axe_out_channels1_0,axe_xx1_1,axe_w1_0,axe_h1_0,axe_xx1_2,axe_yy1_1,axe_in_channels1_1,axe_out_channels1_1;axe_yy2_0,axe_xx2_0,axe_out_channels2_0,axe_xx2_1;224;axe_in_channels2_0,axe_yy2_0,axe_xx2_0,axe_out_channels2_0,axe_xx2_1,axe_w2_0,axe_h2_0,axe_xx2_2,axe_yy2_1,axe_in_channels2_1,axe_out_channels2_1;C:1, Y:1, X:28, F:4, X:1, W:1, H:1, X:1, Y:8, C:64, F:32, ;74.38221478462219
33;1;ResNet18_05;0.0485319;0.0005803766794074339;2;axe_yy1_0,axe_xx1_0,axe_out_channels1_0,axe_xx1_1;112;axe_yy1_0,axe_xx1_0,axe_out_channels1_0,axe_xx1_1,axe_in_channels1_0,axe_w1_0,axe_h1_0,axe_xx1_2,axe_yy1_1,axe_in_channels1_1,axe_out_channels1_1;axe_yy2_0,axe_xx2_0,axe_out_channels2_0,axe_xx2_1;224;axe_yy2_0,axe_xx2_0,axe_out_channels2_0,axe_xx2_1,axe_in_channels2_0,axe_w2_0,axe_h2_0,axe_xx2_2,axe_yy2_1,axe_in_channels2_1,axe_out_channels2_1;C:1, Y:1, X:28, F:4, X:1, W:1, H:1, X:1, Y:8, C:64, F:32, ;75.21311712265015
33;2;ResNet18_05;0.0788508;0.000580028930312962;2;axe_yy1_0,axe_xx1_0,axe_out_channels1_0,axe_xx1_1;112;axe_in_channels1_0,axe_yy1_0,axe_xx1_0,axe_out_channels1_0,axe_xx1_1,axe_w1_0,axe_h1_0,axe_xx1_2,axe_yy1_1,axe_in_channels1_1,axe_out_channels1_1;axe_yy2_0,axe_xx2_0,axe_out_channels2_0,axe_xx2_1;224;axe_in_channels2_0,axe_yy2_0,axe_xx2_0,axe_out_channels2_0,axe_xx2_1,axe_w2_0,axe_h2_0,axe_xx2_2,axe_yy2_1,axe_in_channels2_1,axe_out_channels2_1;C:1, Y:1, X:28, F:4, X:1, W:1, H:1, X:1, Y:8, C:64, F:32, ;76.0517795085907
34;0;ResNet18_05;0.0839842;0.000773279613076671;2;axe_yy1_0,axe_xx1_0,axe_out_channels1_0,axe_xx1_1;224;axe_in_channels1_0,axe_yy1_0,axe_xx1_0,axe_out_channels1_0,axe_xx1_1,axe_w1_0,axe_h1_0,axe_xx1_2,axe_yy1_1,axe_in_channels1_1,axe_out_channels1_1;axe_yy2_0,axe_xx2_0,axe_out_channels2_0,axe_xx2_1;112;axe_in_channels2_0,axe_yy2_0,axe_xx2_0,axe_out_channels2_0,axe_xx2_1,axe_w2_0,axe_h2_0,axe_xx2_2,axe_yy2_1,axe_in_channels2_1,axe_out_channels2_1;C:1, Y:2, X:4, F:4, X:7, W:1, H:1, X:1, Y:8, C:64, F:32, ;76.8970935344696
34;1;ResNet18_05;0.05059899999999999;0.00035606403918396446;2;axe_yy1_0,axe_xx1_0,axe_out_channels1_0,axe_xx1_1;224;axe_yy1_0,axe_xx1_0,axe_out_channels1_0,axe_xx1_1,axe_in_channels1_0,axe_w1_0,axe_h1_0,axe_xx1_2,axe_yy1_1,axe_in_channels1_1,axe_out_channels1_1;axe_yy2_0,axe_xx2_0,axe_out_channels2_0,axe_xx2_1;112;axe_yy2_0,axe_xx2_0,axe_out_channels2_0,axe_xx2_1,axe_in_channels2_0,axe_w2_0,axe_h2_0,axe_xx2_2,axe_yy2_1,axe_in_channels2_1,axe_out_channels2_1;C:1, Y:2, X:4, F:4, X:7, W:1, H:1, X:1, Y:8, C:64, F:32, ;77.73341035842896
34;2;ResNet18_05;0.0835601;0.0007111350715581371;2;axe_yy1_0,axe_xx1_0,axe_out_channels1_0,axe_xx1_1;224;axe_in_channels1_0,axe_yy1_0,axe_xx1_0,axe_out_channels1_0,axe_xx1_1,axe_w1_0,axe_h1_0,axe_xx1_2,axe_yy1_1,axe_in_channels1_1,axe_out_channels1_1;axe_yy2_0,axe_xx2_0,axe_out_channels2_0,axe_xx2_1;112;axe_in_channels2_0,axe_yy2_0,axe_xx2_0,axe_out_channels2_0,axe_xx2_1,axe_w2_0,axe_h2_0,axe_xx2_2,axe_yy2_1,axe_in_channels2_1,axe_out_channels2_1;C:1, Y:2, X:4, F:4, X:7, W:1, H:1, X:1, Y:8, C:64, F:32, ;78.58567762374878
35;0;ResNet18_05;0.0840368;0.0007928487623752737;2;axe_yy1_0,axe_xx1_0,axe_out_channels1_0,axe_xx1_1;224;axe_in_channels1_0,axe_yy1_0,axe_xx1_0,axe_out_channels1_0,axe_xx1_1,axe_w1_0,axe_h1_0,axe_xx1_2,axe_yy1_1,axe_in_channels1_1,axe_out_channels1_1;axe_yy2_0,axe_xx2_0,axe_out_channels2_0,axe_xx2_1;112;axe_in_channels2_0,axe_yy2_0,axe_xx2_0,axe_out_channels2_0,axe_xx2_1,axe_w2_0,axe_h2_0,axe_xx2_2,axe_yy2_1,axe_in_channels2_1,axe_out_channels2_1;C:1, Y:2, X:7, F:4, X:4, W:1, H:1, X:1, Y:8, C:64, F:32, ;79.4337785243988
35;1;ResNet18_05;0.05225880000000001;0.0006589195398529315;2;axe_yy1_0,axe_xx1_0,axe_out_channels1_0,axe_xx1_1;224;axe_yy1_0,axe_xx1_0,axe_out_channels1_0,axe_xx1_1,axe_in_channels1_0,axe_w1_0,axe_h1_0,axe_xx1_2,axe_yy1_1,axe_in_channels1_1,axe_out_channels1_1;axe_yy2_0,axe_xx2_0,axe_out_channels2_0,axe_xx2_1;112;axe_yy2_0,axe_xx2_0,axe_out_channels2_0,axe_xx2_1,axe_in_channels2_0,axe_w2_0,axe_h2_0,axe_xx2_2,axe_yy2_1,axe_in_channels2_1,axe_out_channels2_1;C:1, Y:2, X:7, F:4, X:4, W:1, H:1, X:1, Y:8, C:64, F:32, ;80.26912069320679
35;2;ResNet18_05;0.0839011;0.0008475855650021426;2;axe_yy1_0,axe_xx1_0,axe_out_channels1_0,axe_xx1_1;224;axe_in_channels1_0,axe_yy1_0,axe_xx1_0,axe_out_channels1_0,axe_xx1_1,axe_w1_0,axe_h1_0,axe_xx1_2,axe_yy1_1,axe_in_channels1_1,axe_out_channels1_1;axe_yy2_0,axe_xx2_0,axe_out_channels2_0,axe_xx2_1;112;axe_in_channels2_0,axe_yy2_0,axe_xx2_0,axe_out_channels2_0,axe_xx2_1,axe_w2_0,axe_h2_0,axe_xx2_2,axe_yy2_1,axe_in_channels2_1,axe_out_channels2_1;C:1, Y:2, X:7, F:4, X:4, W:1, H:1, X:1, Y:8, C:64, F:32, ;81.12096166610718
36;0;ResNet18_05;0.082519;0.0007144513979271084;2;axe_yy1_0,axe_xx1_0,axe_out_channels1_0,axe_xx1_1;224;axe_in_channels1_0,axe_yy1_0,axe_xx1_0,axe_out_channels1_0,axe_xx1_1,axe_w1_0,axe_h1_0,axe_xx1_2,axe_yy1_1,axe_in_channels1_1,axe_out_channels1_1;axe_yy2_0,axe_xx2_0,axe_out_channels2_0,axe_xx2_1;112;axe_in_channels2_0,axe_yy2_0,axe_xx2_0,axe_out_channels2_0,axe_xx2_1,axe_w2_0,axe_h2_0,axe_xx2_2,axe_yy2_1,axe_in_channels2_1,axe_out_channels2_1;C:1, Y:2, X:14, F:4, X:2, W:1, H:1, X:1, Y:8, C:64, F:32, ;81.96969270706177
36;1;ResNet18_05;0.0508715;0.0004804721115736069;2;axe_yy1_0,axe_xx1_0,axe_out_channels1_0,axe_xx1_1;224;axe_yy1_0,axe_xx1_0,axe_out_channels1_0,axe_xx1_1,axe_in_channels1_0,axe_w1_0,axe_h1_0,axe_xx1_2,axe_yy1_1,axe_in_channels1_1,axe_out_channels1_1;axe_yy2_0,axe_xx2_0,axe_out_channels2_0,axe_xx2_1;112;axe_yy2_0,axe_xx2_0,axe_out_channels2_0,axe_xx2_1,axe_in_channels2_0,axe_w2_0,axe_h2_0,axe_xx2_2,axe_yy2_1,axe_in_channels2_1,axe_out_channels2_1;C:1, Y:2, X:14, F:4, X:2, W:1, H:1, X:1, Y:8, C:64, F:32, ;82.80631828308105
36;2;ResNet18_05;0.08202069999999999;0.0008684648582412535;2;axe_yy1_0,axe_xx1_0,axe_out_channels1_0,axe_xx1_1;224;axe_in_channels1_0,axe_yy1_0,axe_xx1_0,axe_out_channels1_0,axe_xx1_1,axe_w1_0,axe_h1_0,axe_xx1_2,axe_yy1_1,axe_in_channels1_1,axe_out_channels1_1;axe_yy2_0,axe_xx2_0,axe_out_channels2_0,axe_xx2_1;112;axe_in_channels2_0,axe_yy2_0,axe_xx2_0,axe_out_channels2_0,axe_xx2_1,axe_w2_0,axe_h2_0,axe_xx2_2,axe_yy2_1,axe_in_channels2_1,axe_out_channels2_1;C:1, Y:2, X:14, F:4, X:2, W:1, H:1, X:1, Y:8, C:64, F:32, ;83.65403413772583
37;0;ResNet18_05;0.0769617;0.0006005555844382743;2;axe_yy1_0,axe_xx1_0,axe_out_channels1_0,axe_xx1_1;224;axe_in_channels1_0,axe_yy1_0,axe_xx1_0,axe_out_channels1_0,axe_xx1_1,axe_w1_0,axe_h1_0,axe_xx1_2,axe_yy1_1,axe_in_channels1_1,axe_out_channels1_1;axe_yy2_0,axe_xx2_0,axe_out_channels2_0,axe_xx2_1;112;axe_in_channels2_0,axe_yy2_0,axe_xx2_0,axe_out_channels2_0,axe_xx2_1,axe_w2_0,axe_h2_0,axe_xx2_2,axe_yy2_1,axe_in_channels2_1,axe_out_channels2_1;C:1, Y:2, X:28, F:4, X:1, W:1, H:1, X:1, Y:8, C:64, F:32, ;84.49770617485046
37;1;ResNet18_05;0.046769500000000006;0.0006842000073078058;2;axe_yy1_0,axe_xx1_0,axe_out_channels1_0,axe_xx1_1;224;axe_yy1_0,axe_xx1_0,axe_out_channels1_0,axe_xx1_1,axe_in_channels1_0,axe_w1_0,axe_h1_0,axe_xx1_2,axe_yy1_1,axe_in_channels1_1,axe_out_channels1_1;axe_yy2_0,axe_xx2_0,axe_out_channels2_0,axe_xx2_1;112;axe_yy2_0,axe_xx2_0,axe_out_channels2_0,axe_xx2_1,axe_in_channels2_0,axe_w2_0,axe_h2_0,axe_xx2_2,axe_yy2_1,axe_in_channels2_1,axe_out_channels2_1;C:1, Y:2, X:28, F:4, X:1, W:1, H:1, X:1, Y:8, C:64, F:32, ;85.32723569869995
37;2;ResNet18_05;0.0766749;0.0009644417504442649;2;axe_yy1_0,axe_xx1_0,axe_out_channels1_0,axe_xx1_1;224;axe_in_channels1_0,axe_yy1_0,axe_xx1_0,axe_out_channels1_0,axe_xx1_1,axe_w1_0,axe_h1_0,axe_xx1_2,axe_yy1_1,axe_in_channels1_1,axe_out_channels1_1;axe_yy2_0,axe_xx2_0,axe_out_channels2_0,axe_xx2_1;112;axe_in_channels2_0,axe_yy2_0,axe_xx2_0,axe_out_channels2_0,axe_xx2_1,axe_w2_0,axe_h2_0,axe_xx2_2,axe_yy2_1,axe_in_channels2_1,axe_out_channels2_1;C:1, Y:2, X:28, F:4, X:1, W:1, H:1, X:1, Y:8, C:64, F:32, ;86.1711916923523
38;0;ResNet18_05;0.0801556;0.000605632429778987;2;axe_yy1_0,axe_xx1_0,axe_out_channels1_0,axe_xx1_1;224;axe_in_channels1_0,axe_yy1_0,axe_xx1_0,axe_out_channels1_0,axe_xx1_1,axe_w1_0,axe_h1_0,axe_xx1_2,axe_yy1_1,axe_in_channels1_1,axe_out_channels1_1;axe_yy2_0,axe_xx2_0,axe_out_channels2_0,axe_xx2_1;112;axe_in_channels2_0,axe_yy2_0,axe_xx2_0,axe_out_channels2_0,axe_xx2_1,axe_w2_0,axe_h2_0,axe_xx2_2,axe_yy2_1,axe_in_channels2_1,axe_out_channels2_1;C:1, Y:2, X:1, F:4, X:28, W:1, H:1, X:1, Y:9, C:64, F:32, ;87.0088210105896
38;1;ResNet18_05;0.048285499999999995;0.00040344770416994726;2;axe_yy1_0,axe_xx1_0,axe_out_channels1_0,axe_xx1_1;224;axe_yy1_0,axe_xx1_0,axe_out_channels1_0,axe_xx1_1,axe_in_channels1_0,axe_w1_0,axe_h1_0,axe_xx1_2,axe_yy1_1,axe_in_channels1_1,axe_out_channels1_1;axe_yy2_0,axe_xx2_0,axe_out_channels2_0,axe_xx2_1;112;axe_yy2_0,axe_xx2_0,axe_out_channels2_0,axe_xx2_1,axe_in_channels2_0,axe_w2_0,axe_h2_0,axe_xx2_2,axe_yy2_1,axe_in_channels2_1,axe_out_channels2_1;C:1, Y:2, X:1, F:4, X:28, W:1, H:1, X:1, Y:9, C:64, F:32, ;87.83335375785828
38;2;ResNet18_05;0.08023849999999999;0.0005662054839013847;2;axe_yy1_0,axe_xx1_0,axe_out_channels1_0,axe_xx1_1;224;axe_in_channels1_0,axe_yy1_0,axe_xx1_0,axe_out_channels1_0,axe_xx1_1,axe_w1_0,axe_h1_0,axe_xx1_2,axe_yy1_1,axe_in_channels1_1,axe_out_channels1_1;axe_yy2_0,axe_xx2_0,axe_out_channels2_0,axe_xx2_1;112;axe_in_channels2_0,axe_yy2_0,axe_xx2_0,axe_out_channels2_0,axe_xx2_1,axe_w2_0,axe_h2_0,axe_xx2_2,axe_yy2_1,axe_in_channels2_1,axe_out_channels2_1;C:1, Y:2, X:1, F:4, X:28, W:1, H:1, X:1, Y:9, C:64, F:32, ;88.67247247695923
39;0;ResNet18_05;0.08506250000000001;0.0005623333975498852;2;axe_yy1_0,axe_xx1_0,axe_out_channels1_0,axe_xx1_1;224;axe_in_channels1_0,axe_yy1_0,axe_xx1_0,axe_out_channels1_0,axe_xx1_1,axe_w1_0,axe_h1_0,axe_xx1_2,axe_yy1_1,axe_in_channels1_1,axe_out_channels1_1;axe_yy2_0,axe_xx2_0,axe_out_channels2_0,axe_xx2_1;112;axe_in_channels2_0,axe_yy2_0,axe_xx2_0,axe_out_channels2_0,axe_xx2_1,axe_w2_0,axe_h2_0,axe_xx2_2,axe_yy2_1,axe_in_channels2_1,axe_out_channels2_1;C:1, Y:2, X:4, F:4, X:7, W:1, H:1, X:1, Y:9, C:64, F:32, ;89.51574063301086
39;1;ResNet18_05;0.05228699999999999;0.0003174542486721512;2;axe_yy1_0,axe_xx1_0,axe_out_channels1_0,axe_xx1_1;224;axe_yy1_0,axe_xx1_0,axe_out_channels1_0,axe_xx1_1,axe_in_channels1_0,axe_w1_0,axe_h1_0,axe_xx1_2,axe_yy1_1,axe_in_channels1_1,axe_out_channels1_1;axe_yy2_0,axe_xx2_0,axe_out_channels2_0,axe_xx2_1;112;axe_yy2_0,axe_xx2_0,axe_out_channels2_0,axe_xx2_1,axe_in_channels2_0,axe_w2_0,axe_h2_0,axe_xx2_2,axe_yy2_1,axe_in_channels2_1,axe_out_channels2_1;C:1, Y:2, X:4, F:4, X:7, W:1, H:1, X:1, Y:9, C:64, F:32, ;90.34665751457214
39;2;ResNet18_05;0.0841156;0.00045580482665281177;2;axe_yy1_0,axe_xx1_0,axe_out_channels1_0,axe_xx1_1;224;axe_in_channels1_0,axe_yy1_0,axe_xx1_0,axe_out_channels1_0,axe_xx1_1,axe_w1_0,axe_h1_0,axe_xx1_2,axe_yy1_1,axe_in_channels1_1,axe_out_channels1_1;axe_yy2_0,axe_xx2_0,axe_out_channels2_0,axe_xx2_1;112;axe_in_channels2_0,axe_yy2_0,axe_xx2_0,axe_out_channels2_0,axe_xx2_1,axe_w2_0,axe_h2_0,axe_xx2_2,axe_yy2_1,axe_in_channels2_1,axe_out_channels2_1;C:1, Y:2, X:4, F:4, X:7, W:1, H:1, X:1, Y:9, C:64, F:32, ;91.19310426712036
40;0;ResNet18_05;0.0853073;0.0007575156830059702;2;axe_yy1_0,axe_xx1_0,axe_out_channels1_0,axe_xx1_1;224;axe_in_channels1_0,axe_yy1_0,axe_xx1_0,axe_out_channels1_0,axe_xx1_1,axe_w1_0,axe_h1_0,axe_xx1_2,axe_yy1_1,axe_in_channels1_1,axe_out_channels1_1;axe_yy2_0,axe_xx2_0,axe_out_channels2_0,axe_xx2_1;112;axe_in_channels2_0,axe_yy2_0,axe_xx2_0,axe_out_channels2_0,axe_xx2_1,axe_w2_0,axe_h2_0,axe_xx2_2,axe_yy2_1,axe_in_channels2_1,axe_out_channels2_1;C:1, Y:2, X:7, F:4, X:4, W:1, H:1, X:1, Y:9, C:64, F:32, ;92.04179620742798
40;1;ResNet18_05;0.05100710000000001;0.0007101715919409909;2;axe_yy1_0,axe_xx1_0,axe_out_channels1_0,axe_xx1_1;224;axe_yy1_0,axe_xx1_0,axe_out_channels1_0,axe_xx1_1,axe_in_channels1_0,axe_w1_0,axe_h1_0,axe_xx1_2,axe_yy1_1,axe_in_channels1_1,axe_out_channels1_1;axe_yy2_0,axe_xx2_0,axe_out_channels2_0,axe_xx2_1;112;axe_yy2_0,axe_xx2_0,axe_out_channels2_0,axe_xx2_1,axe_in_channels2_0,axe_w2_0,axe_h2_0,axe_xx2_2,axe_yy2_1,axe_in_channels2_1,axe_out_channels2_1;C:1, Y:2, X:7, F:4, X:4, W:1, H:1, X:1, Y:9, C:64, F:32, ;92.87492752075195
40;2;ResNet18_05;0.08386410000000002;0.0009137983858598156;2;axe_yy1_0,axe_xx1_0,axe_out_channels1_0,axe_xx1_1;224;axe_in_channels1_0,axe_yy1_0,axe_xx1_0,axe_out_channels1_0,axe_xx1_1,axe_w1_0,axe_h1_0,axe_xx1_2,axe_yy1_1,axe_in_channels1_1,axe_out_channels1_1;axe_yy2_0,axe_xx2_0,axe_out_channels2_0,axe_xx2_1;112;axe_in_channels2_0,axe_yy2_0,axe_xx2_0,axe_out_channels2_0,axe_xx2_1,axe_w2_0,axe_h2_0,axe_xx2_2,axe_yy2_1,axe_in_channels2_1,axe_out_channels2_1;C:1, Y:2, X:7, F:4, X:4, W:1, H:1, X:1, Y:9, C:64, F:32, ;93.72109127044678
41;0;ResNet18_05;0.08314989999999998;0.0007397517759356837;2;axe_yy1_0,axe_xx1_0,axe_out_channels1_0,axe_xx1_1;224;axe_in_channels1_0,axe_yy1_0,axe_xx1_0,axe_out_channels1_0,axe_xx1_1,axe_w1_0,axe_h1_0,axe_xx1_2,axe_yy1_1,axe_in_channels1_1,axe_out_channels1_1;axe_yy2_0,axe_xx2_0,axe_out_channels2_0,axe_xx2_1;112;axe_in_channels2_0,axe_yy2_0,axe_xx2_0,axe_out_channels2_0,axe_xx2_1,axe_w2_0,axe_h2_0,axe_xx2_2,axe_yy2_1,axe_in_channels2_1,axe_out_channels2_1;C:1, Y:2, X:14, F:4, X:2, W:1, H:1, X:1, Y:9, C:64, F:32, ;94.56634449958801
41;1;ResNet18_05;0.05054270000000001;0.0008638263772309803;2;axe_yy1_0,axe_xx1_0,axe_out_channels1_0,axe_xx1_1;224;axe_yy1_0,axe_xx1_0,axe_out_channels1_0,axe_xx1_1,axe_in_channels1_0,axe_w1_0,axe_h1_0,axe_xx1_2,axe_yy1_1,axe_in_channels1_1,axe_out_channels1_1;axe_yy2_0,axe_xx2_0,axe_out_channels2_0,axe_xx2_1;112;axe_yy2_0,axe_xx2_0,axe_out_channels2_0,axe_xx2_1,axe_in_channels2_0,axe_w2_0,axe_h2_0,axe_xx2_2,axe_yy2_1,axe_in_channels2_1,axe_out_channels2_1;C:1, Y:2, X:14, F:4, X:2, W:1, H:1, X:1, Y:9, C:64, F:32, ;95.3988389968872
41;2;ResNet18_05;0.0821073;0.0007080245829065562;2;axe_yy1_0,axe_xx1_0,axe_out_channels1_0,axe_xx1_1;224;axe_in_channels1_0,axe_yy1_0,axe_xx1_0,axe_out_channels1_0,axe_xx1_1,axe_w1_0,axe_h1_0,axe_xx1_2,axe_yy1_1,axe_in_channels1_1,axe_out_channels1_1;axe_yy2_0,axe_xx2_0,axe_out_channels2_0,axe_xx2_1;112;axe_in_channels2_0,axe_yy2_0,axe_xx2_0,axe_out_channels2_0,axe_xx2_1,axe_w2_0,axe_h2_0,axe_xx2_2,axe_yy2_1,axe_in_channels2_1,axe_out_channels2_1;C:1, Y:2, X:14, F:4, X:2, W:1, H:1, X:1, Y:9, C:64, F:32, ;96.24551367759705
42;0;ResNet18_05;0.0773268;0.0007029851776531277;2;axe_yy1_0,axe_xx1_0,axe_out_channels1_0,axe_xx1_1;224;axe_in_channels1_0,axe_yy1_0,axe_xx1_0,axe_out_channels1_0,axe_xx1_1,axe_w1_0,axe_h1_0,axe_xx1_2,axe_yy1_1,axe_in_channels1_1,axe_out_channels1_1;axe_yy2_0,axe_xx2_0,axe_out_channels2_0,axe_xx2_1;112;axe_in_channels2_0,axe_yy2_0,axe_xx2_0,axe_out_channels2_0,axe_xx2_1,axe_w2_0,axe_h2_0,axe_xx2_2,axe_yy2_1,axe_in_channels2_1,axe_out_channels2_1;C:1, Y:2, X:28, F:4, X:1, W:1, H:1, X:1, Y:9, C:64, F:32, ;97.08815932273865
42;1;ResNet18_05;0.0472596;0.00038335106625650753;2;axe_yy1_0,axe_xx1_0,axe_out_channels1_0,axe_xx1_1;224;axe_yy1_0,axe_xx1_0,axe_out_channels1_0,axe_xx1_1,axe_in_channels1_0,axe_w1_0,axe_h1_0,axe_xx1_2,axe_yy1_1,axe_in_channels1_1,axe_out_channels1_1;axe_yy2_0,axe_xx2_0,axe_out_channels2_0,axe_xx2_1;112;axe_yy2_0,axe_xx2_0,axe_out_channels2_0,axe_xx2_1,axe_in_channels2_0,axe_w2_0,axe_h2_0,axe_xx2_2,axe_yy2_1,axe_in_channels2_1,axe_out_channels2_1;C:1, Y:2, X:28, F:4, X:1, W:1, H:1, X:1, Y:9, C:64, F:32, ;97.91531729698181
42;2;ResNet18_05;0.0766222;0.0010094747941380184;2;axe_yy1_0,axe_xx1_0,axe_out_channels1_0,axe_xx1_1;224;axe_in_channels1_0,axe_yy1_0,axe_xx1_0,axe_out_channels1_0,axe_xx1_1,axe_w1_0,axe_h1_0,axe_xx1_2,axe_yy1_1,axe_in_channels1_1,axe_out_channels1_1;axe_yy2_0,axe_xx2_0,axe_out_channels2_0,axe_xx2_1;112;axe_in_channels2_0,axe_yy2_0,axe_xx2_0,axe_out_channels2_0,axe_xx2_1,axe_w2_0,axe_h2_0,axe_xx2_2,axe_yy2_1,axe_in_channels2_1,axe_out_channels2_1;C:1, Y:2, X:28, F:4, X:1, W:1, H:1, X:1, Y:9, C:64, F:32, ;98.75569605827332
43;0;ResNet18_05;0.0783278;0.0004517098183568741;2;axe_yy1_0,axe_xx1_0,axe_out_channels1_0,axe_xx1_1;224;axe_in_channels1_0,axe_yy1_0,axe_xx1_0,axe_out_channels1_0,axe_xx1_1,axe_w1_0,axe_h1_0,axe_xx1_2,axe_yy1_1,axe_in_channels1_1,axe_out_channels1_1;axe_yy2_0,axe_xx2_0,axe_out_channels2_0,axe_xx2_1;112;axe_in_channels2_0,axe_yy2_0,axe_xx2_0,axe_out_channels2_0,axe_xx2_1,axe_w2_0,axe_h2_0,axe_xx2_2,axe_yy2_1,axe_in_channels2_1,axe_out_channels2_1;C:1, Y:2, X:2, F:4, X:14, W:1, H:1, X:1, Y:8, C:64, F:32, ;99.60312509536743
43;1;ResNet18_05;0.049369699999999996;0.0005425757182182018;2;axe_yy1_0,axe_xx1_0,axe_out_channels1_0,axe_xx1_1;224;axe_yy1_0,axe_xx1_0,axe_out_channels1_0,axe_xx1_1,axe_in_channels1_0,axe_w1_0,axe_h1_0,axe_xx1_2,axe_yy1_1,axe_in_channels1_1,axe_out_channels1_1;axe_yy2_0,axe_xx2_0,axe_out_channels2_0,axe_xx2_1;112;axe_yy2_0,axe_xx2_0,axe_out_channels2_0,axe_xx2_1,axe_in_channels2_0,axe_w2_0,axe_h2_0,axe_xx2_2,axe_yy2_1,axe_in_channels2_1,axe_out_channels2_1;C:1, Y:2, X:2, F:4, X:14, W:1, H:1, X:1, Y:8, C:64, F:32, ;100.43459582328796
43;2;ResNet18_05;0.07877750000000001;0.0005445846582488338;2;axe_yy1_0,axe_xx1_0,axe_out_channels1_0,axe_xx1_1;224;axe_in_channels1_0,axe_yy1_0,axe_xx1_0,axe_out_channels1_0,axe_xx1_1,axe_w1_0,axe_h1_0,axe_xx1_2,axe_yy1_1,axe_in_channels1_1,axe_out_channels1_1;axe_yy2_0,axe_xx2_0,axe_out_channels2_0,axe_xx2_1;112;axe_in_channels2_0,axe_yy2_0,axe_xx2_0,axe_out_channels2_0,axe_xx2_1,axe_w2_0,axe_h2_0,axe_xx2_2,axe_yy2_1,axe_in_channels2_1,axe_out_channels2_1;C:1, Y:2, X:2, F:4, X:14, W:1, H:1, X:1, Y:8, C:64, F:32, ;101.2833788394928
44;0;ResNet18_05;0.07971809999999999;0.0007041348521412613;2;axe_yy1_0,axe_xx1_0,axe_out_channels1_0,axe_xx1_1;224;axe_in_channels1_0,axe_yy1_0,axe_xx1_0,axe_out_channels1_0,axe_xx1_1,axe_w1_0,axe_h1_0,axe_xx1_2,axe_yy1_1,axe_in_channels1_1,axe_out_channels1_1;axe_yy2_0,axe_xx2_0,axe_out_channels2_0,axe_xx2_1;112;axe_in_channels2_0,axe_yy2_0,axe_xx2_0,axe_out_channels2_0,axe_xx2_1,axe_w2_0,axe_h2_0,axe_xx2_2,axe_yy2_1,axe_in_channels2_1,axe_out_channels2_1;C:1, Y:2, X:2, F:4, X:14, W:1, H:1, X:1, Y:9, C:64, F:32, ;102.12740468978882
44;1;ResNet18_05;0.0483956;0.0008574078609390045;2;axe_yy1_0,axe_xx1_0,axe_out_channels1_0,axe_xx1_1;224;axe_yy1_0,axe_xx1_0,axe_out_channels1_0,axe_xx1_1,axe_in_channels1_0,axe_w1_0,axe_h1_0,axe_xx1_2,axe_yy1_1,axe_in_channels1_1,axe_out_channels1_1;axe_yy2_0,axe_xx2_0,axe_out_channels2_0,axe_xx2_1;112;axe_yy2_0,axe_xx2_0,axe_out_channels2_0,axe_xx2_1,axe_in_channels2_0,axe_w2_0,axe_h2_0,axe_xx2_2,axe_yy2_1,axe_in_channels2_1,axe_out_channels2_1;C:1, Y:2, X:2, F:4, X:14, W:1, H:1, X:1, Y:9, C:64, F:32, ;102.95714902877808
44;2;ResNet18_05;0.07825789999999999;0.0005738965847607026;2;axe_yy1_0,axe_xx1_0,axe_out_channels1_0,axe_xx1_1;224;axe_in_channels1_0,axe_yy1_0,axe_xx1_0,axe_out_channels1_0,axe_xx1_1,axe_w1_0,axe_h1_0,axe_xx1_2,axe_yy1_1,axe_in_channels1_1,axe_out_channels1_1;axe_yy2_0,axe_xx2_0,axe_out_channels2_0,axe_xx2_1;112;axe_in_channels2_0,axe_yy2_0,axe_xx2_0,axe_out_channels2_0,axe_xx2_1,axe_w2_0,axe_h2_0,axe_xx2_2,axe_yy2_1,axe_in_channels2_1,axe_out_channels2_1;C:1, Y:2, X:2, F:4, X:14, W:1, H:1, X:1, Y:9, C:64, F:32, ;103.80086994171143
45;0;ResNet18_05;0.0817319;0.0005411882204926482;2;axe_yy1_0,axe_xx1_0,axe_out_channels1_0,axe_xx1_1;112;axe_in_channels1_0,axe_yy1_0,axe_xx1_0,axe_out_channels1_0,axe_xx1_1,axe_w1_0,axe_h1_0,axe_xx1_2,axe_yy1_1,axe_in_channels1_1,axe_out_channels1_1;axe_yy2_0,axe_xx2_0,axe_out_channels2_0,axe_xx2_1;112;axe_in_channels2_0,axe_yy2_0,axe_xx2_0,axe_out_channels2_0,axe_xx2_1,axe_w2_0,axe_h2_0,axe_xx2_2,axe_yy2_1,axe_in_channels2_1,axe_out_channels2_1;C:1, Y:1, X:2, F:4, X:14, W:1, H:1, X:1, Y:13, C:64, F:32, ;104.66980528831482
45;1;ResNet18_05;0.0508247;0.0005963564454250482;2;axe_yy1_0,axe_xx1_0,axe_out_channels1_0,axe_xx1_1;112;axe_yy1_0,axe_xx1_0,axe_out_channels1_0,axe_xx1_1,axe_in_channels1_0,axe_w1_0,axe_h1_0,axe_xx1_2,axe_yy1_1,axe_in_channels1_1,axe_out_channels1_1;axe_yy2_0,axe_xx2_0,axe_out_channels2_0,axe_xx2_1;112;axe_yy2_0,axe_xx2_0,axe_out_channels2_0,axe_xx2_1,axe_in_channels2_0,axe_w2_0,axe_h2_0,axe_xx2_2,axe_yy2_1,axe_in_channels2_1,axe_out_channels2_1;C:1, Y:1, X:2, F:4, X:14, W:1, H:1, X:1, Y:13, C:64, F:32, ;105.52723050117493
45;2;ResNet18_05;0.0822489;0.0007734470182242624;2;axe_yy1_0,axe_xx1_0,axe_out_channels1_0,axe_xx1_1;112;axe_in_channels1_0,axe_yy1_0,axe_xx1_0,axe_out_channels1_0,axe_xx1_1,axe_w1_0,axe_h1_0,axe_xx1_2,axe_yy1_1,axe_in_channels1_1,axe_out_channels1_1;axe_yy2_0,axe_xx2_0,axe_out_channels2_0,axe_xx2_1;112;axe_in_channels2_0,axe_yy2_0,axe_xx2_0,axe_out_channels2_0,axe_xx2_1,axe_w2_0,axe_h2_0,axe_xx2_2,axe_yy2_1,axe_in_channels2_1,axe_out_channels2_1;C:1, Y:1, X:2, F:4, X:14, W:1, H:1, X:1, Y:13, C:64, F:32, ;106.39921975135803
46;0;ResNet18_05;0.07732549999999999;0.0006834365003422007;2;axe_yy1_0,axe_xx1_0,axe_out_channels1_0,axe_xx1_1;112;axe_in_channels1_0,axe_yy1_0,axe_xx1_0,axe_out_channels1_0,axe_xx1_1,axe_w1_0,axe_h1_0,axe_xx1_2,axe_yy1_1,axe_in_channels1_1,axe_out_channels1_1;axe_yy2_0,axe_xx2_0,axe_out_channels2_0,axe_xx2_1;224;axe_in_channels2_0,axe_yy2_0,axe_xx2_0,axe_out_channels2_0,axe_xx2_1,axe_w2_0,axe_h2_0,axe_xx2_2,axe_yy2_1,axe_in_channels2_1,axe_out_channels2_1;C:1, Y:1, X:2, F:4, X:14, W:1, H:1, X:1, Y:8, C:64, F:32, ;107.24647116661072
46;1;ResNet18_05;0.0477443;0.0007673428242969369;2;axe_yy1_0,axe_xx1_0,axe_out_channels1_0,axe_xx1_1;112;axe_yy1_0,axe_xx1_0,axe_out_channels1_0,axe_xx1_1,axe_in_channels1_0,axe_w1_0,axe_h1_0,axe_xx1_2,axe_yy1_1,axe_in_channels1_1,axe_out_channels1_1;axe_yy2_0,axe_xx2_0,axe_out_channels2_0,axe_xx2_1;224;axe_yy2_0,axe_xx2_0,axe_out_channels2_0,axe_xx2_1,axe_in_channels2_0,axe_w2_0,axe_h2_0,axe_xx2_2,axe_yy2_1,axe_in_channels2_1,axe_out_channels2_1;C:1, Y:1, X:2, F:4, X:14, W:1, H:1, X:1, Y:8, C:64, F:32, ;108.0748143196106
46;2;ResNet18_05;0.07848809999999999;0.0006235930483897322;2;axe_yy1_0,axe_xx1_0,axe_out_channels1_0,axe_xx1_1;112;axe_in_channels1_0,axe_yy1_0,axe_xx1_0,axe_out_channels1_0,axe_xx1_1,axe_w1_0,axe_h1_0,axe_xx1_2,axe_yy1_1,axe_in_channels1_1,axe_out_channels1_1;axe_yy2_0,axe_xx2_0,axe_out_channels2_0,axe_xx2_1;224;axe_in_channels2_0,axe_yy2_0,axe_xx2_0,axe_out_channels2_0,axe_xx2_1,axe_w2_0,axe_h2_0,axe_xx2_2,axe_yy2_1,axe_in_channels2_1,axe_out_channels2_1;C:1, Y:1, X:2, F:4, X:14, W:1, H:1, X:1, Y:8, C:64, F:32, ;108.91602420806885
47;0;ResNet18_05;0.0816857;0.0007169935913242157;2;axe_yy1_0,axe_xx1_0,axe_out_channels1_0,axe_xx1_1;224;axe_in_channels1_0,axe_yy1_0,axe_xx1_0,axe_out_channels1_0,axe_xx1_1,axe_w1_0,axe_h1_0,axe_xx1_2,axe_yy1_1,axe_in_channels1_1,axe_out_channels1_1;axe_yy2_0,axe_xx2_0,axe_out_channels2_0,axe_xx2_1;112;axe_in_channels2_0,axe_yy2_0,axe_xx2_0,axe_out_channels2_0,axe_xx2_1,axe_w2_0,axe_h2_0,axe_xx2_2,axe_yy2_1,axe_in_channels2_1,axe_out_channels2_1;C:1, Y:2, X:1, F:4, X:28, W:1, H:1, X:1, Y:8, C:64, F:32, ;109.75664067268372
47;1;ResNet18_05;0.0486874;0.000819317789383339;2;axe_yy1_0,axe_xx1_0,axe_out_channels1_0,axe_xx1_1;224;axe_yy1_0,axe_xx1_0,axe_out_channels1_0,axe_xx1_1,axe_in_channels1_0,axe_w1_0,axe_h1_0,axe_xx1_2,axe_yy1_1,axe_in_channels1_1,axe_out_channels1_1;axe_yy2_0,axe_xx2_0,axe_out_channels2_0,axe_xx2_1;112;axe_yy2_0,axe_xx2_0,axe_out_channels2_0,axe_xx2_1,axe_in_channels2_0,axe_w2_0,axe_h2_0,axe_xx2_2,axe_yy2_1,axe_in_channels2_1,axe_out_channels2_1;C:1, Y:2, X:1, F:4, X:28, W:1, H:1, X:1, Y:8, C:64, F:32, ;110.58645296096802
47;2;ResNet18_05;0.08126;0.0004672046660725869;2;axe_yy1_0,axe_xx1_0,axe_out_channels1_0,axe_xx1_1;224;axe_in_channels1_0,axe_yy1_0,axe_xx1_0,axe_out_channels1_0,axe_xx1_1,axe_w1_0,axe_h1_0,axe_xx1_2,axe_yy1_1,axe_in_channels1_1,axe_out_channels1_1;axe_yy2_0,axe_xx2_0,axe_out_channels2_0,axe_xx2_1;112;axe_in_channels2_0,axe_yy2_0,axe_xx2_0,axe_out_channels2_0,axe_xx2_1,axe_w2_0,axe_h2_0,axe_xx2_2,axe_yy2_1,axe_in_channels2_1,axe_out_channels2_1;C:1, Y:2, X:1, F:4, X:28, W:1, H:1, X:1, Y:8, C:64, F:32, ;111.42803072929382
48;0;ResNet18_05;0.0332823;0.000690388014090628;1;axe_yy1_0,axe_xx1_0,axe_out_channels1_0,axe_xx1_1;224;axe_in_channels1_0,axe_yy1_0,axe_xx1_0,axe_out_channels1_0,axe_xx1_1,axe_w1_0,axe_h1_0,axe_xx1_2,axe_yy1_1,axe_in_channels1_1,axe_out_channels1_1;;;;C:1, Y:2, X:1, F:4, X:28, W:1, H:1, X:1, Y:14, C:64, F:32, ;112.11790680885315
48;1;ResNet18_05;0.017994;0.0005221758324549312;1;axe_yy1_0,axe_xx1_0,axe_out_channels1_0,axe_xx1_1;224;axe_yy1_0,axe_xx1_0,axe_out_channels1_0,axe_xx1_1,axe_in_channels1_0,axe_w1_0,axe_h1_0,axe_xx1_2,axe_yy1_1,axe_in_channels1_1,axe_out_channels1_1;;;;C:1, Y:2, X:1, F:4, X:28, W:1, H:1, X:1, Y:14, C:64, F:32, ;112.80183696746826
48;2;ResNet18_05;0.033493800000000004;0.00032166062861345174;1;axe_yy1_0,axe_xx1_0,axe_out_channels1_0,axe_xx1_1;224;axe_in_channels1_0,axe_yy1_0,axe_xx1_0,axe_out_channels1_0,axe_xx1_1,axe_w1_0,axe_h1_0,axe_xx1_2,axe_yy1_1,axe_in_channels1_1,axe_out_channels1_1;;;;C:1, Y:2, X:1, F:4, X:28, W:1, H:1, X:1, Y:14, C:64, F:32, ;113.48939347267151
49;0;ResNet18_05;0.0839485;0.0009045684330110135;2;axe_yy1_0,axe_xx1_0,axe_out_channels1_0,axe_xx1_1;112;axe_in_channels1_0,axe_yy1_0,axe_xx1_0,axe_out_channels1_0,axe_xx1_1,axe_w1_0,axe_h1_0,axe_xx1_2,axe_yy1_1,axe_in_channels1_1,axe_out_channels1_1;axe_yy2_0,axe_xx2_0,axe_out_channels2_0,axe_xx2_1;112;axe_in_channels2_0,axe_yy2_0,axe_xx2_0,axe_out_channels2_0,axe_xx2_1,axe_w2_0,axe_h2_0,axe_xx2_2,axe_yy2_1,axe_in_channels2_1,axe_out_channels2_1;C:1, Y:1, X:1, F:4, X:28, W:1, H:1, X:1, Y:13, C:64, F:32, ;114.35431551933289
49;1;ResNet18_05;0.0520455;0.0007257262913798828;2;axe_yy1_0,axe_xx1_0,axe_out_channels1_0,axe_xx1_1;112;axe_yy1_0,axe_xx1_0,axe_out_channels1_0,axe_xx1_1,axe_in_channels1_0,axe_w1_0,axe_h1_0,axe_xx1_2,axe_yy1_1,axe_in_channels1_1,axe_out_channels1_1;axe_yy2_0,axe_xx2_0,axe_out_channels2_0,axe_xx2_1;112;axe_yy2_0,axe_xx2_0,axe_out_channels2_0,axe_xx2_1,axe_in_channels2_0,axe_w2_0,axe_h2_0,axe_xx2_2,axe_yy2_1,axe_in_channels2_1,axe_out_channels2_1;C:1, Y:1, X:1, F:4, X:28, W:1, H:1, X:1, Y:13, C:64, F:32, ;115.21030020713806
49;2;ResNet18_05;0.0837153;0.0007044637747961198;2;axe_yy1_0,axe_xx1_0,axe_out_channels1_0,axe_xx1_1;112;axe_in_channels1_0,axe_yy1_0,axe_xx1_0,axe_out_channels1_0,axe_xx1_1,axe_w1_0,axe_h1_0,axe_xx1_2,axe_yy1_1,axe_in_channels1_1,axe_out_channels1_1;axe_yy2_0,axe_xx2_0,axe_out_channels2_0,axe_xx2_1;112;axe_in_channels2_0,axe_yy2_0,axe_xx2_0,axe_out_channels2_0,axe_xx2_1,axe_w2_0,axe_h2_0,axe_xx2_2,axe_yy2_1,axe_in_channels2_1,axe_out_channels2_1;C:1, Y:1, X:1, F:4, X:28, W:1, H:1, X:1, Y:13, C:64, F:32, ;116.07686853408813
