IdRun;MethodParallelization;NameConv;Time(ms);std;NbMicroKernel;AxeFuse1;SizeAxeFuse1;AxeFuse2;SizeAxeFuse2;Schema;Time_search(1.747030258178711)
0;0;MobilNet_06;3.2138245999999997;0.019245230049027652;1;axe_xx1_0;14;;;F:1, Y:1, F:8, C:8, X:14, H:3, W:3, W:1, H:1, X:1, Y:14, C:32, F:32, ;3.2298479080200195
0;1;MobilNet_06;4.6040167;0.11672196175960194;1;axe_out_channels1_0,axe_yy1_0,axe_out_channels1_1,axe_xx1_0;112;;;F:1, Y:1, F:8, C:8, X:14, H:3, W:3, W:1, H:1, X:1, Y:14, C:32, F:32, ;4.7740559577941895
1;0;MobilNet_06;2.8849772;0.008243533730142727;1;axe_xx1_0;14;;;F:2, Y:1, F:4, C:8, X:14, H:3, W:3, W:1, H:1, X:1, Y:14, C:32, F:32, ;6.255250930786133
1;1;MobilNet_06;6.6188308;0.00891795036765735;1;axe_out_channels1_0,axe_yy1_0,axe_out_channels1_1,axe_xx1_0;112;;;F:2, Y:1, F:4, C:8, X:14, H:3, W:3, W:1, H:1, X:1, Y:14, C:32, F:32, ;7.865400791168213
2;0;MobilNet_06;2.8941063;0.028539335335813314;1;axe_xx1_0;14;;;F:4, Y:1, F:2, C:8, X:14, H:3, W:3, W:1, H:1, X:1, Y:14, C:32, F:32, ;9.350115060806274
2;1;MobilNet_06;6.638799799999999;0.010120596067425975;1;axe_out_channels1_0,axe_yy1_0,axe_out_channels1_1,axe_xx1_0;112;;;F:4, Y:1, F:2, C:8, X:14, H:3, W:3, W:1, H:1, X:1, Y:14, C:32, F:32, ;10.959590911865234
3;0;MobilNet_06;3.0939037;0.01410210696350011;1;axe_xx1_0;14;;;F:8, Y:1, F:1, C:8, X:14, H:3, W:3, W:1, H:1, X:1, Y:14, C:32, F:32, ;12.440618753433228
3;1;MobilNet_06;4.6073854999999995;0.08956840835836027;1;axe_out_channels1_0,axe_yy1_0,axe_out_channels1_1,axe_xx1_0;112;;;F:8, Y:1, F:1, C:8, X:14, H:3, W:3, W:1, H:1, X:1, Y:14, C:32, F:32, ;13.987287044525146
4;0;MobilNet_06;2.8411595;0.008643386017643738;1;axe_xx1_0;14;;;F:1, Y:1, F:8, C:4, X:14, H:3, W:3, W:1, H:1, X:1, Y:14, C:64, F:32, ;15.456076622009277
4;1;MobilNet_06;6.44997;0.00610132495446691;1;axe_out_channels1_0,axe_yy1_0,axe_out_channels1_1,axe_xx1_0;112;;;F:1, Y:1, F:8, C:4, X:14, H:3, W:3, W:1, H:1, X:1, Y:14, C:64, F:32, ;17.06173849105835
5;0;MobilNet_06;2.8170045000000004;0.032013437819921844;1;axe_xx1_0;14;;;F:2, Y:1, F:4, C:4, X:14, H:3, W:3, W:1, H:1, X:1, Y:14, C:64, F:32, ;18.542275190353394
5;1;MobilNet_06;6.431168699999999;0.004091632927084358;1;axe_out_channels1_0,axe_yy1_0,axe_out_channels1_1,axe_xx1_0;112;;;F:2, Y:1, F:4, C:4, X:14, H:3, W:3, W:1, H:1, X:1, Y:14, C:64, F:32, ;20.142892360687256
6;0;MobilNet_06;2.8171784000000004;0.011097057296418694;1;axe_xx1_0;14;;;F:4, Y:1, F:2, C:4, X:14, H:3, W:3, W:1, H:1, X:1, Y:14, C:64, F:32, ;21.615793228149414
6;1;MobilNet_06;6.4279190999999996;0.0032755679950200573;1;axe_out_channels1_0,axe_yy1_0,axe_out_channels1_1,axe_xx1_0;112;;;F:4, Y:1, F:2, C:4, X:14, H:3, W:3, W:1, H:1, X:1, Y:14, C:64, F:32, ;23.221815586090088
7;0;MobilNet_06;2.8269705000000003;0.008468264724841823;1;axe_xx1_0;14;;;F:8, Y:1, F:1, C:4, X:14, H:3, W:3, W:1, H:1, X:1, Y:14, C:64, F:32, ;24.68974471092224
7;1;MobilNet_06;6.442348699999999;0.005050537615937582;1;axe_out_channels1_0,axe_yy1_0,axe_out_channels1_1,axe_xx1_0;112;;;F:8, Y:1, F:1, C:4, X:14, H:3, W:3, W:1, H:1, X:1, Y:14, C:64, F:32, ;26.2948796749115
8;0;MobilNet_06;2.9247845999999997;0.15149985573669697;1;axe_xx1_0;14;;;F:1, Y:2, F:4, C:8, X:14, H:3, W:3, W:1, H:1, X:1, Y:7, C:32, F:64, ;27.769325017929077
8;1;MobilNet_06;4.6692965;0.028457157578542377;1;axe_out_channels1_0,axe_yy1_0,axe_out_channels1_1,axe_xx1_0;112;;;F:1, Y:2, F:4, C:8, X:14, H:3, W:3, W:1, H:1, X:1, Y:7, C:32, F:64, ;29.296956539154053
9;0;MobilNet_06;2.9869630000000003;0.10299165373465954;1;axe_xx1_0;14;;;F:2, Y:2, F:2, C:8, X:14, H:3, W:3, W:1, H:1, X:1, Y:7, C:32, F:64, ;30.785570859909058
9;1;MobilNet_06;4.7997592000000004;0.10966533262047765;1;axe_out_channels1_0,axe_yy1_0,axe_out_channels1_1,axe_xx1_0;112;;;F:2, Y:2, F:2, C:8, X:14, H:3, W:3, W:1, H:1, X:1, Y:7, C:32, F:64, ;32.31980013847351
10;0;MobilNet_06;2.8623873000000004;0.08528440280150877;1;axe_xx1_0;14;;;F:4, Y:2, F:1, C:8, X:14, H:3, W:3, W:1, H:1, X:1, Y:7, C:32, F:64, ;33.79597759246826
10;1;MobilNet_06;4.6818838000000005;0.10045735981380367;1;axe_out_channels1_0,axe_yy1_0,axe_out_channels1_1,axe_xx1_0;112;;;F:4, Y:2, F:1, C:8, X:14, H:3, W:3, W:1, H:1, X:1, Y:7, C:32, F:64, ;35.3281466960907
11;0;MobilNet_06;4.1032798;0.022923043435809254;1;axe_xx1_0;14;;;F:1, Y:2, F:4, C:8, X:14, W:3, W:1, H:3, X:1, Y:7, C:32, F:64, ;36.87565541267395
11;1;MobilNet_06;6.5060671;0.025412316657282445;1;axe_out_channels1_0,axe_yy1_0,axe_out_channels1_1,axe_xx1_0;112;;;F:1, Y:2, F:4, C:8, X:14, W:3, W:1, H:3, X:1, Y:7, C:32, F:64, ;38.49792003631592
12;0;MobilNet_06;4.1540875;0.013750196007693817;1;axe_xx1_0;14;;;F:2, Y:2, F:2, C:8, X:14, W:3, W:1, H:3, X:1, Y:7, C:32, F:64, ;40.05355262756348
12;1;MobilNet_06;6.5212597;0.028930430550028023;1;axe_out_channels1_0,axe_yy1_0,axe_out_channels1_1,axe_xx1_0;112;;;F:2, Y:2, F:2, C:8, X:14, W:3, W:1, H:3, X:1, Y:7, C:32, F:64, ;41.6747567653656
13;0;MobilNet_06;2.9046738999999997;0.017387978763789703;1;axe_out_channels1_0,axe_yy1_0,axe_out_channels1_1;16;;;F:1, Y:1, F:16, C:4, X:14, W:3, W:1, H:3, X:1, Y:14, C:64, F:16, ;43.160496950149536
13;1;MobilNet_06;4.436206799999999;0.00876377597614173;1;axe_out_channels1_0,axe_yy1_0,axe_out_channels1_1,axe_xx1_0;224;;;F:1, Y:1, F:16, C:4, X:14, W:3, W:1, H:3, X:1, Y:14, C:64, F:16, ;44.70411014556885
14;0;MobilNet_06;2.8958894;0.01328270541870139;1;axe_out_channels1_0,axe_yy1_0,axe_out_channels1_1;16;;;F:2, Y:1, F:8, C:4, X:14, W:3, W:1, H:3, X:1, Y:14, C:64, F:16, ;46.1947808265686
14;1;MobilNet_06;4.454100800000001;0.007253986666654458;1;axe_out_channels1_0,axe_yy1_0,axe_out_channels1_1,axe_xx1_0;224;;;F:2, Y:1, F:8, C:4, X:14, W:3, W:1, H:3, X:1, Y:14, C:64, F:16, ;47.73573136329651
15;0;MobilNet_06;2.9027267;0.026078382618751568;1;axe_out_channels1_0,axe_yy1_0,axe_out_channels1_1;16;;;F:4, Y:1, F:4, C:4, X:14, W:3, W:1, H:3, X:1, Y:14, C:64, F:16, ;49.22557258605957
15;1;MobilNet_06;4.5583108;0.0064523376663035625;1;axe_out_channels1_0,axe_yy1_0,axe_out_channels1_1,axe_xx1_0;224;;;F:4, Y:1, F:4, C:4, X:14, W:3, W:1, H:3, X:1, Y:14, C:64, F:16, ;50.771854400634766
16;0;MobilNet_06;2.924345;0.02679073978075256;1;axe_out_channels1_0,axe_yy1_0,axe_out_channels1_1;16;;;F:8, Y:1, F:2, C:4, X:14, W:3, W:1, H:3, X:1, Y:14, C:64, F:16, ;52.25623893737793
16;1;MobilNet_06;4.5319363;0.005609619203653638;1;axe_out_channels1_0,axe_yy1_0,axe_out_channels1_1,axe_xx1_0;224;;;F:8, Y:1, F:2, C:4, X:14, W:3, W:1, H:3, X:1, Y:14, C:64, F:16, ;53.80124807357788
17;0;MobilNet_06;2.8788677;0.009602147562394487;1;axe_out_channels1_0,axe_yy1_0,axe_out_channels1_1;16;;;F:16, Y:1, F:1, C:4, X:14, W:3, W:1, H:3, X:1, Y:14, C:64, F:16, ;55.28376746177673
17;1;MobilNet_06;4.453315999999999;0.00792002207067616;1;axe_out_channels1_0,axe_yy1_0,axe_out_channels1_1,axe_xx1_0;224;;;F:16, Y:1, F:1, C:4, X:14, W:3, W:1, H:3, X:1, Y:14, C:64, F:16, ;56.82945418357849
18;0;MobilNet_06;2.9418005;0.013994322686361072;1;axe_out_channels1_0,axe_yy1_0,axe_out_channels1_1;16;;;F:1, Y:1, F:16, C:8, X:14, W:3, W:1, H:3, X:1, Y:14, C:32, F:16, ;58.317121505737305
18;1;MobilNet_06;4.585339899999999;0.007494268282494477;1;axe_out_channels1_0,axe_yy1_0,axe_out_channels1_1,axe_xx1_0;224;;;F:1, Y:1, F:16, C:8, X:14, W:3, W:1, H:3, X:1, Y:14, C:32, F:16, ;59.86519169807434
19;0;MobilNet_06;2.9506390000000002;0.012134130426198788;1;axe_out_channels1_0,axe_yy1_0,axe_out_channels1_1;16;;;F:2, Y:1, F:8, C:8, X:14, W:3, W:1, H:3, X:1, Y:14, C:32, F:16, ;61.353702545166016
19;1;MobilNet_06;4.4851783;0.004276557705678672;1;axe_out_channels1_0,axe_yy1_0,axe_out_channels1_1,axe_xx1_0;224;;;F:2, Y:1, F:8, C:8, X:14, W:3, W:1, H:3, X:1, Y:14, C:32, F:16, ;62.89400005340576
20;0;MobilNet_06;2.9454913999999994;0.01117939320535774;1;axe_out_channels1_0,axe_yy1_0,axe_out_channels1_1;16;;;F:4, Y:1, F:4, C:8, X:14, W:3, W:1, H:3, X:1, Y:14, C:32, F:16, ;64.37871503829956
20;1;MobilNet_06;4.486997499999999;0.008012365796068299;1;axe_out_channels1_0,axe_yy1_0,axe_out_channels1_1,axe_xx1_0;224;;;F:4, Y:1, F:4, C:8, X:14, W:3, W:1, H:3, X:1, Y:14, C:32, F:16, ;65.9192304611206
21;0;MobilNet_06;2.9516486000000004;0.01473974012796697;1;axe_out_channels1_0,axe_yy1_0,axe_out_channels1_1;16;;;F:8, Y:1, F:2, C:8, X:14, W:3, W:1, H:3, X:1, Y:14, C:32, F:16, ;67.40651535987854
21;1;MobilNet_06;4.483666699999999;0.00638547573873709;1;axe_out_channels1_0,axe_yy1_0,axe_out_channels1_1,axe_xx1_0;224;;;F:8, Y:1, F:2, C:8, X:14, W:3, W:1, H:3, X:1, Y:14, C:32, F:16, ;68.947580575943
22;0;MobilNet_06;2.9594023;0.014385130802672608;1;axe_out_channels1_0,axe_yy1_0,axe_out_channels1_1;16;;;F:16, Y:1, F:1, C:8, X:14, W:3, W:1, H:3, X:1, Y:14, C:32, F:16, ;70.4337785243988
22;1;MobilNet_06;4.5844195;0.007695789397456172;1;axe_out_channels1_0,axe_yy1_0,axe_out_channels1_1,axe_xx1_0;224;;;F:16, Y:1, F:1, C:8, X:14, W:3, W:1, H:3, X:1, Y:14, C:32, F:16, ;71.98133659362793
23;0;MobilNet_06;4.29405;0.00874591893399438;1;axe_out_channels1_0,axe_yy1_0,axe_out_channels1_1;16;;;F:1, Y:1, F:16, C:2, X:14, W:3, W:1, H:3, X:1, Y:14, C:128, F:16, ;73.53544402122498
23;1;MobilNet_06;4.5392575;0.007990971721261328;1;axe_out_channels1_0,axe_yy1_0,axe_out_channels1_1,axe_xx1_0;224;;;F:1, Y:1, F:16, C:2, X:14, W:3, W:1, H:3, X:1, Y:14, C:128, F:16, ;75.08256769180298
24;0;MobilNet_06;4.292307500000001;0.01139551132902768;1;axe_out_channels1_0,axe_yy1_0,axe_out_channels1_1;16;;;F:2, Y:1, F:8, C:2, X:14, W:3, W:1, H:3, X:1, Y:14, C:128, F:16, ;76.63253784179688
24;1;MobilNet_06;4.5441912;0.005980872224015391;1;axe_out_channels1_0,axe_yy1_0,axe_out_channels1_1,axe_xx1_0;224;;;F:2, Y:1, F:8, C:2, X:14, W:3, W:1, H:3, X:1, Y:14, C:128, F:16, ;78.17807745933533
25;0;MobilNet_06;4.3061837;0.01536210880738696;1;axe_out_channels1_0,axe_yy1_0,axe_out_channels1_1;16;;;F:4, Y:1, F:4, C:2, X:14, W:3, W:1, H:3, X:1, Y:14, C:128, F:16, ;79.72883486747742
25;1;MobilNet_06;4.447551600000001;0.005239358895895689;1;axe_out_channels1_0,axe_yy1_0,axe_out_channels1_1,axe_xx1_0;224;;;F:4, Y:1, F:4, C:2, X:14, W:3, W:1, H:3, X:1, Y:14, C:128, F:16, ;81.26988744735718
26;0;MobilNet_06;4.2873597;0.006501253664486543;1;axe_out_channels1_0,axe_yy1_0,axe_out_channels1_1;16;;;F:8, Y:1, F:2, C:2, X:14, W:3, W:1, H:3, X:1, Y:14, C:128, F:16, ;82.81920075416565
26;1;MobilNet_06;4.5403797;0.004948647775907951;1;axe_out_channels1_0,axe_yy1_0,axe_out_channels1_1,axe_xx1_0;224;;;F:8, Y:1, F:2, C:2, X:14, W:3, W:1, H:3, X:1, Y:14, C:128, F:16, ;84.36457681655884
27;0;MobilNet_06;4.2806142;0.006758104302243326;1;axe_out_channels1_0,axe_yy1_0,axe_out_channels1_1;16;;;F:16, Y:1, F:1, C:2, X:14, W:3, W:1, H:3, X:1, Y:14, C:128, F:16, ;85.9196879863739
27;1;MobilNet_06;4.5421123;0.005882154028075068;1;axe_out_channels1_0,axe_yy1_0,axe_out_channels1_1,axe_xx1_0;224;;;F:16, Y:1, F:1, C:2, X:14, W:3, W:1, H:3, X:1, Y:14, C:128, F:16, ;87.46639800071716
28;0;MobilNet_06;4.1423399000000005;0.007941138639389115;1;axe_xx1_0;14;;;F:1, Y:1, F:8, C:1, X:14, H:3, W:3, W:1, H:1, X:1, Y:14, C:256, F:32, ;88.99651598930359
28;1;MobilNet_06;3.8530728000000005;0.005206780191250626;1;axe_out_channels1_0,axe_yy1_0,axe_out_channels1_1,axe_xx1_0;112;;;F:1, Y:1, F:8, C:1, X:14, H:3, W:3, W:1, H:1, X:1, Y:14, C:256, F:32, ;90.49509358406067
29;0;MobilNet_06;3.8948994999999997;0.0049780204750482894;1;axe_xx1_0;14;;;F:2, Y:1, F:4, C:1, X:14, H:3, W:3, W:1, H:1, X:1, Y:14, C:256, F:32, ;92.02175283432007
29;1;MobilNet_06;3.8239706000000004;0.03671158983808792;1;axe_out_channels1_0,axe_yy1_0,axe_out_channels1_1,axe_xx1_0;112;;;F:2, Y:1, F:4, C:1, X:14, H:3, W:3, W:1, H:1, X:1, Y:14, C:256, F:32, ;93.52041244506836
30;0;MobilNet_06;3.9010815;0.01779092552539068;1;axe_xx1_0;14;;;F:4, Y:1, F:2, C:1, X:14, H:3, W:3, W:1, H:1, X:1, Y:14, C:256, F:32, ;95.04878354072571
30;1;MobilNet_06;3.8624737;0.026363546745648805;1;axe_out_channels1_0,axe_yy1_0,axe_out_channels1_1,axe_xx1_0;112;;;F:4, Y:1, F:2, C:1, X:14, H:3, W:3, W:1, H:1, X:1, Y:14, C:256, F:32, ;96.54522371292114
31;0;MobilNet_06;4.2009815;0.030418055112876513;1;axe_xx1_0;14;;;F:8, Y:1, F:1, C:1, X:14, H:3, W:3, W:1, H:1, X:1, Y:14, C:256, F:32, ;98.08295345306396
31;1;MobilNet_06;3.8545363999999998;0.018512625806189613;1;axe_out_channels1_0,axe_yy1_0,axe_out_channels1_1,axe_xx1_0;112;;;F:8, Y:1, F:1, C:1, X:14, H:3, W:3, W:1, H:1, X:1, Y:14, C:256, F:32, ;99.58271408081055
32;0;MobilNet_06;3.6402719999999995;0.05074748281639207;1;axe_xx1_0;14;;;F:1, Y:1, F:8, C:2, X:14, H:3, W:3, W:1, H:1, X:1, Y:14, C:128, F:32, ;101.09550189971924
32;1;MobilNet_06;3.8388220000000004;0.01790909777738675;1;axe_out_channels1_0,axe_yy1_0,axe_out_channels1_1,axe_xx1_0;112;;;F:1, Y:1, F:8, C:2, X:14, H:3, W:3, W:1, H:1, X:1, Y:14, C:128, F:32, ;102.61261439323425
33;0;MobilNet_06;3.5985459000000004;0.023452725886131096;1;axe_xx1_0;14;;;F:2, Y:1, F:4, C:2, X:14, H:3, W:3, W:1, H:1, X:1, Y:14, C:128, F:32, ;104.12830400466919
33;1;MobilNet_06;3.9001198;0.03663994725378297;1;axe_out_channels1_0,axe_yy1_0,axe_out_channels1_1,axe_xx1_0;112;;;F:2, Y:1, F:4, C:2, X:14, H:3, W:3, W:1, H:1, X:1, Y:14, C:128, F:32, ;105.64662384986877
34;0;MobilNet_06;3.6209873999999997;0.031381648223762826;1;axe_xx1_0;14;;;F:4, Y:1, F:2, C:2, X:14, H:3, W:3, W:1, H:1, X:1, Y:14, C:128, F:32, ;107.15971517562866
34;1;MobilNet_06;3.8890536999999994;0.024833285308432325;1;axe_out_channels1_0,axe_yy1_0,axe_out_channels1_1,axe_xx1_0;112;;;F:4, Y:1, F:2, C:2, X:14, H:3, W:3, W:1, H:1, X:1, Y:14, C:128, F:32, ;108.67773795127869
35;0;MobilNet_06;3.6190700000000007;0.028915431627419993;1;axe_xx1_0;14;;;F:8, Y:1, F:1, C:2, X:14, H:3, W:3, W:1, H:1, X:1, Y:14, C:128, F:32, ;110.19234895706177
35;1;MobilNet_06;3.8451557000000003;0.03208783170315499;1;axe_out_channels1_0,axe_yy1_0,axe_out_channels1_1,axe_xx1_0;112;;;F:8, Y:1, F:1, C:2, X:14, H:3, W:3, W:1, H:1, X:1, Y:14, C:128, F:32, ;111.70943117141724
36;0;MobilNet_06;4.3626298;0.028301835978607706;1;axe_xx1_0;14;;;F:1, Y:2, F:4, C:1, X:14, H:3, W:3, W:1, H:1, X:1, Y:7, C:256, F:64, ;113.24202847480774
36;1;MobilNet_06;4.3694913;0.009546026262796506;1;axe_out_channels1_0,axe_yy1_0,axe_out_channels1_1,axe_xx1_0;112;;;F:1, Y:2, F:4, C:1, X:14, H:3, W:3, W:1, H:1, X:1, Y:7, C:256, F:64, ;114.74825596809387
37;0;MobilNet_06;4.3375197;0.014132182230993056;1;axe_xx1_0;14;;;F:2, Y:2, F:2, C:1, X:14, H:3, W:3, W:1, H:1, X:1, Y:7, C:256, F:64, ;116.28324294090271
37;1;MobilNet_06;4.3917473000000005;0.03193324238172503;1;axe_out_channels1_0,axe_yy1_0,axe_out_channels1_1,axe_xx1_0;112;;;F:2, Y:2, F:2, C:1, X:14, H:3, W:3, W:1, H:1, X:1, Y:7, C:256, F:64, ;117.79774856567383
38;0;MobilNet_06;4.3823226;0.0489810765483978;1;axe_xx1_0;14;;;F:4, Y:2, F:1, C:1, X:14, H:3, W:3, W:1, H:1, X:1, Y:7, C:256, F:64, ;119.33385038375854
38;1;MobilNet_06;4.3501754;0.018109837228423496;1;axe_out_channels1_0,axe_yy1_0,axe_out_channels1_1,axe_xx1_0;112;;;F:4, Y:2, F:1, C:1, X:14, H:3, W:3, W:1, H:1, X:1, Y:7, C:256, F:64, ;120.8354160785675
39;0;MobilNet_06;4.927367599999999;0.013607973818317043;1;axe_xx1_0;14;;;F:1, Y:2, F:4, C:1, X:14, H:3, W:3, H:1, X:1, Y:7, C:256, F:64, ;122.41578650474548
39;1;MobilNet_06;5.0986271;0.014612815180176628;1;axe_out_channels1_0,axe_yy1_0,axe_out_channels1_1,axe_xx1_0;112;;;F:1, Y:2, F:4, C:1, X:14, H:3, W:3, H:1, X:1, Y:7, C:256, F:64, ;123.98400115966797
40;0;MobilNet_06;5.102192799999999;0.013664122780478953;1;axe_xx1_0;14;;;F:2, Y:2, F:2, C:1, X:14, H:3, W:3, H:1, X:1, Y:7, C:256, F:64, ;125.57231068611145
40;1;MobilNet_06;5.0604111000000005;0.008889235742739747;1;axe_out_channels1_0,axe_yy1_0,axe_out_channels1_1,axe_xx1_0;112;;;F:2, Y:2, F:2, C:1, X:14, H:3, W:3, H:1, X:1, Y:7, C:256, F:64, ;127.13829493522644
41;0;MobilNet_06;4.926586100000001;0.0128039478322119;1;axe_xx1_0;14;;;F:4, Y:2, F:1, C:1, X:14, H:3, W:3, H:1, X:1, Y:7, C:256, F:64, ;128.70877647399902
41;1;MobilNet_06;5.1039082;0.01950207209913867;1;axe_out_channels1_0,axe_yy1_0,axe_out_channels1_1,axe_xx1_0;112;;;F:4, Y:2, F:1, C:1, X:14, H:3, W:3, H:1, X:1, Y:7, C:256, F:64, ;130.27409386634827
42;0;MobilNet_06;3.7984025000000003;0.056560873522692436;1;axe_xx1_0;14;;;F:1, Y:2, F:4, C:2, X:14, H:3, W:3, W:1, H:1, X:1, Y:7, C:128, F:64, ;131.7830183506012
42;1;MobilNet_06;4.455197399999999;0.05969376761136784;1;axe_out_channels1_0,axe_yy1_0,axe_out_channels1_1,axe_xx1_0;112;;;F:1, Y:2, F:4, C:2, X:14, H:3, W:3, W:1, H:1, X:1, Y:7, C:128, F:64, ;133.3143274784088
43;0;MobilNet_06;3.8396535999999997;0.05465806500087615;1;axe_xx1_0;14;;;F:2, Y:2, F:2, C:2, X:14, H:3, W:3, W:1, H:1, X:1, Y:7, C:128, F:64, ;134.82791566848755
43;1;MobilNet_06;4.460550199999999;0.05040058526803034;1;axe_out_channels1_0,axe_yy1_0,axe_out_channels1_1,axe_xx1_0;112;;;F:2, Y:2, F:2, C:2, X:14, H:3, W:3, W:1, H:1, X:1, Y:7, C:128, F:64, ;136.3599271774292
44;0;MobilNet_06;3.7744217;0.048202675324197496;1;axe_xx1_0;14;;;F:4, Y:2, F:1, C:2, X:14, H:3, W:3, W:1, H:1, X:1, Y:7, C:128, F:64, ;137.86194276809692
44;1;MobilNet_06;4.4453396;0.02879522302813426;1;axe_out_channels1_0,axe_yy1_0,axe_out_channels1_1,axe_xx1_0;112;;;F:4, Y:2, F:1, C:2, X:14, H:3, W:3, W:1, H:1, X:1, Y:7, C:128, F:64, ;139.3925850391388
45;0;MobilNet_06;4.5631204;0.010225692623973954;1;axe_xx1_0;14;;;F:1, Y:2, F:4, C:2, X:14, H:3, W:3, H:1, X:1, Y:7, C:128, F:64, ;140.9525077342987
45;1;MobilNet_06;5.0265078;0.011940747035257028;1;axe_out_channels1_0,axe_yy1_0,axe_out_channels1_1,axe_xx1_0;112;;;F:1, Y:2, F:4, C:2, X:14, H:3, W:3, H:1, X:1, Y:7, C:128, F:64, ;142.52009201049805
46;0;MobilNet_06;4.6992668;0.018162399262211956;1;axe_xx1_0;14;;;F:2, Y:2, F:2, C:2, X:14, H:3, W:3, H:1, X:1, Y:7, C:128, F:64, ;144.09004831314087
46;1;MobilNet_06;5.017932999999999;0.008102611690066451;1;axe_out_channels1_0,axe_yy1_0,axe_out_channels1_1,axe_xx1_0;112;;;F:2, Y:2, F:2, C:2, X:14, H:3, W:3, H:1, X:1, Y:7, C:128, F:64, ;145.65720582008362
47;0;MobilNet_06;4.7077912;0.015419832345392057;1;axe_xx1_0;14;;;F:4, Y:2, F:1, C:2, X:14, H:3, W:3, H:1, X:1, Y:7, C:128, F:64, ;147.2178020477295
47;1;MobilNet_06;5.0373901;0.014931836875950686;1;axe_out_channels1_0,axe_yy1_0,axe_out_channels1_1,axe_xx1_0;112;;;F:4, Y:2, F:1, C:2, X:14, H:3, W:3, H:1, X:1, Y:7, C:128, F:64, ;148.78393030166626
48;0;MobilNet_06;2.6308384;0.05678878222008283;1;axe_xx1_0;14;;;F:1, Y:2, F:4, C:4, X:14, H:3, W:3, W:1, H:1, X:1, Y:7, C:64, F:64, ;150.24733781814575
48;1;MobilNet_06;4.4792803999999995;0.04062054523809342;1;axe_out_channels1_0,axe_yy1_0,axe_out_channels1_1,axe_xx1_0;112;;;F:1, Y:2, F:4, C:4, X:14, H:3, W:3, W:1, H:1, X:1, Y:7, C:64, F:64, ;151.7687771320343
49;0;MobilNet_06;2.6398324000000004;0.047108809541740654;1;axe_xx1_0;14;;;F:2, Y:2, F:2, C:4, X:14, H:3, W:3, W:1, H:1, X:1, Y:7, C:64, F:64, ;153.24121618270874
49;1;MobilNet_06;4.569614199999999;0.05205715633954674;1;axe_out_channels1_0,axe_yy1_0,axe_out_channels1_1,axe_xx1_0;112;;;F:2, Y:2, F:2, C:4, X:14, H:3, W:3, W:1, H:1, X:1, Y:7, C:64, F:64, ;154.76639366149902
50;0;MobilNet_06;2.6627409;0.05448190507581397;1;axe_xx1_0;14;;;F:4, Y:2, F:1, C:4, X:14, H:3, W:3, W:1, H:1, X:1, Y:7, C:64, F:64, ;156.22337865829468
50;1;MobilNet_06;4.61637;0.058567609005319585;1;axe_out_channels1_0,axe_yy1_0,axe_out_channels1_1,axe_xx1_0;112;;;F:4, Y:2, F:1, C:4, X:14, H:3, W:3, W:1, H:1, X:1, Y:7, C:64, F:64, ;157.74960112571716
51;0;MobilNet_06;2.9468833;0.009143221303785722;1;axe_xx1_0;14;;;F:1, Y:2, F:4, C:4, X:14, H:3, W:3, H:1, X:1, Y:7, C:64, F:64, ;159.2480025291443
51;1;MobilNet_06;5.1049273;0.010574245637869477;1;axe_out_channels1_0,axe_yy1_0,axe_out_channels1_1,axe_xx1_0;112;;;F:1, Y:2, F:4, C:4, X:14, H:3, W:3, H:1, X:1, Y:7, C:64, F:64, ;160.81740045547485
52;0;MobilNet_06;2.9449484999999997;0.011737941567838901;1;axe_xx1_0;14;;;F:2, Y:2, F:2, C:4, X:14, H:3, W:3, H:1, X:1, Y:7, C:64, F:64, ;162.32376623153687
52;1;MobilNet_06;5.0590603000000005;0.016199723226339422;1;axe_out_channels1_0,axe_yy1_0,axe_out_channels1_1,axe_xx1_0;112;;;F:2, Y:2, F:2, C:4, X:14, H:3, W:3, H:1, X:1, Y:7, C:64, F:64, ;163.89745831489563
53;0;MobilNet_06;2.9505379999999994;0.009298515795545007;1;axe_xx1_0;14;;;F:4, Y:2, F:1, C:4, X:14, H:3, W:3, H:1, X:1, Y:7, C:64, F:64, ;165.38928771018982
53;1;MobilNet_06;5.1126515;0.018071625628315643;1;axe_out_channels1_0,axe_yy1_0,axe_out_channels1_1,axe_xx1_0;112;;;F:4, Y:2, F:1, C:4, X:14, H:3, W:3, H:1, X:1, Y:7, C:64, F:64, ;166.96385049819946
54;0;MobilNet_06;5.2997721;0.01172466745327993;2;axe_xx1_0;14;axe_xx2_0;14;F:1, Y:1, F:4, C:1, X:14, H:3, W:3, H:1, X:1, Y:4, C:256, F:64, ;168.7300877571106
54;1;MobilNet_06;5.2971072;0.007321473960890768;2;axe_out_channels1_0,axe_yy1_0,axe_out_channels1_1,axe_xx1_0;56;axe_out_channels2_0,axe_yy2_0,axe_out_channels2_1,axe_xx2_0;112;F:1, Y:1, F:4, C:1, X:14, H:3, W:3, H:1, X:1, Y:4, C:256, F:64, ;170.44751691818237
55;0;MobilNet_06;5.317589600000001;0.00810816838996317;2;axe_xx1_0;14;axe_xx2_0;14;F:2, Y:1, F:2, C:1, X:14, H:3, W:3, H:1, X:1, Y:4, C:256, F:64, ;172.21730160713196
55;1;MobilNet_06;5.2980092999999995;0.009678128476621929;2;axe_out_channels1_0,axe_yy1_0,axe_out_channels1_1,axe_xx1_0;56;axe_out_channels2_0,axe_yy2_0,axe_out_channels2_1,axe_xx2_0;112;F:2, Y:1, F:2, C:1, X:14, H:3, W:3, H:1, X:1, Y:4, C:256, F:64, ;173.9386761188507
56;0;MobilNet_06;5.3148534;0.009091779640972252;2;axe_xx1_0;14;axe_xx2_0;14;F:4, Y:1, F:1, C:1, X:14, H:3, W:3, H:1, X:1, Y:4, C:256, F:64, ;175.69872546195984
56;1;MobilNet_06;5.3067978;0.010332481210241776;2;axe_out_channels1_0,axe_yy1_0,axe_out_channels1_1,axe_xx1_0;56;axe_out_channels2_0,axe_yy2_0,axe_out_channels2_1,axe_xx2_0;112;F:4, Y:1, F:1, C:1, X:14, H:3, W:3, H:1, X:1, Y:4, C:256, F:64, ;177.41654777526855
57;0;MobilNet_06;5.3477105;0.010197579882011224;2;axe_xx1_0;14;axe_xx2_0;14;F:1, Y:2, F:4, C:1, X:14, H:3, W:3, H:1, X:1, Y:4, C:256, F:64, ;179.18426156044006
57;1;MobilNet_06;5.3297427;0.009045685557767205;2;axe_out_channels1_0,axe_yy1_0,axe_out_channels1_1,axe_xx1_0;112;axe_out_channels2_0,axe_yy2_0,axe_out_channels2_1,axe_xx2_0;56;F:1, Y:2, F:4, C:1, X:14, H:3, W:3, H:1, X:1, Y:4, C:256, F:64, ;180.91337513923645
58;0;MobilNet_06;5.358949;0.007769337642296212;2;axe_xx1_0;14;axe_xx2_0;14;F:2, Y:2, F:2, C:1, X:14, H:3, W:3, H:1, X:1, Y:4, C:256, F:64, ;182.69182777404785
58;1;MobilNet_06;5.340615;0.010830638300672848;2;axe_out_channels1_0,axe_yy1_0,axe_out_channels1_1,axe_xx1_0;112;axe_out_channels2_0,axe_yy2_0,axe_out_channels2_1,axe_xx2_0;56;F:2, Y:2, F:2, C:1, X:14, H:3, W:3, H:1, X:1, Y:4, C:256, F:64, ;184.41615080833435
59;0;MobilNet_06;5.3632013;0.009452653469264754;2;axe_xx1_0;14;axe_xx2_0;14;F:4, Y:2, F:1, C:1, X:14, H:3, W:3, H:1, X:1, Y:4, C:256, F:64, ;186.18374013900757
59;1;MobilNet_06;5.346545900000001;0.010616703343788163;2;axe_out_channels1_0,axe_yy1_0,axe_out_channels1_1,axe_xx1_0;112;axe_out_channels2_0,axe_yy2_0,axe_out_channels2_1,axe_xx2_0;56;F:4, Y:2, F:1, C:1, X:14, H:3, W:3, H:1, X:1, Y:4, C:256, F:64, ;187.91585040092468
60;0;MobilNet_06;4.7650391999999995;0.005692261849212237;2;axe_xx1_0;14;axe_xx2_0;14;F:1, Y:1, F:4, C:2, X:14, H:3, W:3, H:1, X:1, Y:4, C:128, F:64, ;189.6531376838684
60;1;MobilNet_06;5.2913114000000006;0.012775207976389239;2;axe_out_channels1_0,axe_yy1_0,axe_out_channels1_1,axe_xx1_0;56;axe_out_channels2_0,axe_yy2_0,axe_out_channels2_1,axe_xx2_0;112;F:1, Y:1, F:4, C:2, X:14, H:3, W:3, H:1, X:1, Y:4, C:128, F:64, ;191.38430166244507
61;0;MobilNet_06;4.7639426;0.004664316138513856;2;axe_xx1_0;14;axe_xx2_0;14;F:2, Y:1, F:2, C:2, X:14, H:3, W:3, H:1, X:1, Y:4, C:128, F:64, ;193.13604402542114
61;1;MobilNet_06;5.2979926;0.013478827717572365;2;axe_out_channels1_0,axe_yy1_0,axe_out_channels1_1,axe_xx1_0;56;axe_out_channels2_0,axe_yy2_0,axe_out_channels2_1,axe_xx2_0;112;F:2, Y:1, F:2, C:2, X:14, H:3, W:3, H:1, X:1, Y:4, C:128, F:64, ;194.86577320098877
62;0;MobilNet_06;4.7520368;0.0012549466761580237;2;axe_xx1_0;14;axe_xx2_0;14;F:4, Y:1, F:1, C:2, X:14, H:3, W:3, H:1, X:1, Y:4, C:128, F:64, ;196.60163474082947
62;1;MobilNet_06;5.3072891;0.010167228496006379;2;axe_out_channels1_0,axe_yy1_0,axe_out_channels1_1,axe_xx1_0;56;axe_out_channels2_0,axe_yy2_0,axe_out_channels2_1,axe_xx2_0;112;F:4, Y:1, F:1, C:2, X:14, H:3, W:3, H:1, X:1, Y:4, C:128, F:64, ;198.33227109909058
63;0;MobilNet_06;4.7168599;0.0073260051931458535;2;axe_xx1_0;14;axe_xx2_0;14;F:1, Y:2, F:4, C:2, X:14, H:3, W:3, H:1, X:1, Y:4, C:128, F:64, ;200.08080124855042
63;1;MobilNet_06;5.335699;0.005482598270892954;2;axe_out_channels1_0,axe_yy1_0,axe_out_channels1_1,axe_xx1_0;112;axe_out_channels2_0,axe_yy2_0,axe_out_channels2_1,axe_xx2_0;56;F:1, Y:2, F:4, C:2, X:14, H:3, W:3, H:1, X:1, Y:4, C:128, F:64, ;201.81967425346375
64;0;MobilNet_06;4.7281298;0.008758875336480109;2;axe_xx1_0;14;axe_xx2_0;14;F:2, Y:2, F:2, C:2, X:14, H:3, W:3, H:1, X:1, Y:4, C:128, F:64, ;203.5750331878662
64;1;MobilNet_06;5.348999;0.006757268087030334;2;axe_out_channels1_0,axe_yy1_0,axe_out_channels1_1,axe_xx1_0;112;axe_out_channels2_0,axe_yy2_0,axe_out_channels2_1,axe_xx2_0;56;F:2, Y:2, F:2, C:2, X:14, H:3, W:3, H:1, X:1, Y:4, C:128, F:64, ;205.31525301933289
65;0;MobilNet_06;4.7280567;0.009207005246550298;2;axe_xx1_0;14;axe_xx2_0;14;F:4, Y:2, F:1, C:2, X:14, H:3, W:3, H:1, X:1, Y:4, C:128, F:64, ;207.05675339698792
65;1;MobilNet_06;5.353452500000001;0.0034459808835801504;2;axe_out_channels1_0,axe_yy1_0,axe_out_channels1_1,axe_xx1_0;112;axe_out_channels2_0,axe_yy2_0,axe_out_channels2_1,axe_xx2_0;56;F:4, Y:2, F:1, C:2, X:14, H:3, W:3, H:1, X:1, Y:4, C:128, F:64, ;208.8013641834259
66;0;MobilNet_06;2.3805498;0.003420064701142379;2;axe_xx1_0;14;axe_xx2_0;14;F:1, Y:1, F:4, C:4, X:14, H:3, W:3, H:1, X:1, Y:4, C:64, F:64, ;210.46030926704407
66;1;MobilNet_06;5.319411;0.01936065867681158;2;axe_out_channels1_0,axe_yy1_0,axe_out_channels1_1,axe_xx1_0;56;axe_out_channels2_0,axe_yy2_0,axe_out_channels2_1,axe_xx2_0;112;F:1, Y:1, F:4, C:4, X:14, H:3, W:3, H:1, X:1, Y:4, C:64, F:64, ;212.1883511543274
67;0;MobilNet_06;2.3894756;0.004201462416825798;2;axe_xx1_0;14;axe_xx2_0;14;F:2, Y:1, F:2, C:4, X:14, H:3, W:3, H:1, X:1, Y:4, C:64, F:64, ;213.86426162719727
67;1;MobilNet_06;5.315637199999999;0.011349995601761186;2;axe_out_channels1_0,axe_yy1_0,axe_out_channels1_1,axe_xx1_0;56;axe_out_channels2_0,axe_yy2_0,axe_out_channels2_1,axe_xx2_0;112;F:2, Y:1, F:2, C:4, X:14, H:3, W:3, H:1, X:1, Y:4, C:64, F:64, ;215.5943558216095
68;0;MobilNet_06;2.4076795000000004;0.003039426138270121;2;axe_xx1_0;14;axe_xx2_0;14;F:4, Y:1, F:1, C:4, X:14, H:3, W:3, H:1, X:1, Y:4, C:64, F:64, ;217.24596071243286
68;1;MobilNet_06;5.2922248000000005;0.016119885445002435;2;axe_out_channels1_0,axe_yy1_0,axe_out_channels1_1,axe_xx1_0;56;axe_out_channels2_0,axe_yy2_0,axe_out_channels2_1,axe_xx2_0;112;F:4, Y:1, F:1, C:4, X:14, H:3, W:3, H:1, X:1, Y:4, C:64, F:64, ;218.97583532333374
69;0;MobilNet_06;2.4048003000000002;0.0037292622071932314;2;axe_xx1_0;14;axe_xx2_0;14;F:1, Y:2, F:4, C:4, X:14, H:3, W:3, H:1, X:1, Y:4, C:64, F:64, ;220.63900661468506
69;1;MobilNet_06;5.3421476000000006;0.009438360972118061;2;axe_out_channels1_0,axe_yy1_0,axe_out_channels1_1,axe_xx1_0;112;axe_out_channels2_0,axe_yy2_0,axe_out_channels2_1,axe_xx2_0;56;F:1, Y:2, F:4, C:4, X:14, H:3, W:3, H:1, X:1, Y:4, C:64, F:64, ;222.37718629837036
70;0;MobilNet_06;2.4153582;0.0022900987664291046;2;axe_xx1_0;14;axe_xx2_0;14;F:2, Y:2, F:2, C:4, X:14, H:3, W:3, H:1, X:1, Y:4, C:64, F:64, ;224.05451250076294
70;1;MobilNet_06;5.3596143000000005;0.011908079064651841;2;axe_out_channels1_0,axe_yy1_0,axe_out_channels1_1,axe_xx1_0;112;axe_out_channels2_0,axe_yy2_0,axe_out_channels2_1,axe_xx2_0;56;F:2, Y:2, F:2, C:4, X:14, H:3, W:3, H:1, X:1, Y:4, C:64, F:64, ;225.79410028457642
71;0;MobilNet_06;2.4306821;0.004866719890234161;2;axe_xx1_0;14;axe_xx2_0;14;F:4, Y:2, F:1, C:4, X:14, H:3, W:3, H:1, X:1, Y:4, C:64, F:64, ;227.45556950569153
71;1;MobilNet_06;5.3716558;0.01309428815781914;2;axe_out_channels1_0,axe_yy1_0,axe_out_channels1_1,axe_xx1_0;112;axe_out_channels2_0,axe_yy2_0,axe_out_channels2_1,axe_xx2_0;56;F:4, Y:2, F:1, C:4, X:14, H:3, W:3, H:1, X:1, Y:4, C:64, F:64, ;229.19769382476807
72;0;MobilNet_06;4.5193602;0.0067830384902342646;1;axe_out_channels1_0,axe_yy1_0,axe_out_channels1_1;16;;;F:1, Y:1, F:16, C:1, X:14, W:3, W:1, H:3, X:1, Y:14, C:256, F:16, ;230.75930047035217
72;1;MobilNet_06;4.4466058;0.006493281971391639;1;axe_out_channels1_0,axe_yy1_0,axe_out_channels1_1,axe_xx1_0;224;;;F:1, Y:1, F:16, C:1, X:14, W:3, W:1, H:3, X:1, Y:14, C:256, F:16, ;232.2898874282837
73;0;MobilNet_06;4.4390835;0.011854962574803828;1;axe_out_channels1_0,axe_yy1_0,axe_out_channels1_1;16;;;F:2, Y:1, F:8, C:1, X:14, W:3, W:1, H:3, X:1, Y:14, C:256, F:16, ;233.85488748550415
73;1;MobilNet_06;4.4377677;0.005900799014540236;1;axe_out_channels1_0,axe_yy1_0,axe_out_channels1_1,axe_xx1_0;224;;;F:2, Y:1, F:8, C:1, X:14, W:3, W:1, H:3, X:1, Y:14, C:256, F:16, ;235.3841049671173
74;0;MobilNet_06;4.4407233;0.009578947301765575;1;axe_out_channels1_0,axe_yy1_0,axe_out_channels1_1;16;;;F:4, Y:1, F:4, C:1, X:14, W:3, W:1, H:3, X:1, Y:14, C:256, F:16, ;236.9402892589569
74;1;MobilNet_06;4.5322729;0.005713130463239949;1;axe_out_channels1_0,axe_yy1_0,axe_out_channels1_1,axe_xx1_0;224;;;F:4, Y:1, F:4, C:1, X:14, W:3, W:1, H:3, X:1, Y:14, C:256, F:16, ;238.4810767173767
75;0;MobilNet_06;4.4376177000000006;0.013444634781577444;1;axe_out_channels1_0,axe_yy1_0,axe_out_channels1_1;16;;;F:8, Y:1, F:2, C:1, X:14, W:3, W:1, H:3, X:1, Y:14, C:256, F:16, ;240.03506994247437
75;1;MobilNet_06;4.53126;0.007159693764400743;1;axe_out_channels1_0,axe_yy1_0,axe_out_channels1_1,axe_xx1_0;224;;;F:8, Y:1, F:2, C:1, X:14, W:3, W:1, H:3, X:1, Y:14, C:256, F:16, ;241.57265257835388
76;0;MobilNet_06;4.523549600000001;0.008104766057080416;1;axe_out_channels1_0,axe_yy1_0,axe_out_channels1_1;16;;;F:16, Y:1, F:1, C:1, X:14, W:3, W:1, H:3, X:1, Y:14, C:256, F:16, ;243.1325080394745
76;1;MobilNet_06;4.448300699999999;0.00909224566375112;1;axe_out_channels1_0,axe_yy1_0,axe_out_channels1_1,axe_xx1_0;224;;;F:16, Y:1, F:1, C:1, X:14, W:3, W:1, H:3, X:1, Y:14, C:256, F:16, ;244.66557812690735
77;0;MobilNet_06;6.009733300000001;0.009170796345465144;1;axe_xx1_0;14;;;F:1, Y:2, F:4, C:1, X:14, W:3, W:1, H:3, X:1, Y:7, C:256, F:64, ;246.28550720214844
77;1;MobilNet_06;6.2341018;0.013888254806130335;1;axe_out_channels1_0,axe_yy1_0,axe_out_channels1_1,axe_xx1_0;112;;;F:1, Y:2, F:4, C:1, X:14, W:3, W:1, H:3, X:1, Y:7, C:256, F:64, ;247.8908007144928
78;0;MobilNet_06;5.8058879;0.005378021856593591;1;axe_xx1_0;14;;;F:2, Y:2, F:2, C:1, X:14, W:3, W:1, H:3, X:1, Y:7, C:256, F:64, ;249.50901055335999
78;1;MobilNet_06;6.246387;0.012030979577740276;1;axe_out_channels1_0,axe_yy1_0,axe_out_channels1_1,axe_xx1_0;112;;;F:2, Y:2, F:2, C:1, X:14, W:3, W:1, H:3, X:1, Y:7, C:256, F:64, ;251.11631083488464
79;0;MobilNet_06;5.9858479;0.010358339108660332;1;axe_xx1_0;14;;;F:4, Y:2, F:1, C:1, X:14, W:3, W:1, H:3, X:1, Y:7, C:256, F:64, ;252.73529362678528
79;1;MobilNet_06;6.2465306;0.012211797903666756;1;axe_out_channels1_0,axe_yy1_0,axe_out_channels1_1,axe_xx1_0;112;;;F:4, Y:2, F:1, C:1, X:14, W:3, W:1, H:3, X:1, Y:7, C:256, F:64, ;254.33852767944336
80;0;MobilNet_06;5.1743302;0.010987655535190528;1;axe_xx1_0;14;;;F:1, Y:2, F:4, C:2, X:14, W:3, W:1, H:3, X:1, Y:7, C:128, F:64, ;255.92617535591125
80;1;MobilNet_06;6.432570199999999;0.01369655811362853;1;axe_out_channels1_0,axe_yy1_0,axe_out_channels1_1,axe_xx1_0;112;;;F:1, Y:2, F:4, C:2, X:14, W:3, W:1, H:3, X:1, Y:7, C:128, F:64, ;257.5446035861969
81;0;MobilNet_06;5.2935131;0.006529104907259612;1;axe_xx1_0;14;;;F:2, Y:2, F:2, C:2, X:14, W:3, W:1, H:3, X:1, Y:7, C:128, F:64, ;259.145135641098
81;1;MobilNet_06;6.4466189;0.014009721713510294;1;axe_out_channels1_0,axe_yy1_0,axe_out_channels1_1,axe_xx1_0;112;;;F:2, Y:2, F:2, C:2, X:14, W:3, W:1, H:3, X:1, Y:7, C:128, F:64, ;260.7660582065582
82;0;MobilNet_06;5.211785800000001;0.016860315197528192;1;axe_xx1_0;14;;;F:4, Y:2, F:1, C:2, X:14, W:3, W:1, H:3, X:1, Y:7, C:128, F:64, ;262.3522982597351
82;1;MobilNet_06;6.4342465;0.008491258637563543;1;axe_out_channels1_0,axe_yy1_0,axe_out_channels1_1,axe_xx1_0;112;;;F:4, Y:2, F:1, C:2, X:14, W:3, W:1, H:3, X:1, Y:7, C:128, F:64, ;263.9754521846771
83;0;MobilNet_06;4.0343457;0.008630935708832619;1;axe_xx1_0;14;;;F:1, Y:2, F:4, C:4, X:14, W:3, W:1, H:3, X:1, Y:7, C:64, F:64, ;265.5224709510803
83;1;MobilNet_06;6.482954099999999;0.029964882063675743;1;axe_out_channels1_0,axe_yy1_0,axe_out_channels1_1,axe_xx1_0;112;;;F:1, Y:2, F:4, C:4, X:14, W:3, W:1, H:3, X:1, Y:7, C:64, F:64, ;267.14279985427856
84;0;MobilNet_06;4.070714199999999;0.008800946787704255;1;axe_xx1_0;14;;;F:2, Y:2, F:2, C:4, X:14, W:3, W:1, H:3, X:1, Y:7, C:64, F:64, ;268.69469356536865
84;1;MobilNet_06;6.470470000000001;0.019212472162634192;1;axe_out_channels1_0,axe_yy1_0,axe_out_channels1_1,axe_xx1_0;112;;;F:2, Y:2, F:2, C:4, X:14, W:3, W:1, H:3, X:1, Y:7, C:64, F:64, ;270.31426668167114
85;0;MobilNet_06;4.033136000000001;0.012021882107224355;1;axe_xx1_0;14;;;F:4, Y:2, F:1, C:4, X:14, W:3, W:1, H:3, X:1, Y:7, C:64, F:64, ;271.85365557670593
85;1;MobilNet_06;6.485051;0.021446434813273626;1;axe_out_channels1_0,axe_yy1_0,axe_out_channels1_1,axe_xx1_0;112;;;F:4, Y:2, F:1, C:4, X:14, W:3, W:1, H:3, X:1, Y:7, C:64, F:64, ;273.47173738479614
