IdRun;MethodParallelization;NameConv;Time(ms);std;NbMicroKernel;AxeFuse1;SizeAxeFuse1;AxeFuse2;SizeAxeFuse2;Schema;Time_search(2.8937313556671143)
0;0;MobilNet_05;10.612078499999999;0.023021903019733458;1;axe_xx1_1;28;;;F:1, F:1, X:1, Y:4, F:4, C:1, H:3, X:28, W:3, H:1, X:1, Y:7, C:256, F:64, ;6.103142023086548
0;1;MobilNet_05;19.3556527;0.05091102906453582;1;axe_out_channels1_0,axe_out_channels1_1,axe_xx1_0,axe_yy1_0,axe_out_channels1_2,axe_xx1_1;448;;;F:1, F:1, X:1, Y:4, F:4, C:1, H:3, X:28, W:3, H:1, X:1, Y:7, C:256, F:64, ;9.626537799835205
1;0;MobilNet_05;10.1484386;0.021166861511334244;1;axe_xx1_1;28;;;F:1, F:2, X:1, Y:4, F:2, C:1, H:3, X:28, W:3, H:1, X:1, Y:7, C:256, F:64, ;12.79708981513977
1;1;MobilNet_05;19.360275800000004;0.05349662334166534;1;axe_out_channels1_0,axe_out_channels1_1,axe_xx1_0,axe_yy1_0,axe_out_channels1_2,axe_xx1_1;448;;;F:1, F:2, X:1, Y:4, F:2, C:1, H:3, X:28, W:3, H:1, X:1, Y:7, C:256, F:64, ;16.326303243637085
2;0;MobilNet_05;10.7026177;0.03514646189888851;1;axe_xx1_1;28;;;F:1, F:4, X:1, Y:4, F:1, C:1, H:3, X:28, W:3, H:1, X:1, Y:7, C:256, F:64, ;19.51768445968628
2;1;MobilNet_05;19.070694600000003;0.03908001166632367;1;axe_out_channels1_0,axe_out_channels1_1,axe_xx1_0,axe_yy1_0,axe_out_channels1_2,axe_xx1_1;448;;;F:1, F:4, X:1, Y:4, F:1, C:1, H:3, X:28, W:3, H:1, X:1, Y:7, C:256, F:64, ;23.027755975723267
3;0;MobilNet_05;10.6504486;0.04113597457019824;1;axe_xx1_1;28;;;F:2, F:1, X:1, Y:4, F:2, C:1, H:3, X:28, W:3, H:1, X:1, Y:7, C:256, F:64, ;26.22397470474243
3;1;MobilNet_05;19.2901181;0.1212965575022229;1;axe_out_channels1_0,axe_out_channels1_1,axe_xx1_0,axe_yy1_0,axe_out_channels1_2,axe_xx1_1;448;;;F:2, F:1, X:1, Y:4, F:2, C:1, H:3, X:28, W:3, H:1, X:1, Y:7, C:256, F:64, ;29.745797157287598
4;0;MobilNet_05;10.1525559;0.02762441428682224;1;axe_xx1_1;28;;;F:2, F:2, X:1, Y:4, F:1, C:1, H:3, X:28, W:3, H:1, X:1, Y:7, C:256, F:64, ;32.92083787918091
4;1;MobilNet_05;18.9967284;0.11158036645413859;1;axe_out_channels1_0,axe_out_channels1_1,axe_xx1_0,axe_yy1_0,axe_out_channels1_2,axe_xx1_1;448;;;F:2, F:2, X:1, Y:4, F:1, C:1, H:3, X:28, W:3, H:1, X:1, Y:7, C:256, F:64, ;36.427600622177124
5;0;MobilNet_05;10.6831675;0.0297219976322254;1;axe_xx1_1;28;;;F:4, F:1, X:1, Y:4, F:1, C:1, H:3, X:28, W:3, H:1, X:1, Y:7, C:256, F:64, ;39.61430549621582
5;1;MobilNet_05;19.0797277;0.0293846469914134;1;axe_out_channels1_0,axe_out_channels1_1,axe_xx1_0,axe_yy1_0,axe_out_channels1_2,axe_xx1_1;448;;;F:4, F:1, X:1, Y:4, F:1, C:1, H:3, X:28, W:3, H:1, X:1, Y:7, C:256, F:64, ;43.122684717178345
6;0;MobilNet_05;10.9042265;0.027746819779030443;1;axe_yy1_0,axe_xx1_0,axe_out_channels1_0,axe_yy1_1,axe_xx1_1;32;;;Y:1, X:1, F:8, Y:2, X:2, C:8, W:3, X:14, H:3, W:1, H:1, X:1, Y:14, C:32, F:32, ;46.30726504325867
6;1;MobilNet_05;25.9922118;0.024945596307966028;1;axe_yy1_0,axe_xx1_0,axe_out_channels1_0,axe_yy1_1,axe_xx1_1,axe_xx1_2;448;;;Y:1, X:1, F:8, Y:2, X:2, C:8, W:3, X:14, H:3, W:1, H:1, X:1, Y:14, C:32, F:32, ;50.09090304374695
7;0;MobilNet_05;10.9568035;0.01656913544666708;1;axe_yy1_0,axe_xx1_0,axe_out_channels1_0,axe_yy1_1,axe_xx1_1;32;;;Y:2, X:1, F:8, Y:1, X:2, C:8, W:3, X:14, H:3, W:1, H:1, X:1, Y:14, C:32, F:32, ;53.26403880119324
7;1;MobilNet_05;26.079432899999993;0.021569519885477534;1;axe_yy1_0,axe_xx1_0,axe_out_channels1_0,axe_yy1_1,axe_xx1_1,axe_xx1_2;448;;;Y:2, X:1, F:8, Y:1, X:2, C:8, W:3, X:14, H:3, W:1, H:1, X:1, Y:14, C:32, F:32, ;57.04557228088379
8;0;MobilNet_05;10.858635099999999;0.019351542855544877;1;axe_yy1_0,axe_xx1_0,axe_out_channels1_0,axe_yy1_1,axe_xx1_1;32;;;Y:1, X:2, F:8, Y:2, X:1, C:8, W:3, X:14, H:3, W:1, H:1, X:1, Y:14, C:32, F:32, ;60.2144410610199
8;1;MobilNet_05;26.104499200000003;0.036792845129997;1;axe_yy1_0,axe_xx1_0,axe_out_channels1_0,axe_yy1_1,axe_xx1_1,axe_xx1_2;448;;;Y:1, X:2, F:8, Y:2, X:1, C:8, W:3, X:14, H:3, W:1, H:1, X:1, Y:14, C:32, F:32, ;64.00239086151123
9;0;MobilNet_05;10.9711223;0.0443864063561132;1;axe_yy1_0,axe_xx1_0,axe_out_channels1_0,axe_yy1_1,axe_xx1_1;32;;;Y:2, X:2, F:8, Y:1, X:1, C:8, W:3, X:14, H:3, W:1, H:1, X:1, Y:14, C:32, F:32, ;67.17354488372803
9;1;MobilNet_05;26.424194399999998;0.02721395655247401;1;axe_yy1_0,axe_xx1_0,axe_out_channels1_0,axe_yy1_1,axe_xx1_1,axe_xx1_2;448;;;Y:2, X:2, F:8, Y:1, X:1, C:8, W:3, X:14, H:3, W:1, H:1, X:1, Y:14, C:32, F:32, ;70.98075985908508
10;0;MobilNet_05;8.4630681;0.03422651874920993;1;axe_out_channels1_0,axe_out_channels1_1,axe_xx1_0,axe_yy1_0,axe_out_channels1_2;28;;;F:1, F:1, X:1, Y:7, F:4, C:1, H:3, X:28, W:3, H:1, X:1, Y:4, C:256, F:64, ;74.03787732124329
10;1;MobilNet_05;22.7752008;0.025794353175840258;1;axe_out_channels1_0,axe_out_channels1_1,axe_xx1_0,axe_yy1_0,axe_out_channels1_2,axe_xx1_1;784;;;F:1, F:1, X:1, Y:7, F:4, C:1, H:3, X:28, W:3, H:1, X:1, Y:4, C:256, F:64, ;77.67184472084045
11;0;MobilNet_05;8.442734;0.025160581098218008;1;axe_out_channels1_0,axe_out_channels1_1,axe_xx1_0,axe_yy1_0,axe_out_channels1_2;28;;;F:1, F:2, X:1, Y:7, F:2, C:1, H:3, X:28, W:3, H:1, X:1, Y:4, C:256, F:64, ;80.73586535453796
11;1;MobilNet_05;22.8192465;0.032606071009092935;1;axe_out_channels1_0,axe_out_channels1_1,axe_xx1_0,axe_yy1_0,axe_out_channels1_2,axe_xx1_1;784;;;F:1, F:2, X:1, Y:7, F:2, C:1, H:3, X:28, W:3, H:1, X:1, Y:4, C:256, F:64, ;84.36799263954163
12;0;MobilNet_05;8.5979442;0.19766741564699006;1;axe_out_channels1_0,axe_out_channels1_1,axe_xx1_0,axe_yy1_0,axe_out_channels1_2;28;;;F:1, F:4, X:1, Y:7, F:1, C:1, H:3, X:28, W:3, H:1, X:1, Y:4, C:256, F:64, ;87.43490219116211
12;1;MobilNet_05;22.8731172;0.028935107405364837;1;axe_out_channels1_0,axe_out_channels1_1,axe_xx1_0,axe_yy1_0,axe_out_channels1_2,axe_xx1_1;784;;;F:1, F:4, X:1, Y:7, F:1, C:1, H:3, X:28, W:3, H:1, X:1, Y:4, C:256, F:64, ;91.06777811050415
13;0;MobilNet_05;8.505231600000002;0.13927009009202182;1;axe_out_channels1_0,axe_out_channels1_1,axe_xx1_0,axe_yy1_0,axe_out_channels1_2;28;;;F:2, F:1, X:1, Y:7, F:2, C:1, H:3, X:28, W:3, H:1, X:1, Y:4, C:256, F:64, ;94.12098503112793
13;1;MobilNet_05;22.7318114;0.017775018335855406;1;axe_out_channels1_0,axe_out_channels1_1,axe_xx1_0,axe_yy1_0,axe_out_channels1_2,axe_xx1_1;784;;;F:2, F:1, X:1, Y:7, F:2, C:1, H:3, X:28, W:3, H:1, X:1, Y:4, C:256, F:64, ;97.7555627822876
14;0;MobilNet_05;8.465042200000001;0.025466698768391954;1;axe_out_channels1_0,axe_out_channels1_1,axe_xx1_0,axe_yy1_0,axe_out_channels1_2;28;;;F:2, F:2, X:1, Y:7, F:1, C:1, H:3, X:28, W:3, H:1, X:1, Y:4, C:256, F:64, ;100.81616687774658
14;1;MobilNet_05;22.780158899999996;0.0230857578236027;1;axe_out_channels1_0,axe_out_channels1_1,axe_xx1_0,axe_yy1_0,axe_out_channels1_2,axe_xx1_1;784;;;F:2, F:2, X:1, Y:7, F:1, C:1, H:3, X:28, W:3, H:1, X:1, Y:4, C:256, F:64, ;104.4514389038086
15;0;MobilNet_05;8.4778171;0.016780227557754324;1;axe_out_channels1_0,axe_out_channels1_1,axe_xx1_0,axe_yy1_0,axe_out_channels1_2;28;;;F:4, F:1, X:1, Y:7, F:1, C:1, H:3, X:28, W:3, H:1, X:1, Y:4, C:256, F:64, ;107.51165223121643
15;1;MobilNet_05;22.7744117;0.02414015028142929;1;axe_out_channels1_0,axe_out_channels1_1,axe_xx1_0,axe_yy1_0,axe_out_channels1_2,axe_xx1_1;784;;;F:4, F:1, X:1, Y:7, F:1, C:1, H:3, X:28, W:3, H:1, X:1, Y:4, C:256, F:64, ;111.14675784111023
16;0;MobilNet_05;10.295681199999999;0.010700376860652984;1;axe_xx1_1;28;;;F:1, F:1, X:1, Y:4, F:4, C:4, H:3, X:28, W:3, H:1, X:1, Y:7, C:64, F:64, ;114.3133614063263
16;1;MobilNet_05;19.2875384;0.06847279613569197;1;axe_out_channels1_0,axe_out_channels1_1,axe_xx1_0,axe_yy1_0,axe_out_channels1_2,axe_xx1_1;448;;;F:1, F:1, X:1, Y:4, F:4, C:4, H:3, X:28, W:3, H:1, X:1, Y:7, C:64, F:64, ;117.84162092208862
17;0;MobilNet_05;10.2503314;0.01111219569842126;1;axe_xx1_1;28;;;F:1, F:2, X:1, Y:4, F:2, C:4, H:3, X:28, W:3, H:1, X:1, Y:7, C:64, F:64, ;121.01631045341492
17;1;MobilNet_05;19.0594368;0.06094550107727399;1;axe_out_channels1_0,axe_out_channels1_1,axe_xx1_0,axe_yy1_0,axe_out_channels1_2,axe_xx1_1;448;;;F:1, F:2, X:1, Y:4, F:2, C:4, H:3, X:28, W:3, H:1, X:1, Y:7, C:64, F:64, ;124.54058909416199
18;0;MobilNet_05;10.3324777;0.006749019307277248;1;axe_xx1_1;28;;;F:1, F:4, X:1, Y:4, F:1, C:4, H:3, X:28, W:3, H:1, X:1, Y:7, C:64, F:64, ;127.71290802955627
18;1;MobilNet_05;18.94919;0.11710234365630764;1;axe_out_channels1_0,axe_out_channels1_1,axe_xx1_0,axe_yy1_0,axe_out_channels1_2,axe_xx1_1;448;;;F:1, F:4, X:1, Y:4, F:1, C:4, H:3, X:28, W:3, H:1, X:1, Y:7, C:64, F:64, ;131.2281129360199
19;0;MobilNet_05;10.2578516;0.013835457912190726;1;axe_xx1_1;28;;;F:2, F:1, X:1, Y:4, F:2, C:4, H:3, X:28, W:3, H:1, X:1, Y:7, C:64, F:64, ;134.40557193756104
19;1;MobilNet_05;19.074841099999997;0.051641683108609525;1;axe_out_channels1_0,axe_out_channels1_1,axe_xx1_0,axe_yy1_0,axe_out_channels1_2,axe_xx1_1;448;;;F:2, F:1, X:1, Y:4, F:2, C:4, H:3, X:28, W:3, H:1, X:1, Y:7, C:64, F:64, ;137.9331238269806
20;0;MobilNet_05;10.277971400000002;0.006659040924938349;1;axe_xx1_1;28;;;F:2, F:2, X:1, Y:4, F:1, C:4, H:3, X:28, W:3, H:1, X:1, Y:7, C:64, F:64, ;141.10886406898499
20;1;MobilNet_05;18.999705400000003;0.07920441071455504;1;axe_out_channels1_0,axe_out_channels1_1,axe_xx1_0,axe_yy1_0,axe_out_channels1_2,axe_xx1_1;448;;;F:2, F:2, X:1, Y:4, F:1, C:4, H:3, X:28, W:3, H:1, X:1, Y:7, C:64, F:64, ;144.62714529037476
21;0;MobilNet_05;10.341909999999999;0.006871231097845463;1;axe_xx1_1;28;;;F:4, F:1, X:1, Y:4, F:1, C:4, H:3, X:28, W:3, H:1, X:1, Y:7, C:64, F:64, ;147.80047750473022
21;1;MobilNet_05;19.159729899999995;0.08357574029878596;1;axe_out_channels1_0,axe_out_channels1_1,axe_xx1_0,axe_yy1_0,axe_out_channels1_2,axe_xx1_1;448;;;F:4, F:1, X:1, Y:4, F:1, C:4, H:3, X:28, W:3, H:1, X:1, Y:7, C:64, F:64, ;151.31968474388123
22;0;MobilNet_05;10.045456900000001;0.00797261077000518;1;axe_out_channels1_0,axe_out_channels1_1,axe_xx1_0,axe_yy1_0,axe_out_channels1_2;32;;;F:1, F:1, X:2, Y:4, F:4, C:1, H:3, X:14, W:3, H:1, X:1, Y:7, C:256, F:64, ;154.4685983657837
22;1;MobilNet_05;19.027119499999998;0.09575996064143925;1;axe_out_channels1_0,axe_out_channels1_1,axe_xx1_0,axe_yy1_0,axe_out_channels1_2,axe_xx1_1;448;;;F:1, F:1, X:2, Y:4, F:4, C:1, H:3, X:14, W:3, H:1, X:1, Y:7, C:256, F:64, ;157.9854655265808
23;0;MobilNet_05;10.0907278;0.014815207705597432;1;axe_out_channels1_0,axe_out_channels1_1,axe_xx1_0,axe_yy1_0,axe_out_channels1_2;32;;;F:1, F:2, X:2, Y:4, F:2, C:1, H:3, X:14, W:3, H:1, X:1, Y:7, C:256, F:64, ;161.13600492477417
23;1;MobilNet_05;19.309876099999997;0.0907236450496224;1;axe_out_channels1_0,axe_out_channels1_1,axe_xx1_0,axe_yy1_0,axe_out_channels1_2,axe_xx1_1;448;;;F:1, F:2, X:2, Y:4, F:2, C:1, H:3, X:14, W:3, H:1, X:1, Y:7, C:256, F:64, ;164.6652524471283
24;0;MobilNet_05;10.078538400000001;0.03838951225061303;1;axe_out_channels1_0,axe_out_channels1_1,axe_xx1_0,axe_yy1_0,axe_out_channels1_2;32;;;F:1, F:4, X:2, Y:4, F:1, C:1, H:3, X:14, W:3, H:1, X:1, Y:7, C:256, F:64, ;167.8240475654602
24;1;MobilNet_05;19.015524300000003;0.1214772659299267;1;axe_out_channels1_0,axe_out_channels1_1,axe_xx1_0,axe_yy1_0,axe_out_channels1_2,axe_xx1_1;448;;;F:1, F:4, X:2, Y:4, F:1, C:1, H:3, X:14, W:3, H:1, X:1, Y:7, C:256, F:64, ;171.33499670028687
25;0;MobilNet_05;10.093944699999998;0.018775852737225956;1;axe_out_channels1_0,axe_out_channels1_1,axe_xx1_0,axe_yy1_0,axe_out_channels1_2;32;;;F:2, F:1, X:2, Y:4, F:2, C:1, H:3, X:14, W:3, H:1, X:1, Y:7, C:256, F:64, ;174.48425149917603
25;1;MobilNet_05;19.2085221;0.1507996118598787;1;axe_out_channels1_0,axe_out_channels1_1,axe_xx1_0,axe_yy1_0,axe_out_channels1_2,axe_xx1_1;448;;;F:2, F:1, X:2, Y:4, F:2, C:1, H:3, X:14, W:3, H:1, X:1, Y:7, C:256, F:64, ;178.01067566871643
26;0;MobilNet_05;10.0572333;0.038301737790993516;1;axe_out_channels1_0,axe_out_channels1_1,axe_xx1_0,axe_yy1_0,axe_out_channels1_2;32;;;F:2, F:2, X:2, Y:4, F:1, C:1, H:3, X:14, W:3, H:1, X:1, Y:7, C:256, F:64, ;181.16262125968933
26;1;MobilNet_05;19.253519899999997;0.13484122365912413;1;axe_out_channels1_0,axe_out_channels1_1,axe_xx1_0,axe_yy1_0,axe_out_channels1_2,axe_xx1_1;448;;;F:2, F:2, X:2, Y:4, F:1, C:1, H:3, X:14, W:3, H:1, X:1, Y:7, C:256, F:64, ;184.6863875389099
27;0;MobilNet_05;10.0600578;0.014102213385139397;1;axe_out_channels1_0,axe_out_channels1_1,axe_xx1_0,axe_yy1_0,axe_out_channels1_2;32;;;F:4, F:1, X:2, Y:4, F:1, C:1, H:3, X:14, W:3, H:1, X:1, Y:7, C:256, F:64, ;187.83786010742188
27;1;MobilNet_05;19.270360500000002;0.1280077816410003;1;axe_out_channels1_0,axe_out_channels1_1,axe_xx1_0,axe_yy1_0,axe_out_channels1_2,axe_xx1_1;448;;;F:4, F:1, X:2, Y:4, F:1, C:1, H:3, X:14, W:3, H:1, X:1, Y:7, C:256, F:64, ;191.35855507850647
28;0;MobilNet_05;8.6539392;0.016091141095646636;1;axe_yy1_0,axe_out_channels1_0,axe_yy1_1;32;;;Y:1, F:16, Y:2, C:8, X:28, W:3, W:1, H:3, X:1, Y:14, C:32, F:16, ;194.44789385795593
28;1;MobilNet_05;16.1968246;0.07092153614269756;1;axe_yy1_0,axe_out_channels1_0,axe_yy1_1,axe_xx1_0;896;;;Y:1, F:16, Y:2, C:8, X:28, W:3, W:1, H:3, X:1, Y:14, C:32, F:16, ;197.847154378891
29;0;MobilNet_05;8.641584199999999;0.06078339174281054;1;axe_yy1_0,axe_out_channels1_0,axe_yy1_1;32;;;Y:2, F:16, Y:1, C:8, X:28, W:3, W:1, H:3, X:1, Y:14, C:32, F:16, ;200.92611646652222
29;1;MobilNet_05;16.1855591;0.04453960946270139;1;axe_yy1_0,axe_out_channels1_0,axe_yy1_1,axe_xx1_0;896;;;Y:2, F:16, Y:1, C:8, X:28, W:3, W:1, H:3, X:1, Y:14, C:32, F:16, ;204.3230164051056
30;0;MobilNet_05;10.417415199999999;0.012153455367095972;1;axe_xx1_1;28;;;F:1, F:1, X:1, Y:4, F:4, C:2, H:3, X:28, W:3, H:1, X:1, Y:7, C:128, F:64, ;207.49298214912415
30;1;MobilNet_05;18.883476199999997;0.10309914668298652;1;axe_out_channels1_0,axe_out_channels1_1,axe_xx1_0,axe_yy1_0,axe_out_channels1_2,axe_xx1_1;448;;;F:1, F:1, X:1, Y:4, F:4, C:2, H:3, X:28, W:3, H:1, X:1, Y:7, C:128, F:64, ;211.00488781929016
31;0;MobilNet_05;10.5150771;0.02260412026357115;1;axe_xx1_1;28;;;F:1, F:2, X:1, Y:4, F:2, C:2, H:3, X:28, W:3, H:1, X:1, Y:7, C:128, F:64, ;214.1903088092804
31;1;MobilNet_05;19.151167800000003;0.0950047909358252;1;axe_out_channels1_0,axe_out_channels1_1,axe_xx1_0,axe_yy1_0,axe_out_channels1_2,axe_xx1_1;448;;;F:1, F:2, X:1, Y:4, F:2, C:2, H:3, X:28, W:3, H:1, X:1, Y:7, C:128, F:64, ;217.71502995491028
32;0;MobilNet_05;10.444489200000001;0.01387219505197347;1;axe_xx1_1;28;;;F:1, F:4, X:1, Y:4, F:1, C:2, H:3, X:28, W:3, H:1, X:1, Y:7, C:128, F:64, ;220.88282942771912
32;1;MobilNet_05;18.8582071;0.09952720527720071;1;axe_out_channels1_0,axe_out_channels1_1,axe_xx1_0,axe_yy1_0,axe_out_channels1_2,axe_xx1_1;448;;;F:1, F:4, X:1, Y:4, F:1, C:2, H:3, X:28, W:3, H:1, X:1, Y:7, C:128, F:64, ;224.39084720611572
33;0;MobilNet_05;10.5367493;0.027595384672259544;1;axe_xx1_1;28;;;F:2, F:1, X:1, Y:4, F:2, C:2, H:3, X:28, W:3, H:1, X:1, Y:7, C:128, F:64, ;227.57618069648743
33;1;MobilNet_05;19.088287799999996;0.09638021468932366;1;axe_out_channels1_0,axe_out_channels1_1,axe_xx1_0,axe_yy1_0,axe_out_channels1_2,axe_xx1_1;448;;;F:2, F:1, X:1, Y:4, F:2, C:2, H:3, X:28, W:3, H:1, X:1, Y:7, C:128, F:64, ;231.09948420524597
34;0;MobilNet_05;10.0516213;0.019474631755440043;1;axe_xx1_1;28;;;F:2, F:2, X:1, Y:4, F:1, C:2, H:3, X:28, W:3, H:1, X:1, Y:7, C:128, F:64, ;234.2671401500702
34;1;MobilNet_05;19.087616999999998;0.096535635020442;1;axe_out_channels1_0,axe_out_channels1_1,axe_xx1_0,axe_yy1_0,axe_out_channels1_2,axe_xx1_1;448;;;F:2, F:2, X:1, Y:4, F:1, C:2, H:3, X:28, W:3, H:1, X:1, Y:7, C:128, F:64, ;237.78070068359375
35;0;MobilNet_05;10.448701699999997;0.027917263207735635;1;axe_xx1_1;28;;;F:4, F:1, X:1, Y:4, F:1, C:2, H:3, X:28, W:3, H:1, X:1, Y:7, C:128, F:64, ;240.95179772377014
35;1;MobilNet_05;19.1660954;0.09965570230769513;1;axe_out_channels1_0,axe_out_channels1_1,axe_xx1_0,axe_yy1_0,axe_out_channels1_2,axe_xx1_1;448;;;F:4, F:1, X:1, Y:4, F:1, C:2, H:3, X:28, W:3, H:1, X:1, Y:7, C:128, F:64, ;244.47702884674072
36;0;MobilNet_05;10.2270909;0.023473788511656896;1;axe_out_channels1_0,axe_out_channels1_1,axe_xx1_0,axe_yy1_0,axe_out_channels1_2;28;;;F:1, F:1, X:1, Y:7, F:4, C:8, H:3, X:28, W:3, H:1, X:1, Y:4, C:32, F:64, ;247.5947470664978
36;1;MobilNet_05;22.9875759;0.07732493934876343;1;axe_out_channels1_0,axe_out_channels1_1,axe_xx1_0,axe_yy1_0,axe_out_channels1_2,axe_xx1_1;784;;;F:1, F:1, X:1, Y:7, F:4, C:8, H:3, X:28, W:3, H:1, X:1, Y:4, C:32, F:64, ;251.23886346817017
37;0;MobilNet_05;10.1434076;0.02006856399048026;1;axe_out_channels1_0,axe_out_channels1_1,axe_xx1_0,axe_yy1_0,axe_out_channels1_2;28;;;F:1, F:2, X:1, Y:7, F:2, C:8, H:3, X:28, W:3, H:1, X:1, Y:4, C:32, F:64, ;254.35301637649536
37;1;MobilNet_05;23.0311788;0.06614938218577622;1;axe_out_channels1_0,axe_out_channels1_1,axe_xx1_0,axe_yy1_0,axe_out_channels1_2,axe_xx1_1;784;;;F:1, F:2, X:1, Y:7, F:2, C:8, H:3, X:28, W:3, H:1, X:1, Y:4, C:32, F:64, ;258.00221514701843
38;0;MobilNet_05;10.098058;0.03197357406984745;1;axe_out_channels1_0,axe_out_channels1_1,axe_xx1_0,axe_yy1_0,axe_out_channels1_2;28;;;F:1, F:4, X:1, Y:7, F:1, C:8, H:3, X:28, W:3, H:1, X:1, Y:4, C:32, F:64, ;261.11863565444946
38;1;MobilNet_05;23.0677849;0.05576996340047223;1;axe_out_channels1_0,axe_out_channels1_1,axe_xx1_0,axe_yy1_0,axe_out_channels1_2,axe_xx1_1;784;;;F:1, F:4, X:1, Y:7, F:1, C:8, H:3, X:28, W:3, H:1, X:1, Y:4, C:32, F:64, ;264.76085925102234
39;0;MobilNet_05;10.1415153;0.02615458189323643;1;axe_out_channels1_0,axe_out_channels1_1,axe_xx1_0,axe_yy1_0,axe_out_channels1_2;28;;;F:2, F:1, X:1, Y:7, F:2, C:8, H:3, X:28, W:3, H:1, X:1, Y:4, C:32, F:64, ;267.8795738220215
39;1;MobilNet_05;22.930065300000003;0.06776255548317185;1;axe_out_channels1_0,axe_out_channels1_1,axe_xx1_0,axe_yy1_0,axe_out_channels1_2,axe_xx1_1;784;;;F:2, F:1, X:1, Y:7, F:2, C:8, H:3, X:28, W:3, H:1, X:1, Y:4, C:32, F:64, ;271.522723197937
40;0;MobilNet_05;10.028046600000001;0.016972226920472417;1;axe_out_channels1_0,axe_out_channels1_1,axe_xx1_0,axe_yy1_0,axe_out_channels1_2;28;;;F:2, F:2, X:1, Y:7, F:1, C:8, H:3, X:28, W:3, H:1, X:1, Y:4, C:32, F:64, ;274.6368832588196
40;1;MobilNet_05;23.0035994;0.0758299976476334;1;axe_out_channels1_0,axe_out_channels1_1,axe_xx1_0,axe_yy1_0,axe_out_channels1_2,axe_xx1_1;784;;;F:2, F:2, X:1, Y:7, F:1, C:8, H:3, X:28, W:3, H:1, X:1, Y:4, C:32, F:64, ;278.28293323516846
41;0;MobilNet_05;10.067598100000001;0.03417902204115856;1;axe_out_channels1_0,axe_out_channels1_1,axe_xx1_0,axe_yy1_0,axe_out_channels1_2;28;;;F:4, F:1, X:1, Y:7, F:1, C:8, H:3, X:28, W:3, H:1, X:1, Y:4, C:32, F:64, ;281.40052223205566
41;1;MobilNet_05;22.9312802;0.04141835682351487;1;axe_out_channels1_0,axe_out_channels1_1,axe_xx1_0,axe_yy1_0,axe_out_channels1_2,axe_xx1_1;784;;;F:4, F:1, X:1, Y:7, F:1, C:8, H:3, X:28, W:3, H:1, X:1, Y:4, C:32, F:64, ;285.0463089942932
42;0;MobilNet_05;14.459545199999997;0.04818257113479888;1;axe_yy1_0,axe_out_channels1_0,axe_yy1_1;32;;;Y:1, F:16, Y:2, C:2, X:28, W:3, W:1, H:3, X:1, Y:14, C:128, F:16, ;288.3815712928772
42;1;MobilNet_05;15.575472300000001;0.04119038097918042;1;axe_yy1_0,axe_out_channels1_0,axe_yy1_1,axe_xx1_0;896;;;Y:1, F:16, Y:2, C:2, X:28, W:3, W:1, H:3, X:1, Y:14, C:128, F:16, ;291.7604236602783
43;0;MobilNet_05;15.041251800000003;0.021470542502694506;1;axe_yy1_0,axe_out_channels1_0,axe_yy1_1;32;;;Y:2, F:16, Y:1, C:2, X:28, W:3, W:1, H:3, X:1, Y:14, C:128, F:16, ;295.1030263900757
43;1;MobilNet_05;16.0238312;0.13992538283156475;1;axe_yy1_0,axe_out_channels1_0,axe_yy1_1,axe_xx1_0;896;;;Y:2, F:16, Y:1, C:2, X:28, W:3, W:1, H:3, X:1, Y:14, C:128, F:16, ;298.4940745830536
44;0;MobilNet_05;8.6477138;0.013596056691556072;1;axe_out_channels1_0,axe_out_channels1_1,axe_xx1_0,axe_yy1_0,axe_out_channels1_2;28;;;F:1, F:1, X:1, Y:7, F:4, C:2, H:3, X:28, W:3, H:1, X:1, Y:4, C:128, F:64, ;301.5520040988922
44;1;MobilNet_05;22.779535799999998;0.03965109392891934;1;axe_out_channels1_0,axe_out_channels1_1,axe_xx1_0,axe_yy1_0,axe_out_channels1_2,axe_xx1_1;784;;;F:1, F:1, X:1, Y:7, F:4, C:2, H:3, X:28, W:3, H:1, X:1, Y:4, C:128, F:64, ;305.19833970069885
45;0;MobilNet_05;8.6513753;0.015249546406696958;1;axe_out_channels1_0,axe_out_channels1_1,axe_xx1_0,axe_yy1_0,axe_out_channels1_2;28;;;F:1, F:2, X:1, Y:7, F:2, C:2, H:3, X:28, W:3, H:1, X:1, Y:4, C:128, F:64, ;308.2585027217865
45;1;MobilNet_05;22.7991366;0.0234141572011471;1;axe_out_channels1_0,axe_out_channels1_1,axe_xx1_0,axe_yy1_0,axe_out_channels1_2,axe_xx1_1;784;;;F:1, F:2, X:1, Y:7, F:2, C:2, H:3, X:28, W:3, H:1, X:1, Y:4, C:128, F:64, ;311.9031093120575
46;0;MobilNet_05;8.6467397;0.009725900781418682;1;axe_out_channels1_0,axe_out_channels1_1,axe_xx1_0,axe_yy1_0,axe_out_channels1_2;28;;;F:1, F:4, X:1, Y:7, F:1, C:2, H:3, X:28, W:3, H:1, X:1, Y:4, C:128, F:64, ;314.9651048183441
46;1;MobilNet_05;22.8361568;0.026513552661988432;1;axe_out_channels1_0,axe_out_channels1_1,axe_xx1_0,axe_yy1_0,axe_out_channels1_2,axe_xx1_1;784;;;F:1, F:4, X:1, Y:7, F:1, C:2, H:3, X:28, W:3, H:1, X:1, Y:4, C:128, F:64, ;318.6062123775482
47;0;MobilNet_05;8.615991900000001;0.01640350412229022;1;axe_out_channels1_0,axe_out_channels1_1,axe_xx1_0,axe_yy1_0,axe_out_channels1_2;28;;;F:2, F:1, X:1, Y:7, F:2, C:2, H:3, X:28, W:3, H:1, X:1, Y:4, C:128, F:64, ;321.66241693496704
47;1;MobilNet_05;22.796206599999998;0.038984670041440676;1;axe_out_channels1_0,axe_out_channels1_1,axe_xx1_0,axe_yy1_0,axe_out_channels1_2,axe_xx1_1;784;;;F:2, F:1, X:1, Y:7, F:2, C:2, H:3, X:28, W:3, H:1, X:1, Y:4, C:128, F:64, ;325.3040008544922
48;0;MobilNet_05;8.659697300000001;0.012819833408043723;1;axe_out_channels1_0,axe_out_channels1_1,axe_xx1_0,axe_yy1_0,axe_out_channels1_2;28;;;F:2, F:2, X:1, Y:7, F:1, C:2, H:3, X:28, W:3, H:1, X:1, Y:4, C:128, F:64, ;328.36290073394775
48;1;MobilNet_05;22.8328826;0.019209789120133765;1;axe_out_channels1_0,axe_out_channels1_1,axe_xx1_0,axe_yy1_0,axe_out_channels1_2,axe_xx1_1;784;;;F:2, F:2, X:1, Y:7, F:1, C:2, H:3, X:28, W:3, H:1, X:1, Y:4, C:128, F:64, ;332.00096368789673
49;0;MobilNet_05;8.617520100000002;0.014006265394101235;1;axe_out_channels1_0,axe_out_channels1_1,axe_xx1_0,axe_yy1_0,axe_out_channels1_2;28;;;F:4, F:1, X:1, Y:7, F:1, C:2, H:3, X:28, W:3, H:1, X:1, Y:4, C:128, F:64, ;335.06478357315063
49;1;MobilNet_05;22.8930793;0.03001961182643859;1;axe_out_channels1_0,axe_out_channels1_1,axe_xx1_0,axe_yy1_0,axe_out_channels1_2,axe_xx1_1;784;;;F:4, F:1, X:1, Y:7, F:1, C:2, H:3, X:28, W:3, H:1, X:1, Y:4, C:128, F:64, ;338.70758962631226
50;0;MobilNet_05;12.590666200000001;0.5177718633085036;1;axe_out_channels1_0,axe_out_channels1_1,axe_xx1_0,axe_yy1_0,axe_out_channels1_2;32;;;F:1, F:1, X:2, Y:4, F:4, C:8, W:3, X:14, H:3, W:1, H:1, X:1, Y:7, C:32, F:64, ;341.92306447029114
50;1;MobilNet_05;19.001273599999998;0.4173353473383714;1;axe_out_channels1_0,axe_out_channels1_1,axe_xx1_0,axe_yy1_0,axe_out_channels1_2,axe_xx1_1;448;;;F:1, F:1, X:2, Y:4, F:4, C:8, W:3, X:14, H:3, W:1, H:1, X:1, Y:7, C:32, F:64, ;345.4276747703552
51;0;MobilNet_05;12.7533944;0.3839139547714304;1;axe_out_channels1_0,axe_out_channels1_1,axe_xx1_0,axe_yy1_0,axe_out_channels1_2;32;;;F:1, F:2, X:2, Y:4, F:2, C:8, W:3, X:14, H:3, W:1, H:1, X:1, Y:7, C:32, F:64, ;348.6442792415619
51;1;MobilNet_05;18.554594299999998;0.22999671708528782;1;axe_out_channels1_0,axe_out_channels1_1,axe_xx1_0,axe_yy1_0,axe_out_channels1_2,axe_xx1_1;448;;;F:1, F:2, X:2, Y:4, F:2, C:8, W:3, X:14, H:3, W:1, H:1, X:1, Y:7, C:32, F:64, ;352.13370990753174
52;0;MobilNet_05;12.748763799999999;0.3865859010392904;1;axe_out_channels1_0,axe_out_channels1_1,axe_xx1_0,axe_yy1_0,axe_out_channels1_2;32;;;F:1, F:4, X:2, Y:4, F:1, C:8, W:3, X:14, H:3, W:1, H:1, X:1, Y:7, C:32, F:64, ;355.36607456207275
52;1;MobilNet_05;18.7109527;0.3691547935297732;1;axe_out_channels1_0,axe_out_channels1_1,axe_xx1_0,axe_yy1_0,axe_out_channels1_2,axe_xx1_1;448;;;F:1, F:4, X:2, Y:4, F:1, C:8, W:3, X:14, H:3, W:1, H:1, X:1, Y:7, C:32, F:64, ;358.85980129241943
53;0;MobilNet_05;12.5481323;0.5118073004254727;1;axe_out_channels1_0,axe_out_channels1_1,axe_xx1_0,axe_yy1_0,axe_out_channels1_2;32;;;F:2, F:1, X:2, Y:4, F:2, C:8, W:3, X:14, H:3, W:1, H:1, X:1, Y:7, C:32, F:64, ;362.07670545578003
53;1;MobilNet_05;19.352983899999998;0.2082409595048246;1;axe_out_channels1_0,axe_out_channels1_1,axe_xx1_0,axe_yy1_0,axe_out_channels1_2,axe_xx1_1;448;;;F:2, F:1, X:2, Y:4, F:2, C:8, W:3, X:14, H:3, W:1, H:1, X:1, Y:7, C:32, F:64, ;365.5943148136139
54;0;MobilNet_05;12.8289955;0.11363834328539826;1;axe_out_channels1_0,axe_out_channels1_1,axe_xx1_0,axe_yy1_0,axe_out_channels1_2;32;;;F:2, F:2, X:2, Y:4, F:1, C:8, W:3, X:14, H:3, W:1, H:1, X:1, Y:7, C:32, F:64, ;368.82403111457825
54;1;MobilNet_05;18.5610145;0.3487364145609831;1;axe_out_channels1_0,axe_out_channels1_1,axe_xx1_0,axe_yy1_0,axe_out_channels1_2,axe_xx1_1;448;;;F:2, F:2, X:2, Y:4, F:1, C:8, W:3, X:14, H:3, W:1, H:1, X:1, Y:7, C:32, F:64, ;372.312620639801
55;0;MobilNet_05;11.8481469;0.5452199932948991;1;axe_out_channels1_0,axe_out_channels1_1,axe_xx1_0,axe_yy1_0,axe_out_channels1_2;32;;;F:4, F:1, X:2, Y:4, F:1, C:8, W:3, X:14, H:3, W:1, H:1, X:1, Y:7, C:32, F:64, ;375.526664018631
55;1;MobilNet_05;18.808573799999998;0.3599973413881831;1;axe_out_channels1_0,axe_out_channels1_1,axe_xx1_0,axe_yy1_0,axe_out_channels1_2,axe_xx1_1;448;;;F:4, F:1, X:2, Y:4, F:1, C:8, W:3, X:14, H:3, W:1, H:1, X:1, Y:7, C:32, F:64, ;379.0234634876251
56;0;MobilNet_05;23.6001792;0.10053265407000889;1;axe_out_channels1_0,axe_out_channels1_1,axe_xx1_0,axe_yy1_0,axe_out_channels1_2;32;;;F:1, F:1, X:2, Y:4, F:4, C:8, W:3, X:14, W:1, H:3, X:1, Y:7, C:32, F:64, ;382.71918058395386
56;1;MobilNet_05;21.8568919;0.16717490476411112;1;axe_out_channels1_0,axe_out_channels1_1,axe_xx1_0,axe_yy1_0,axe_out_channels1_2,axe_xx1_1;448;;;F:1, F:1, X:2, Y:4, F:4, C:8, W:3, X:14, W:1, H:3, X:1, Y:7, C:32, F:64, ;386.35203766822815
57;0;MobilNet_05;23.6276915;0.0856071515461769;1;axe_out_channels1_0,axe_out_channels1_1,axe_xx1_0,axe_yy1_0,axe_out_channels1_2;32;;;F:1, F:2, X:2, Y:4, F:2, C:8, W:3, X:14, W:1, H:3, X:1, Y:7, C:32, F:64, ;390.05554151535034
57;1;MobilNet_05;21.798728199999996;0.19169100534495567;1;axe_out_channels1_0,axe_out_channels1_1,axe_xx1_0,axe_yy1_0,axe_out_channels1_2,axe_xx1_1;448;;;F:1, F:2, X:2, Y:4, F:2, C:8, W:3, X:14, W:1, H:3, X:1, Y:7, C:32, F:64, ;393.6847176551819
58;0;MobilNet_05;23.657620700000003;0.09586895133154472;1;axe_out_channels1_0,axe_out_channels1_1,axe_xx1_0,axe_yy1_0,axe_out_channels1_2;32;;;F:1, F:4, X:2, Y:4, F:1, C:8, W:3, X:14, W:1, H:3, X:1, Y:7, C:32, F:64, ;397.397225856781
58;1;MobilNet_05;21.8005956;0.18526660607848383;1;axe_out_channels1_0,axe_out_channels1_1,axe_xx1_0,axe_yy1_0,axe_out_channels1_2,axe_xx1_1;448;;;F:1, F:4, X:2, Y:4, F:1, C:8, W:3, X:14, W:1, H:3, X:1, Y:7, C:32, F:64, ;401.02813625335693
59;0;MobilNet_05;23.5886382;0.0733911214913633;1;axe_out_channels1_0,axe_out_channels1_1,axe_xx1_0,axe_yy1_0,axe_out_channels1_2;32;;;F:2, F:1, X:2, Y:4, F:2, C:8, W:3, X:14, W:1, H:3, X:1, Y:7, C:32, F:64, ;404.73182439804077
59;1;MobilNet_05;21.6933543;0.19522113270342953;1;axe_out_channels1_0,axe_out_channels1_1,axe_xx1_0,axe_yy1_0,axe_out_channels1_2,axe_xx1_1;448;;;F:2, F:1, X:2, Y:4, F:2, C:8, W:3, X:14, W:1, H:3, X:1, Y:7, C:32, F:64, ;408.3580846786499
60;0;MobilNet_05;23.595770899999998;0.0870873498694848;1;axe_out_channels1_0,axe_out_channels1_1,axe_xx1_0,axe_yy1_0,axe_out_channels1_2;32;;;F:2, F:2, X:2, Y:4, F:1, C:8, W:3, X:14, W:1, H:3, X:1, Y:7, C:32, F:64, ;412.06307673454285
60;1;MobilNet_05;21.8731606;0.26495394576726;1;axe_out_channels1_0,axe_out_channels1_1,axe_xx1_0,axe_yy1_0,axe_out_channels1_2,axe_xx1_1;448;;;F:2, F:2, X:2, Y:4, F:1, C:8, W:3, X:14, W:1, H:3, X:1, Y:7, C:32, F:64, ;415.69828748703003
61;0;MobilNet_05;23.5279864;0.012583513104058237;1;axe_out_channels1_0,axe_out_channels1_1,axe_xx1_0,axe_yy1_0,axe_out_channels1_2;32;;;F:4, F:1, X:2, Y:4, F:1, C:8, W:3, X:14, W:1, H:3, X:1, Y:7, C:32, F:64, ;419.4061942100525
61;1;MobilNet_05;21.8815108;0.2432827456301823;1;axe_out_channels1_0,axe_out_channels1_1,axe_xx1_0,axe_yy1_0,axe_out_channels1_2,axe_xx1_1;448;;;F:4, F:1, X:2, Y:4, F:1, C:8, W:3, X:14, W:1, H:3, X:1, Y:7, C:32, F:64, ;423.04049491882324
62;0;MobilNet_05;10.5523278;0.01924889305804361;1;axe_out_channels1_0,axe_out_channels1_1,axe_xx1_0,axe_yy1_0,axe_out_channels1_2;32;;;F:1, F:1, X:2, Y:4, F:4, C:8, H:3, X:14, W:3, H:1, X:1, Y:7, C:32, F:64, ;426.20438623428345
62;1;MobilNet_05;19.5465665;0.17954338776866727;1;axe_out_channels1_0,axe_out_channels1_1,axe_xx1_0,axe_yy1_0,axe_out_channels1_2,axe_xx1_1;448;;;F:1, F:1, X:2, Y:4, F:4, C:8, H:3, X:14, W:3, H:1, X:1, Y:7, C:32, F:64, ;429.7471764087677
63;0;MobilNet_05;10.539956;0.01094783774085084;1;axe_out_channels1_0,axe_out_channels1_1,axe_xx1_0,axe_yy1_0,axe_out_channels1_2;32;;;F:1, F:2, X:2, Y:4, F:2, C:8, H:3, X:14, W:3, H:1, X:1, Y:7, C:32, F:64, ;432.9142668247223
63;1;MobilNet_05;19.677314799999998;0.10006242755580223;1;axe_out_channels1_0,axe_out_channels1_1,axe_xx1_0,axe_yy1_0,axe_out_channels1_2,axe_xx1_1;448;;;F:1, F:2, X:2, Y:4, F:2, C:8, H:3, X:14, W:3, H:1, X:1, Y:7, C:32, F:64, ;436.46072816848755
64;0;MobilNet_05;10.54988;0.01733887083982166;1;axe_out_channels1_0,axe_out_channels1_1,axe_xx1_0,axe_yy1_0,axe_out_channels1_2;32;;;F:1, F:4, X:2, Y:4, F:1, C:8, H:3, X:14, W:3, H:1, X:1, Y:7, C:32, F:64, ;439.6384220123291
64;1;MobilNet_05;19.753118300000004;0.07564041012190444;1;axe_out_channels1_0,axe_out_channels1_1,axe_xx1_0,axe_yy1_0,axe_out_channels1_2,axe_xx1_1;448;;;F:1, F:4, X:2, Y:4, F:1, C:8, H:3, X:14, W:3, H:1, X:1, Y:7, C:32, F:64, ;443.18201518058777
65;0;MobilNet_05;10.5340899;0.010741003942369603;1;axe_out_channels1_0,axe_out_channels1_1,axe_xx1_0,axe_yy1_0,axe_out_channels1_2;32;;;F:2, F:1, X:2, Y:4, F:2, C:8, H:3, X:14, W:3, H:1, X:1, Y:7, C:32, F:64, ;446.3438766002655
65;1;MobilNet_05;19.741034699999997;0.07174229611470538;1;axe_out_channels1_0,axe_out_channels1_1,axe_xx1_0,axe_yy1_0,axe_out_channels1_2,axe_xx1_1;448;;;F:2, F:1, X:2, Y:4, F:2, C:8, H:3, X:14, W:3, H:1, X:1, Y:7, C:32, F:64, ;449.89279651641846
66;0;MobilNet_05;10.532767100000001;0.009669342991641044;1;axe_out_channels1_0,axe_out_channels1_1,axe_xx1_0,axe_yy1_0,axe_out_channels1_2;32;;;F:2, F:2, X:2, Y:4, F:1, C:8, H:3, X:14, W:3, H:1, X:1, Y:7, C:32, F:64, ;453.0700936317444
66;1;MobilNet_05;19.527232599999998;0.08844428940321625;1;axe_out_channels1_0,axe_out_channels1_1,axe_xx1_0,axe_yy1_0,axe_out_channels1_2,axe_xx1_1;448;;;F:2, F:2, X:2, Y:4, F:1, C:8, H:3, X:14, W:3, H:1, X:1, Y:7, C:32, F:64, ;456.6063072681427
67;0;MobilNet_05;10.558045799999999;0.010026902490798966;1;axe_out_channels1_0,axe_out_channels1_1,axe_xx1_0,axe_yy1_0,axe_out_channels1_2;32;;;F:4, F:1, X:2, Y:4, F:1, C:8, H:3, X:14, W:3, H:1, X:1, Y:7, C:32, F:64, ;459.7786531448364
67;1;MobilNet_05;19.373817500000005;0.17424368540136553;1;axe_out_channels1_0,axe_out_channels1_1,axe_xx1_0,axe_yy1_0,axe_out_channels1_2,axe_xx1_1;448;;;F:4, F:1, X:2, Y:4, F:1, C:8, H:3, X:14, W:3, H:1, X:1, Y:7, C:32, F:64, ;463.30759859085083
68;0;MobilNet_05;9.116966999999999;0.04131972937471911;1;axe_out_channels1_0,axe_out_channels1_1,axe_xx1_0,axe_yy1_0,axe_out_channels1_2;56;;;F:1, F:1, X:2, Y:7, F:4, C:1, H:3, X:14, W:3, H:1, X:1, Y:4, C:256, F:64, ;466.38769483566284
68;1;MobilNet_05;22.657784900000003;0.025583665997858482;1;axe_out_channels1_0,axe_out_channels1_1,axe_xx1_0,axe_yy1_0,axe_out_channels1_2,axe_xx1_1;784;;;F:1, F:1, X:2, Y:7, F:4, C:1, H:3, X:14, W:3, H:1, X:1, Y:4, C:256, F:64, ;470.01768469810486
69;0;MobilNet_05;9.0633875;0.048474082411635186;1;axe_out_channels1_0,axe_out_channels1_1,axe_xx1_0,axe_yy1_0,axe_out_channels1_2;56;;;F:1, F:2, X:2, Y:7, F:2, C:1, H:3, X:14, W:3, H:1, X:1, Y:4, C:256, F:64, ;473.1041889190674
69;1;MobilNet_05;22.746059400000004;0.029973042198614935;1;axe_out_channels1_0,axe_out_channels1_1,axe_xx1_0,axe_yy1_0,axe_out_channels1_2,axe_xx1_1;784;;;F:1, F:2, X:2, Y:7, F:2, C:1, H:3, X:14, W:3, H:1, X:1, Y:4, C:256, F:64, ;476.73835039138794
70;0;MobilNet_05;9.2361119;0.04607804612925761;1;axe_out_channels1_0,axe_out_channels1_1,axe_xx1_0,axe_yy1_0,axe_out_channels1_2;56;;;F:1, F:4, X:2, Y:7, F:1, C:1, H:3, X:14, W:3, H:1, X:1, Y:4, C:256, F:64, ;479.8411543369293
70;1;MobilNet_05;22.7720459;0.02704554127189856;1;axe_out_channels1_0,axe_out_channels1_1,axe_xx1_0,axe_yy1_0,axe_out_channels1_2,axe_xx1_1;784;;;F:1, F:4, X:2, Y:7, F:1, C:1, H:3, X:14, W:3, H:1, X:1, Y:4, C:256, F:64, ;483.48199462890625
71;0;MobilNet_05;9.140527;0.023047141527746853;1;axe_out_channels1_0,axe_out_channels1_1,axe_xx1_0,axe_yy1_0,axe_out_channels1_2;56;;;F:2, F:1, X:2, Y:7, F:2, C:1, H:3, X:14, W:3, H:1, X:1, Y:4, C:256, F:64, ;486.5672070980072
71;1;MobilNet_05;22.707983199999997;0.02719522097648798;1;axe_out_channels1_0,axe_out_channels1_1,axe_xx1_0,axe_yy1_0,axe_out_channels1_2,axe_xx1_1;784;;;F:2, F:1, X:2, Y:7, F:2, C:1, H:3, X:14, W:3, H:1, X:1, Y:4, C:256, F:64, ;490.19926857948303
72;0;MobilNet_05;9.1977843;0.03994915350805313;1;axe_out_channels1_0,axe_out_channels1_1,axe_xx1_0,axe_yy1_0,axe_out_channels1_2;56;;;F:2, F:2, X:2, Y:7, F:1, C:1, H:3, X:14, W:3, H:1, X:1, Y:4, C:256, F:64, ;493.29779386520386
72;1;MobilNet_05;22.7558408;0.02346725289334077;1;axe_out_channels1_0,axe_out_channels1_1,axe_xx1_0,axe_yy1_0,axe_out_channels1_2,axe_xx1_1;784;;;F:2, F:2, X:2, Y:7, F:1, C:1, H:3, X:14, W:3, H:1, X:1, Y:4, C:256, F:64, ;496.9355089664459
73;0;MobilNet_05;9.158756499999999;0.01719285674488088;1;axe_out_channels1_0,axe_out_channels1_1,axe_xx1_0,axe_yy1_0,axe_out_channels1_2;56;;;F:4, F:1, X:2, Y:7, F:1, C:1, H:3, X:14, W:3, H:1, X:1, Y:4, C:256, F:64, ;500.03104043006897
73;1;MobilNet_05;22.7583409;0.025106242671692917;1;axe_out_channels1_0,axe_out_channels1_1,axe_xx1_0,axe_yy1_0,axe_out_channels1_2,axe_xx1_1;784;;;F:4, F:1, X:2, Y:7, F:1, C:1, H:3, X:14, W:3, H:1, X:1, Y:4, C:256, F:64, ;503.66523241996765
74;0;MobilNet_05;10.6075771;0.01647904508428826;1;axe_xx1_1;28;;;F:1, F:1, X:1, Y:4, F:4, C:8, H:3, X:28, W:3, H:1, X:1, Y:7, C:32, F:64, ;506.8496165275574
74;1;MobilNet_05;19.2836415;0.16968919661619591;1;axe_out_channels1_0,axe_out_channels1_1,axe_xx1_0,axe_yy1_0,axe_out_channels1_2,axe_xx1_1;448;;;F:1, F:1, X:1, Y:4, F:4, C:8, H:3, X:28, W:3, H:1, X:1, Y:7, C:32, F:64, ;510.37959575653076
75;0;MobilNet_05;10.576788500000001;0.011001679774016233;1;axe_xx1_1;28;;;F:1, F:2, X:1, Y:4, F:2, C:8, H:3, X:28, W:3, H:1, X:1, Y:7, C:32, F:64, ;513.5674788951874
75;1;MobilNet_05;19.495455200000002;0.09058734027754624;1;axe_out_channels1_0,axe_out_channels1_1,axe_xx1_0,axe_yy1_0,axe_out_channels1_2,axe_xx1_1;448;;;F:1, F:2, X:1, Y:4, F:2, C:8, H:3, X:28, W:3, H:1, X:1, Y:7, C:32, F:64, ;517.1076955795288
76;0;MobilNet_05;10.613053500000001;0.017344147406257688;1;axe_xx1_1;28;;;F:1, F:4, X:1, Y:4, F:1, C:8, H:3, X:28, W:3, H:1, X:1, Y:7, C:32, F:64, ;520.2939319610596
76;1;MobilNet_05;19.6218048;0.0929857591642932;1;axe_out_channels1_0,axe_out_channels1_1,axe_xx1_0,axe_yy1_0,axe_out_channels1_2,axe_xx1_1;448;;;F:1, F:4, X:1, Y:4, F:1, C:8, H:3, X:28, W:3, H:1, X:1, Y:7, C:32, F:64, ;523.829508304596
77;0;MobilNet_05;10.6094291;0.012625143448293855;1;axe_xx1_1;28;;;F:2, F:1, X:1, Y:4, F:2, C:8, H:3, X:28, W:3, H:1, X:1, Y:7, C:32, F:64, ;527.0211474895477
77;1;MobilNet_05;19.420411799999997;0.0962240612984095;1;axe_out_channels1_0,axe_out_channels1_1,axe_xx1_0,axe_yy1_0,axe_out_channels1_2,axe_xx1_1;448;;;F:2, F:1, X:1, Y:4, F:2, C:8, H:3, X:28, W:3, H:1, X:1, Y:7, C:32, F:64, ;530.5569696426392
78;0;MobilNet_05;10.6218331;0.01316373280228669;1;axe_xx1_1;28;;;F:2, F:2, X:1, Y:4, F:1, C:8, H:3, X:28, W:3, H:1, X:1, Y:7, C:32, F:64, ;533.7525579929352
78;1;MobilNet_05;19.5572198;0.10102637955781689;1;axe_out_channels1_0,axe_out_channels1_1,axe_xx1_0,axe_yy1_0,axe_out_channels1_2,axe_xx1_1;448;;;F:2, F:2, X:1, Y:4, F:1, C:8, H:3, X:28, W:3, H:1, X:1, Y:7, C:32, F:64, ;537.2895839214325
79;0;MobilNet_05;10.618327299999999;0.025072023273162547;1;axe_xx1_1;28;;;F:4, F:1, X:1, Y:4, F:1, C:8, H:3, X:28, W:3, H:1, X:1, Y:7, C:32, F:64, ;540.4743435382843
79;1;MobilNet_05;19.243611500000004;0.1363863509734389;1;axe_out_channels1_0,axe_out_channels1_1,axe_xx1_0,axe_yy1_0,axe_out_channels1_2,axe_xx1_1;448;;;F:4, F:1, X:1, Y:4, F:1, C:8, H:3, X:28, W:3, H:1, X:1, Y:7, C:32, F:64, ;543.9997918605804
80;0;MobilNet_05;10.0062116;0.00960052363363582;1;axe_out_channels1_0,axe_out_channels1_1,axe_xx1_0,axe_yy1_0,axe_out_channels1_2;32;;;F:1, F:1, X:2, Y:4, F:4, C:2, H:3, X:14, W:3, H:1, X:1, Y:7, C:128, F:64, ;547.142425775528
80;1;MobilNet_05;19.169319;0.09159729195560301;1;axe_out_channels1_0,axe_out_channels1_1,axe_xx1_0,axe_yy1_0,axe_out_channels1_2,axe_xx1_1;448;;;F:1, F:1, X:2, Y:4, F:4, C:2, H:3, X:14, W:3, H:1, X:1, Y:7, C:128, F:64, ;550.6694548130035
81;0;MobilNet_05;10.0071101;0.009976054364827751;1;axe_out_channels1_0,axe_out_channels1_1,axe_xx1_0,axe_yy1_0,axe_out_channels1_2;32;;;F:1, F:2, X:2, Y:4, F:2, C:2, H:3, X:14, W:3, H:1, X:1, Y:7, C:128, F:64, ;553.8158752918243
81;1;MobilNet_05;19.0234927;0.12371050529607397;1;axe_out_channels1_0,axe_out_channels1_1,axe_xx1_0,axe_yy1_0,axe_out_channels1_2,axe_xx1_1;448;;;F:1, F:2, X:2, Y:4, F:2, C:2, H:3, X:14, W:3, H:1, X:1, Y:7, C:128, F:64, ;557.3392007350922
82;0;MobilNet_05;10.0013884;0.00853310770118394;1;axe_out_channels1_0,axe_out_channels1_1,axe_xx1_0,axe_yy1_0,axe_out_channels1_2;32;;;F:1, F:4, X:2, Y:4, F:1, C:2, H:3, X:14, W:3, H:1, X:1, Y:7, C:128, F:64, ;560.4871754646301
82;1;MobilNet_05;18.8973051;0.08520705324848382;1;axe_out_channels1_0,axe_out_channels1_1,axe_xx1_0,axe_yy1_0,axe_out_channels1_2,axe_xx1_1;448;;;F:1, F:4, X:2, Y:4, F:1, C:2, H:3, X:14, W:3, H:1, X:1, Y:7, C:128, F:64, ;563.9988126754761
83;0;MobilNet_05;9.9980905;0.0042647409593081905;1;axe_out_channels1_0,axe_out_channels1_1,axe_xx1_0,axe_yy1_0,axe_out_channels1_2;32;;;F:2, F:1, X:2, Y:4, F:2, C:2, H:3, X:14, W:3, H:1, X:1, Y:7, C:128, F:64, ;567.1449422836304
83;1;MobilNet_05;18.8734226;0.07650027672525127;1;axe_out_channels1_0,axe_out_channels1_1,axe_xx1_0,axe_yy1_0,axe_out_channels1_2,axe_xx1_1;448;;;F:2, F:1, X:2, Y:4, F:2, C:2, H:3, X:14, W:3, H:1, X:1, Y:7, C:128, F:64, ;570.6628818511963
84;0;MobilNet_05;9.9954647;0.007616942773186834;1;axe_out_channels1_0,axe_out_channels1_1,axe_xx1_0,axe_yy1_0,axe_out_channels1_2;32;;;F:2, F:2, X:2, Y:4, F:1, C:2, H:3, X:14, W:3, H:1, X:1, Y:7, C:128, F:64, ;573.8107588291168
84;1;MobilNet_05;19.1530444;0.08219932914835659;1;axe_out_channels1_0,axe_out_channels1_1,axe_xx1_0,axe_yy1_0,axe_out_channels1_2,axe_xx1_1;448;;;F:2, F:2, X:2, Y:4, F:1, C:2, H:3, X:14, W:3, H:1, X:1, Y:7, C:128, F:64, ;577.3328156471252
85;0;MobilNet_05;10.0225211;0.005775236297330503;1;axe_out_channels1_0,axe_out_channels1_1,axe_xx1_0,axe_yy1_0,axe_out_channels1_2;32;;;F:4, F:1, X:2, Y:4, F:1, C:2, H:3, X:14, W:3, H:1, X:1, Y:7, C:128, F:64, ;580.4872825145721
85;1;MobilNet_05;19.172138;0.06801329144071801;1;axe_out_channels1_0,axe_out_channels1_1,axe_xx1_0,axe_yy1_0,axe_out_channels1_2,axe_xx1_1;448;;;F:4, F:1, X:2, Y:4, F:1, C:2, H:3, X:14, W:3, H:1, X:1, Y:7, C:128, F:64, ;584.0154647827148
86;0;MobilNet_05;8.474673999999998;0.046004104769031114;1;axe_yy1_0,axe_out_channels1_0,axe_yy1_1;32;;;Y:1, F:16, Y:2, C:4, X:28, W:3, W:1, H:3, X:1, Y:14, C:64, F:16, ;587.1017396450043
86;1;MobilNet_05;16.220282200000003;0.06329718290856241;1;axe_yy1_0,axe_out_channels1_0,axe_yy1_1,axe_xx1_0;896;;;Y:1, F:16, Y:2, C:4, X:28, W:3, W:1, H:3, X:1, Y:14, C:64, F:16, ;590.5018520355225
87;0;MobilNet_05;8.4048291;0.028564986443021342;1;axe_yy1_0,axe_out_channels1_0,axe_yy1_1;32;;;Y:2, F:16, Y:1, C:4, X:28, W:3, W:1, H:3, X:1, Y:14, C:64, F:16, ;593.578492641449
87;1;MobilNet_05;16.225308799999997;0.03949629354964807;1;axe_yy1_0,axe_out_channels1_0,axe_yy1_1,axe_xx1_0;896;;;Y:2, F:16, Y:1, C:4, X:28, W:3, W:1, H:3, X:1, Y:14, C:64, F:16, ;596.9751148223877
88;0;MobilNet_05;9.1648316;0.015372943395459247;1;axe_out_channels1_0,axe_out_channels1_1,axe_xx1_0,axe_yy1_0,axe_out_channels1_2;28;;;F:1, F:1, X:1, Y:7, F:4, C:4, H:3, X:28, W:3, H:1, X:1, Y:4, C:64, F:64, ;600.0525555610657
88;1;MobilNet_05;22.8719808;0.05538537345148092;1;axe_out_channels1_0,axe_out_channels1_1,axe_xx1_0,axe_yy1_0,axe_out_channels1_2,axe_xx1_1;784;;;F:1, F:1, X:1, Y:7, F:4, C:4, H:3, X:28, W:3, H:1, X:1, Y:4, C:64, F:64, ;603.6994709968567
89;0;MobilNet_05;9.153284500000002;0.014463502675700481;1;axe_out_channels1_0,axe_out_channels1_1,axe_xx1_0,axe_yy1_0,axe_out_channels1_2;28;;;F:1, F:2, X:1, Y:7, F:2, C:4, H:3, X:28, W:3, H:1, X:1, Y:4, C:64, F:64, ;606.7763528823853
89;1;MobilNet_05;22.889180200000006;0.0432960506000249;1;axe_out_channels1_0,axe_out_channels1_1,axe_xx1_0,axe_yy1_0,axe_out_channels1_2,axe_xx1_1;784;;;F:1, F:2, X:1, Y:7, F:2, C:4, H:3, X:28, W:3, H:1, X:1, Y:4, C:64, F:64, ;610.4218692779541
90;0;MobilNet_05;9.1447448;0.009573436455108547;1;axe_out_channels1_0,axe_out_channels1_1,axe_xx1_0,axe_yy1_0,axe_out_channels1_2;28;;;F:1, F:4, X:1, Y:7, F:1, C:4, H:3, X:28, W:3, H:1, X:1, Y:4, C:64, F:64, ;613.5074317455292
90;1;MobilNet_05;22.922020500000002;0.03560793673958138;1;axe_out_channels1_0,axe_out_channels1_1,axe_xx1_0,axe_yy1_0,axe_out_channels1_2,axe_xx1_1;784;;;F:1, F:4, X:1, Y:7, F:1, C:4, H:3, X:28, W:3, H:1, X:1, Y:4, C:64, F:64, ;617.1532893180847
91;0;MobilNet_05;9.1641193;0.012363851520056451;1;axe_out_channels1_0,axe_out_channels1_1,axe_xx1_0,axe_yy1_0,axe_out_channels1_2;28;;;F:2, F:1, X:1, Y:7, F:2, C:4, H:3, X:28, W:3, H:1, X:1, Y:4, C:64, F:64, ;620.2334518432617
91;1;MobilNet_05;22.8740689;0.04037205333507316;1;axe_out_channels1_0,axe_out_channels1_1,axe_xx1_0,axe_yy1_0,axe_out_channels1_2,axe_xx1_1;784;;;F:2, F:1, X:1, Y:7, F:2, C:4, H:3, X:28, W:3, H:1, X:1, Y:4, C:64, F:64, ;623.876300573349
92;0;MobilNet_05;9.133314299999999;0.014451733162842047;1;axe_out_channels1_0,axe_out_channels1_1,axe_xx1_0,axe_yy1_0,axe_out_channels1_2;28;;;F:2, F:2, X:1, Y:7, F:1, C:4, H:3, X:28, W:3, H:1, X:1, Y:4, C:64, F:64, ;626.9643549919128
92;1;MobilNet_05;22.9420331;0.02820953203954306;1;axe_out_channels1_0,axe_out_channels1_1,axe_xx1_0,axe_yy1_0,axe_out_channels1_2,axe_xx1_1;784;;;F:2, F:2, X:1, Y:7, F:1, C:4, H:3, X:28, W:3, H:1, X:1, Y:4, C:64, F:64, ;630.6127967834473
93;0;MobilNet_05;9.1012716;0.007084563165079677;1;axe_out_channels1_0,axe_out_channels1_1,axe_xx1_0,axe_yy1_0,axe_out_channels1_2;28;;;F:4, F:1, X:1, Y:7, F:1, C:4, H:3, X:28, W:3, H:1, X:1, Y:4, C:64, F:64, ;633.699807882309
93;1;MobilNet_05;22.9436744;0.04147692134717758;1;axe_out_channels1_0,axe_out_channels1_1,axe_xx1_0,axe_yy1_0,axe_out_channels1_2,axe_xx1_1;784;;;F:4, F:1, X:1, Y:7, F:1, C:4, H:3, X:28, W:3, H:1, X:1, Y:4, C:64, F:64, ;637.3406999111176
94;0;MobilNet_05;10.705171100000001;0.04677469098444116;1;axe_yy1_0,axe_xx1_0,axe_out_channels1_0,axe_yy1_1,axe_xx1_1;64;;;Y:1, X:1, F:8, Y:2, X:4, C:4, W:3, X:7, H:3, W:1, H:1, X:1, Y:14, C:64, F:32, ;640.5227513313293
94;1;MobilNet_05;25.443845500000002;0.04632979397590724;1;axe_yy1_0,axe_xx1_0,axe_out_channels1_0,axe_yy1_1,axe_xx1_1,axe_xx1_2;448;;;Y:1, X:1, F:8, Y:2, X:4, C:4, W:3, X:7, H:3, W:1, H:1, X:1, Y:14, C:64, F:32, ;644.2845528125763
95;0;MobilNet_05;10.668797900000001;0.02076882345463982;1;axe_yy1_0,axe_xx1_0,axe_out_channels1_0,axe_yy1_1,axe_xx1_1;64;;;Y:2, X:1, F:8, Y:1, X:4, C:4, W:3, X:7, H:3, W:1, H:1, X:1, Y:14, C:64, F:32, ;647.4592125415802
95;1;MobilNet_05;25.460859000000003;0.06411995471146284;1;axe_yy1_0,axe_xx1_0,axe_out_channels1_0,axe_yy1_1,axe_xx1_1,axe_xx1_2;448;;;Y:2, X:1, F:8, Y:1, X:4, C:4, W:3, X:7, H:3, W:1, H:1, X:1, Y:14, C:64, F:32, ;651.2176451683044
96;0;MobilNet_05;10.6774033;0.025491096885187636;1;axe_yy1_0,axe_xx1_0,axe_out_channels1_0,axe_yy1_1,axe_xx1_1;64;;;Y:1, X:2, F:8, Y:2, X:2, C:4, W:3, X:7, H:3, W:1, H:1, X:1, Y:14, C:64, F:32, ;654.3986966609955
96;1;MobilNet_05;25.5853912;0.18572996995789343;1;axe_yy1_0,axe_xx1_0,axe_out_channels1_0,axe_yy1_1,axe_xx1_1,axe_xx1_2;448;;;Y:1, X:2, F:8, Y:2, X:2, C:4, W:3, X:7, H:3, W:1, H:1, X:1, Y:14, C:64, F:32, ;658.1627004146576
97;0;MobilNet_05;10.666787200000002;0.03235328323617178;1;axe_yy1_0,axe_xx1_0,axe_out_channels1_0,axe_yy1_1,axe_xx1_1;64;;;Y:2, X:2, F:8, Y:1, X:2, C:4, W:3, X:7, H:3, W:1, H:1, X:1, Y:14, C:64, F:32, ;661.3391237258911
97;1;MobilNet_05;25.6232998;0.017758526317236827;1;axe_yy1_0,axe_xx1_0,axe_out_channels1_0,axe_yy1_1,axe_xx1_1,axe_xx1_2;448;;;Y:2, X:2, F:8, Y:1, X:2, C:4, W:3, X:7, H:3, W:1, H:1, X:1, Y:14, C:64, F:32, ;665.1017727851868
98;0;MobilNet_05;10.7138955;0.053697198862231114;1;axe_yy1_0,axe_xx1_0,axe_out_channels1_0,axe_yy1_1,axe_xx1_1;64;;;Y:1, X:4, F:8, Y:2, X:1, C:4, W:3, X:7, H:3, W:1, H:1, X:1, Y:14, C:64, F:32, ;668.2806010246277
98;1;MobilNet_05;25.4906805;0.04477186413641851;1;axe_yy1_0,axe_xx1_0,axe_out_channels1_0,axe_yy1_1,axe_xx1_1,axe_xx1_2;448;;;Y:1, X:4, F:8, Y:2, X:1, C:4, W:3, X:7, H:3, W:1, H:1, X:1, Y:14, C:64, F:32, ;672.0428354740143
99;0;MobilNet_05;10.655789899999998;0.0431100751830707;1;axe_yy1_0,axe_xx1_0,axe_out_channels1_0,axe_yy1_1,axe_xx1_1;64;;;Y:2, X:4, F:8, Y:1, X:1, C:4, W:3, X:7, H:3, W:1, H:1, X:1, Y:14, C:64, F:32, ;675.2080209255219
99;1;MobilNet_05;25.639407199999994;0.05215883875011058;1;axe_yy1_0,axe_xx1_0,axe_out_channels1_0,axe_yy1_1,axe_xx1_1,axe_xx1_2;448;;;Y:2, X:4, F:8, Y:1, X:1, C:4, W:3, X:7, H:3, W:1, H:1, X:1, Y:14, C:64, F:32, ;678.977593421936
100;0;MobilNet_05;11.3732043;0.05314299715117669;1;axe_yy1_0,axe_xx1_0,axe_out_channels1_0,axe_yy1_1,axe_xx1_1;64;;;Y:1, X:1, F:8, Y:2, X:4, C:8, W:3, X:7, H:3, W:1, H:1, X:1, Y:14, C:32, F:32, ;682.1868326663971
100;1;MobilNet_05;26.052634800000003;0.027086156116363457;1;axe_yy1_0,axe_xx1_0,axe_out_channels1_0,axe_yy1_1,axe_xx1_1,axe_xx1_2;448;;;Y:1, X:1, F:8, Y:2, X:4, C:8, W:3, X:7, H:3, W:1, H:1, X:1, Y:14, C:32, F:32, ;685.9827046394348
101;0;MobilNet_05;11.3592509;0.05977803010881148;1;axe_yy1_0,axe_xx1_0,axe_out_channels1_0,axe_yy1_1,axe_xx1_1;64;;;Y:2, X:1, F:8, Y:1, X:4, C:8, W:3, X:7, H:3, W:1, H:1, X:1, Y:14, C:32, F:32, ;689.1902441978455
101;1;MobilNet_05;26.122906699999998;0.05623106370690446;1;axe_yy1_0,axe_xx1_0,axe_out_channels1_0,axe_yy1_1,axe_xx1_1,axe_xx1_2;448;;;Y:2, X:1, F:8, Y:1, X:4, C:8, W:3, X:7, H:3, W:1, H:1, X:1, Y:14, C:32, F:32, ;692.9805479049683
102;0;MobilNet_05;11.352657599999999;0.0384664178425807;1;axe_yy1_0,axe_xx1_0,axe_out_channels1_0,axe_yy1_1,axe_xx1_1;64;;;Y:1, X:2, F:8, Y:2, X:2, C:8, W:3, X:7, H:3, W:1, H:1, X:1, Y:14, C:32, F:32, ;696.1899263858795
102;1;MobilNet_05;26.1095375;0.0264802202266142;1;axe_yy1_0,axe_xx1_0,axe_out_channels1_0,axe_yy1_1,axe_xx1_1,axe_xx1_2;448;;;Y:1, X:2, F:8, Y:2, X:2, C:8, W:3, X:7, H:3, W:1, H:1, X:1, Y:14, C:32, F:32, ;699.974045753479
103;0;MobilNet_05;11.347056;0.025043236068846987;1;axe_yy1_0,axe_xx1_0,axe_out_channels1_0,axe_yy1_1,axe_xx1_1;64;;;Y:2, X:2, F:8, Y:1, X:2, C:8, W:3, X:7, H:3, W:1, H:1, X:1, Y:14, C:32, F:32, ;703.1791696548462
103;1;MobilNet_05;26.402443499999997;0.022075588251505976;1;axe_yy1_0,axe_xx1_0,axe_out_channels1_0,axe_yy1_1,axe_xx1_1,axe_xx1_2;448;;;Y:2, X:2, F:8, Y:1, X:2, C:8, W:3, X:7, H:3, W:1, H:1, X:1, Y:14, C:32, F:32, ;706.9742403030396
104;0;MobilNet_05;11.340449000000001;0.00817392781959812;1;axe_yy1_0,axe_xx1_0,axe_out_channels1_0,axe_yy1_1,axe_xx1_1;64;;;Y:1, X:4, F:8, Y:2, X:1, C:8, W:3, X:7, H:3, W:1, H:1, X:1, Y:14, C:32, F:32, ;710.1794843673706
104;1;MobilNet_05;26.1524332;0.03733537553259608;1;axe_yy1_0,axe_xx1_0,axe_out_channels1_0,axe_yy1_1,axe_xx1_1,axe_xx1_2;448;;;Y:1, X:4, F:8, Y:2, X:1, C:8, W:3, X:7, H:3, W:1, H:1, X:1, Y:14, C:32, F:32, ;713.973582983017
105;0;MobilNet_05;11.3076636;0.023189321025851386;1;axe_yy1_0,axe_xx1_0,axe_out_channels1_0,axe_yy1_1,axe_xx1_1;64;;;Y:2, X:4, F:8, Y:1, X:1, C:8, W:3, X:7, H:3, W:1, H:1, X:1, Y:14, C:32, F:32, ;717.1679306030273
105;1;MobilNet_05;26.3973098;0.03383785537175834;1;axe_yy1_0,axe_xx1_0,axe_out_channels1_0,axe_yy1_1,axe_xx1_1,axe_xx1_2;448;;;Y:2, X:4, F:8, Y:1, X:1, C:8, W:3, X:7, H:3, W:1, H:1, X:1, Y:14, C:32, F:32, ;720.9684340953827
106;0;MobilNet_05;10.1633283;0.01200192922866934;1;axe_out_channels1_0,axe_out_channels1_1,axe_xx1_0,axe_yy1_0,axe_out_channels1_2;32;;;F:1, F:1, X:2, Y:4, F:4, C:4, H:3, X:14, W:3, H:1, X:1, Y:7, C:64, F:64, ;724.1178071498871
106;1;MobilNet_05;19.314878099999998;0.05949889371652158;1;axe_out_channels1_0,axe_out_channels1_1,axe_xx1_0,axe_yy1_0,axe_out_channels1_2,axe_xx1_1;448;;;F:1, F:1, X:2, Y:4, F:4, C:4, H:3, X:14, W:3, H:1, X:1, Y:7, C:64, F:64, ;727.6476771831512
107;0;MobilNet_05;10.168098;0.007796930203612369;1;axe_out_channels1_0,axe_out_channels1_1,axe_xx1_0,axe_yy1_0,axe_out_channels1_2;32;;;F:1, F:2, X:2, Y:4, F:2, C:4, H:3, X:14, W:3, H:1, X:1, Y:7, C:64, F:64, ;730.8011922836304
107;1;MobilNet_05;19.318844600000002;0.07710939548355951;1;axe_out_channels1_0,axe_out_channels1_1,axe_xx1_0,axe_yy1_0,axe_out_channels1_2,axe_xx1_1;448;;;F:1, F:2, X:2, Y:4, F:2, C:4, H:3, X:14, W:3, H:1, X:1, Y:7, C:64, F:64, ;734.336005449295
108;0;MobilNet_05;10.1858487;0.008613997841304738;1;axe_out_channels1_0,axe_out_channels1_1,axe_xx1_0,axe_yy1_0,axe_out_channels1_2;32;;;F:1, F:4, X:2, Y:4, F:1, C:4, H:3, X:14, W:3, H:1, X:1, Y:7, C:64, F:64, ;737.4968438148499
108;1;MobilNet_05;19.1410251;0.13552810447243016;1;axe_out_channels1_0,axe_out_channels1_1,axe_xx1_0,axe_yy1_0,axe_out_channels1_2,axe_xx1_1;448;;;F:1, F:4, X:2, Y:4, F:1, C:4, H:3, X:14, W:3, H:1, X:1, Y:7, C:64, F:64, ;741.022732257843
109;0;MobilNet_05;10.1742731;0.006989559835211669;1;axe_out_channels1_0,axe_out_channels1_1,axe_xx1_0,axe_yy1_0,axe_out_channels1_2;32;;;F:2, F:1, X:2, Y:4, F:2, C:4, H:3, X:14, W:3, H:1, X:1, Y:7, C:64, F:64, ;744.1781091690063
109;1;MobilNet_05;18.9368939;0.131393268043267;1;axe_out_channels1_0,axe_out_channels1_1,axe_xx1_0,axe_yy1_0,axe_out_channels1_2,axe_xx1_1;448;;;F:2, F:1, X:2, Y:4, F:2, C:4, H:3, X:14, W:3, H:1, X:1, Y:7, C:64, F:64, ;747.6942825317383
110;0;MobilNet_05;10.160189299999999;0.00564718896531742;1;axe_out_channels1_0,axe_out_channels1_1,axe_xx1_0,axe_yy1_0,axe_out_channels1_2;32;;;F:2, F:2, X:2, Y:4, F:1, C:4, H:3, X:14, W:3, H:1, X:1, Y:7, C:64, F:64, ;750.8556826114655
110;1;MobilNet_05;19.1975656;0.12273345932320094;1;axe_out_channels1_0,axe_out_channels1_1,axe_xx1_0,axe_yy1_0,axe_out_channels1_2,axe_xx1_1;448;;;F:2, F:2, X:2, Y:4, F:1, C:4, H:3, X:14, W:3, H:1, X:1, Y:7, C:64, F:64, ;754.3815853595734
111;0;MobilNet_05;10.1641264;0.008810952152859871;1;axe_out_channels1_0,axe_out_channels1_1,axe_xx1_0,axe_yy1_0,axe_out_channels1_2;32;;;F:4, F:1, X:2, Y:4, F:1, C:4, H:3, X:14, W:3, H:1, X:1, Y:7, C:64, F:64, ;757.5402450561523
111;1;MobilNet_05;19.058627299999998;0.06123273729803435;1;axe_out_channels1_0,axe_out_channels1_1,axe_xx1_0,axe_yy1_0,axe_out_channels1_2,axe_xx1_1;448;;;F:4, F:1, X:2, Y:4, F:1, C:4, H:3, X:14, W:3, H:1, X:1, Y:7, C:64, F:64, ;761.06494140625
112;0;MobilNet_05;10.4185728;0.014615712030551243;2;axe_xx1_2;28;axe_xx2_2;28;Y:1, X:1, F:8, Y:1, X:1, C:8, W:3, X:28, H:3, W:1, H:1, X:1, Y:8, C:32, F:32, ;764.5899529457092
112;1;MobilNet_05;17.1665698;0.11798734021987285;2;axe_yy1_0,axe_xx1_0,axe_out_channels1_0,axe_yy1_1,axe_xx1_1,axe_xx1_2;224;axe_yy2_0,axe_xx2_0,axe_out_channels2_0,axe_yy2_1,axe_xx2_1,axe_xx2_2;448;Y:1, X:1, F:8, Y:1, X:1, C:8, W:3, X:28, H:3, W:1, H:1, X:1, Y:8, C:32, F:32, ;768.3952805995941
113;0;MobilNet_05;10.3766926;0.015287821487707009;2;axe_xx1_2;28;axe_xx2_2;28;Y:1, X:1, F:8, Y:1, X:1, C:8, W:3, X:28, H:3, W:1, H:1, X:1, Y:8, C:32, F:32, ;771.9187588691711
113;1;MobilNet_05;17.2121589;0.2320140853122719;2;axe_yy1_0,axe_xx1_0,axe_out_channels1_0,axe_yy1_1,axe_xx1_1,axe_xx1_2;224;axe_yy2_0,axe_xx2_0,axe_out_channels2_0,axe_yy2_1,axe_xx2_1,axe_xx2_2;448;Y:1, X:1, F:8, Y:1, X:1, C:8, W:3, X:28, H:3, W:1, H:1, X:1, Y:8, C:32, F:32, ;775.7274606227875
114;0;MobilNet_05;7.9474046000000005;0.03608157644893049;2;axe_xx1_1;28;axe_xx2_1;28;F:1, F:1, X:1, Y:2, F:4, C:1, H:3, X:28, W:3, H:1, X:1, Y:5, C:256, F:64, ;779.17839884758
114;1;MobilNet_05;18.2678637;0.125838313000494;2;axe_out_channels1_0,axe_out_channels1_1,axe_xx1_0,axe_yy1_0,axe_out_channels1_2,axe_xx1_1;224;axe_out_channels2_0,axe_out_channels2_1,axe_xx2_0,axe_yy2_0,axe_out_channels2_2,axe_xx2_1;336;F:1, F:1, X:1, Y:2, F:4, C:1, H:3, X:28, W:3, H:1, X:1, Y:5, C:256, F:64, ;783.0218851566315
115;0;MobilNet_05;7.961796799999999;0.026253062837695837;2;axe_xx1_1;28;axe_xx2_1;28;F:1, F:2, X:1, Y:2, F:2, C:1, H:3, X:28, W:3, H:1, X:1, Y:5, C:256, F:64, ;786.4894752502441
115;1;MobilNet_05;18.276730899999997;0.10888281652258051;2;axe_out_channels1_0,axe_out_channels1_1,axe_xx1_0,axe_yy1_0,axe_out_channels1_2,axe_xx1_1;224;axe_out_channels2_0,axe_out_channels2_1,axe_xx2_0,axe_yy2_0,axe_out_channels2_2,axe_xx2_1;336;F:1, F:2, X:1, Y:2, F:2, C:1, H:3, X:28, W:3, H:1, X:1, Y:5, C:256, F:64, ;790.3373398780823
116;0;MobilNet_05;7.9512527;0.02204180868281914;2;axe_xx1_1;28;axe_xx2_1;28;F:1, F:4, X:1, Y:2, F:1, C:1, H:3, X:28, W:3, H:1, X:1, Y:5, C:256, F:64, ;793.7848882675171
116;1;MobilNet_05;18.245623599999995;0.107685585964139;2;axe_out_channels1_0,axe_out_channels1_1,axe_xx1_0,axe_yy1_0,axe_out_channels1_2,axe_xx1_1;224;axe_out_channels2_0,axe_out_channels2_1,axe_xx2_0,axe_yy2_0,axe_out_channels2_2,axe_xx2_1;336;F:1, F:4, X:1, Y:2, F:1, C:1, H:3, X:28, W:3, H:1, X:1, Y:5, C:256, F:64, ;797.6340487003326
117;0;MobilNet_05;7.964074800000001;0.02544353332302698;2;axe_xx1_1;28;axe_xx2_1;28;F:2, F:1, X:1, Y:2, F:2, C:1, H:3, X:28, W:3, H:1, X:1, Y:5, C:256, F:64, ;801.1020834445953
117;1;MobilNet_05;18.2657307;0.11686217869101184;2;axe_out_channels1_0,axe_out_channels1_1,axe_xx1_0,axe_yy1_0,axe_out_channels1_2,axe_xx1_1;224;axe_out_channels2_0,axe_out_channels2_1,axe_xx2_0,axe_yy2_0,axe_out_channels2_2,axe_xx2_1;336;F:2, F:1, X:1, Y:2, F:2, C:1, H:3, X:28, W:3, H:1, X:1, Y:5, C:256, F:64, ;804.9488728046417
118;0;MobilNet_05;7.936924899999999;0.017205490434451097;2;axe_xx1_1;28;axe_xx2_1;28;F:2, F:2, X:1, Y:2, F:1, C:1, H:3, X:28, W:3, H:1, X:1, Y:5, C:256, F:64, ;808.4157371520996
118;1;MobilNet_05;18.1714045;0.1311960868000652;2;axe_out_channels1_0,axe_out_channels1_1,axe_xx1_0,axe_yy1_0,axe_out_channels1_2,axe_xx1_1;224;axe_out_channels2_0,axe_out_channels2_1,axe_xx2_0,axe_yy2_0,axe_out_channels2_2,axe_xx2_1;336;F:2, F:2, X:1, Y:2, F:1, C:1, H:3, X:28, W:3, H:1, X:1, Y:5, C:256, F:64, ;812.2655303478241
119;0;MobilNet_05;7.931922899999999;0.025125842817505392;2;axe_xx1_1;28;axe_xx2_1;28;F:4, F:1, X:1, Y:2, F:1, C:1, H:3, X:28, W:3, H:1, X:1, Y:5, C:256, F:64, ;815.7195611000061
119;1;MobilNet_05;18.2000782;0.1290301742258769;2;axe_out_channels1_0,axe_out_channels1_1,axe_xx1_0,axe_yy1_0,axe_out_channels1_2,axe_xx1_1;224;axe_out_channels2_0,axe_out_channels2_1,axe_xx2_0,axe_yy2_0,axe_out_channels2_2,axe_xx2_1;336;F:4, F:1, X:1, Y:2, F:1, C:1, H:3, X:28, W:3, H:1, X:1, Y:5, C:256, F:64, ;819.5689737796783
120;0;MobilNet_05;8.341822400000002;0.021728259609089584;2;axe_out_channels1_0,axe_out_channels1_1,axe_xx1_0,axe_yy1_0,axe_out_channels1_2;16;axe_out_channels2_0,axe_out_channels2_1,axe_xx2_0,axe_yy2_0,axe_out_channels2_2;24;F:1, F:1, X:2, Y:2, F:4, C:1, H:3, X:14, W:3, H:1, X:1, Y:5, C:256, F:64, ;823.0187830924988
120;1;MobilNet_05;18.1783153;0.1139080200890613;2;axe_out_channels1_0,axe_out_channels1_1,axe_xx1_0,axe_yy1_0,axe_out_channels1_2,axe_xx1_1;224;axe_out_channels2_0,axe_out_channels2_1,axe_xx2_0,axe_yy2_0,axe_out_channels2_2,axe_xx2_1;336;F:1, F:1, X:2, Y:2, F:4, C:1, H:3, X:14, W:3, H:1, X:1, Y:5, C:256, F:64, ;826.8684689998627
121;0;MobilNet_05;8.3398103;0.011885402753377851;2;axe_out_channels1_0,axe_out_channels1_1,axe_xx1_0,axe_yy1_0,axe_out_channels1_2;16;axe_out_channels2_0,axe_out_channels2_1,axe_xx2_0,axe_yy2_0,axe_out_channels2_2;24;F:1, F:2, X:2, Y:2, F:2, C:1, H:3, X:14, W:3, H:1, X:1, Y:5, C:256, F:64, ;830.3179430961609
121;1;MobilNet_05;18.1521604;0.11975513753755986;2;axe_out_channels1_0,axe_out_channels1_1,axe_xx1_0,axe_yy1_0,axe_out_channels1_2,axe_xx1_1;224;axe_out_channels2_0,axe_out_channels2_1,axe_xx2_0,axe_yy2_0,axe_out_channels2_2,axe_xx2_1;336;F:1, F:2, X:2, Y:2, F:2, C:1, H:3, X:14, W:3, H:1, X:1, Y:5, C:256, F:64, ;834.1691133975983
122;0;MobilNet_05;8.398664499999999;0.07016397480509522;2;axe_out_channels1_0,axe_out_channels1_1,axe_xx1_0,axe_yy1_0,axe_out_channels1_2;16;axe_out_channels2_0,axe_out_channels2_1,axe_xx2_0,axe_yy2_0,axe_out_channels2_2;24;F:1, F:4, X:2, Y:2, F:1, C:1, H:3, X:14, W:3, H:1, X:1, Y:5, C:256, F:64, ;837.6333601474762
122;1;MobilNet_05;18.258523500000003;0.11946543252024802;2;axe_out_channels1_0,axe_out_channels1_1,axe_xx1_0,axe_yy1_0,axe_out_channels1_2,axe_xx1_1;224;axe_out_channels2_0,axe_out_channels2_1,axe_xx2_0,axe_yy2_0,axe_out_channels2_2,axe_xx2_1;336;F:1, F:4, X:2, Y:2, F:1, C:1, H:3, X:14, W:3, H:1, X:1, Y:5, C:256, F:64, ;841.4894008636475
123;0;MobilNet_05;8.369819500000002;0.06745486047758137;2;axe_out_channels1_0,axe_out_channels1_1,axe_xx1_0,axe_yy1_0,axe_out_channels1_2;16;axe_out_channels2_0,axe_out_channels2_1,axe_xx2_0,axe_yy2_0,axe_out_channels2_2;24;F:2, F:1, X:2, Y:2, F:2, C:1, H:3, X:14, W:3, H:1, X:1, Y:5, C:256, F:64, ;844.942155122757
123;1;MobilNet_05;18.261157200000003;0.11770826203610245;2;axe_out_channels1_0,axe_out_channels1_1,axe_xx1_0,axe_yy1_0,axe_out_channels1_2,axe_xx1_1;224;axe_out_channels2_0,axe_out_channels2_1,axe_xx2_0,axe_yy2_0,axe_out_channels2_2,axe_xx2_1;336;F:2, F:1, X:2, Y:2, F:2, C:1, H:3, X:14, W:3, H:1, X:1, Y:5, C:256, F:64, ;848.7938668727875
124;0;MobilNet_05;8.423408;0.12927042865326913;2;axe_out_channels1_0,axe_out_channels1_1,axe_xx1_0,axe_yy1_0,axe_out_channels1_2;16;axe_out_channels2_0,axe_out_channels2_1,axe_xx2_0,axe_yy2_0,axe_out_channels2_2;24;F:2, F:2, X:2, Y:2, F:1, C:1, H:3, X:14, W:3, H:1, X:1, Y:5, C:256, F:64, ;852.2585928440094
124;1;MobilNet_05;18.2949184;0.11446649445859663;2;axe_out_channels1_0,axe_out_channels1_1,axe_xx1_0,axe_yy1_0,axe_out_channels1_2,axe_xx1_1;224;axe_out_channels2_0,axe_out_channels2_1,axe_xx2_0,axe_yy2_0,axe_out_channels2_2,axe_xx2_1;336;F:2, F:2, X:2, Y:2, F:1, C:1, H:3, X:14, W:3, H:1, X:1, Y:5, C:256, F:64, ;856.1182346343994
125;0;MobilNet_05;8.3862389;0.033221636935737826;2;axe_out_channels1_0,axe_out_channels1_1,axe_xx1_0,axe_yy1_0,axe_out_channels1_2;16;axe_out_channels2_0,axe_out_channels2_1,axe_xx2_0,axe_yy2_0,axe_out_channels2_2;24;F:4, F:1, X:2, Y:2, F:1, C:1, H:3, X:14, W:3, H:1, X:1, Y:5, C:256, F:64, ;859.5780448913574
125;1;MobilNet_05;18.280554900000002;0.1098376738213722;2;axe_out_channels1_0,axe_out_channels1_1,axe_xx1_0,axe_yy1_0,axe_out_channels1_2,axe_xx1_1;224;axe_out_channels2_0,axe_out_channels2_1,axe_xx2_0,axe_yy2_0,axe_out_channels2_2,axe_xx2_1;336;F:4, F:1, X:2, Y:2, F:1, C:1, H:3, X:14, W:3, H:1, X:1, Y:5, C:256, F:64, ;863.4384021759033
126;0;MobilNet_05;8.3035885;0.007022677626803352;2;axe_xx1_1;28;axe_xx2_1;28;F:1, F:1, X:1, Y:2, F:4, C:4, H:3, X:28, W:3, H:1, X:1, Y:5, C:64, F:64, ;866.909788608551
126;1;MobilNet_05;18.074492499999998;0.14216290270619183;2;axe_out_channels1_0,axe_out_channels1_1,axe_xx1_0,axe_yy1_0,axe_out_channels1_2,axe_xx1_1;224;axe_out_channels2_0,axe_out_channels2_1,axe_xx2_0,axe_yy2_0,axe_out_channels2_2,axe_xx2_1;336;F:1, F:1, X:1, Y:2, F:4, C:4, H:3, X:28, W:3, H:1, X:1, Y:5, C:64, F:64, ;870.765522480011
127;0;MobilNet_05;8.2857959;0.007211978763834746;2;axe_xx1_1;28;axe_xx2_1;28;F:1, F:2, X:1, Y:2, F:2, C:4, H:3, X:28, W:3, H:1, X:1, Y:5, C:64, F:64, ;874.2469625473022
127;1;MobilNet_05;18.3504748;0.06771352517747116;2;axe_out_channels1_0,axe_out_channels1_1,axe_xx1_0,axe_yy1_0,axe_out_channels1_2,axe_xx1_1;224;axe_out_channels2_0,axe_out_channels2_1,axe_xx2_0,axe_yy2_0,axe_out_channels2_2,axe_xx2_1;336;F:1, F:2, X:1, Y:2, F:2, C:4, H:3, X:28, W:3, H:1, X:1, Y:5, C:64, F:64, ;878.1060945987701
128;0;MobilNet_05;8.303913300000001;0.005957721293414273;2;axe_xx1_1;28;axe_xx2_1;28;F:1, F:4, X:1, Y:2, F:1, C:4, H:3, X:28, W:3, H:1, X:1, Y:5, C:64, F:64, ;881.5835185050964
128;1;MobilNet_05;18.247212400000002;0.12160121246122411;2;axe_out_channels1_0,axe_out_channels1_1,axe_xx1_0,axe_yy1_0,axe_out_channels1_2,axe_xx1_1;224;axe_out_channels2_0,axe_out_channels2_1,axe_xx2_0,axe_yy2_0,axe_out_channels2_2,axe_xx2_1;336;F:1, F:4, X:1, Y:2, F:1, C:4, H:3, X:28, W:3, H:1, X:1, Y:5, C:64, F:64, ;885.4506604671478
129;0;MobilNet_05;8.3039032;0.009134341824127118;2;axe_xx1_1;28;axe_xx2_1;28;F:2, F:1, X:1, Y:2, F:2, C:4, H:3, X:28, W:3, H:1, X:1, Y:5, C:64, F:64, ;888.9414799213409
129;1;MobilNet_05;18.284994400000002;0.09791296945062981;2;axe_out_channels1_0,axe_out_channels1_1,axe_xx1_0,axe_yy1_0,axe_out_channels1_2,axe_xx1_1;224;axe_out_channels2_0,axe_out_channels2_1,axe_xx2_0,axe_yy2_0,axe_out_channels2_2,axe_xx2_1;336;F:2, F:1, X:1, Y:2, F:2, C:4, H:3, X:28, W:3, H:1, X:1, Y:5, C:64, F:64, ;892.8086495399475
130;0;MobilNet_05;8.3030786;0.004922198334078224;2;axe_xx1_1;28;axe_xx2_1;28;F:2, F:2, X:1, Y:2, F:1, C:4, H:3, X:28, W:3, H:1, X:1, Y:5, C:64, F:64, ;896.304502248764
130;1;MobilNet_05;18.3511978;0.08185019921392994;2;axe_out_channels1_0,axe_out_channels1_1,axe_xx1_0,axe_yy1_0,axe_out_channels1_2,axe_xx1_1;224;axe_out_channels2_0,axe_out_channels2_1,axe_xx2_0,axe_yy2_0,axe_out_channels2_2,axe_xx2_1;336;F:2, F:2, X:1, Y:2, F:1, C:4, H:3, X:28, W:3, H:1, X:1, Y:5, C:64, F:64, ;900.1730906963348
131;0;MobilNet_05;8.3060203;0.0101850331963132;2;axe_xx1_1;28;axe_xx2_1;28;F:4, F:1, X:1, Y:2, F:1, C:4, H:3, X:28, W:3, H:1, X:1, Y:5, C:64, F:64, ;903.646767616272
131;1;MobilNet_05;18.2899754;0.10654799566692984;2;axe_out_channels1_0,axe_out_channels1_1,axe_xx1_0,axe_yy1_0,axe_out_channels1_2,axe_xx1_1;224;axe_out_channels2_0,axe_out_channels2_1,axe_xx2_0,axe_yy2_0,axe_out_channels2_2,axe_xx2_1;336;F:4, F:1, X:1, Y:2, F:1, C:4, H:3, X:28, W:3, H:1, X:1, Y:5, C:64, F:64, ;907.5144572257996
132;0;MobilNet_05;8.0466838;0.017309404945288893;2;axe_xx1_1;28;axe_xx2_1;28;F:1, F:1, X:1, Y:2, F:4, C:2, H:3, X:28, W:3, H:1, X:1, Y:5, C:128, F:64, ;910.9722154140472
132;1;MobilNet_05;18.0078809;0.0912261214328985;2;axe_out_channels1_0,axe_out_channels1_1,axe_xx1_0,axe_yy1_0,axe_out_channels1_2,axe_xx1_1;224;axe_out_channels2_0,axe_out_channels2_1,axe_xx2_0,axe_yy2_0,axe_out_channels2_2,axe_xx2_1;336;F:1, F:1, X:1, Y:2, F:4, C:2, H:3, X:28, W:3, H:1, X:1, Y:5, C:128, F:64, ;914.8236174583435
133;0;MobilNet_05;8.0572521;0.016404961520527738;2;axe_xx1_1;28;axe_xx2_1;28;F:1, F:2, X:1, Y:2, F:2, C:2, H:3, X:28, W:3, H:1, X:1, Y:5, C:128, F:64, ;918.2960443496704
133;1;MobilNet_05;18.171595300000003;0.1085222621290676;2;axe_out_channels1_0,axe_out_channels1_1,axe_xx1_0,axe_yy1_0,axe_out_channels1_2,axe_xx1_1;224;axe_out_channels2_0,axe_out_channels2_1,axe_xx2_0,axe_yy2_0,axe_out_channels2_2,axe_xx2_1;336;F:1, F:2, X:1, Y:2, F:2, C:2, H:3, X:28, W:3, H:1, X:1, Y:5, C:128, F:64, ;922.1598336696625
134;0;MobilNet_05;8.075380399999998;0.01707866749017599;2;axe_xx1_1;28;axe_xx2_1;28;F:1, F:4, X:1, Y:2, F:1, C:2, H:3, X:28, W:3, H:1, X:1, Y:5, C:128, F:64, ;925.6183316707611
134;1;MobilNet_05;18.1817786;0.14245772496372447;2;axe_out_channels1_0,axe_out_channels1_1,axe_xx1_0,axe_yy1_0,axe_out_channels1_2,axe_xx1_1;224;axe_out_channels2_0,axe_out_channels2_1,axe_xx2_0,axe_yy2_0,axe_out_channels2_2,axe_xx2_1;336;F:1, F:4, X:1, Y:2, F:1, C:2, H:3, X:28, W:3, H:1, X:1, Y:5, C:128, F:64, ;929.4817368984222
135;0;MobilNet_05;8.0384091;0.00818189672936558;2;axe_xx1_1;28;axe_xx2_1;28;F:2, F:1, X:1, Y:2, F:2, C:2, H:3, X:28, W:3, H:1, X:1, Y:5, C:128, F:64, ;932.9613633155823
135;1;MobilNet_05;18.1766931;0.12191982596235132;2;axe_out_channels1_0,axe_out_channels1_1,axe_xx1_0,axe_yy1_0,axe_out_channels1_2,axe_xx1_1;224;axe_out_channels2_0,axe_out_channels2_1,axe_xx2_0,axe_yy2_0,axe_out_channels2_2,axe_xx2_1;336;F:2, F:1, X:1, Y:2, F:2, C:2, H:3, X:28, W:3, H:1, X:1, Y:5, C:128, F:64, ;936.8305509090424
136;0;MobilNet_05;8.0592275;0.014193244267960899;2;axe_xx1_1;28;axe_xx2_1;28;F:2, F:2, X:1, Y:2, F:1, C:2, H:3, X:28, W:3, H:1, X:1, Y:5, C:128, F:64, ;940.3171811103821
136;1;MobilNet_05;18.172981;0.10569350476259137;2;axe_out_channels1_0,axe_out_channels1_1,axe_xx1_0,axe_yy1_0,axe_out_channels1_2,axe_xx1_1;224;axe_out_channels2_0,axe_out_channels2_1,axe_xx2_0,axe_yy2_0,axe_out_channels2_2,axe_xx2_1;336;F:2, F:2, X:1, Y:2, F:1, C:2, H:3, X:28, W:3, H:1, X:1, Y:5, C:128, F:64, ;944.1759622097015
137;0;MobilNet_05;8.069559199999999;0.021325586776452223;2;axe_xx1_1;28;axe_xx2_1;28;F:4, F:1, X:1, Y:2, F:1, C:2, H:3, X:28, W:3, H:1, X:1, Y:5, C:128, F:64, ;947.6362278461456
137;1;MobilNet_05;18.0431958;0.08857408460469746;2;axe_out_channels1_0,axe_out_channels1_1,axe_xx1_0,axe_yy1_0,axe_out_channels1_2,axe_xx1_1;224;axe_out_channels2_0,axe_out_channels2_1,axe_xx2_0,axe_yy2_0,axe_out_channels2_2,axe_xx2_1;336;F:4, F:1, X:1, Y:2, F:1, C:2, H:3, X:28, W:3, H:1, X:1, Y:5, C:128, F:64, ;951.4950063228607
138;0;MobilNet_05;10.6417397;0.029240980281276318;2;axe_yy1_0,axe_xx1_0,axe_out_channels1_0,axe_yy1_1,axe_xx1_1;16;axe_yy2_0,axe_xx2_0,axe_out_channels2_0,axe_yy2_1,axe_xx2_1;32;Y:1, X:1, F:8, Y:1, X:2, C:8, W:3, X:14, H:3, W:1, H:1, X:1, Y:8, C:32, F:32, ;955.0669195652008
138;1;MobilNet_05;17.155292600000003;0.09759704117974051;2;axe_yy1_0,axe_xx1_0,axe_out_channels1_0,axe_yy1_1,axe_xx1_1,axe_xx1_2;224;axe_yy2_0,axe_xx2_0,axe_out_channels2_0,axe_yy2_1,axe_xx2_1,axe_xx2_2;448;Y:1, X:1, F:8, Y:1, X:2, C:8, W:3, X:14, H:3, W:1, H:1, X:1, Y:8, C:32, F:32, ;958.8766398429871
139;0;MobilNet_05;10.707110299999998;0.027819772375237042;2;axe_yy1_0,axe_xx1_0,axe_out_channels1_0,axe_yy1_1,axe_xx1_1;16;axe_yy2_0,axe_xx2_0,axe_out_channels2_0,axe_yy2_1,axe_xx2_1;32;Y:1, X:1, F:8, Y:1, X:2, C:8, W:3, X:14, H:3, W:1, H:1, X:1, Y:8, C:32, F:32, ;962.440593957901
139;1;MobilNet_05;17.314714100000003;0.2963232350391887;2;axe_yy1_0,axe_xx1_0,axe_out_channels1_0,axe_yy1_1,axe_xx1_1,axe_xx1_2;224;axe_yy2_0,axe_xx2_0,axe_out_channels2_0,axe_yy2_1,axe_xx2_1,axe_xx2_2;448;Y:1, X:1, F:8, Y:1, X:2, C:8, W:3, X:14, H:3, W:1, H:1, X:1, Y:8, C:32, F:32, ;966.2573461532593
140;0;MobilNet_05;10.7186971;0.028178200604190438;2;axe_yy1_0,axe_xx1_0,axe_out_channels1_0,axe_yy1_1,axe_xx1_1;16;axe_yy2_0,axe_xx2_0,axe_out_channels2_0,axe_yy2_1,axe_xx2_1;32;Y:1, X:2, F:8, Y:1, X:1, C:8, W:3, X:14, H:3, W:1, H:1, X:1, Y:8, C:32, F:32, ;969.795646905899
140;1;MobilNet_05;17.4047886;0.29161540373450723;2;axe_yy1_0,axe_xx1_0,axe_out_channels1_0,axe_yy1_1,axe_xx1_1,axe_xx1_2;224;axe_yy2_0,axe_xx2_0,axe_out_channels2_0,axe_yy2_1,axe_xx2_1,axe_xx2_2;448;Y:1, X:2, F:8, Y:1, X:1, C:8, W:3, X:14, H:3, W:1, H:1, X:1, Y:8, C:32, F:32, ;973.6172392368317
141;0;MobilNet_05;10.720144799999998;0.03201379862434311;2;axe_yy1_0,axe_xx1_0,axe_out_channels1_0,axe_yy1_1,axe_xx1_1;16;axe_yy2_0,axe_xx2_0,axe_out_channels2_0,axe_yy2_1,axe_xx2_1;32;Y:1, X:2, F:8, Y:1, X:1, C:8, W:3, X:14, H:3, W:1, H:1, X:1, Y:8, C:32, F:32, ;977.1538569927216
141;1;MobilNet_05;17.412287499999998;0.374369883286904;2;axe_yy1_0,axe_xx1_0,axe_out_channels1_0,axe_yy1_1,axe_xx1_1,axe_xx1_2;224;axe_yy2_0,axe_xx2_0,axe_out_channels2_0,axe_yy2_1,axe_xx2_1,axe_xx2_2;448;Y:1, X:2, F:8, Y:1, X:1, C:8, W:3, X:14, H:3, W:1, H:1, X:1, Y:8, C:32, F:32, ;980.9717960357666
142;0;MobilNet_05;10.8963326;0.034548397248497835;2;axe_yy1_0,axe_xx1_0,axe_out_channels1_0,axe_yy1_1,axe_xx1_1;32;axe_yy2_0,axe_xx2_0,axe_out_channels2_0,axe_yy2_1,axe_xx2_1;16;Y:1, X:1, F:8, Y:2, X:2, C:8, W:3, X:14, H:3, W:1, H:1, X:1, Y:8, C:32, F:32, ;984.5272409915924
142;1;MobilNet_05;18.2171872;0.3334301209578406;2;axe_yy1_0,axe_xx1_0,axe_out_channels1_0,axe_yy1_1,axe_xx1_1,axe_xx1_2;448;axe_yy2_0,axe_xx2_0,axe_out_channels2_0,axe_yy2_1,axe_xx2_1,axe_xx2_2;224;Y:1, X:1, F:8, Y:2, X:2, C:8, W:3, X:14, H:3, W:1, H:1, X:1, Y:8, C:32, F:32, ;988.368819475174
143;0;MobilNet_05;10.8873811;0.02191055681834702;2;axe_yy1_0,axe_xx1_0,axe_out_channels1_0,axe_yy1_1,axe_xx1_1;32;axe_yy2_0,axe_xx2_0,axe_out_channels2_0,axe_yy2_1,axe_xx2_1;16;Y:2, X:1, F:8, Y:1, X:2, C:8, W:3, X:14, H:3, W:1, H:1, X:1, Y:8, C:32, F:32, ;991.9213917255402
143;1;MobilNet_05;17.985490900000002;0.22311233853843668;2;axe_yy1_0,axe_xx1_0,axe_out_channels1_0,axe_yy1_1,axe_xx1_1,axe_xx1_2;448;axe_yy2_0,axe_xx2_0,axe_out_channels2_0,axe_yy2_1,axe_xx2_1,axe_xx2_2;224;Y:2, X:1, F:8, Y:1, X:2, C:8, W:3, X:14, H:3, W:1, H:1, X:1, Y:8, C:32, F:32, ;995.7603454589844
144;0;MobilNet_05;10.899104099999999;0.04031104735292847;2;axe_yy1_0,axe_xx1_0,axe_out_channels1_0,axe_yy1_1,axe_xx1_1;32;axe_yy2_0,axe_xx2_0,axe_out_channels2_0,axe_yy2_1,axe_xx2_1;16;Y:1, X:2, F:8, Y:2, X:1, C:8, W:3, X:14, H:3, W:1, H:1, X:1, Y:8, C:32, F:32, ;999.3050875663757
144;1;MobilNet_05;17.8565906;0.028541676482645686;2;axe_yy1_0,axe_xx1_0,axe_out_channels1_0,axe_yy1_1,axe_xx1_1,axe_xx1_2;448;axe_yy2_0,axe_xx2_0,axe_out_channels2_0,axe_yy2_1,axe_xx2_1,axe_xx2_2;224;Y:1, X:2, F:8, Y:2, X:1, C:8, W:3, X:14, H:3, W:1, H:1, X:1, Y:8, C:32, F:32, ;1003.13383436203
145;0;MobilNet_05;10.8245349;0.025255137542488464;2;axe_yy1_0,axe_xx1_0,axe_out_channels1_0,axe_yy1_1,axe_xx1_1;32;axe_yy2_0,axe_xx2_0,axe_out_channels2_0,axe_yy2_1,axe_xx2_1;16;Y:2, X:2, F:8, Y:1, X:1, C:8, W:3, X:14, H:3, W:1, H:1, X:1, Y:8, C:32, F:32, ;1006.6726474761963
145;1;MobilNet_05;17.9826103;0.22672411101338535;2;axe_yy1_0,axe_xx1_0,axe_out_channels1_0,axe_yy1_1,axe_xx1_1,axe_xx1_2;448;axe_yy2_0,axe_xx2_0,axe_out_channels2_0,axe_yy2_1,axe_xx2_1,axe_xx2_2;224;Y:2, X:2, F:8, Y:1, X:1, C:8, W:3, X:14, H:3, W:1, H:1, X:1, Y:8, C:32, F:32, ;1010.5164875984192
146;0;MobilNet_05;11.3283038;0.03531648006469519;1;axe_out_channels1_0,axe_out_channels1_1,axe_xx1_0,axe_yy1_0,axe_out_channels1_2;56;;;F:1, F:1, X:2, Y:7, F:4, C:8, H:3, X:14, W:3, H:1, X:1, Y:4, C:32, F:64, ;1013.6847505569458
146;1;MobilNet_05;22.987472699999998;0.10747210216335186;1;axe_out_channels1_0,axe_out_channels1_1,axe_xx1_0,axe_yy1_0,axe_out_channels1_2,axe_xx1_1;784;;;F:1, F:1, X:2, Y:7, F:4, C:8, H:3, X:14, W:3, H:1, X:1, Y:4, C:32, F:64, ;1017.3349251747131
147;0;MobilNet_05;11.2940531;0.022314605376075804;1;axe_out_channels1_0,axe_out_channels1_1,axe_xx1_0,axe_yy1_0,axe_out_channels1_2;56;;;F:1, F:2, X:2, Y:7, F:2, C:8, H:3, X:14, W:3, H:1, X:1, Y:4, C:32, F:64, ;1020.5037758350372
147;1;MobilNet_05;22.9016809;0.0813052018562779;1;axe_out_channels1_0,axe_out_channels1_1,axe_xx1_0,axe_yy1_0,axe_out_channels1_2,axe_xx1_1;784;;;F:1, F:2, X:2, Y:7, F:2, C:8, H:3, X:14, W:3, H:1, X:1, Y:4, C:32, F:64, ;1024.158521413803
148;0;MobilNet_05;11.3442665;0.03233716931102656;1;axe_out_channels1_0,axe_out_channels1_1,axe_xx1_0,axe_yy1_0,axe_out_channels1_2;56;;;F:1, F:4, X:2, Y:7, F:1, C:8, H:3, X:14, W:3, H:1, X:1, Y:4, C:32, F:64, ;1027.3430316448212
148;1;MobilNet_05;23.032836299999996;0.11310169368143871;1;axe_out_channels1_0,axe_out_channels1_1,axe_xx1_0,axe_yy1_0,axe_out_channels1_2,axe_xx1_1;784;;;F:1, F:4, X:2, Y:7, F:1, C:8, H:3, X:14, W:3, H:1, X:1, Y:4, C:32, F:64, ;1030.99485039711
149;0;MobilNet_05;11.2661833;0.02310500332850014;1;axe_out_channels1_0,axe_out_channels1_1,axe_xx1_0,axe_yy1_0,axe_out_channels1_2;56;;;F:2, F:1, X:2, Y:7, F:2, C:8, H:3, X:14, W:3, H:1, X:1, Y:4, C:32, F:64, ;1034.1642575263977
149;1;MobilNet_05;22.993734800000002;0.08541183336376708;1;axe_out_channels1_0,axe_out_channels1_1,axe_xx1_0,axe_yy1_0,axe_out_channels1_2,axe_xx1_1;784;;;F:2, F:1, X:2, Y:7, F:2, C:8, H:3, X:14, W:3, H:1, X:1, Y:4, C:32, F:64, ;1037.8139543533325
150;0;MobilNet_05;11.3218398;0.017558799439597164;1;axe_out_channels1_0,axe_out_channels1_1,axe_xx1_0,axe_yy1_0,axe_out_channels1_2;56;;;F:2, F:2, X:2, Y:7, F:1, C:8, H:3, X:14, W:3, H:1, X:1, Y:4, C:32, F:64, ;1041.0039174556732
150;1;MobilNet_05;23.0148369;0.09874939354087206;1;axe_out_channels1_0,axe_out_channels1_1,axe_xx1_0,axe_yy1_0,axe_out_channels1_2,axe_xx1_1;784;;;F:2, F:2, X:2, Y:7, F:1, C:8, H:3, X:14, W:3, H:1, X:1, Y:4, C:32, F:64, ;1044.6618297100067
151;0;MobilNet_05;11.3408104;0.015342741601161121;1;axe_out_channels1_0,axe_out_channels1_1,axe_xx1_0,axe_yy1_0,axe_out_channels1_2;56;;;F:4, F:1, X:2, Y:7, F:1, C:8, H:3, X:14, W:3, H:1, X:1, Y:4, C:32, F:64, ;1047.845377922058
151;1;MobilNet_05;22.988495900000004;0.07883108056654994;1;axe_out_channels1_0,axe_out_channels1_1,axe_xx1_0,axe_yy1_0,axe_out_channels1_2,axe_xx1_1;784;;;F:4, F:1, X:2, Y:7, F:1, C:8, H:3, X:14, W:3, H:1, X:1, Y:4, C:32, F:64, ;1051.496276140213
152;0;MobilNet_05;16.3638201;0.05764499151955974;2;axe_yy1_0,axe_out_channels1_0,axe_yy1_1;32;axe_xx2_0;28;Y:1, F:16, Y:2, C:2, X:28, W:3, W:1, H:3, X:1, Y:9, C:128, F:16, ;1055.2924973964691
152;1;MobilNet_05;17.634170900000004;0.05142960067791729;2;axe_yy1_0,axe_out_channels1_0,axe_yy1_1,axe_xx1_0;896;axe_yy2_0,axe_out_channels2_0,axe_yy2_1,axe_xx2_0;448;Y:1, F:16, Y:2, C:2, X:28, W:3, W:1, H:3, X:1, Y:9, C:128, F:16, ;1059.1184403896332
153;0;MobilNet_05;16.173911300000004;0.042518264513148274;2;axe_yy1_0,axe_out_channels1_0,axe_yy1_1;32;axe_xx2_0;28;Y:2, F:16, Y:1, C:2, X:28, W:3, W:1, H:3, X:1, Y:9, C:128, F:16, ;1062.8990697860718
153;1;MobilNet_05;17.6527626;0.05315375155377111;2;axe_yy1_0,axe_out_channels1_0,axe_yy1_1,axe_xx1_0;896;axe_yy2_0,axe_out_channels2_0,axe_yy2_1,axe_xx2_0;448;Y:2, F:16, Y:1, C:2, X:28, W:3, W:1, H:3, X:1, Y:9, C:128, F:16, ;1066.7235753536224
154;0;MobilNet_05;9.4342832;0.01379382165898926;1;axe_out_channels1_0,axe_out_channels1_1,axe_xx1_0,axe_yy1_0,axe_out_channels1_2;56;;;F:1, F:1, X:2, Y:7, F:4, C:2, H:3, X:14, W:3, H:1, X:1, Y:4, C:128, F:64, ;1069.8177621364594
154;1;MobilNet_05;22.699167000000003;0.03598042350779076;1;axe_out_channels1_0,axe_out_channels1_1,axe_xx1_0,axe_yy1_0,axe_out_channels1_2,axe_xx1_1;784;;;F:1, F:1, X:2, Y:7, F:4, C:2, H:3, X:14, W:3, H:1, X:1, Y:4, C:128, F:64, ;1073.4576091766357
155;0;MobilNet_05;9.4499446;0.013591294730083877;1;axe_out_channels1_0,axe_out_channels1_1,axe_xx1_0,axe_yy1_0,axe_out_channels1_2;56;;;F:1, F:2, X:2, Y:7, F:2, C:2, H:3, X:14, W:3, H:1, X:1, Y:4, C:128, F:64, ;1076.5569195747375
155;1;MobilNet_05;22.802695300000003;0.03934400161918002;1;axe_out_channels1_0,axe_out_channels1_1,axe_xx1_0,axe_yy1_0,axe_out_channels1_2,axe_xx1_1;784;;;F:1, F:2, X:2, Y:7, F:2, C:2, H:3, X:14, W:3, H:1, X:1, Y:4, C:128, F:64, ;1080.2001345157623
156;0;MobilNet_05;9.482501599999999;0.012600729718551853;1;axe_out_channels1_0,axe_out_channels1_1,axe_xx1_0,axe_yy1_0,axe_out_channels1_2;56;;;F:1, F:4, X:2, Y:7, F:1, C:2, H:3, X:14, W:3, H:1, X:1, Y:4, C:128, F:64, ;1083.319013595581
156;1;MobilNet_05;22.818083900000005;0.02709714703967944;1;axe_out_channels1_0,axe_out_channels1_1,axe_xx1_0,axe_yy1_0,axe_out_channels1_2,axe_xx1_1;784;;;F:1, F:4, X:2, Y:7, F:1, C:2, H:3, X:14, W:3, H:1, X:1, Y:4, C:128, F:64, ;1086.9602117538452
157;0;MobilNet_05;9.4632204;0.01979222395891887;1;axe_out_channels1_0,axe_out_channels1_1,axe_xx1_0,axe_yy1_0,axe_out_channels1_2;56;;;F:2, F:1, X:2, Y:7, F:2, C:2, H:3, X:14, W:3, H:1, X:1, Y:4, C:128, F:64, ;1090.062332868576
157;1;MobilNet_05;22.8008747;0.02419439396657837;1;axe_out_channels1_0,axe_out_channels1_1,axe_xx1_0,axe_yy1_0,axe_out_channels1_2,axe_xx1_1;784;;;F:2, F:1, X:2, Y:7, F:2, C:2, H:3, X:14, W:3, H:1, X:1, Y:4, C:128, F:64, ;1093.705073595047
158;0;MobilNet_05;9.4833967;0.013995558452952072;1;axe_out_channels1_0,axe_out_channels1_1,axe_xx1_0,axe_yy1_0,axe_out_channels1_2;56;;;F:2, F:2, X:2, Y:7, F:1, C:2, H:3, X:14, W:3, H:1, X:1, Y:4, C:128, F:64, ;1096.8224747180939
158;1;MobilNet_05;22.8415244;0.04003300350510827;1;axe_out_channels1_0,axe_out_channels1_1,axe_xx1_0,axe_yy1_0,axe_out_channels1_2,axe_xx1_1;784;;;F:2, F:2, X:2, Y:7, F:1, C:2, H:3, X:14, W:3, H:1, X:1, Y:4, C:128, F:64, ;1100.4650938510895
159;0;MobilNet_05;9.465789599999997;0.01081830489679439;1;axe_out_channels1_0,axe_out_channels1_1,axe_xx1_0,axe_yy1_0,axe_out_channels1_2;56;;;F:4, F:1, X:2, Y:7, F:1, C:2, H:3, X:14, W:3, H:1, X:1, Y:4, C:128, F:64, ;1103.5860376358032
159;1;MobilNet_05;22.8639232;0.028168134389058273;1;axe_out_channels1_0,axe_out_channels1_1,axe_xx1_0,axe_yy1_0,axe_out_channels1_2,axe_xx1_1;784;;;F:4, F:1, X:2, Y:7, F:1, C:2, H:3, X:14, W:3, H:1, X:1, Y:4, C:128, F:64, ;1107.2317271232605
160;0;MobilNet_05;11.209768100000002;0.049167583925692315;2;axe_yy1_0,axe_xx1_0,axe_out_channels1_0,axe_yy1_1,axe_xx1_1;32;axe_yy2_0,axe_xx2_0,axe_out_channels2_0,axe_yy2_1,axe_xx2_1;32;Y:1, X:1, F:8, Y:1, X:4, C:4, W:3, X:7, H:3, W:1, H:1, X:1, Y:13, C:64, F:32, ;1110.8381927013397
160;1;MobilNet_05;17.063567400000004;0.12293913739261375;2;axe_yy1_0,axe_xx1_0,axe_out_channels1_0,axe_yy1_1,axe_xx1_1,axe_xx1_2;224;axe_yy2_0,axe_xx2_0,axe_out_channels2_0,axe_yy2_1,axe_xx2_1,axe_xx2_2;224;Y:1, X:1, F:8, Y:1, X:4, C:4, W:3, X:7, H:3, W:1, H:1, X:1, Y:13, C:64, F:32, ;1114.6615257263184
161;0;MobilNet_05;11.1909418;0.03959470879498945;2;axe_yy1_0,axe_xx1_0,axe_out_channels1_0,axe_yy1_1,axe_xx1_1;32;axe_yy2_0,axe_xx2_0,axe_out_channels2_0,axe_yy2_1,axe_xx2_1;32;Y:1, X:1, F:8, Y:1, X:4, C:4, W:3, X:7, H:3, W:1, H:1, X:1, Y:13, C:64, F:32, ;1118.2646028995514
161;1;MobilNet_05;16.9978408;0.032299745472062644;2;axe_yy1_0,axe_xx1_0,axe_out_channels1_0,axe_yy1_1,axe_xx1_1,axe_xx1_2;224;axe_yy2_0,axe_xx2_0,axe_out_channels2_0,axe_yy2_1,axe_xx2_1,axe_xx2_2;224;Y:1, X:1, F:8, Y:1, X:4, C:4, W:3, X:7, H:3, W:1, H:1, X:1, Y:13, C:64, F:32, ;1122.0836746692657
162;0;MobilNet_05;11.260344499999999;0.053575734121428756;2;axe_yy1_0,axe_xx1_0,axe_out_channels1_0,axe_yy1_1,axe_xx1_1;32;axe_yy2_0,axe_xx2_0,axe_out_channels2_0,axe_yy2_1,axe_xx2_1;32;Y:1, X:2, F:8, Y:1, X:2, C:4, W:3, X:7, H:3, W:1, H:1, X:1, Y:13, C:64, F:32, ;1125.6847939491272
162;1;MobilNet_05;17.164540199999998;0.19172779733142395;2;axe_yy1_0,axe_xx1_0,axe_out_channels1_0,axe_yy1_1,axe_xx1_1,axe_xx1_2;224;axe_yy2_0,axe_xx2_0,axe_out_channels2_0,axe_yy2_1,axe_xx2_1,axe_xx2_2;224;Y:1, X:2, F:8, Y:1, X:2, C:4, W:3, X:7, H:3, W:1, H:1, X:1, Y:13, C:64, F:32, ;1129.50892162323
163;0;MobilNet_05;11.209732;0.022879975546316007;2;axe_yy1_0,axe_xx1_0,axe_out_channels1_0,axe_yy1_1,axe_xx1_1;32;axe_yy2_0,axe_xx2_0,axe_out_channels2_0,axe_yy2_1,axe_xx2_1;32;Y:1, X:2, F:8, Y:1, X:2, C:4, W:3, X:7, H:3, W:1, H:1, X:1, Y:13, C:64, F:32, ;1133.1056635379791
163;1;MobilNet_05;17.1882826;0.2135605918956956;2;axe_yy1_0,axe_xx1_0,axe_out_channels1_0,axe_yy1_1,axe_xx1_1,axe_xx1_2;224;axe_yy2_0,axe_xx2_0,axe_out_channels2_0,axe_yy2_1,axe_xx2_1,axe_xx2_2;224;Y:1, X:2, F:8, Y:1, X:2, C:4, W:3, X:7, H:3, W:1, H:1, X:1, Y:13, C:64, F:32, ;1136.9295101165771
164;0;MobilNet_05;11.2212321;0.04557095716890312;2;axe_yy1_0,axe_xx1_0,axe_out_channels1_0,axe_yy1_1,axe_xx1_1;32;axe_yy2_0,axe_xx2_0,axe_out_channels2_0,axe_yy2_1,axe_xx2_1;32;Y:1, X:4, F:8, Y:1, X:1, C:4, W:3, X:7, H:3, W:1, H:1, X:1, Y:13, C:64, F:32, ;1140.512417793274
164;1;MobilNet_05;17.1363461;0.1675131792495434;2;axe_yy1_0,axe_xx1_0,axe_out_channels1_0,axe_yy1_1,axe_xx1_1,axe_xx1_2;224;axe_yy2_0,axe_xx2_0,axe_out_channels2_0,axe_yy2_1,axe_xx2_1,axe_xx2_2;224;Y:1, X:4, F:8, Y:1, X:1, C:4, W:3, X:7, H:3, W:1, H:1, X:1, Y:13, C:64, F:32, ;1144.334358215332
165;0;MobilNet_05;11.208377500000001;0.04645323667786758;2;axe_yy1_0,axe_xx1_0,axe_out_channels1_0,axe_yy1_1,axe_xx1_1;32;axe_yy2_0,axe_xx2_0,axe_out_channels2_0,axe_yy2_1,axe_xx2_1;32;Y:1, X:4, F:8, Y:1, X:1, C:4, W:3, X:7, H:3, W:1, H:1, X:1, Y:13, C:64, F:32, ;1147.9171442985535
165;1;MobilNet_05;17.1671297;0.16880678849030423;2;axe_yy1_0,axe_xx1_0,axe_out_channels1_0,axe_yy1_1,axe_xx1_1,axe_xx1_2;224;axe_yy2_0,axe_xx2_0,axe_out_channels2_0,axe_yy2_1,axe_xx2_1,axe_xx2_2;224;Y:1, X:4, F:8, Y:1, X:1, C:4, W:3, X:7, H:3, W:1, H:1, X:1, Y:13, C:64, F:32, ;1151.7415516376495
166;0;MobilNet_05;10.7988155;0.024665811319516617;1;axe_out_channels1_0,axe_out_channels1_1,axe_xx1_0,axe_yy1_0,axe_out_channels1_2;64;;;F:1, F:1, X:4, Y:4, F:4, C:1, H:3, X:7, W:3, H:1, X:1, Y:7, C:256, F:64, ;1154.9542663097382
166;1;MobilNet_05;19.2103218;0.1475800743154715;1;axe_out_channels1_0,axe_out_channels1_1,axe_xx1_0,axe_yy1_0,axe_out_channels1_2,axe_xx1_1;448;;;F:1, F:1, X:4, Y:4, F:4, C:1, H:3, X:7, W:3, H:1, X:1, Y:7, C:256, F:64, ;1158.4792959690094
167;0;MobilNet_05;10.911069699999999;0.033151968680758065;1;axe_out_channels1_0,axe_out_channels1_1,axe_xx1_0,axe_yy1_0,axe_out_channels1_2;64;;;F:1, F:2, X:4, Y:4, F:2, C:1, H:3, X:7, W:3, H:1, X:1, Y:7, C:256, F:64, ;1161.6950261592865
167;1;MobilNet_05;19.3073791;0.12073591463475189;1;axe_out_channels1_0,axe_out_channels1_1,axe_xx1_0,axe_yy1_0,axe_out_channels1_2,axe_xx1_1;448;;;F:1, F:2, X:4, Y:4, F:2, C:1, H:3, X:7, W:3, H:1, X:1, Y:7, C:256, F:64, ;1165.228115081787
168;0;MobilNet_05;10.928002600000001;0.025461472636907862;1;axe_out_channels1_0,axe_out_channels1_1,axe_xx1_0,axe_yy1_0,axe_out_channels1_2;64;;;F:1, F:4, X:4, Y:4, F:1, C:1, H:3, X:7, W:3, H:1, X:1, Y:7, C:256, F:64, ;1168.4549481868744
168;1;MobilNet_05;19.1498402;0.155524151287059;1;axe_out_channels1_0,axe_out_channels1_1,axe_xx1_0,axe_yy1_0,axe_out_channels1_2,axe_xx1_1;448;;;F:1, F:4, X:4, Y:4, F:1, C:1, H:3, X:7, W:3, H:1, X:1, Y:7, C:256, F:64, ;1171.9744281768799
169;0;MobilNet_05;10.8729356;0.01910686141259204;1;axe_out_channels1_0,axe_out_channels1_1,axe_xx1_0,axe_yy1_0,axe_out_channels1_2;64;;;F:2, F:1, X:4, Y:4, F:2, C:1, H:3, X:7, W:3, H:1, X:1, Y:7, C:256, F:64, ;1175.1834406852722
169;1;MobilNet_05;19.2601675;0.13406200481959818;1;axe_out_channels1_0,axe_out_channels1_1,axe_xx1_0,axe_yy1_0,axe_out_channels1_2,axe_xx1_1;448;;;F:2, F:1, X:4, Y:4, F:2, C:1, H:3, X:7, W:3, H:1, X:1, Y:7, C:256, F:64, ;1178.7055549621582
170;0;MobilNet_05;10.9554176;0.057708140240697564;1;axe_out_channels1_0,axe_out_channels1_1,axe_xx1_0,axe_yy1_0,axe_out_channels1_2;64;;;F:2, F:2, X:4, Y:4, F:1, C:1, H:3, X:7, W:3, H:1, X:1, Y:7, C:256, F:64, ;1181.9291248321533
170;1;MobilNet_05;19.0794026;0.040361102299615245;1;axe_out_channels1_0,axe_out_channels1_1,axe_xx1_0,axe_yy1_0,axe_out_channels1_2,axe_xx1_1;448;;;F:2, F:2, X:4, Y:4, F:1, C:1, H:3, X:7, W:3, H:1, X:1, Y:7, C:256, F:64, ;1185.4478216171265
171;0;MobilNet_05;10.9446273;0.03865592469221256;1;axe_out_channels1_0,axe_out_channels1_1,axe_xx1_0,axe_yy1_0,axe_out_channels1_2;64;;;F:4, F:1, X:4, Y:4, F:1, C:1, H:3, X:7, W:3, H:1, X:1, Y:7, C:256, F:64, ;1188.6771984100342
171;1;MobilNet_05;19.1895647;0.14795175334145225;1;axe_out_channels1_0,axe_out_channels1_1,axe_xx1_0,axe_yy1_0,axe_out_channels1_2,axe_xx1_1;448;;;F:4, F:1, X:4, Y:4, F:1, C:1, H:3, X:7, W:3, H:1, X:1, Y:7, C:256, F:64, ;1192.201767206192
172;0;MobilNet_05;12.6232552;0.5181938072099667;1;axe_out_channels1_0,axe_out_channels1_1,axe_xx1_0,axe_yy1_0,axe_out_channels1_2;64;;;F:1, F:1, X:4, Y:4, F:4, C:8, W:3, X:7, H:3, W:1, H:1, X:1, Y:7, C:32, F:64, ;1195.4682357311249
172;1;MobilNet_05;18.7504482;0.5766334805801353;1;axe_out_channels1_0,axe_out_channels1_1,axe_xx1_0,axe_yy1_0,axe_out_channels1_2,axe_xx1_1;448;;;F:1, F:1, X:4, Y:4, F:4, C:8, W:3, X:7, H:3, W:1, H:1, X:1, Y:7, C:32, F:64, ;1198.9692454338074
173;0;MobilNet_05;12.7314326;0.5340937722696638;1;axe_out_channels1_0,axe_out_channels1_1,axe_xx1_0,axe_yy1_0,axe_out_channels1_2;64;;;F:1, F:2, X:4, Y:4, F:2, C:8, W:3, X:7, H:3, W:1, H:1, X:1, Y:7, C:32, F:64, ;1202.231642484665
173;1;MobilNet_05;19.169042200000003;0.5564418618182486;1;axe_out_channels1_0,axe_out_channels1_1,axe_xx1_0,axe_yy1_0,axe_out_channels1_2,axe_xx1_1;448;;;F:1, F:2, X:4, Y:4, F:2, C:8, W:3, X:7, H:3, W:1, H:1, X:1, Y:7, C:32, F:64, ;1205.7440223693848
174;0;MobilNet_05;12.4150707;0.340621839243185;1;axe_out_channels1_0,axe_out_channels1_1,axe_xx1_0,axe_yy1_0,axe_out_channels1_2;64;;;F:1, F:4, X:4, Y:4, F:1, C:8, W:3, X:7, H:3, W:1, H:1, X:1, Y:7, C:32, F:64, ;1209.0097591876984
174;1;MobilNet_05;19.004428800000003;0.2953730458365492;1;axe_out_channels1_0,axe_out_channels1_1,axe_xx1_0,axe_yy1_0,axe_out_channels1_2,axe_xx1_1;448;;;F:1, F:4, X:4, Y:4, F:1, C:8, W:3, X:7, H:3, W:1, H:1, X:1, Y:7, C:32, F:64, ;1212.513189315796
175;0;MobilNet_05;12.8885301;0.50403726417388;1;axe_out_channels1_0,axe_out_channels1_1,axe_xx1_0,axe_yy1_0,axe_out_channels1_2;64;;;F:2, F:1, X:4, Y:4, F:2, C:8, W:3, X:7, H:3, W:1, H:1, X:1, Y:7, C:32, F:64, ;1215.7767810821533
175;1;MobilNet_05;19.0610681;0.17669749735547993;1;axe_out_channels1_0,axe_out_channels1_1,axe_xx1_0,axe_yy1_0,axe_out_channels1_2,axe_xx1_1;448;;;F:2, F:1, X:4, Y:4, F:2, C:8, W:3, X:7, H:3, W:1, H:1, X:1, Y:7, C:32, F:64, ;1219.2832021713257
176;0;MobilNet_05;13.5544614;0.32866812189356015;1;axe_out_channels1_0,axe_out_channels1_1,axe_xx1_0,axe_yy1_0,axe_out_channels1_2;64;;;F:2, F:2, X:4, Y:4, F:1, C:8, W:3, X:7, H:3, W:1, H:1, X:1, Y:7, C:32, F:64, ;1222.5794258117676
176;1;MobilNet_05;19.029972;0.3815528789056633;1;axe_out_channels1_0,axe_out_channels1_1,axe_xx1_0,axe_yy1_0,axe_out_channels1_2,axe_xx1_1;448;;;F:2, F:2, X:4, Y:4, F:1, C:8, W:3, X:7, H:3, W:1, H:1, X:1, Y:7, C:32, F:64, ;1226.081226348877
177;0;MobilNet_05;12.941884100000001;0.6667154614773007;1;axe_out_channels1_0,axe_out_channels1_1,axe_xx1_0,axe_yy1_0,axe_out_channels1_2;64;;;F:4, F:1, X:4, Y:4, F:1, C:8, W:3, X:7, H:3, W:1, H:1, X:1, Y:7, C:32, F:64, ;1229.3590960502625
177;1;MobilNet_05;18.728463400000003;0.4034933441835692;1;axe_out_channels1_0,axe_out_channels1_1,axe_xx1_0,axe_yy1_0,axe_out_channels1_2,axe_xx1_1;448;;;F:4, F:1, X:4, Y:4, F:1, C:8, W:3, X:7, H:3, W:1, H:1, X:1, Y:7, C:32, F:64, ;1232.8516018390656
178;0;MobilNet_05;23.8282479;0.10664447458584099;1;axe_out_channels1_0,axe_out_channels1_1,axe_xx1_0,axe_yy1_0,axe_out_channels1_2;64;;;F:1, F:1, X:4, Y:4, F:4, C:8, W:3, X:7, W:1, H:3, X:1, Y:7, C:32, F:64, ;1236.592375278473
178;1;MobilNet_05;22.1479686;0.2938895190098483;1;axe_out_channels1_0,axe_out_channels1_1,axe_xx1_0,axe_yy1_0,axe_out_channels1_2,axe_xx1_1;448;;;F:1, F:1, X:4, Y:4, F:4, C:8, W:3, X:7, W:1, H:3, X:1, Y:7, C:32, F:64, ;1240.2375440597534
179;0;MobilNet_05;23.8924442;0.11713765454097162;1;axe_out_channels1_0,axe_out_channels1_1,axe_xx1_0,axe_yy1_0,axe_out_channels1_2;64;;;F:1, F:2, X:4, Y:4, F:2, C:8, W:3, X:7, W:1, H:3, X:1, Y:7, C:32, F:64, ;1243.9803040027618
179;1;MobilNet_05;22.1280485;0.127819599360388;1;axe_out_channels1_0,axe_out_channels1_1,axe_xx1_0,axe_yy1_0,axe_out_channels1_2,axe_xx1_1;448;;;F:1, F:2, X:4, Y:4, F:2, C:8, W:3, X:7, W:1, H:3, X:1, Y:7, C:32, F:64, ;1247.6267068386078
180;0;MobilNet_05;23.822350700000005;0.09954335229642404;1;axe_out_channels1_0,axe_out_channels1_1,axe_xx1_0,axe_yy1_0,axe_out_channels1_2;64;;;F:1, F:4, X:4, Y:4, F:1, C:8, W:3, X:7, W:1, H:3, X:1, Y:7, C:32, F:64, ;1251.374715089798
180;1;MobilNet_05;22.0308873;0.33778720156573433;1;axe_out_channels1_0,axe_out_channels1_1,axe_xx1_0,axe_yy1_0,axe_out_channels1_2,axe_xx1_1;448;;;F:1, F:4, X:4, Y:4, F:1, C:8, W:3, X:7, W:1, H:3, X:1, Y:7, C:32, F:64, ;1255.012745141983
181;0;MobilNet_05;23.894875199999998;0.10612616271758794;1;axe_out_channels1_0,axe_out_channels1_1,axe_xx1_0,axe_yy1_0,axe_out_channels1_2;64;;;F:2, F:1, X:4, Y:4, F:2, C:8, W:3, X:7, W:1, H:3, X:1, Y:7, C:32, F:64, ;1258.755827665329
181;1;MobilNet_05;22.124328;0.28205054873621405;1;axe_out_channels1_0,axe_out_channels1_1,axe_xx1_0,axe_yy1_0,axe_out_channels1_2,axe_xx1_1;448;;;F:2, F:1, X:4, Y:4, F:2, C:8, W:3, X:7, W:1, H:3, X:1, Y:7, C:32, F:64, ;1262.39874792099
182;0;MobilNet_05;23.785695099999998;0.01470692723480972;1;axe_out_channels1_0,axe_out_channels1_1,axe_xx1_0,axe_yy1_0,axe_out_channels1_2;64;;;F:2, F:2, X:4, Y:4, F:1, C:8, W:3, X:7, W:1, H:3, X:1, Y:7, C:32, F:64, ;1266.1432874202728
182;1;MobilNet_05;21.914924199999998;0.30774925005718506;1;axe_out_channels1_0,axe_out_channels1_1,axe_xx1_0,axe_yy1_0,axe_out_channels1_2,axe_xx1_1;448;;;F:2, F:2, X:4, Y:4, F:1, C:8, W:3, X:7, W:1, H:3, X:1, Y:7, C:32, F:64, ;1269.7723507881165
183;0;MobilNet_05;23.891094600000002;0.10128657204012827;1;axe_out_channels1_0,axe_out_channels1_1,axe_xx1_0,axe_yy1_0,axe_out_channels1_2;64;;;F:4, F:1, X:4, Y:4, F:1, C:8, W:3, X:7, W:1, H:3, X:1, Y:7, C:32, F:64, ;1273.520781993866
183;1;MobilNet_05;22.0012666;0.2613608865806828;1;axe_out_channels1_0,axe_out_channels1_1,axe_xx1_0,axe_yy1_0,axe_out_channels1_2,axe_xx1_1;448;;;F:4, F:1, X:4, Y:4, F:1, C:8, W:3, X:7, W:1, H:3, X:1, Y:7, C:32, F:64, ;1277.160135269165
184;0;MobilNet_05;11.314402600000001;0.02902942326399193;1;axe_out_channels1_0,axe_out_channels1_1,axe_xx1_0,axe_yy1_0,axe_out_channels1_2;64;;;F:1, F:1, X:4, Y:4, F:4, C:8, H:3, X:7, W:3, H:1, X:1, Y:7, C:32, F:64, ;1280.3928430080414
184;1;MobilNet_05;19.287290300000002;0.14055843490452624;1;axe_out_channels1_0,axe_out_channels1_1,axe_xx1_0,axe_yy1_0,axe_out_channels1_2,axe_xx1_1;448;;;F:1, F:1, X:4, Y:4, F:4, C:8, H:3, X:7, W:3, H:1, X:1, Y:7, C:32, F:64, ;1283.925628900528
185;0;MobilNet_05;11.3497516;0.02989342878694244;1;axe_out_channels1_0,axe_out_channels1_1,axe_xx1_0,axe_yy1_0,axe_out_channels1_2;64;;;F:1, F:2, X:4, Y:4, F:2, C:8, H:3, X:7, W:3, H:1, X:1, Y:7, C:32, F:64, ;1287.1554112434387
185;1;MobilNet_05;19.5096438;0.055369920351758375;1;axe_out_channels1_0,axe_out_channels1_1,axe_xx1_0,axe_yy1_0,axe_out_channels1_2,axe_xx1_1;448;;;F:1, F:2, X:4, Y:4, F:2, C:8, H:3, X:7, W:3, H:1, X:1, Y:7, C:32, F:64, ;1290.6981265544891
186;0;MobilNet_05;11.364631900000001;0.025463791695071576;1;axe_out_channels1_0,axe_out_channels1_1,axe_xx1_0,axe_yy1_0,axe_out_channels1_2;64;;;F:1, F:4, X:4, Y:4, F:1, C:8, H:3, X:7, W:3, H:1, X:1, Y:7, C:32, F:64, ;1293.9319560527802
186;1;MobilNet_05;19.6597097;0.12122317768978813;1;axe_out_channels1_0,axe_out_channels1_1,axe_xx1_0,axe_yy1_0,axe_out_channels1_2,axe_xx1_1;448;;;F:1, F:4, X:4, Y:4, F:1, C:8, H:3, X:7, W:3, H:1, X:1, Y:7, C:32, F:64, ;1297.4696996212006
187;0;MobilNet_05;11.3349955;0.03024361696044291;1;axe_out_channels1_0,axe_out_channels1_1,axe_xx1_0,axe_yy1_0,axe_out_channels1_2;64;;;F:2, F:1, X:4, Y:4, F:2, C:8, H:3, X:7, W:3, H:1, X:1, Y:7, C:32, F:64, ;1300.6982579231262
187;1;MobilNet_05;19.6209088;0.2522994684183067;1;axe_out_channels1_0,axe_out_channels1_1,axe_xx1_0,axe_yy1_0,axe_out_channels1_2,axe_xx1_1;448;;;F:2, F:1, X:4, Y:4, F:2, C:8, H:3, X:7, W:3, H:1, X:1, Y:7, C:32, F:64, ;1304.2433552742004
188;0;MobilNet_05;11.3637355;0.04159419901200164;1;axe_out_channels1_0,axe_out_channels1_1,axe_xx1_0,axe_yy1_0,axe_out_channels1_2;64;;;F:2, F:2, X:4, Y:4, F:1, C:8, H:3, X:7, W:3, H:1, X:1, Y:7, C:32, F:64, ;1307.479832649231
188;1;MobilNet_05;19.590142399999998;0.15915803892056435;1;axe_out_channels1_0,axe_out_channels1_1,axe_xx1_0,axe_yy1_0,axe_out_channels1_2,axe_xx1_1;448;;;F:2, F:2, X:4, Y:4, F:1, C:8, H:3, X:7, W:3, H:1, X:1, Y:7, C:32, F:64, ;1311.0216376781464
189;0;MobilNet_05;11.355391000000001;0.02673685667388751;1;axe_out_channels1_0,axe_out_channels1_1,axe_xx1_0,axe_yy1_0,axe_out_channels1_2;64;;;F:4, F:1, X:4, Y:4, F:1, C:8, H:3, X:7, W:3, H:1, X:1, Y:7, C:32, F:64, ;1314.256774187088
189;1;MobilNet_05;19.5502601;0.2135145536596748;1;axe_out_channels1_0,axe_out_channels1_1,axe_xx1_0,axe_yy1_0,axe_out_channels1_2,axe_xx1_1;448;;;F:4, F:1, X:4, Y:4, F:1, C:8, H:3, X:7, W:3, H:1, X:1, Y:7, C:32, F:64, ;1317.7981970310211
190;0;MobilNet_05;9.251196;0.036814280595986314;2;axe_yy1_0,axe_out_channels1_0,axe_yy1_1;32;axe_xx2_0;28;Y:1, F:16, Y:2, C:4, X:28, W:3, W:1, H:3, X:1, Y:9, C:64, F:16, ;1321.286595582962
190;1;MobilNet_05;17.629683;0.022718272795263304;2;axe_yy1_0,axe_out_channels1_0,axe_yy1_1,axe_xx1_0;896;axe_yy2_0,axe_out_channels2_0,axe_yy2_1,axe_xx2_0;448;Y:1, F:16, Y:2, C:4, X:28, W:3, W:1, H:3, X:1, Y:9, C:64, F:16, ;1325.089802980423
191;0;MobilNet_05;9.2824056;0.04309306834561636;2;axe_yy1_0,axe_out_channels1_0,axe_yy1_1;32;axe_xx2_0;28;Y:2, F:16, Y:1, C:4, X:28, W:3, W:1, H:3, X:1, Y:9, C:64, F:16, ;1328.5632028579712
191;1;MobilNet_05;17.2646861;0.05149035942086581;2;axe_yy1_0,axe_out_channels1_0,axe_yy1_1,axe_xx1_0;896;axe_yy2_0,axe_out_channels2_0,axe_yy2_1,axe_xx2_0;448;Y:2, F:16, Y:1, C:4, X:28, W:3, W:1, H:3, X:1, Y:9, C:64, F:16, ;1332.3533754348755
192;0;MobilNet_05;10.100375599999998;0.012481736210960428;1;axe_out_channels1_0,axe_out_channels1_1,axe_xx1_0,axe_yy1_0,axe_out_channels1_2;56;;;F:1, F:1, X:2, Y:7, F:4, C:4, H:3, X:14, W:3, H:1, X:1, Y:4, C:64, F:64, ;1335.4741237163544
192;1;MobilNet_05;22.838417099999997;0.07415062390222965;1;axe_out_channels1_0,axe_out_channels1_1,axe_xx1_0,axe_yy1_0,axe_out_channels1_2,axe_xx1_1;784;;;F:1, F:1, X:2, Y:7, F:4, C:4, H:3, X:14, W:3, H:1, X:1, Y:4, C:64, F:64, ;1339.1212768554688
193;0;MobilNet_05;10.083437499999999;0.017189866080048348;1;axe_out_channels1_0,axe_out_channels1_1,axe_xx1_0,axe_yy1_0,axe_out_channels1_2;56;;;F:1, F:2, X:2, Y:7, F:2, C:4, H:3, X:14, W:3, H:1, X:1, Y:4, C:64, F:64, ;1342.2435040473938
193;1;MobilNet_05;22.8453812;0.05271583817184304;1;axe_out_channels1_0,axe_out_channels1_1,axe_xx1_0,axe_yy1_0,axe_out_channels1_2,axe_xx1_1;784;;;F:1, F:2, X:2, Y:7, F:2, C:4, H:3, X:14, W:3, H:1, X:1, Y:4, C:64, F:64, ;1345.888881444931
194;0;MobilNet_05;10.088728;0.016747599314528704;1;axe_out_channels1_0,axe_out_channels1_1,axe_xx1_0,axe_yy1_0,axe_out_channels1_2;56;;;F:1, F:4, X:2, Y:7, F:1, C:4, H:3, X:14, W:3, H:1, X:1, Y:4, C:64, F:64, ;1349.0266523361206
194;1;MobilNet_05;22.8986807;0.06619459119754396;1;axe_out_channels1_0,axe_out_channels1_1,axe_xx1_0,axe_yy1_0,axe_out_channels1_2,axe_xx1_1;784;;;F:1, F:4, X:2, Y:7, F:1, C:4, H:3, X:14, W:3, H:1, X:1, Y:4, C:64, F:64, ;1352.6740236282349
195;0;MobilNet_05;10.080501899999998;0.01437870689213716;1;axe_out_channels1_0,axe_out_channels1_1,axe_xx1_0,axe_yy1_0,axe_out_channels1_2;56;;;F:2, F:1, X:2, Y:7, F:2, C:4, H:3, X:14, W:3, H:1, X:1, Y:4, C:64, F:64, ;1355.7934756278992
195;1;MobilNet_05;22.879212199999998;0.059606720969702334;1;axe_out_channels1_0,axe_out_channels1_1,axe_xx1_0,axe_yy1_0,axe_out_channels1_2,axe_xx1_1;784;;;F:2, F:1, X:2, Y:7, F:2, C:4, H:3, X:14, W:3, H:1, X:1, Y:4, C:64, F:64, ;1359.443792104721
196;0;MobilNet_05;10.081780399999998;0.011769555515821779;1;axe_out_channels1_0,axe_out_channels1_1,axe_xx1_0,axe_yy1_0,axe_out_channels1_2;56;;;F:2, F:2, X:2, Y:7, F:1, C:4, H:3, X:14, W:3, H:1, X:1, Y:4, C:64, F:64, ;1362.581396818161
196;1;MobilNet_05;22.8941648;0.040765084405162015;1;axe_out_channels1_0,axe_out_channels1_1,axe_xx1_0,axe_yy1_0,axe_out_channels1_2,axe_xx1_1;784;;;F:2, F:2, X:2, Y:7, F:1, C:4, H:3, X:14, W:3, H:1, X:1, Y:4, C:64, F:64, ;1366.23069357872
197;0;MobilNet_05;10.0631703;0.0230236344961003;1;axe_out_channels1_0,axe_out_channels1_1,axe_xx1_0,axe_yy1_0,axe_out_channels1_2;56;;;F:4, F:1, X:2, Y:7, F:1, C:4, H:3, X:14, W:3, H:1, X:1, Y:4, C:64, F:64, ;1369.365440607071
197;1;MobilNet_05;22.944754800000005;0.04703499928733932;1;axe_out_channels1_0,axe_out_channels1_1,axe_xx1_0,axe_yy1_0,axe_out_channels1_2,axe_xx1_1;784;;;F:4, F:1, X:2, Y:7, F:1, C:4, H:3, X:14, W:3, H:1, X:1, Y:4, C:64, F:64, ;1373.0161254405975
198;0;MobilNet_05;11.4848838;0.07778782649978051;1;axe_yy1_0,axe_xx1_0,axe_out_channels1_0,axe_yy1_1,axe_xx1_1;112;;;Y:1, X:1, F:8, Y:2, X:7, C:4, W:3, X:4, H:3, W:1, H:1, X:1, Y:14, C:64, F:32, ;1376.2356214523315
198;1;MobilNet_05;25.405133300000003;0.022390426213228246;1;axe_yy1_0,axe_xx1_0,axe_out_channels1_0,axe_yy1_1,axe_xx1_1,axe_xx1_2;448;;;Y:1, X:1, F:8, Y:2, X:7, C:4, W:3, X:4, H:3, W:1, H:1, X:1, Y:14, C:64, F:32, ;1379.999659538269
199;0;MobilNet_05;11.4108862;0.027371198266791276;1;axe_yy1_0,axe_xx1_0,axe_out_channels1_0,axe_yy1_1,axe_xx1_1;112;;;Y:2, X:1, F:8, Y:1, X:7, C:4, W:3, X:4, H:3, W:1, H:1, X:1, Y:14, C:64, F:32, ;1383.2190334796906
199;1;MobilNet_05;25.503251299999995;0.02577123846868814;1;axe_yy1_0,axe_xx1_0,axe_out_channels1_0,axe_yy1_1,axe_xx1_1,axe_xx1_2;448;;;Y:2, X:1, F:8, Y:1, X:7, C:4, W:3, X:4, H:3, W:1, H:1, X:1, Y:14, C:64, F:32, ;1386.9764227867126
