IdRun;MethodParallelization;NameConv;Time(ms);std;NbMicroKernel;AxeFuse1;SizeAxeFuse1;AxeFuse2;SizeAxeFuse2;Schema;Time_search(3.0708515644073486)
0;0;MobilNet_01;2.5763879;0.004154112792161403;1;axe_yy1_1,axe_xx1_0;896;;;F:1, Y:1, C:1, Y:8, X:112, H:3, W:3, W:1, H:1, X:1, Y:14, C:32, F:32, ;4.1787428855896
0;1;MobilNet_01;2.5252388000000003;0.014023295438661994;1;axe_out_channels1_0,axe_yy1_0,axe_yy1_1,axe_xx1_0;896;;;F:1, Y:1, C:1, Y:8, X:112, H:3, W:3, W:1, H:1, X:1, Y:14, C:32, F:32, ;5.251142263412476
1;0;MobilNet_01;2.6219637;0.006954617732844884;1;axe_yy1_1,axe_xx1_0;448;;;F:1, Y:2, C:1, Y:4, X:112, H:3, W:3, W:1, H:1, X:1, Y:14, C:32, F:32, ;6.342119932174683
1;1;MobilNet_01;2.5323561999999997;0.008525257084686691;1;axe_out_channels1_0,axe_yy1_0,axe_yy1_1,axe_xx1_0;896;;;F:1, Y:2, C:1, Y:4, X:112, H:3, W:3, W:1, H:1, X:1, Y:14, C:32, F:32, ;7.419723749160767
2;0;MobilNet_01;2.6383232;0.005317827090081005;1;axe_yy1_1,axe_xx1_0;224;;;F:1, Y:4, C:1, Y:2, X:112, H:3, W:3, W:1, H:1, X:1, Y:14, C:32, F:32, ;8.513221740722656
2;1;MobilNet_01;2.5259226999999997;0.01204748074121726;1;axe_out_channels1_0,axe_yy1_0,axe_yy1_1,axe_xx1_0;896;;;F:1, Y:4, C:1, Y:2, X:112, H:3, W:3, W:1, H:1, X:1, Y:14, C:32, F:32, ;9.593817710876465
3;0;MobilNet_01;2.629265599999999;0.005544849938456397;1;axe_yy1_1,axe_xx1_0;112;;;F:1, Y:8, C:1, Y:1, X:112, H:3, W:3, W:1, H:1, X:1, Y:14, C:32, F:32, ;10.712202548980713
3;1;MobilNet_01;2.5290639999999995;0.017586510756827205;1;axe_out_channels1_0,axe_yy1_0,axe_yy1_1,axe_xx1_0;896;;;F:1, Y:8, C:1, Y:1, X:112, H:3, W:3, W:1, H:1, X:1, Y:14, C:32, F:32, ;11.794176578521729
4;0;MobilNet_01;2.4899510000000005;0.003727541066172272;1;axe_yy1_1,axe_xx1_0;1568;;;F:1, Y:1, C:1, Y:14, X:112, H:3, W:3, W:1, H:1, X:1, Y:8, C:32, F:32, ;12.869223833084106
4;1;MobilNet_01;2.4409597;0.008990015284191695;1;axe_out_channels1_0,axe_yy1_0,axe_yy1_1,axe_xx1_0;1568;;;F:1, Y:1, C:1, Y:14, X:112, H:3, W:3, W:1, H:1, X:1, Y:8, C:32, F:32, ;13.936906337738037
5;0;MobilNet_01;2.5053646;0.005780844180567485;1;axe_yy1_1,axe_xx1_0;784;;;F:1, Y:2, C:1, Y:7, X:112, H:3, W:3, W:1, H:1, X:1, Y:8, C:32, F:32, ;15.014585733413696
5;1;MobilNet_01;2.4293592;0.006474990035513589;1;axe_out_channels1_0,axe_yy1_0,axe_yy1_1,axe_xx1_0;1568;;;F:1, Y:2, C:1, Y:7, X:112, H:3, W:3, W:1, H:1, X:1, Y:8, C:32, F:32, ;16.076823711395264
6;0;MobilNet_01;2.5282253;0.007198440387333908;1;axe_yy1_1,axe_xx1_0;224;;;F:1, Y:7, C:1, Y:2, X:112, H:3, W:3, W:1, H:1, X:1, Y:8, C:32, F:32, ;17.160272121429443
6;1;MobilNet_01;2.4381481999999997;0.01112978435370617;1;axe_out_channels1_0,axe_yy1_0,axe_yy1_1,axe_xx1_0;1568;;;F:1, Y:7, C:1, Y:2, X:112, H:3, W:3, W:1, H:1, X:1, Y:8, C:32, F:32, ;18.23056697845459
7;0;MobilNet_01;2.5245342999999996;0.008205137537543252;1;axe_yy1_1,axe_xx1_0;112;;;F:1, Y:14, C:1, Y:1, X:112, H:3, W:3, W:1, H:1, X:1, Y:8, C:32, F:32, ;19.325643301010132
7;1;MobilNet_01;2.4339869;0.006557062535160116;1;axe_out_channels1_0,axe_yy1_0,axe_yy1_1,axe_xx1_0;1568;;;F:1, Y:14, C:1, Y:1, X:112, H:3, W:3, W:1, H:1, X:1, Y:8, C:32, F:32, ;20.392669200897217
8;0;MobilNet_01;3.5222711;0.0034295845069046145;2;axe_yy1_1,axe_xx1_0;112;axe_yy2_1,axe_xx2_0;336;F:1, Y:2, C:1, Y:1, X:112, H:3, W:3, W:1, H:1, X:1, Y:11, C:32, F:32, ;21.68108606338501
8;1;MobilNet_01;3.3775102000000006;0.0033797690394463072;2;axe_out_channels1_0,axe_yy1_0,axe_yy1_1,axe_xx1_0;224;axe_out_channels2_0,axe_yy2_0,axe_yy2_1,axe_xx2_0;672;F:1, Y:2, C:1, Y:1, X:112, H:3, W:3, W:1, H:1, X:1, Y:11, C:32, F:32, ;22.934468984603882
9;0;MobilNet_01;3.3102432999999998;0.00584009876714424;2;axe_yy1_1,axe_xx1_0;224;axe_yy2_1,axe_xx2_0;224;F:1, Y:1, C:1, Y:2, X:112, H:3, W:3, W:1, H:1, X:1, Y:11, C:32, F:32, ;24.199320077896118
9;1;MobilNet_01;3.3760877999999996;0.0028778993311094616;2;axe_out_channels1_0,axe_yy1_0,axe_yy1_1,axe_xx1_0;224;axe_out_channels2_0,axe_yy2_0,axe_yy2_1,axe_xx2_0;672;F:1, Y:1, C:1, Y:2, X:112, H:3, W:3, W:1, H:1, X:1, Y:11, C:32, F:32, ;25.45052981376648
10;0;MobilNet_01;3.1777122;0.003155228226293597;2;axe_yy1_1,axe_xx1_0;112;axe_yy2_1,axe_xx2_0;112;F:1, Y:4, C:1, Y:1, X:112, H:3, W:3, W:1, H:1, X:1, Y:13, C:32, F:32, ;26.730583667755127
10;1;MobilNet_01;3.1677989;0.004125939031299469;2;axe_out_channels1_0,axe_yy1_0,axe_yy1_1,axe_xx1_0;448;axe_out_channels2_0,axe_yy2_0,axe_yy2_1,axe_xx2_0;448;F:1, Y:4, C:1, Y:1, X:112, H:3, W:3, W:1, H:1, X:1, Y:13, C:32, F:32, ;27.97261905670166
11;0;MobilNet_01;2.9118819999999994;0.004244137179686931;2;axe_yy1_1,axe_xx1_0;448;axe_yy2_1,axe_xx2_0;448;F:1, Y:1, C:1, Y:4, X:112, H:3, W:3, W:1, H:1, X:1, Y:13, C:32, F:32, ;29.211604356765747
11;1;MobilNet_01;3.1665552000000003;0.003397384046586465;2;axe_out_channels1_0,axe_yy1_0,axe_yy1_1,axe_xx1_0;448;axe_out_channels2_0,axe_yy2_0,axe_yy2_1,axe_xx2_0;448;F:1, Y:1, C:1, Y:4, X:112, H:3, W:3, W:1, H:1, X:1, Y:13, C:32, F:32, ;30.44927740097046
12;0;MobilNet_01;2.796589;0.005244497211363549;2;axe_yy1_1,axe_xx1_0;112;axe_yy2_1,axe_xx2_0;896;F:1, Y:1, C:1, Y:1, X:112, H:3, W:3, W:1, H:1, X:1, Y:8, C:32, F:32, ;31.67450451850891
12;1;MobilNet_01;2.695063;0.0034901089094754537;2;axe_out_channels1_0,axe_yy1_0,axe_yy1_1,axe_xx1_0;112;axe_out_channels2_0,axe_yy2_0,axe_yy2_1,axe_xx2_0;896;F:1, Y:1, C:1, Y:1, X:112, H:3, W:3, W:1, H:1, X:1, Y:8, C:32, F:32, ;32.87681579589844
13;0;MobilNet_01;2.7809795;0.004851180541888725;2;axe_yy1_1,axe_xx1_0;112;axe_yy2_1,axe_xx2_0;112;F:1, Y:1, C:1, Y:1, X:112, H:3, W:3, W:1, H:1, X:1, Y:8, C:32, F:32, ;34.118088722229004
13;1;MobilNet_01;2.7001158999999997;0.004500039520937627;2;axe_out_channels1_0,axe_yy1_0,axe_yy1_1,axe_xx1_0;112;axe_out_channels2_0,axe_yy2_0,axe_yy2_1,axe_xx2_0;896;F:1, Y:1, C:1, Y:1, X:112, H:3, W:3, W:1, H:1, X:1, Y:8, C:32, F:32, ;35.326029539108276
14;0;MobilNet_01;2.8147127000000003;0.004700360582976526;2;axe_yy1_1,axe_xx1_0;560;axe_yy2_1,axe_xx2_0;448;F:1, Y:1, C:1, Y:5, X:112, H:3, W:3, W:1, H:1, X:1, Y:12, C:32, F:32, ;36.53442573547363
14;1;MobilNet_01;2.7147616;0.006185067488718272;2;axe_out_channels1_0,axe_yy1_0,axe_yy1_1,axe_xx1_0;560;axe_out_channels2_0,axe_yy2_0,axe_yy2_1,axe_xx2_0;448;F:1, Y:1, C:1, Y:5, X:112, H:3, W:3, W:1, H:1, X:1, Y:12, C:32, F:32, ;37.73274779319763
15;0;MobilNet_01;2.8026775;0.004656899467456855;2;axe_yy1_1,axe_xx1_0;112;axe_yy2_1,axe_xx2_0;112;F:1, Y:5, C:1, Y:1, X:112, H:3, W:3, W:1, H:1, X:1, Y:12, C:32, F:32, ;38.980846881866455
15;1;MobilNet_01;2.6941579;0.007852124266082313;2;axe_out_channels1_0,axe_yy1_0,axe_yy1_1,axe_xx1_0;560;axe_out_channels2_0,axe_yy2_0,axe_yy2_1,axe_xx2_0;448;F:1, Y:5, C:1, Y:1, X:112, H:3, W:3, W:1, H:1, X:1, Y:12, C:32, F:32, ;40.17555332183838
16;0;MobilNet_01;2.7994391;0.004839443138419856;2;axe_yy1_1,axe_xx1_0;784;axe_yy2_1,axe_xx2_0;224;F:1, Y:1, C:1, Y:7, X:112, H:3, W:3, W:1, H:1, X:1, Y:12, C:32, F:32, ;41.41338348388672
16;1;MobilNet_01;2.6865821;0.005607201734376938;2;axe_out_channels1_0,axe_yy1_0,axe_yy1_1,axe_xx1_0;784;axe_out_channels2_0,axe_yy2_0,axe_yy2_1,axe_xx2_0;224;F:1, Y:1, C:1, Y:7, X:112, H:3, W:3, W:1, H:1, X:1, Y:12, C:32, F:32, ;42.629846811294556
17;0;MobilNet_01;2.7819882;0.0025574907546263557;2;axe_yy1_1,axe_xx1_0;112;axe_yy2_1,axe_xx2_0;112;F:1, Y:7, C:1, Y:1, X:112, H:3, W:3, W:1, H:1, X:1, Y:12, C:32, F:32, ;43.897964000701904
17;1;MobilNet_01;2.688329;0.004617826285169281;2;axe_out_channels1_0,axe_yy1_0,axe_yy1_1,axe_xx1_0;784;axe_out_channels2_0,axe_yy2_0,axe_yy2_1,axe_xx2_0;224;F:1, Y:7, C:1, Y:1, X:112, H:3, W:3, W:1, H:1, X:1, Y:12, C:32, F:32, ;45.11216711997986
18;0;MobilNet_01;2.7644738999999996;0.005785273778309882;2;axe_yy1_1,axe_xx1_0;224;axe_yy2_1,axe_xx2_0;336;F:1, Y:2, C:1, Y:2, X:112, H:3, W:3, W:1, H:1, X:1, Y:10, C:32, F:32, ;46.357032775878906
18;1;MobilNet_01;2.6837776;0.0031492435028114096;2;axe_out_channels1_0,axe_yy1_0,axe_yy1_1,axe_xx1_0;448;axe_out_channels2_0,axe_yy2_0,axe_yy2_1,axe_xx2_0;672;F:1, Y:2, C:1, Y:2, X:112, H:3, W:3, W:1, H:1, X:1, Y:10, C:32, F:32, ;47.58364510536194
19;0;MobilNet_01;2.7574289999999997;0.005924479015069605;2;axe_yy1_1,axe_xx1_0;224;axe_yy2_1,axe_xx2_0;224;F:1, Y:2, C:1, Y:2, X:112, H:3, W:3, W:1, H:1, X:1, Y:10, C:32, F:32, ;48.828205823898315
19;1;MobilNet_01;2.6850101000000004;0.00742074654532811;2;axe_out_channels1_0,axe_yy1_0,axe_yy1_1,axe_xx1_0;448;axe_out_channels2_0,axe_yy2_0,axe_yy2_1,axe_xx2_0;672;F:1, Y:2, C:1, Y:2, X:112, H:3, W:3, W:1, H:1, X:1, Y:10, C:32, F:32, ;50.05551767349243
20;0;MobilNet_01;2.7596877999999996;0.003250152174898859;2;axe_yy1_1,axe_xx1_0;336;axe_yy2_1,axe_xx2_0;224;F:1, Y:2, C:1, Y:3, X:112, H:3, W:3, W:1, H:1, X:1, Y:10, C:32, F:32, ;51.29615497589111
20;1;MobilNet_01;2.6833787;0.0035782166801355195;2;axe_out_channels1_0,axe_yy1_0,axe_yy1_1,axe_xx1_0;672;axe_out_channels2_0,axe_yy2_0,axe_yy2_1,axe_xx2_0;448;F:1, Y:2, C:1, Y:3, X:112, H:3, W:3, W:1, H:1, X:1, Y:10, C:32, F:32, ;52.48853850364685
21;0;MobilNet_01;2.7658716999999995;0.005250627791988343;2;axe_yy1_1,axe_xx1_0;224;axe_yy2_1,axe_xx2_0;224;F:1, Y:3, C:1, Y:2, X:112, H:3, W:3, W:1, H:1, X:1, Y:10, C:32, F:32, ;53.70124840736389
21;1;MobilNet_01;2.6834852000000002;0.0033445706989089197;2;axe_out_channels1_0,axe_yy1_0,axe_yy1_1,axe_xx1_0;672;axe_out_channels2_0,axe_yy2_0,axe_yy2_1,axe_xx2_0;448;F:1, Y:3, C:1, Y:2, X:112, H:3, W:3, W:1, H:1, X:1, Y:10, C:32, F:32, ;54.89679741859436
22;0;MobilNet_01;2.7667384999999998;0.004539236417064059;2;axe_yy1_1,axe_xx1_0;784;axe_yy2_1,axe_xx2_0;336;F:1, Y:1, C:1, Y:7, X:112, H:3, W:3, W:1, H:1, X:1, Y:10, C:32, F:32, ;56.148061990737915
22;1;MobilNet_01;2.6784811;0.0024260461434193856;2;axe_out_channels1_0,axe_yy1_0,axe_yy1_1,axe_xx1_0;784;axe_out_channels2_0,axe_yy2_0,axe_yy2_1,axe_xx2_0;336;F:1, Y:1, C:1, Y:7, X:112, H:3, W:3, W:1, H:1, X:1, Y:10, C:32, F:32, ;57.393977880477905
23;0;MobilNet_01;2.74498;0.004923515735731981;2;axe_yy1_1,axe_xx1_0;112;axe_yy2_1,axe_xx2_0;112;F:1, Y:7, C:1, Y:1, X:112, H:3, W:3, W:1, H:1, X:1, Y:10, C:32, F:32, ;58.695945501327515
23;1;MobilNet_01;2.6791076;0.003959279687013827;2;axe_out_channels1_0,axe_yy1_0,axe_yy1_1,axe_xx1_0;784;axe_out_channels2_0,axe_yy2_0,axe_yy2_1,axe_xx2_0;336;F:1, Y:7, C:1, Y:1, X:112, H:3, W:3, W:1, H:1, X:1, Y:10, C:32, F:32, ;59.93967938423157
24;0;MobilNet_01;2.7815117;0.003178628416471493;2;axe_yy1_1,axe_xx1_0;448;axe_yy2_1,axe_xx2_0;112;F:1, Y:2, C:1, Y:4, X:112, H:3, W:3, W:1, H:1, X:1, Y:11, C:32, F:32, ;61.172977924346924
24;1;MobilNet_01;2.7034566999999994;0.0031099307403864244;2;axe_out_channels1_0,axe_yy1_0,axe_yy1_1,axe_xx1_0;896;axe_out_channels2_0,axe_yy2_0,axe_yy2_1,axe_xx2_0;224;F:1, Y:2, C:1, Y:4, X:112, H:3, W:3, W:1, H:1, X:1, Y:11, C:32, F:32, ;62.37670660018921
25;0;MobilNet_01;2.7680469;0.0066543844711588465;2;axe_yy1_1,axe_xx1_0;224;axe_yy2_1,axe_xx2_0;224;F:1, Y:4, C:1, Y:2, X:112, H:3, W:3, W:1, H:1, X:1, Y:11, C:32, F:32, ;63.59327268600464
25;1;MobilNet_01;2.7067934;0.0044560946399286715;2;axe_out_channels1_0,axe_yy1_0,axe_yy1_1,axe_xx1_0;896;axe_out_channels2_0,axe_yy2_0,axe_yy2_1,axe_xx2_0;224;F:1, Y:4, C:1, Y:2, X:112, H:3, W:3, W:1, H:1, X:1, Y:11, C:32, F:32, ;64.79415988922119
26;0;MobilNet_01;2.8002491999999997;0.004298143827281761;2;axe_yy1_1,axe_xx1_0;1008;axe_yy2_1,axe_xx2_0;112;F:1, Y:1, C:1, Y:9, X:112, H:3, W:3, W:1, H:1, X:1, Y:11, C:32, F:32, ;65.99849438667297
26;1;MobilNet_01;2.7034005;0.004515693418512785;2;axe_out_channels1_0,axe_yy1_0,axe_yy1_1,axe_xx1_0;1008;axe_out_channels2_0,axe_yy2_0,axe_yy2_1,axe_xx2_0;112;F:1, Y:1, C:1, Y:9, X:112, H:3, W:3, W:1, H:1, X:1, Y:11, C:32, F:32, ;67.19159722328186
27;0;MobilNet_01;2.7841847;0.004218069962672507;2;axe_yy1_1,axe_xx1_0;112;axe_yy2_1,axe_xx2_0;112;F:1, Y:9, C:1, Y:1, X:112, H:3, W:3, W:1, H:1, X:1, Y:11, C:32, F:32, ;68.4229109287262
27;1;MobilNet_01;2.7051194;0.004312650859970011;2;axe_out_channels1_0,axe_yy1_0,axe_yy1_1,axe_xx1_0;1008;axe_out_channels2_0,axe_yy2_0,axe_yy2_1,axe_xx2_0;112;F:1, Y:9, C:1, Y:1, X:112, H:3, W:3, W:1, H:1, X:1, Y:11, C:32, F:32, ;69.61886215209961
28;0;MobilNet_01;4.667832599999999;0.0016076407683310063;2;axe_yy1_1,axe_xx1_0;224;axe_yy2_1,axe_xx2_0;336;F:1, Y:2, C:1, Y:2, X:112, W:3, W:1, H:3, X:1, Y:10, C:32, F:32, ;70.96486473083496
28;1;MobilNet_01;2.7261395;0.008848269212111546;2;axe_out_channels1_0,axe_yy1_0,axe_yy1_1,axe_xx1_0;448;axe_out_channels2_0,axe_yy2_0,axe_yy2_1,axe_xx2_0;672;F:1, Y:2, C:1, Y:2, X:112, W:3, W:1, H:3, X:1, Y:10, C:32, F:32, ;72.21391773223877
29;0;MobilNet_01;4.6260078;0.0024798466404195338;2;axe_yy1_1,axe_xx1_0;224;axe_yy2_1,axe_xx2_0;224;F:1, Y:2, C:1, Y:2, X:112, W:3, W:1, H:3, X:1, Y:10, C:32, F:32, ;73.55698037147522
29;1;MobilNet_01;2.7244162;0.004941300897537056;2;axe_out_channels1_0,axe_yy1_0,axe_yy1_1,axe_xx1_0;448;axe_out_channels2_0,axe_yy2_0,axe_yy2_1,axe_xx2_0;672;F:1, Y:2, C:1, Y:2, X:112, W:3, W:1, H:3, X:1, Y:10, C:32, F:32, ;74.81025099754333
30;0;MobilNet_01;3.1070481;0.004082477543110328;2;axe_yy1_1,axe_xx1_0;448;axe_yy2_1,axe_xx2_0;112;F:1, Y:2, C:1, Y:4, X:112, W:3, W:1, H:3, X:1, Y:11, C:32, F:32, ;76.0871479511261
30;1;MobilNet_01;2.4003314;0.009074772715611131;2;axe_out_channels1_0,axe_yy1_0,axe_yy1_1,axe_xx1_0;896;axe_out_channels2_0,axe_yy2_0,axe_yy2_1,axe_xx2_0;224;F:1, Y:2, C:1, Y:4, X:112, W:3, W:1, H:3, X:1, Y:11, C:32, F:32, ;77.3181881904602
31;0;MobilNet_01;3.0778268;0.007151272751056311;2;axe_yy1_1,axe_xx1_0;224;axe_yy2_1,axe_xx2_0;224;F:1, Y:4, C:1, Y:2, X:112, W:3, W:1, H:3, X:1, Y:11, C:32, F:32, ;78.5900206565857
31;1;MobilNet_01;2.4053675;0.005789561041218922;2;axe_out_channels1_0,axe_yy1_0,axe_yy1_1,axe_xx1_0;896;axe_out_channels2_0,axe_yy2_0,axe_yy2_1,axe_xx2_0;224;F:1, Y:4, C:1, Y:2, X:112, W:3, W:1, H:3, X:1, Y:11, C:32, F:32, ;79.82310962677002
32;0;MobilNet_01;2.7650037999999997;0.005410460789988141;2;axe_yy1_1,axe_xx1_0;336;axe_yy2_1,axe_xx2_0;896;F:1, Y:1, C:1, Y:3, X:112, H:3, W:3, W:1, H:1, X:1, Y:8, C:32, F:32, ;81.03256583213806
32;1;MobilNet_01;2.6749170999999996;0.006277533742641242;2;axe_out_channels1_0,axe_yy1_0,axe_yy1_1,axe_xx1_0;336;axe_out_channels2_0,axe_yy2_0,axe_yy2_1,axe_xx2_0;896;F:1, Y:1, C:1, Y:3, X:112, H:3, W:3, W:1, H:1, X:1, Y:8, C:32, F:32, ;82.21844100952148
33;0;MobilNet_01;2.7410101;0.005350937309481379;2;axe_yy1_1,axe_xx1_0;112;axe_yy2_1,axe_xx2_0;112;F:1, Y:3, C:1, Y:1, X:112, H:3, W:3, W:1, H:1, X:1, Y:8, C:32, F:32, ;83.45591855049133
33;1;MobilNet_01;2.6715128000000004;0.0032866944427493417;2;axe_out_channels1_0,axe_yy1_0,axe_yy1_1,axe_xx1_0;336;axe_out_channels2_0,axe_yy2_0,axe_yy2_1,axe_xx2_0;896;F:1, Y:3, C:1, Y:1, X:112, H:3, W:3, W:1, H:1, X:1, Y:8, C:32, F:32, ;84.64316129684448
34;0;MobilNet_01;2.7588847;0.005136179670728079;2;axe_yy1_1,axe_xx1_0;784;axe_yy2_1,axe_xx2_0;448;F:1, Y:1, C:1, Y:7, X:112, H:3, W:3, W:1, H:1, X:1, Y:8, C:32, F:32, ;85.85457730293274
34;1;MobilNet_01;2.6624312999999997;0.007308221097503775;2;axe_out_channels1_0,axe_yy1_0,axe_yy1_1,axe_xx1_0;784;axe_out_channels2_0,axe_yy2_0,axe_yy2_1,axe_xx2_0;448;F:1, Y:1, C:1, Y:7, X:112, H:3, W:3, W:1, H:1, X:1, Y:8, C:32, F:32, ;87.04070472717285
35;0;MobilNet_01;2.7392233;0.003233486973841098;2;axe_yy1_1,axe_xx1_0;112;axe_yy2_1,axe_xx2_0;112;F:1, Y:7, C:1, Y:1, X:112, H:3, W:3, W:1, H:1, X:1, Y:8, C:32, F:32, ;88.28147768974304
35;1;MobilNet_01;2.6529001;0.0035382064227514626;2;axe_out_channels1_0,axe_yy1_0,axe_yy1_1,axe_xx1_0;784;axe_out_channels2_0,axe_yy2_0,axe_yy2_1,axe_xx2_0;448;F:1, Y:7, C:1, Y:1, X:112, H:3, W:3, W:1, H:1, X:1, Y:8, C:32, F:32, ;89.465975522995
36;0;MobilNet_01;2.7412035;0.003211346703487485;2;axe_yy1_1,axe_xx1_0;1008;axe_yy2_1,axe_xx2_0;224;F:1, Y:1, C:1, Y:9, X:112, H:3, W:3, W:1, H:1, X:1, Y:10, C:32, F:32, ;90.66735291481018
36;1;MobilNet_01;2.6526447999999996;0.004169440125484528;2;axe_out_channels1_0,axe_yy1_0,axe_yy1_1,axe_xx1_0;1008;axe_out_channels2_0,axe_yy2_0,axe_yy2_1,axe_xx2_0;224;F:1, Y:1, C:1, Y:9, X:112, H:3, W:3, W:1, H:1, X:1, Y:10, C:32, F:32, ;91.85494756698608
37;0;MobilNet_01;2.7115921;0.004134847456678337;2;axe_yy1_1,axe_xx1_0;112;axe_yy2_1,axe_xx2_0;112;F:1, Y:9, C:1, Y:1, X:112, H:3, W:3, W:1, H:1, X:1, Y:10, C:32, F:32, ;93.09885358810425
37;1;MobilNet_01;2.6551447999999995;0.007273554644051355;2;axe_out_channels1_0,axe_yy1_0,axe_yy1_1,axe_xx1_0;1008;axe_out_channels2_0,axe_yy2_0,axe_yy2_1,axe_xx2_0;224;F:1, Y:9, C:1, Y:1, X:112, H:3, W:3, W:1, H:1, X:1, Y:10, C:32, F:32, ;94.2931878566742
38;0;MobilNet_01;2.2196252000000003;0.006677448356969975;2;axe_yy1_1,axe_xx1_0;1008;axe_yy2_1,axe_xx2_0;224;F:1, Y:1, C:1, Y:9, X:112, W:3, W:1, H:3, X:1, Y:10, C:32, F:32, ;95.49607944488525
38;1;MobilNet_01;2.1464931;0.0073198139928553835;2;axe_out_channels1_0,axe_yy1_0,axe_yy1_1,axe_xx1_0;1008;axe_out_channels2_0,axe_yy2_0,axe_yy2_1,axe_xx2_0;224;F:1, Y:1, C:1, Y:9, X:112, W:3, W:1, H:3, X:1, Y:10, C:32, F:32, ;96.6913959980011
39;0;MobilNet_01;2.5678861;0.005692580125918207;2;axe_yy1_1,axe_xx1_0;112;axe_yy2_1,axe_xx2_0;112;F:1, Y:9, C:1, Y:1, X:112, W:3, W:1, H:3, X:1, Y:10, C:32, F:32, ;97.94800686836243
39;1;MobilNet_01;2.1471052;0.003964089222002897;2;axe_out_channels1_0,axe_yy1_0,axe_yy1_1,axe_xx1_0;1008;axe_out_channels2_0,axe_yy2_0,axe_yy2_1,axe_xx2_0;224;F:1, Y:9, C:1, Y:1, X:112, W:3, W:1, H:3, X:1, Y:10, C:32, F:32, ;99.14212465286255
40;0;MobilNet_01;2.6957653;0.00479518028962407;2;axe_yy1_1,axe_xx1_0;112;axe_yy2_1,axe_xx2_0;224;F:1, Y:4, C:1, Y:1, X:112, H:3, W:3, W:1, H:1, X:1, Y:8, C:32, F:32, ;100.37645864486694
40;1;MobilNet_01;2.6346067;0.0044720681803837176;2;axe_out_channels1_0,axe_yy1_0,axe_yy1_1,axe_xx1_0;448;axe_out_channels2_0,axe_yy2_0,axe_yy2_1,axe_xx2_0;896;F:1, Y:4, C:1, Y:1, X:112, H:3, W:3, W:1, H:1, X:1, Y:8, C:32, F:32, ;101.56926274299622
41;0;MobilNet_01;2.7074445000000003;0.004433584898251163;2;axe_yy1_1,axe_xx1_0;448;axe_yy2_1,axe_xx2_0;448;F:1, Y:1, C:1, Y:4, X:112, H:3, W:3, W:1, H:1, X:1, Y:8, C:32, F:32, ;102.77621960639954
41;1;MobilNet_01;2.6339040000000002;0.0050778897191648105;2;axe_out_channels1_0,axe_yy1_0,axe_yy1_1,axe_xx1_0;448;axe_out_channels2_0,axe_yy2_0,axe_yy2_1,axe_xx2_0;896;F:1, Y:1, C:1, Y:4, X:112, H:3, W:3, W:1, H:1, X:1, Y:8, C:32, F:32, ;103.9710943698883
42;0;MobilNet_01;2.7563303;0.004231618367716841;2;axe_yy1_1,axe_xx1_0;224;axe_yy2_1,axe_xx2_0;112;F:1, Y:4, C:1, Y:2, X:112, H:3, W:3, W:1, H:1, X:1, Y:8, C:32, F:32, ;105.18581581115723
42;1;MobilNet_01;2.6636992000000004;0.005519483595410019;2;axe_out_channels1_0,axe_yy1_0,axe_yy1_1,axe_xx1_0;896;axe_out_channels2_0,axe_yy2_0,axe_yy2_1,axe_xx2_0;448;F:1, Y:4, C:1, Y:2, X:112, H:3, W:3, W:1, H:1, X:1, Y:8, C:32, F:32, ;106.36128234863281
43;0;MobilNet_01;2.7597934000000004;0.0036069421453635256;2;axe_yy1_1,axe_xx1_0;448;axe_yy2_1,axe_xx2_0;448;F:1, Y:2, C:1, Y:4, X:112, H:3, W:3, W:1, H:1, X:1, Y:8, C:32, F:32, ;107.55458903312683
43;1;MobilNet_01;2.6692674;0.002970626136019111;2;axe_out_channels1_0,axe_yy1_0,axe_yy1_1,axe_xx1_0;896;axe_out_channels2_0,axe_yy2_0,axe_yy2_1,axe_xx2_0;448;F:1, Y:2, C:1, Y:4, X:112, H:3, W:3, W:1, H:1, X:1, Y:8, C:32, F:32, ;108.7344901561737
44;0;MobilNet_01;2.7071083000000002;0.008017002657477379;2;axe_yy1_1,axe_xx1_0;224;axe_yy2_1,axe_xx2_0;112;F:1, Y:4, C:1, Y:2, X:112, H:3, W:3, W:1, H:1, X:1, Y:9, C:32, F:32, ;109.99691700935364
44;1;MobilNet_01;2.6347577;0.0038647731899815758;2;axe_out_channels1_0,axe_yy1_0,axe_yy1_1,axe_xx1_0;896;axe_out_channels2_0,axe_yy2_0,axe_yy2_1,axe_xx2_0;448;F:1, Y:4, C:1, Y:2, X:112, H:3, W:3, W:1, H:1, X:1, Y:9, C:32, F:32, ;111.21718549728394
45;0;MobilNet_01;2.7238458999999997;0.006174428304709647;2;axe_yy1_1,axe_xx1_0;448;axe_yy2_1,axe_xx2_0;448;F:1, Y:2, C:1, Y:4, X:112, H:3, W:3, W:1, H:1, X:1, Y:9, C:32, F:32, ;112.45218586921692
45;1;MobilNet_01;2.6382412000000004;0.003953101663251295;2;axe_out_channels1_0,axe_yy1_0,axe_yy1_1,axe_xx1_0;896;axe_out_channels2_0,axe_yy2_0,axe_yy2_1,axe_xx2_0;448;F:1, Y:2, C:1, Y:4, X:112, H:3, W:3, W:1, H:1, X:1, Y:9, C:32, F:32, ;113.67173409461975
46;0;MobilNet_01;2.7200526;0.003197276440972772;2;axe_yy1_1,axe_xx1_0;560;axe_yy2_1,axe_xx2_0;112;F:1, Y:2, C:1, Y:5, X:112, H:3, W:3, W:1, H:1, X:1, Y:9, C:32, F:32, ;114.88163352012634
46;1;MobilNet_01;2.6475747000000003;0.005706050947021106;2;axe_out_channels1_0,axe_yy1_0,axe_yy1_1,axe_xx1_0;1120;axe_out_channels2_0,axe_yy2_0,axe_yy2_1,axe_xx2_0;224;F:1, Y:2, C:1, Y:5, X:112, H:3, W:3, W:1, H:1, X:1, Y:9, C:32, F:32, ;116.06342792510986
47;0;MobilNet_01;2.7088044;0.004928830352122102;2;axe_yy1_1,axe_xx1_0;224;axe_yy2_1,axe_xx2_0;224;F:1, Y:5, C:1, Y:2, X:112, H:3, W:3, W:1, H:1, X:1, Y:9, C:32, F:32, ;117.26428723335266
47;1;MobilNet_01;2.6495003;0.00642676302737229;2;axe_out_channels1_0,axe_yy1_0,axe_yy1_1,axe_xx1_0;1120;axe_out_channels2_0,axe_yy2_0,axe_yy2_1,axe_xx2_0;224;F:1, Y:5, C:1, Y:2, X:112, H:3, W:3, W:1, H:1, X:1, Y:9, C:32, F:32, ;118.44749236106873
48;0;MobilNet_01;2.7383007;0.006086353950436988;2;axe_yy1_1,axe_xx1_0;1232;axe_yy2_1,axe_xx2_0;112;F:1, Y:1, C:1, Y:11, X:112, H:3, W:3, W:1, H:1, X:1, Y:9, C:32, F:32, ;119.64450001716614
48;1;MobilNet_01;2.6391089999999995;0.004743059771919412;2;axe_out_channels1_0,axe_yy1_0,axe_yy1_1,axe_xx1_0;1232;axe_out_channels2_0,axe_yy2_0,axe_yy2_1,axe_xx2_0;112;F:1, Y:1, C:1, Y:11, X:112, H:3, W:3, W:1, H:1, X:1, Y:9, C:32, F:32, ;120.8262767791748
49;0;MobilNet_01;2.6945144;0.004731449782043555;2;axe_yy1_1,axe_xx1_0;112;axe_yy2_1,axe_xx2_0;112;F:1, Y:11, C:1, Y:1, X:112, H:3, W:3, W:1, H:1, X:1, Y:9, C:32, F:32, ;122.05405473709106
49;1;MobilNet_01;2.6358912;0.005315467821368072;2;axe_out_channels1_0,axe_yy1_0,axe_yy1_1,axe_xx1_0;1232;axe_out_channels2_0,axe_yy2_0,axe_yy2_1,axe_xx2_0;112;F:1, Y:11, C:1, Y:1, X:112, H:3, W:3, W:1, H:1, X:1, Y:9, C:32, F:32, ;123.23303198814392
50;0;MobilNet_01;2.2030613;0.007360838186646874;2;axe_yy1_1,axe_xx1_0;224;axe_yy2_1,axe_xx2_0;112;F:1, Y:4, C:1, Y:2, X:112, W:3, W:1, H:3, X:1, Y:9, C:32, F:32, ;124.47829961776733
50;1;MobilNet_01;2.1169665;0.01099922431128672;2;axe_out_channels1_0,axe_yy1_0,axe_yy1_1,axe_xx1_0;896;axe_out_channels2_0,axe_yy2_0,axe_yy2_1,axe_xx2_0;448;F:1, Y:4, C:1, Y:2, X:112, W:3, W:1, H:3, X:1, Y:9, C:32, F:32, ;125.6905128955841
51;0;MobilNet_01;2.2089261000000002;0.007633138285790417;2;axe_yy1_1,axe_xx1_0;448;axe_yy2_1,axe_xx2_0;448;F:1, Y:2, C:1, Y:4, X:112, W:3, W:1, H:3, X:1, Y:9, C:32, F:32, ;126.9189772605896
51;1;MobilNet_01;2.1154348;0.008939176816687336;2;axe_out_channels1_0,axe_yy1_0,axe_yy1_1,axe_xx1_0;896;axe_out_channels2_0,axe_yy2_0,axe_yy2_1,axe_xx2_0;448;F:1, Y:2, C:1, Y:4, X:112, W:3, W:1, H:3, X:1, Y:9, C:32, F:32, ;128.1313076019287
52;0;MobilNet_01;2.2231763;0.005375735020441491;2;axe_yy1_1,axe_xx1_0;560;axe_yy2_1,axe_xx2_0;112;F:1, Y:2, C:1, Y:5, X:112, W:3, W:1, H:3, X:1, Y:9, C:32, F:32, ;129.34665083885193
52;1;MobilNet_01;2.1492546;0.005323176236045508;2;axe_out_channels1_0,axe_yy1_0,axe_yy1_1,axe_xx1_0;1120;axe_out_channels2_0,axe_yy2_0,axe_yy2_1,axe_xx2_0;224;F:1, Y:2, C:1, Y:5, X:112, W:3, W:1, H:3, X:1, Y:9, C:32, F:32, ;130.5341830253601
53;0;MobilNet_01;2.2008668;0.0060013892858238015;2;axe_yy1_1,axe_xx1_0;224;axe_yy2_1,axe_xx2_0;224;F:1, Y:5, C:1, Y:2, X:112, W:3, W:1, H:3, X:1, Y:9, C:32, F:32, ;131.7376446723938
53;1;MobilNet_01;2.1412267;0.009016757987769295;2;axe_out_channels1_0,axe_yy1_0,axe_yy1_1,axe_xx1_0;1120;axe_out_channels2_0,axe_yy2_0,axe_yy2_1,axe_xx2_0;224;F:1, Y:5, C:1, Y:2, X:112, W:3, W:1, H:3, X:1, Y:9, C:32, F:32, ;132.92378067970276
54;0;MobilNet_01;2.7142735;0.006623687873835774;2;axe_yy1_1,axe_xx1_0;560;axe_yy2_1,axe_xx2_0;896;F:1, Y:1, C:1, Y:5, X:112, H:3, W:3, W:1, H:1, X:1, Y:8, C:32, F:32, ;134.1402587890625
54;1;MobilNet_01;2.6100654;0.005235501718078178;2;axe_out_channels1_0,axe_yy1_0,axe_yy1_1,axe_xx1_0;560;axe_out_channels2_0,axe_yy2_0,axe_yy2_1,axe_xx2_0;896;F:1, Y:1, C:1, Y:5, X:112, H:3, W:3, W:1, H:1, X:1, Y:8, C:32, F:32, ;135.3444049358368
55;0;MobilNet_01;2.6703803;0.005284227721247465;2;axe_yy1_1,axe_xx1_0;112;axe_yy2_1,axe_xx2_0;112;F:1, Y:5, C:1, Y:1, X:112, H:3, W:3, W:1, H:1, X:1, Y:8, C:32, F:32, ;136.61215496063232
55;1;MobilNet_01;2.6079027;0.0046524009296276285;2;axe_out_channels1_0,axe_yy1_0,axe_yy1_1,axe_xx1_0;560;axe_out_channels2_0,axe_yy2_0,axe_yy2_1,axe_xx2_0;896;F:1, Y:5, C:1, Y:1, X:112, H:3, W:3, W:1, H:1, X:1, Y:8, C:32, F:32, ;137.8187186717987
56;0;MobilNet_01;2.1347406999999996;0.0028919184998888563;1;axe_yy1_0,axe_out_channels1_0,axe_yy1_1,axe_xx1_0;64;;;Y:1, F:2, Y:8, X:4, W:3, C:1, X:28, W:1, H:3, X:1, Y:14, C:32, F:16, ;138.8900535106659
56;1;MobilNet_01;2.0418515;0.0051205583533437335;1;axe_yy1_0,axe_out_channels1_0,axe_yy1_1,axe_xx1_0,axe_xx1_1;1792;;;Y:1, F:2, Y:8, X:4, W:3, C:1, X:28, W:1, H:3, X:1, Y:14, C:32, F:16, ;139.938086271286
57;0;MobilNet_01;2.1112126;0.0036062057123797515;1;axe_yy1_0,axe_out_channels1_0,axe_yy1_1,axe_xx1_0;64;;;Y:2, F:2, Y:4, X:4, W:3, C:1, X:28, W:1, H:3, X:1, Y:14, C:32, F:16, ;140.99935626983643
57;1;MobilNet_01;2.0300042;0.006415298805199984;1;axe_yy1_0,axe_out_channels1_0,axe_yy1_1,axe_xx1_0,axe_xx1_1;1792;;;Y:2, F:2, Y:4, X:4, W:3, C:1, X:28, W:1, H:3, X:1, Y:14, C:32, F:16, ;142.047776222229
58;0;MobilNet_01;2.1312753;0.0028336603554412953;1;axe_yy1_0,axe_out_channels1_0,axe_yy1_1,axe_xx1_0;64;;;Y:4, F:2, Y:2, X:4, W:3, C:1, X:28, W:1, H:3, X:1, Y:14, C:32, F:16, ;143.1055736541748
58;1;MobilNet_01;2.0371227999999997;0.0071172351064159286;1;axe_yy1_0,axe_out_channels1_0,axe_yy1_1,axe_xx1_0,axe_xx1_1;1792;;;Y:4, F:2, Y:2, X:4, W:3, C:1, X:28, W:1, H:3, X:1, Y:14, C:32, F:16, ;144.14809131622314
59;0;MobilNet_01;2.152103;0.006245275045984751;1;axe_yy1_0,axe_out_channels1_0,axe_yy1_1,axe_xx1_0;64;;;Y:8, F:2, Y:1, X:4, W:3, C:1, X:28, W:1, H:3, X:1, Y:14, C:32, F:16, ;145.20440340042114
59;1;MobilNet_01;2.0280875;0.0038588929565355717;1;axe_yy1_0,axe_out_channels1_0,axe_yy1_1,axe_xx1_0,axe_xx1_1;1792;;;Y:8, F:2, Y:1, X:4, W:3, C:1, X:28, W:1, H:3, X:1, Y:14, C:32, F:16, ;146.24515342712402
60;0;MobilNet_01;2.1047095;0.005793024309460465;1;axe_yy1_0,axe_out_channels1_0,axe_yy1_1,axe_xx1_0;112;;;Y:1, F:2, Y:8, X:7, W:3, C:1, X:16, W:1, H:3, X:1, Y:14, C:32, F:16, ;147.29948353767395
60;1;MobilNet_01;1.9989521;0.0026827349272711036;1;axe_yy1_0,axe_out_channels1_0,axe_yy1_1,axe_xx1_0,axe_xx1_1;1792;;;Y:1, F:2, Y:8, X:7, W:3, C:1, X:16, W:1, H:3, X:1, Y:14, C:32, F:16, ;148.34336304664612
61;0;MobilNet_01;2.1024987000000004;0.003227676844109417;1;axe_yy1_0,axe_out_channels1_0,axe_yy1_1,axe_xx1_0;112;;;Y:2, F:2, Y:4, X:7, W:3, C:1, X:16, W:1, H:3, X:1, Y:14, C:32, F:16, ;149.40568113327026
61;1;MobilNet_01;2.0332214;0.005416687533908635;1;axe_yy1_0,axe_out_channels1_0,axe_yy1_1,axe_xx1_0,axe_xx1_1;1792;;;Y:2, F:2, Y:4, X:7, W:3, C:1, X:16, W:1, H:3, X:1, Y:14, C:32, F:16, ;150.4475085735321
62;0;MobilNet_01;2.1312236999999996;0.0044686224286686425;1;axe_yy1_0,axe_out_channels1_0,axe_yy1_1,axe_xx1_0;112;;;Y:4, F:2, Y:2, X:7, W:3, C:1, X:16, W:1, H:3, X:1, Y:14, C:32, F:16, ;151.51231241226196
62;1;MobilNet_01;2.0440780999999992;0.0047269801237153726;1;axe_yy1_0,axe_out_channels1_0,axe_yy1_1,axe_xx1_0,axe_xx1_1;1792;;;Y:4, F:2, Y:2, X:7, W:3, C:1, X:16, W:1, H:3, X:1, Y:14, C:32, F:16, ;152.55665111541748
63;0;MobilNet_01;2.1606758999999998;0.0037988302265302325;1;axe_yy1_0,axe_out_channels1_0,axe_yy1_1,axe_xx1_0;112;;;Y:8, F:2, Y:1, X:7, W:3, C:1, X:16, W:1, H:3, X:1, Y:14, C:32, F:16, ;153.61606574058533
63;1;MobilNet_01;2.028392;0.0024649183759305722;1;axe_yy1_0,axe_out_channels1_0,axe_yy1_1,axe_xx1_0,axe_xx1_1;1792;;;Y:8, F:2, Y:1, X:7, W:3, C:1, X:16, W:1, H:3, X:1, Y:14, C:32, F:16, ;154.65560388565063
64;0;MobilNet_01;2.0764407;0.005295576192445989;1;axe_yy1_0,axe_out_channels1_0,axe_yy1_1,axe_xx1_0;128;;;Y:1, F:2, Y:8, X:8, W:3, C:1, X:14, W:1, H:3, X:1, Y:14, C:32, F:16, ;155.70725631713867
64;1;MobilNet_01;2.045982;0.0031548990475131935;1;axe_yy1_0,axe_out_channels1_0,axe_yy1_1,axe_xx1_0,axe_xx1_1;1792;;;Y:1, F:2, Y:8, X:8, W:3, C:1, X:14, W:1, H:3, X:1, Y:14, C:32, F:16, ;156.74838948249817
65;0;MobilNet_01;2.1273367000000003;0.003891617505613837;1;axe_yy1_0,axe_out_channels1_0,axe_yy1_1,axe_xx1_0;128;;;Y:2, F:2, Y:4, X:8, W:3, C:1, X:14, W:1, H:3, X:1, Y:14, C:32, F:16, ;157.8195686340332
65;1;MobilNet_01;2.0378559000000003;0.006843522593664665;1;axe_yy1_0,axe_out_channels1_0,axe_yy1_1,axe_xx1_0,axe_xx1_1;1792;;;Y:2, F:2, Y:4, X:8, W:3, C:1, X:14, W:1, H:3, X:1, Y:14, C:32, F:16, ;158.8660671710968
66;0;MobilNet_01;2.1241236;0.0033865403349139945;1;axe_yy1_0,axe_out_channels1_0,axe_yy1_1,axe_xx1_0;128;;;Y:4, F:2, Y:2, X:8, W:3, C:1, X:14, W:1, H:3, X:1, Y:14, C:32, F:16, ;159.93347311019897
66;1;MobilNet_01;2.0342054999999997;0.0033349376980688085;1;axe_yy1_0,axe_out_channels1_0,axe_yy1_1,axe_xx1_0,axe_xx1_1;1792;;;Y:4, F:2, Y:2, X:8, W:3, C:1, X:14, W:1, H:3, X:1, Y:14, C:32, F:16, ;160.97565007209778
67;0;MobilNet_01;2.0790622;0.00832324734463662;1;axe_yy1_0,axe_out_channels1_0,axe_yy1_1,axe_xx1_0;128;;;Y:8, F:2, Y:1, X:8, W:3, C:1, X:14, W:1, H:3, X:1, Y:14, C:32, F:16, ;162.04164099693298
67;1;MobilNet_01;2.0228165;0.003907730370688308;1;axe_yy1_0,axe_out_channels1_0,axe_yy1_1,axe_xx1_0,axe_xx1_1;1792;;;Y:8, F:2, Y:1, X:8, W:3, C:1, X:14, W:1, H:3, X:1, Y:14, C:32, F:16, ;163.0819444656372
68;0;MobilNet_01;2.0672425;0.0049984685104539845;1;axe_yy1_0,axe_out_channels1_0,axe_yy1_1,axe_xx1_0;224;;;Y:1, F:2, Y:8, X:14, W:3, C:1, X:8, W:1, H:3, X:1, Y:14, C:32, F:16, ;164.1189579963684
68;1;MobilNet_01;2.0023051;0.0024835633855410117;1;axe_yy1_0,axe_out_channels1_0,axe_yy1_1,axe_xx1_0,axe_xx1_1;1792;;;Y:1, F:2, Y:8, X:14, W:3, C:1, X:8, W:1, H:3, X:1, Y:14, C:32, F:16, ;165.16448545455933
69;0;MobilNet_01;2.0989940000000002;0.0052685250877261515;1;axe_yy1_0,axe_out_channels1_0,axe_yy1_1,axe_xx1_0;224;;;Y:2, F:2, Y:4, X:14, W:3, C:1, X:8, W:1, H:3, X:1, Y:14, C:32, F:16, ;166.22796201705933
69;1;MobilNet_01;2.0379424;0.005248938410764556;1;axe_yy1_0,axe_out_channels1_0,axe_yy1_1,axe_xx1_0,axe_xx1_1;1792;;;Y:2, F:2, Y:4, X:14, W:3, C:1, X:8, W:1, H:3, X:1, Y:14, C:32, F:16, ;167.27389907836914
70;0;MobilNet_01;2.1015833;0.004515811932532205;1;axe_yy1_0,axe_out_channels1_0,axe_yy1_1,axe_xx1_0;224;;;Y:4, F:2, Y:2, X:14, W:3, C:1, X:8, W:1, H:3, X:1, Y:14, C:32, F:16, ;168.3364441394806
70;1;MobilNet_01;2.0885135999999997;0.003716178445661634;1;axe_yy1_0,axe_out_channels1_0,axe_yy1_1,axe_xx1_0,axe_xx1_1;1792;;;Y:4, F:2, Y:2, X:14, W:3, C:1, X:8, W:1, H:3, X:1, Y:14, C:32, F:16, ;169.38403725624084
71;0;MobilNet_01;2.0855176;0.0032696746382476103;1;axe_yy1_0,axe_out_channels1_0,axe_yy1_1,axe_xx1_0;224;;;Y:8, F:2, Y:1, X:14, W:3, C:1, X:8, W:1, H:3, X:1, Y:14, C:32, F:16, ;170.44194531440735
71;1;MobilNet_01;2.0255737;0.005224638974130138;1;axe_yy1_0,axe_out_channels1_0,axe_yy1_1,axe_xx1_0,axe_xx1_1;1792;;;Y:8, F:2, Y:1, X:14, W:3, C:1, X:8, W:1, H:3, X:1, Y:14, C:32, F:16, ;171.48398542404175
72;0;MobilNet_01;2.0676503999999998;0.00720933578355177;1;axe_yy1_0,axe_out_channels1_0,axe_yy1_1,axe_xx1_0;256;;;Y:1, F:2, Y:8, X:16, W:3, C:1, X:7, W:1, H:3, X:1, Y:14, C:32, F:16, ;172.54887509346008
72;1;MobilNet_01;1.9984153;0.002426709997094872;1;axe_yy1_0,axe_out_channels1_0,axe_yy1_1,axe_xx1_0,axe_xx1_1;1792;;;Y:1, F:2, Y:8, X:16, W:3, C:1, X:7, W:1, H:3, X:1, Y:14, C:32, F:16, ;173.59260773658752
73;0;MobilNet_01;2.0533179;0.003580824945456005;1;axe_yy1_0,axe_out_channels1_0,axe_yy1_1,axe_xx1_0;256;;;Y:2, F:2, Y:4, X:16, W:3, C:1, X:7, W:1, H:3, X:1, Y:14, C:32, F:16, ;174.64955496788025
73;1;MobilNet_01;2.0437226999999996;0.007074723543008652;1;axe_yy1_0,axe_out_channels1_0,axe_yy1_1,axe_xx1_0,axe_xx1_1;1792;;;Y:2, F:2, Y:4, X:16, W:3, C:1, X:7, W:1, H:3, X:1, Y:14, C:32, F:16, ;175.69368982315063
74;0;MobilNet_01;2.0535343999999998;0.00671795006233296;1;axe_yy1_0,axe_out_channels1_0,axe_yy1_1,axe_xx1_0;256;;;Y:4, F:2, Y:2, X:16, W:3, C:1, X:7, W:1, H:3, X:1, Y:14, C:32, F:16, ;176.74927163124084
74;1;MobilNet_01;2.0344967;0.006174291360957959;1;axe_yy1_0,axe_out_channels1_0,axe_yy1_1,axe_xx1_0,axe_xx1_1;1792;;;Y:4, F:2, Y:2, X:16, W:3, C:1, X:7, W:1, H:3, X:1, Y:14, C:32, F:16, ;177.79324436187744
75;0;MobilNet_01;2.0409746;0.003774807523569889;1;axe_yy1_0,axe_out_channels1_0,axe_yy1_1,axe_xx1_0;256;;;Y:8, F:2, Y:1, X:16, W:3, C:1, X:7, W:1, H:3, X:1, Y:14, C:32, F:16, ;178.84558725357056
75;1;MobilNet_01;2.0293902999999998;0.007720462888324703;1;axe_yy1_0,axe_out_channels1_0,axe_yy1_1,axe_xx1_0,axe_xx1_1;1792;;;Y:8, F:2, Y:1, X:16, W:3, C:1, X:7, W:1, H:3, X:1, Y:14, C:32, F:16, ;179.88474655151367
76;0;MobilNet_01;2.0365725;0.014496083886691586;1;axe_yy1_0,axe_out_channels1_0,axe_yy1_1,axe_xx1_0;448;;;Y:1, F:2, Y:8, X:28, W:3, C:1, X:4, W:1, H:3, X:1, Y:14, C:32, F:16, ;180.93389630317688
76;1;MobilNet_01;1.9980542999999997;0.001979615975385076;1;axe_yy1_0,axe_out_channels1_0,axe_yy1_1,axe_xx1_0,axe_xx1_1;1792;;;Y:1, F:2, Y:8, X:28, W:3, C:1, X:4, W:1, H:3, X:1, Y:14, C:32, F:16, ;181.97453927993774
77;0;MobilNet_01;2.0589313999999996;0.004188188157186947;1;axe_yy1_0,axe_out_channels1_0,axe_yy1_1,axe_xx1_0;448;;;Y:2, F:2, Y:4, X:28, W:3, C:1, X:4, W:1, H:3, X:1, Y:14, C:32, F:16, ;183.02486968040466
77;1;MobilNet_01;2.0348580000000003;0.004225551608961899;1;axe_yy1_0,axe_out_channels1_0,axe_yy1_1,axe_xx1_0,axe_xx1_1;1792;;;Y:2, F:2, Y:4, X:28, W:3, C:1, X:4, W:1, H:3, X:1, Y:14, C:32, F:16, ;184.0687074661255
78;0;MobilNet_01;2.0580009000000006;0.006553907207918041;1;axe_yy1_0,axe_out_channels1_0,axe_yy1_1,axe_xx1_0;448;;;Y:4, F:2, Y:2, X:28, W:3, C:1, X:4, W:1, H:3, X:1, Y:14, C:32, F:16, ;185.14071893692017
78;1;MobilNet_01;2.0374248;0.0022260858833387876;1;axe_yy1_0,axe_out_channels1_0,axe_yy1_1,axe_xx1_0,axe_xx1_1;1792;;;Y:4, F:2, Y:2, X:28, W:3, C:1, X:4, W:1, H:3, X:1, Y:14, C:32, F:16, ;186.18802165985107
79;0;MobilNet_01;2.0464614;0.0041190910939185935;1;axe_yy1_0,axe_out_channels1_0,axe_yy1_1,axe_xx1_0;448;;;Y:8, F:2, Y:1, X:28, W:3, C:1, X:4, W:1, H:3, X:1, Y:14, C:32, F:16, ;187.2549192905426
79;1;MobilNet_01;2.0259346000000003;0.004528838553095121;1;axe_yy1_0,axe_out_channels1_0,axe_yy1_1,axe_xx1_0,axe_xx1_1;1792;;;Y:8, F:2, Y:1, X:28, W:3, C:1, X:4, W:1, H:3, X:1, Y:14, C:32, F:16, ;188.29301810264587
80;0;MobilNet_01;2.0098178;0.012449250064160389;1;axe_yy1_0,axe_out_channels1_0,axe_yy1_1,axe_xx1_0;896;;;Y:1, F:2, Y:8, X:56, W:3, C:1, X:2, W:1, H:3, X:1, Y:14, C:32, F:16, ;189.32805109024048
80;1;MobilNet_01;1.9984983;0.0019107865945730293;1;axe_yy1_0,axe_out_channels1_0,axe_yy1_1,axe_xx1_0,axe_xx1_1;1792;;;Y:1, F:2, Y:8, X:56, W:3, C:1, X:2, W:1, H:3, X:1, Y:14, C:32, F:16, ;190.3712728023529
81;0;MobilNet_01;2.0803234999999995;0.007500970513873513;1;axe_yy1_0,axe_out_channels1_0,axe_yy1_1,axe_xx1_0;896;;;Y:2, F:2, Y:4, X:56, W:3, C:1, X:2, W:1, H:3, X:1, Y:14, C:32, F:16, ;191.43204617500305
81;1;MobilNet_01;2.0298621999999997;0.0056468248742103004;1;axe_yy1_0,axe_out_channels1_0,axe_yy1_1,axe_xx1_0,axe_xx1_1;1792;;;Y:2, F:2, Y:4, X:56, W:3, C:1, X:2, W:1, H:3, X:1, Y:14, C:32, F:16, ;192.48184442520142
82;0;MobilNet_01;2.0703904;0.015867507959348943;1;axe_yy1_0,axe_out_channels1_0,axe_yy1_1,axe_xx1_0;896;;;Y:4, F:2, Y:2, X:56, W:3, C:1, X:2, W:1, H:3, X:1, Y:14, C:32, F:16, ;193.54130053520203
82;1;MobilNet_01;2.0893298;0.0029570939044947955;1;axe_yy1_0,axe_out_channels1_0,axe_yy1_1,axe_xx1_0,axe_xx1_1;1792;;;Y:4, F:2, Y:2, X:56, W:3, C:1, X:2, W:1, H:3, X:1, Y:14, C:32, F:16, ;194.58728694915771
83;0;MobilNet_01;2.061145;0.005278042629611903;1;axe_yy1_0,axe_out_channels1_0,axe_yy1_1,axe_xx1_0;896;;;Y:8, F:2, Y:1, X:56, W:3, C:1, X:2, W:1, H:3, X:1, Y:14, C:32, F:16, ;195.64420628547668
83;1;MobilNet_01;2.0259281;0.0041659988826210715;1;axe_yy1_0,axe_out_channels1_0,axe_yy1_1,axe_xx1_0,axe_xx1_1;1792;;;Y:8, F:2, Y:1, X:56, W:3, C:1, X:2, W:1, H:3, X:1, Y:14, C:32, F:16, ;196.6855697631836
84;0;MobilNet_01;2.0001983;0.0023809426305562253;1;axe_yy1_0,axe_out_channels1_0,axe_yy1_1,axe_xx1_0;1792;;;Y:1, F:2, Y:8, X:112, W:3, C:1, X:1, W:1, H:3, X:1, Y:14, C:32, F:16, ;197.70998644828796
84;1;MobilNet_01;1.9976614000000001;0.0020953370230108823;1;axe_yy1_0,axe_out_channels1_0,axe_yy1_1,axe_xx1_0,axe_xx1_1;1792;;;Y:1, F:2, Y:8, X:112, W:3, C:1, X:1, W:1, H:3, X:1, Y:14, C:32, F:16, ;198.75093841552734
85;0;MobilNet_01;2.0411487;0.00769775741433834;1;axe_yy1_0,axe_out_channels1_0,axe_yy1_1,axe_xx1_0;1792;;;Y:2, F:2, Y:4, X:112, W:3, C:1, X:1, W:1, H:3, X:1, Y:14, C:32, F:16, ;199.79345154762268
85;1;MobilNet_01;2.0358925;0.004330149980081389;1;axe_yy1_0,axe_out_channels1_0,axe_yy1_1,axe_xx1_0,axe_xx1_1;1792;;;Y:2, F:2, Y:4, X:112, W:3, C:1, X:1, W:1, H:3, X:1, Y:14, C:32, F:16, ;200.83875823020935
86;0;MobilNet_01;2.0231132;0.009700472233865741;1;axe_yy1_0,axe_out_channels1_0,axe_yy1_1,axe_xx1_0;1792;;;Y:4, F:2, Y:2, X:112, W:3, C:1, X:1, W:1, H:3, X:1, Y:14, C:32, F:16, ;201.88173747062683
86;1;MobilNet_01;2.0407754;0.006908820799528631;1;axe_yy1_0,axe_out_channels1_0,axe_yy1_1,axe_xx1_0,axe_xx1_1;1792;;;Y:4, F:2, Y:2, X:112, W:3, C:1, X:1, W:1, H:3, X:1, Y:14, C:32, F:16, ;202.92841744422913
87;0;MobilNet_01;2.0217116;0.003958012991388586;1;axe_yy1_0,axe_out_channels1_0,axe_yy1_1,axe_xx1_0;1792;;;Y:8, F:2, Y:1, X:112, W:3, C:1, X:1, W:1, H:3, X:1, Y:14, C:32, F:16, ;203.96782517433167
87;1;MobilNet_01;2.0301593;0.0054035190209714;1;axe_yy1_0,axe_out_channels1_0,axe_yy1_1,axe_xx1_0,axe_xx1_1;1792;;;Y:8, F:2, Y:1, X:112, W:3, C:1, X:1, W:1, H:3, X:1, Y:14, C:32, F:16, ;204.98854804039001
88;0;MobilNet_01;2.2701553;0.002934719783897581;1;axe_yy1_0,axe_out_channels1_0,axe_yy1_1,axe_xx1_0;64;;;Y:1, F:2, Y:8, X:4, W:3, C:2, X:28, W:1, H:3, X:1, Y:14, C:16, F:16, ;206.05178332328796
88;1;MobilNet_01;2.100845;0.0010628367701580933;1;axe_yy1_0,axe_out_channels1_0,axe_yy1_1,axe_xx1_0,axe_xx1_1;1792;;;Y:1, F:2, Y:8, X:4, W:3, C:2, X:28, W:1, H:3, X:1, Y:14, C:16, F:16, ;207.1139361858368
89;0;MobilNet_01;2.3059693;0.0043481135231270155;1;axe_yy1_0,axe_out_channels1_0,axe_yy1_1,axe_xx1_0;64;;;Y:2, F:2, Y:4, X:4, W:3, C:2, X:28, W:1, H:3, X:1, Y:14, C:16, F:16, ;208.18569207191467
89;1;MobilNet_01;2.1204422000000003;0.003654262491940005;1;axe_yy1_0,axe_out_channels1_0,axe_yy1_1,axe_xx1_0,axe_xx1_1;1792;;;Y:2, F:2, Y:4, X:4, W:3, C:2, X:28, W:1, H:3, X:1, Y:14, C:16, F:16, ;209.24911785125732
90;0;MobilNet_01;2.3203384;0.005410507946579497;1;axe_yy1_0,axe_out_channels1_0,axe_yy1_1,axe_xx1_0;64;;;Y:4, F:2, Y:2, X:4, W:3, C:2, X:28, W:1, H:3, X:1, Y:14, C:16, F:16, ;210.32278180122375
90;1;MobilNet_01;2.1300644;0.003753440586981467;1;axe_yy1_0,axe_out_channels1_0,axe_yy1_1,axe_xx1_0,axe_xx1_1;1792;;;Y:4, F:2, Y:2, X:4, W:3, C:2, X:28, W:1, H:3, X:1, Y:14, C:16, F:16, ;211.38291788101196
91;0;MobilNet_01;2.3151865000000003;0.003490622673678767;1;axe_yy1_0,axe_out_channels1_0,axe_yy1_1,axe_xx1_0;64;;;Y:8, F:2, Y:1, X:4, W:3, C:2, X:28, W:1, H:3, X:1, Y:14, C:16, F:16, ;212.46062564849854
91;1;MobilNet_01;2.1416158;0.0052276348150955936;1;axe_yy1_0,axe_out_channels1_0,axe_yy1_1,axe_xx1_0,axe_xx1_1;1792;;;Y:8, F:2, Y:1, X:4, W:3, C:2, X:28, W:1, H:3, X:1, Y:14, C:16, F:16, ;213.5186071395874
92;0;MobilNet_01;2.2495124000000004;0.004316728696594189;1;axe_yy1_0,axe_out_channels1_0,axe_yy1_1,axe_xx1_0;112;;;Y:1, F:2, Y:8, X:7, W:3, C:2, X:16, W:1, H:3, X:1, Y:14, C:16, F:16, ;214.59946584701538
92;1;MobilNet_01;2.1016684000000003;0.0019896890812385764;1;axe_yy1_0,axe_out_channels1_0,axe_yy1_1,axe_xx1_0,axe_xx1_1;1792;;;Y:1, F:2, Y:8, X:7, W:3, C:2, X:16, W:1, H:3, X:1, Y:14, C:16, F:16, ;215.65921235084534
93;0;MobilNet_01;2.31614;0.002964802860225323;1;axe_yy1_0,axe_out_channels1_0,axe_yy1_1,axe_xx1_0;112;;;Y:2, F:2, Y:4, X:7, W:3, C:2, X:16, W:1, H:3, X:1, Y:14, C:16, F:16, ;216.74545407295227
93;1;MobilNet_01;2.1184661;0.002766444087633193;1;axe_yy1_0,axe_out_channels1_0,axe_yy1_1,axe_xx1_0,axe_xx1_1;1792;;;Y:2, F:2, Y:4, X:7, W:3, C:2, X:16, W:1, H:3, X:1, Y:14, C:16, F:16, ;217.8047971725464
94;0;MobilNet_01;2.2629647000000004;0.004576283820962202;1;axe_yy1_0,axe_out_channels1_0,axe_yy1_1,axe_xx1_0;112;;;Y:4, F:2, Y:2, X:7, W:3, C:2, X:16, W:1, H:3, X:1, Y:14, C:16, F:16, ;218.8833429813385
94;1;MobilNet_01;2.1622451000000003;0.005519076072133868;1;axe_yy1_0,axe_out_channels1_0,axe_yy1_1,axe_xx1_0,axe_xx1_1;1792;;;Y:4, F:2, Y:2, X:7, W:3, C:2, X:16, W:1, H:3, X:1, Y:14, C:16, F:16, ;219.9457790851593
95;0;MobilNet_01;2.2506286;0.004785319220281919;1;axe_yy1_0,axe_out_channels1_0,axe_yy1_1,axe_xx1_0;112;;;Y:8, F:2, Y:1, X:7, W:3, C:2, X:16, W:1, H:3, X:1, Y:14, C:16, F:16, ;221.01551866531372
95;1;MobilNet_01;2.1402963;0.006201836583625803;1;axe_yy1_0,axe_out_channels1_0,axe_yy1_1,axe_xx1_0,axe_xx1_1;1792;;;Y:8, F:2, Y:1, X:7, W:3, C:2, X:16, W:1, H:3, X:1, Y:14, C:16, F:16, ;222.07577204704285
96;0;MobilNet_01;2.2350725999999996;0.004644725399848775;1;axe_yy1_0,axe_out_channels1_0,axe_yy1_1,axe_xx1_0;128;;;Y:1, F:2, Y:8, X:8, W:3, C:2, X:14, W:1, H:3, X:1, Y:14, C:16, F:16, ;223.16062188148499
96;1;MobilNet_01;2.1026596;0.0013428853413451434;1;axe_yy1_0,axe_out_channels1_0,axe_yy1_1,axe_xx1_0,axe_xx1_1;1792;;;Y:1, F:2, Y:8, X:8, W:3, C:2, X:14, W:1, H:3, X:1, Y:14, C:16, F:16, ;224.22245740890503
97;0;MobilNet_01;2.2549566000000003;0.004676250703287853;1;axe_yy1_0,axe_out_channels1_0,axe_yy1_1,axe_xx1_0;128;;;Y:2, F:2, Y:4, X:8, W:3, C:2, X:14, W:1, H:3, X:1, Y:14, C:16, F:16, ;225.3010058403015
97;1;MobilNet_01;2.1187607;0.002413552777545925;1;axe_yy1_0,axe_out_channels1_0,axe_yy1_1,axe_xx1_0,axe_xx1_1;1792;;;Y:2, F:2, Y:4, X:8, W:3, C:2, X:14, W:1, H:3, X:1, Y:14, C:16, F:16, ;226.36000728607178
98;0;MobilNet_01;2.2505420000000003;0.004333261035294254;1;axe_yy1_0,axe_out_channels1_0,axe_yy1_1,axe_xx1_0;128;;;Y:4, F:2, Y:2, X:8, W:3, C:2, X:14, W:1, H:3, X:1, Y:14, C:16, F:16, ;227.4425175189972
98;1;MobilNet_01;2.1348773000000003;0.00451875381161674;1;axe_yy1_0,axe_out_channels1_0,axe_yy1_1,axe_xx1_0,axe_xx1_1;1792;;;Y:4, F:2, Y:2, X:8, W:3, C:2, X:14, W:1, H:3, X:1, Y:14, C:16, F:16, ;228.49893975257874
99;0;MobilNet_01;2.2371897;0.0038871362222078014;1;axe_yy1_0,axe_out_channels1_0,axe_yy1_1,axe_xx1_0;128;;;Y:8, F:2, Y:1, X:8, W:3, C:2, X:14, W:1, H:3, X:1, Y:14, C:16, F:16, ;229.57469010353088
99;1;MobilNet_01;2.1367434000000003;0.005383526338748624;1;axe_yy1_0,axe_out_channels1_0,axe_yy1_1,axe_xx1_0,axe_xx1_1;1792;;;Y:8, F:2, Y:1, X:8, W:3, C:2, X:14, W:1, H:3, X:1, Y:14, C:16, F:16, ;230.63275742530823
100;0;MobilNet_01;2.1576851;0.003546076915409465;1;axe_yy1_0,axe_out_channels1_0,axe_yy1_1,axe_xx1_0;224;;;Y:1, F:2, Y:8, X:14, W:3, C:2, X:8, W:1, H:3, X:1, Y:14, C:16, F:16, ;231.7005491256714
100;1;MobilNet_01;2.1034884999999997;0.0026171142218100528;1;axe_yy1_0,axe_out_channels1_0,axe_yy1_1,axe_xx1_0,axe_xx1_1;1792;;;Y:1, F:2, Y:8, X:14, W:3, C:2, X:8, W:1, H:3, X:1, Y:14, C:16, F:16, ;232.7614724636078
101;0;MobilNet_01;2.1708612;0.002846486845218174;1;axe_yy1_0,axe_out_channels1_0,axe_yy1_1,axe_xx1_0;224;;;Y:2, F:2, Y:4, X:14, W:3, C:2, X:8, W:1, H:3, X:1, Y:14, C:16, F:16, ;233.8341679573059
101;1;MobilNet_01;2.1199304000000003;0.0023466678162875764;1;axe_yy1_0,axe_out_channels1_0,axe_yy1_1,axe_xx1_0,axe_xx1_1;1792;;;Y:2, F:2, Y:4, X:14, W:3, C:2, X:8, W:1, H:3, X:1, Y:14, C:16, F:16, ;234.89186573028564
102;0;MobilNet_01;2.1827824;0.0049864173952849766;1;axe_yy1_0,axe_out_channels1_0,axe_yy1_1,axe_xx1_0;224;;;Y:4, F:2, Y:2, X:14, W:3, C:2, X:8, W:1, H:3, X:1, Y:14, C:16, F:16, ;235.96735835075378
102;1;MobilNet_01;2.1418736;0.0026417185769874118;1;axe_yy1_0,axe_out_channels1_0,axe_yy1_1,axe_xx1_0,axe_xx1_1;1792;;;Y:4, F:2, Y:2, X:14, W:3, C:2, X:8, W:1, H:3, X:1, Y:14, C:16, F:16, ;237.0272922515869
103;0;MobilNet_01;2.1576041;0.004791919290847889;1;axe_yy1_0,axe_out_channels1_0,axe_yy1_1,axe_xx1_0;224;;;Y:8, F:2, Y:1, X:14, W:3, C:2, X:8, W:1, H:3, X:1, Y:14, C:16, F:16, ;238.09470009803772
103;1;MobilNet_01;2.1475150000000003;0.004909567842488811;1;axe_yy1_0,axe_out_channels1_0,axe_yy1_1,axe_xx1_0,axe_xx1_1;1792;;;Y:8, F:2, Y:1, X:14, W:3, C:2, X:8, W:1, H:3, X:1, Y:14, C:16, F:16, ;239.15670084953308
104;0;MobilNet_01;2.1266497999999996;0.0037854817870385626;1;axe_yy1_0,axe_out_channels1_0,axe_yy1_1,axe_xx1_0;256;;;Y:1, F:2, Y:8, X:16, W:3, C:2, X:7, W:1, H:3, X:1, Y:14, C:16, F:16, ;240.22363591194153
104;1;MobilNet_01;2.1007404999999997;0.0021145143295801514;1;axe_yy1_0,axe_out_channels1_0,axe_yy1_1,axe_xx1_0,axe_xx1_1;1792;;;Y:1, F:2, Y:8, X:16, W:3, C:2, X:7, W:1, H:3, X:1, Y:14, C:16, F:16, ;241.28840613365173
105;0;MobilNet_01;2.1416375;0.0037422311593486644;1;axe_yy1_0,axe_out_channels1_0,axe_yy1_1,axe_xx1_0;256;;;Y:2, F:2, Y:4, X:16, W:3, C:2, X:7, W:1, H:3, X:1, Y:14, C:16, F:16, ;242.35557055473328
105;1;MobilNet_01;2.1188420999999997;0.0038239571506489592;1;axe_yy1_0,axe_out_channels1_0,axe_yy1_1,axe_xx1_0,axe_xx1_1;1792;;;Y:2, F:2, Y:4, X:16, W:3, C:2, X:7, W:1, H:3, X:1, Y:14, C:16, F:16, ;243.41237592697144
106;0;MobilNet_01;2.1498081;0.0029783149077961184;1;axe_yy1_0,axe_out_channels1_0,axe_yy1_1,axe_xx1_0;256;;;Y:4, F:2, Y:2, X:16, W:3, C:2, X:7, W:1, H:3, X:1, Y:14, C:16, F:16, ;244.47999668121338
106;1;MobilNet_01;2.1357361999999993;0.0073302372376342125;1;axe_yy1_0,axe_out_channels1_0,axe_yy1_1,axe_xx1_0,axe_xx1_1;1792;;;Y:4, F:2, Y:2, X:16, W:3, C:2, X:7, W:1, H:3, X:1, Y:14, C:16, F:16, ;245.54202938079834
107;0;MobilNet_01;2.1418273;0.004771956140829499;1;axe_yy1_0,axe_out_channels1_0,axe_yy1_1,axe_xx1_0;256;;;Y:8, F:2, Y:1, X:16, W:3, C:2, X:7, W:1, H:3, X:1, Y:14, C:16, F:16, ;246.60064792633057
107;1;MobilNet_01;2.1397542999999994;0.004933788687205866;1;axe_yy1_0,axe_out_channels1_0,axe_yy1_1,axe_xx1_0,axe_xx1_1;1792;;;Y:8, F:2, Y:1, X:16, W:3, C:2, X:7, W:1, H:3, X:1, Y:14, C:16, F:16, ;247.65901637077332
108;0;MobilNet_01;2.0789017000000003;0.0026436008038279823;1;axe_yy1_0,axe_out_channels1_0,axe_yy1_1,axe_xx1_0;448;;;Y:1, F:2, Y:8, X:28, W:3, C:2, X:4, W:1, H:3, X:1, Y:14, C:16, F:16, ;248.73140025138855
108;1;MobilNet_01;2.1016890999999998;0.0028828859307990693;1;axe_yy1_0,axe_out_channels1_0,axe_yy1_1,axe_xx1_0,axe_xx1_1;1792;;;Y:1, F:2, Y:8, X:28, W:3, C:2, X:4, W:1, H:3, X:1, Y:14, C:16, F:16, ;249.7918255329132
109;0;MobilNet_01;2.0990265;0.0035421213488529496;1;axe_yy1_0,axe_out_channels1_0,axe_yy1_1,axe_xx1_0;448;;;Y:2, F:2, Y:4, X:28, W:3, C:2, X:4, W:1, H:3, X:1, Y:14, C:16, F:16, ;250.87519335746765
109;1;MobilNet_01;2.119515;0.0027888099971134805;1;axe_yy1_0,axe_out_channels1_0,axe_yy1_1,axe_xx1_0,axe_xx1_1;1792;;;Y:2, F:2, Y:4, X:28, W:3, C:2, X:4, W:1, H:3, X:1, Y:14, C:16, F:16, ;251.93174409866333
110;0;MobilNet_01;2.1192081000000003;0.004396092274964198;1;axe_yy1_0,axe_out_channels1_0,axe_yy1_1,axe_xx1_0;448;;;Y:4, F:2, Y:2, X:28, W:3, C:2, X:4, W:1, H:3, X:1, Y:14, C:16, F:16, ;253.01805019378662
110;1;MobilNet_01;2.1356914000000002;0.0031718355947305274;1;axe_yy1_0,axe_out_channels1_0,axe_yy1_1,axe_xx1_0,axe_xx1_1;1792;;;Y:4, F:2, Y:2, X:28, W:3, C:2, X:4, W:1, H:3, X:1, Y:14, C:16, F:16, ;254.07562160491943
111;0;MobilNet_01;2.1183836;0.007281147165110769;1;axe_yy1_0,axe_out_channels1_0,axe_yy1_1,axe_xx1_0;448;;;Y:8, F:2, Y:1, X:28, W:3, C:2, X:4, W:1, H:3, X:1, Y:14, C:16, F:16, ;255.15430092811584
111;1;MobilNet_01;2.1390028;0.004817215540122782;1;axe_yy1_0,axe_out_channels1_0,axe_yy1_1,axe_xx1_0,axe_xx1_1;1792;;;Y:8, F:2, Y:1, X:28, W:3, C:2, X:4, W:1, H:3, X:1, Y:14, C:16, F:16, ;256.20833563804626
112;0;MobilNet_01;2.0834879;0.0023253420157042836;1;axe_yy1_0,axe_out_channels1_0,axe_yy1_1,axe_xx1_0;896;;;Y:1, F:2, Y:8, X:56, W:3, C:2, X:2, W:1, H:3, X:1, Y:14, C:16, F:16, ;257.26796650886536
112;1;MobilNet_01;2.1020703999999997;0.0013976226386259996;1;axe_yy1_0,axe_out_channels1_0,axe_yy1_1,axe_xx1_0,axe_xx1_1;1792;;;Y:1, F:2, Y:8, X:56, W:3, C:2, X:2, W:1, H:3, X:1, Y:14, C:16, F:16, ;258.32742857933044
113;0;MobilNet_01;2.0871178000000006;0.008058581150550073;1;axe_yy1_0,axe_out_channels1_0,axe_yy1_1,axe_xx1_0;896;;;Y:2, F:2, Y:4, X:56, W:3, C:2, X:2, W:1, H:3, X:1, Y:14, C:16, F:16, ;259.3995678424835
113;1;MobilNet_01;2.1194468;0.0028538317329512607;1;axe_yy1_0,axe_out_channels1_0,axe_yy1_1,axe_xx1_0,axe_xx1_1;1792;;;Y:2, F:2, Y:4, X:56, W:3, C:2, X:2, W:1, H:3, X:1, Y:14, C:16, F:16, ;260.45771765708923
114;0;MobilNet_01;2.1130690999999997;0.006914782606127245;1;axe_yy1_0,axe_out_channels1_0,axe_yy1_1,axe_xx1_0;896;;;Y:4, F:2, Y:2, X:56, W:3, C:2, X:2, W:1, H:3, X:1, Y:14, C:16, F:16, ;261.52885222435
114;1;MobilNet_01;2.1423492;0.004013839777569545;1;axe_yy1_0,axe_out_channels1_0,axe_yy1_1,axe_xx1_0,axe_xx1_1;1792;;;Y:4, F:2, Y:2, X:56, W:3, C:2, X:2, W:1, H:3, X:1, Y:14, C:16, F:16, ;262.5869061946869
115;0;MobilNet_01;2.0961989;0.019413740193224043;1;axe_yy1_0,axe_out_channels1_0,axe_yy1_1,axe_xx1_0;896;;;Y:8, F:2, Y:1, X:56, W:3, C:2, X:2, W:1, H:3, X:1, Y:14, C:16, F:16, ;263.650333404541
115;1;MobilNet_01;2.1389652000000003;0.004268925972653875;1;axe_yy1_0,axe_out_channels1_0,axe_yy1_1,axe_xx1_0,axe_xx1_1;1792;;;Y:8, F:2, Y:1, X:56, W:3, C:2, X:2, W:1, H:3, X:1, Y:14, C:16, F:16, ;264.70757150650024
116;0;MobilNet_01;2.1013629000000003;0.0014604273655338387;1;axe_yy1_0,axe_out_channels1_0,axe_yy1_1,axe_xx1_0;1792;;;Y:1, F:2, Y:8, X:112, W:3, C:2, X:1, W:1, H:3, X:1, Y:14, C:16, F:16, ;265.7681632041931
116;1;MobilNet_01;2.0999318000000002;0.002203338412500419;1;axe_yy1_0,axe_out_channels1_0,axe_yy1_1,axe_xx1_0,axe_xx1_1;1792;;;Y:1, F:2, Y:8, X:112, W:3, C:2, X:1, W:1, H:3, X:1, Y:14, C:16, F:16, ;266.8261649608612
117;0;MobilNet_01;2.1149121;0.002074025431377393;1;axe_yy1_0,axe_out_channels1_0,axe_yy1_1,axe_xx1_0;1792;;;Y:2, F:2, Y:4, X:112, W:3, C:2, X:1, W:1, H:3, X:1, Y:14, C:16, F:16, ;267.88387966156006
117;1;MobilNet_01;2.1186527;0.001779447051755169;1;axe_yy1_0,axe_out_channels1_0,axe_yy1_1,axe_xx1_0,axe_xx1_1;1792;;;Y:2, F:2, Y:4, X:112, W:3, C:2, X:1, W:1, H:3, X:1, Y:14, C:16, F:16, ;268.9414575099945
118;0;MobilNet_01;2.1397917;0.0033719826823399297;1;axe_yy1_0,axe_out_channels1_0,axe_yy1_1,axe_xx1_0;1792;;;Y:4, F:2, Y:2, X:112, W:3, C:2, X:1, W:1, H:3, X:1, Y:14, C:16, F:16, ;269.9976143836975
118;1;MobilNet_01;2.1303911999999996;0.0038921466262206036;1;axe_yy1_0,axe_out_channels1_0,axe_yy1_1,axe_xx1_0,axe_xx1_1;1792;;;Y:4, F:2, Y:2, X:112, W:3, C:2, X:1, W:1, H:3, X:1, Y:14, C:16, F:16, ;271.05263566970825
119;0;MobilNet_01;2.1367693;0.004812585958712774;1;axe_yy1_0,axe_out_channels1_0,axe_yy1_1,axe_xx1_0;1792;;;Y:8, F:2, Y:1, X:112, W:3, C:2, X:1, W:1, H:3, X:1, Y:14, C:16, F:16, ;272.1058933734894
119;1;MobilNet_01;2.1356498999999998;0.004920198053940417;1;axe_yy1_0,axe_out_channels1_0,axe_yy1_1,axe_xx1_0,axe_xx1_1;1792;;;Y:8, F:2, Y:1, X:112, W:3, C:2, X:1, W:1, H:3, X:1, Y:14, C:16, F:16, ;273.15781903266907
120;0;MobilNet_01;2.5420895999999997;0.005037303290452181;1;axe_yy1_0,axe_out_channels1_0,axe_yy1_1,axe_xx1_0;64;;;Y:1, F:2, Y:8, X:4, W:3, C:4, X:28, W:1, H:3, X:1, Y:14, C:8, F:16, ;274.24286246299744
120;1;MobilNet_01;2.2392896;0.002792772393160581;1;axe_yy1_0,axe_out_channels1_0,axe_yy1_1,axe_xx1_0,axe_xx1_1;1792;;;Y:1, F:2, Y:8, X:4, W:3, C:4, X:28, W:1, H:3, X:1, Y:14, C:8, F:16, ;275.3022634983063
121;0;MobilNet_01;2.6027820999999998;0.004325760683394381;1;axe_yy1_0,axe_out_channels1_0,axe_yy1_1,axe_xx1_0;64;;;Y:2, F:2, Y:4, X:4, W:3, C:4, X:28, W:1, H:3, X:1, Y:14, C:8, F:16, ;276.39173698425293
121;1;MobilNet_01;2.2656898;0.003739049205346242;1;axe_yy1_0,axe_out_channels1_0,axe_yy1_1,axe_xx1_0,axe_xx1_1;1792;;;Y:2, F:2, Y:4, X:4, W:3, C:4, X:28, W:1, H:3, X:1, Y:14, C:8, F:16, ;277.45623993873596
122;0;MobilNet_01;2.6079158;0.0044100581583467;1;axe_yy1_0,axe_out_channels1_0,axe_yy1_1,axe_xx1_0;64;;;Y:4, F:2, Y:2, X:4, W:3, C:4, X:28, W:1, H:3, X:1, Y:14, C:8, F:16, ;278.5438485145569
122;1;MobilNet_01;2.2784749;0.0038683612925889074;1;axe_yy1_0,axe_out_channels1_0,axe_yy1_1,axe_xx1_0,axe_xx1_1;1792;;;Y:4, F:2, Y:2, X:4, W:3, C:4, X:28, W:1, H:3, X:1, Y:14, C:8, F:16, ;279.60707092285156
123;0;MobilNet_01;2.5928894999999996;0.003818328908043335;1;axe_yy1_0,axe_out_channels1_0,axe_yy1_1,axe_xx1_0;64;;;Y:8, F:2, Y:1, X:4, W:3, C:4, X:28, W:1, H:3, X:1, Y:14, C:8, F:16, ;280.69150733947754
123;1;MobilNet_01;2.2889668;0.007029291938737434;1;axe_yy1_0,axe_out_channels1_0,axe_yy1_1,axe_xx1_0,axe_xx1_1;1792;;;Y:8, F:2, Y:1, X:4, W:3, C:4, X:28, W:1, H:3, X:1, Y:14, C:8, F:16, ;281.74918937683105
124;0;MobilNet_01;2.492476;0.004005315143656024;1;axe_yy1_0,axe_out_channels1_0,axe_yy1_1,axe_xx1_0;112;;;Y:1, F:2, Y:8, X:7, W:3, C:4, X:16, W:1, H:3, X:1, Y:14, C:8, F:16, ;282.84510803222656
124;1;MobilNet_01;2.2401139999999997;0.0024590114680496816;1;axe_yy1_0,axe_out_channels1_0,axe_yy1_1,axe_xx1_0,axe_xx1_1;1792;;;Y:1, F:2, Y:8, X:7, W:3, C:4, X:16, W:1, H:3, X:1, Y:14, C:8, F:16, ;283.9056029319763
125;0;MobilNet_01;2.5169676;0.00419305018333909;1;axe_yy1_0,axe_out_channels1_0,axe_yy1_1,axe_xx1_0;112;;;Y:2, F:2, Y:4, X:7, W:3, C:4, X:16, W:1, H:3, X:1, Y:14, C:8, F:16, ;284.9983117580414
125;1;MobilNet_01;2.2687587000000002;0.002916811582876155;1;axe_yy1_0,axe_out_channels1_0,axe_yy1_1,axe_xx1_0,axe_xx1_1;1792;;;Y:2, F:2, Y:4, X:7, W:3, C:4, X:16, W:1, H:3, X:1, Y:14, C:8, F:16, ;286.06170415878296
126;0;MobilNet_01;2.5145323;0.003522636372094098;1;axe_yy1_0,axe_out_channels1_0,axe_yy1_1,axe_xx1_0;112;;;Y:4, F:2, Y:2, X:7, W:3, C:4, X:16, W:1, H:3, X:1, Y:14, C:8, F:16, ;287.15347695350647
126;1;MobilNet_01;2.2798086;0.006419522804695053;1;axe_yy1_0,axe_out_channels1_0,axe_yy1_1,axe_xx1_0,axe_xx1_1;1792;;;Y:4, F:2, Y:2, X:7, W:3, C:4, X:16, W:1, H:3, X:1, Y:14, C:8, F:16, ;288.21240854263306
127;0;MobilNet_01;2.5040611999999998;0.007343690717888364;1;axe_yy1_0,axe_out_channels1_0,axe_yy1_1,axe_xx1_0;112;;;Y:8, F:2, Y:1, X:7, W:3, C:4, X:16, W:1, H:3, X:1, Y:14, C:8, F:16, ;289.2969958782196
127;1;MobilNet_01;2.2828717999999997;0.005218885030348972;1;axe_yy1_0,axe_out_channels1_0,axe_yy1_1,axe_xx1_0,axe_xx1_1;1792;;;Y:8, F:2, Y:1, X:7, W:3, C:4, X:16, W:1, H:3, X:1, Y:14, C:8, F:16, ;290.35388016700745
128;0;MobilNet_01;2.4453932999999997;0.0038116747251044215;1;axe_yy1_0,axe_out_channels1_0,axe_yy1_1,axe_xx1_0;128;;;Y:1, F:2, Y:8, X:8, W:3, C:4, X:14, W:1, H:3, X:1, Y:14, C:8, F:16, ;291.44722628593445
128;1;MobilNet_01;2.2387534000000002;0.0028144527070107905;1;axe_yy1_0,axe_out_channels1_0,axe_yy1_1,axe_xx1_0,axe_xx1_1;1792;;;Y:1, F:2, Y:8, X:8, W:3, C:4, X:14, W:1, H:3, X:1, Y:14, C:8, F:16, ;292.50888180732727
129;0;MobilNet_01;2.4767334999999995;0.005091985197346914;1;axe_yy1_0,axe_out_channels1_0,axe_yy1_1,axe_xx1_0;128;;;Y:2, F:2, Y:4, X:8, W:3, C:4, X:14, W:1, H:3, X:1, Y:14, C:8, F:16, ;293.599173784256
129;1;MobilNet_01;2.2651955999999993;0.004051713938569753;1;axe_yy1_0,axe_out_channels1_0,axe_yy1_1,axe_xx1_0,axe_xx1_1;1792;;;Y:2, F:2, Y:4, X:8, W:3, C:4, X:14, W:1, H:3, X:1, Y:14, C:8, F:16, ;294.66038370132446
130;0;MobilNet_01;2.4752947;0.006641599898367845;1;axe_yy1_0,axe_out_channels1_0,axe_yy1_1,axe_xx1_0;128;;;Y:4, F:2, Y:2, X:8, W:3, C:4, X:14, W:1, H:3, X:1, Y:14, C:8, F:16, ;295.7504200935364
130;1;MobilNet_01;2.2817006999999996;0.00445254852977482;1;axe_yy1_0,axe_out_channels1_0,axe_yy1_1,axe_xx1_0,axe_xx1_1;1792;;;Y:4, F:2, Y:2, X:8, W:3, C:4, X:14, W:1, H:3, X:1, Y:14, C:8, F:16, ;296.80769634246826
131;0;MobilNet_01;2.4505080999999995;0.004114539256101486;1;axe_yy1_0,axe_out_channels1_0,axe_yy1_1,axe_xx1_0;128;;;Y:8, F:2, Y:1, X:8, W:3, C:4, X:14, W:1, H:3, X:1, Y:14, C:8, F:16, ;297.89438939094543
131;1;MobilNet_01;2.2863998;0.006248378730518814;1;axe_yy1_0,axe_out_channels1_0,axe_yy1_1,axe_xx1_0,axe_xx1_1;1792;;;Y:8, F:2, Y:1, X:8, W:3, C:4, X:14, W:1, H:3, X:1, Y:14, C:8, F:16, ;298.9502160549164
132;0;MobilNet_01;2.2134585;0.004772545699100204;1;axe_yy1_0,axe_out_channels1_0,axe_yy1_1,axe_xx1_0;224;;;Y:1, F:2, Y:8, X:14, W:3, C:4, X:8, W:1, H:3, X:1, Y:14, C:8, F:16, ;300.01608419418335
132;1;MobilNet_01;2.2394588;0.0020930207261277136;1;axe_yy1_0,axe_out_channels1_0,axe_yy1_1,axe_xx1_0,axe_xx1_1;1792;;;Y:1, F:2, Y:8, X:14, W:3, C:4, X:8, W:1, H:3, X:1, Y:14, C:8, F:16, ;301.0773403644562
133;0;MobilNet_01;2.2221672999999997;0.003790248251763961;1;axe_yy1_0,axe_out_channels1_0,axe_yy1_1,axe_xx1_0;224;;;Y:2, F:2, Y:4, X:14, W:3, C:4, X:8, W:1, H:3, X:1, Y:14, C:8, F:16, ;302.1568253040314
133;1;MobilNet_01;2.2705544;0.0035813789020432006;1;axe_yy1_0,axe_out_channels1_0,axe_yy1_1,axe_xx1_0,axe_xx1_1;1792;;;Y:2, F:2, Y:4, X:14, W:3, C:4, X:8, W:1, H:3, X:1, Y:14, C:8, F:16, ;303.21728706359863
134;0;MobilNet_01;2.2241081;0.0068168161695910875;1;axe_yy1_0,axe_out_channels1_0,axe_yy1_1,axe_xx1_0;224;;;Y:4, F:2, Y:2, X:14, W:3, C:4, X:8, W:1, H:3, X:1, Y:14, C:8, F:16, ;304.2945683002472
134;1;MobilNet_01;2.2846701;0.004308646224743826;1;axe_yy1_0,axe_out_channels1_0,axe_yy1_1,axe_xx1_0,axe_xx1_1;1792;;;Y:4, F:2, Y:2, X:14, W:3, C:4, X:8, W:1, H:3, X:1, Y:14, C:8, F:16, ;305.35511112213135
135;0;MobilNet_01;2.2165649;0.006049017117681092;1;axe_yy1_0,axe_out_channels1_0,axe_yy1_1,axe_xx1_0;224;;;Y:8, F:2, Y:1, X:14, W:3, C:4, X:8, W:1, H:3, X:1, Y:14, C:8, F:16, ;306.4247887134552
135;1;MobilNet_01;2.2881929000000003;0.005670453023348321;1;axe_yy1_0,axe_out_channels1_0,axe_yy1_1,axe_xx1_0,axe_xx1_1;1792;;;Y:8, F:2, Y:1, X:14, W:3, C:4, X:8, W:1, H:3, X:1, Y:14, C:8, F:16, ;307.4785089492798
136;0;MobilNet_01;2.1808655999999997;0.0037669104104027535;1;axe_yy1_0,axe_out_channels1_0,axe_yy1_1,axe_xx1_0;256;;;Y:1, F:2, Y:8, X:16, W:3, C:4, X:7, W:1, H:3, X:1, Y:14, C:8, F:16, ;308.55057406425476
136;1;MobilNet_01;2.2403467000000004;0.002329739644252133;1;axe_yy1_0,axe_out_channels1_0,axe_yy1_1,axe_xx1_0,axe_xx1_1;1792;;;Y:1, F:2, Y:8, X:16, W:3, C:4, X:7, W:1, H:3, X:1, Y:14, C:8, F:16, ;309.6048276424408
137;0;MobilNet_01;2.1866794;0.004023614101774778;1;axe_yy1_0,axe_out_channels1_0,axe_yy1_1,axe_xx1_0;256;;;Y:2, F:2, Y:4, X:16, W:3, C:4, X:7, W:1, H:3, X:1, Y:14, C:8, F:16, ;310.67276668548584
137;1;MobilNet_01;2.264753;0.0018709768571524984;1;axe_yy1_0,axe_out_channels1_0,axe_yy1_1,axe_xx1_0,axe_xx1_1;1792;;;Y:2, F:2, Y:4, X:16, W:3, C:4, X:7, W:1, H:3, X:1, Y:14, C:8, F:16, ;311.7329378128052
138;0;MobilNet_01;2.1991706;0.005756463987553543;1;axe_yy1_0,axe_out_channels1_0,axe_yy1_1,axe_xx1_0;256;;;Y:4, F:2, Y:2, X:16, W:3, C:4, X:7, W:1, H:3, X:1, Y:14, C:8, F:16, ;312.8035671710968
138;1;MobilNet_01;2.3098177000000004;0.0029977768779546896;1;axe_yy1_0,axe_out_channels1_0,axe_yy1_1,axe_xx1_0,axe_xx1_1;1792;;;Y:4, F:2, Y:2, X:16, W:3, C:4, X:7, W:1, H:3, X:1, Y:14, C:8, F:16, ;313.8669056892395
139;0;MobilNet_01;2.1787483;0.0038762371457380985;1;axe_yy1_0,axe_out_channels1_0,axe_yy1_1,axe_xx1_0;256;;;Y:8, F:2, Y:1, X:16, W:3, C:4, X:7, W:1, H:3, X:1, Y:14, C:8, F:16, ;314.934632062912
139;1;MobilNet_01;2.2868334;0.004240544380147511;1;axe_yy1_0,axe_out_channels1_0,axe_yy1_1,axe_xx1_0,axe_xx1_1;1792;;;Y:8, F:2, Y:1, X:16, W:3, C:4, X:7, W:1, H:3, X:1, Y:14, C:8, F:16, ;315.9936718940735
140;0;MobilNet_01;2.1808630000000004;0.0015625082399782675;1;axe_yy1_0,axe_out_channels1_0,axe_yy1_1,axe_xx1_0;448;;;Y:1, F:2, Y:8, X:28, W:3, C:4, X:4, W:1, H:3, X:1, Y:14, C:8, F:16, ;317.073312997818
140;1;MobilNet_01;2.2404759;0.002558118271308123;1;axe_yy1_0,axe_out_channels1_0,axe_yy1_1,axe_xx1_0,axe_xx1_1;1792;;;Y:1, F:2, Y:8, X:28, W:3, C:4, X:4, W:1, H:3, X:1, Y:14, C:8, F:16, ;318.13044929504395
141;0;MobilNet_01;2.1956221000000005;0.007619742324383475;1;axe_yy1_0,axe_out_channels1_0,axe_yy1_1,axe_xx1_0;448;;;Y:2, F:2, Y:4, X:28, W:3, C:4, X:4, W:1, H:3, X:1, Y:14, C:8, F:16, ;319.22034907341003
141;1;MobilNet_01;2.2646321;0.00385789500764342;1;axe_yy1_0,axe_out_channels1_0,axe_yy1_1,axe_xx1_0,axe_xx1_1;1792;;;Y:2, F:2, Y:4, X:28, W:3, C:4, X:4, W:1, H:3, X:1, Y:14, C:8, F:16, ;320.2819736003876
142;0;MobilNet_01;2.1890381000000003;0.004474106468335337;1;axe_yy1_0,axe_out_channels1_0,axe_yy1_1,axe_xx1_0;448;;;Y:4, F:2, Y:2, X:28, W:3, C:4, X:4, W:1, H:3, X:1, Y:14, C:8, F:16, ;321.3704972267151
142;1;MobilNet_01;2.2816833999999995;0.003910923578900475;1;axe_yy1_0,axe_out_channels1_0,axe_yy1_1,axe_xx1_0,axe_xx1_1;1792;;;Y:4, F:2, Y:2, X:28, W:3, C:4, X:4, W:1, H:3, X:1, Y:14, C:8, F:16, ;322.43170738220215
143;0;MobilNet_01;2.1862650999999995;0.005933256280492242;1;axe_yy1_0,axe_out_channels1_0,axe_yy1_1,axe_xx1_0;448;;;Y:8, F:2, Y:1, X:28, W:3, C:4, X:4, W:1, H:3, X:1, Y:14, C:8, F:16, ;323.51471877098083
143;1;MobilNet_01;2.2866509;0.006011914976943679;1;axe_yy1_0,axe_out_channels1_0,axe_yy1_1,axe_xx1_0,axe_xx1_1;1792;;;Y:8, F:2, Y:1, X:28, W:3, C:4, X:4, W:1, H:3, X:1, Y:14, C:8, F:16, ;324.5693287849426
144;0;MobilNet_01;2.1756083999999998;0.003036857428329439;1;axe_yy1_0,axe_out_channels1_0,axe_yy1_1,axe_xx1_0;896;;;Y:1, F:2, Y:8, X:56, W:3, C:4, X:2, W:1, H:3, X:1, Y:14, C:8, F:16, ;325.631676197052
144;1;MobilNet_01;2.2423212;0.0018381727231138927;1;axe_yy1_0,axe_out_channels1_0,axe_yy1_1,axe_xx1_0,axe_xx1_1;1792;;;Y:1, F:2, Y:8, X:56, W:3, C:4, X:2, W:1, H:3, X:1, Y:14, C:8, F:16, ;326.69006180763245
145;0;MobilNet_01;2.1781385999999996;0.0036646761712327007;1;axe_yy1_0,axe_out_channels1_0,axe_yy1_1,axe_xx1_0;896;;;Y:2, F:2, Y:4, X:56, W:3, C:4, X:2, W:1, H:3, X:1, Y:14, C:8, F:16, ;327.7603871822357
145;1;MobilNet_01;2.267154;0.0033264949421275614;1;axe_yy1_0,axe_out_channels1_0,axe_yy1_1,axe_xx1_0,axe_xx1_1;1792;;;Y:2, F:2, Y:4, X:56, W:3, C:4, X:2, W:1, H:3, X:1, Y:14, C:8, F:16, ;328.8224790096283
146;0;MobilNet_01;2.1728891;0.00804440941834761;1;axe_yy1_0,axe_out_channels1_0,axe_yy1_1,axe_xx1_0;896;;;Y:4, F:2, Y:2, X:56, W:3, C:4, X:2, W:1, H:3, X:1, Y:14, C:8, F:16, ;329.8892741203308
146;1;MobilNet_01;2.2833647999999998;0.0032235998138727866;1;axe_yy1_0,axe_out_channels1_0,axe_yy1_1,axe_xx1_0,axe_xx1_1;1792;;;Y:4, F:2, Y:2, X:56, W:3, C:4, X:2, W:1, H:3, X:1, Y:14, C:8, F:16, ;330.94948410987854
147;0;MobilNet_01;2.1602991;0.013526484513353835;1;axe_yy1_0,axe_out_channels1_0,axe_yy1_1,axe_xx1_0;896;;;Y:8, F:2, Y:1, X:56, W:3, C:4, X:2, W:1, H:3, X:1, Y:14, C:8, F:16, ;332.0164997577667
147;1;MobilNet_01;2.2898550999999996;0.006327932370845937;1;axe_yy1_0,axe_out_channels1_0,axe_yy1_1,axe_xx1_0,axe_xx1_1;1792;;;Y:8, F:2, Y:1, X:56, W:3, C:4, X:2, W:1, H:3, X:1, Y:14, C:8, F:16, ;333.0745940208435
148;0;MobilNet_01;2.2417802;0.004687724838341026;1;axe_yy1_0,axe_out_channels1_0,axe_yy1_1,axe_xx1_0;1792;;;Y:1, F:2, Y:8, X:112, W:3, C:4, X:1, W:1, H:3, X:1, Y:14, C:8, F:16, ;334.1328811645508
148;1;MobilNet_01;2.2400010000000004;0.0017325875446855999;1;axe_yy1_0,axe_out_channels1_0,axe_yy1_1,axe_xx1_0,axe_xx1_1;1792;;;Y:1, F:2, Y:8, X:112, W:3, C:4, X:1, W:1, H:3, X:1, Y:14, C:8, F:16, ;335.18987679481506
149;0;MobilNet_01;2.2662641;0.002522257974514102;1;axe_yy1_0,axe_out_channels1_0,axe_yy1_1,axe_xx1_0;1792;;;Y:2, F:2, Y:4, X:112, W:3, C:4, X:1, W:1, H:3, X:1, Y:14, C:8, F:16, ;336.25043988227844
149;1;MobilNet_01;2.2668172;0.002558461092141096;1;axe_yy1_0,axe_out_channels1_0,axe_yy1_1,axe_xx1_0,axe_xx1_1;1792;;;Y:2, F:2, Y:4, X:112, W:3, C:4, X:1, W:1, H:3, X:1, Y:14, C:8, F:16, ;337.30978083610535
150;0;MobilNet_01;2.2844212999999995;0.0028666691839137077;1;axe_yy1_0,axe_out_channels1_0,axe_yy1_1,axe_xx1_0;1792;;;Y:4, F:2, Y:2, X:112, W:3, C:4, X:1, W:1, H:3, X:1, Y:14, C:8, F:16, ;338.3705334663391
150;1;MobilNet_01;2.2808736000000005;0.004950510462568624;1;axe_yy1_0,axe_out_channels1_0,axe_yy1_1,axe_xx1_0,axe_xx1_1;1792;;;Y:4, F:2, Y:2, X:112, W:3, C:4, X:1, W:1, H:3, X:1, Y:14, C:8, F:16, ;339.43106269836426
151;0;MobilNet_01;2.2861391999999996;0.004602022551009621;1;axe_yy1_0,axe_out_channels1_0,axe_yy1_1,axe_xx1_0;1792;;;Y:8, F:2, Y:1, X:112, W:3, C:4, X:1, W:1, H:3, X:1, Y:14, C:8, F:16, ;340.48320865631104
151;1;MobilNet_01;2.2861128;0.008154956147031137;1;axe_yy1_0,axe_out_channels1_0,axe_yy1_1,axe_xx1_0,axe_xx1_1;1792;;;Y:8, F:2, Y:1, X:112, W:3, C:4, X:1, W:1, H:3, X:1, Y:14, C:8, F:16, ;341.54073762893677
152;0;MobilNet_01;2.3326208;0.006086610350597497;2;axe_yy1_0,axe_out_channels1_0,axe_yy1_1,axe_xx1_0;40;axe_yy2_0,axe_out_channels2_0,axe_yy2_1,axe_xx2_0;32;Y:1, F:2, Y:5, X:4, W:3, C:1, X:28, W:1, H:3, X:1, Y:12, C:32, F:16, ;342.7404673099518
152;1;MobilNet_01;2.2707169;0.004728803008161757;2;axe_yy1_0,axe_out_channels1_0,axe_yy1_1,axe_xx1_0,axe_xx1_1;1120;axe_yy2_0,axe_out_channels2_0,axe_yy2_1,axe_xx2_0,axe_xx2_1;896;Y:1, F:2, Y:5, X:4, W:3, C:1, X:28, W:1, H:3, X:1, Y:12, C:32, F:16, ;343.9051582813263
153;0;MobilNet_01;2.3415598;0.0028258509090184417;2;axe_yy1_0,axe_out_channels1_0,axe_yy1_1,axe_xx1_0;40;axe_yy2_0,axe_out_channels2_0,axe_yy2_1,axe_xx2_0;32;Y:5, F:2, Y:1, X:4, W:3, C:1, X:28, W:1, H:3, X:1, Y:12, C:32, F:16, ;345.08819127082825
153;1;MobilNet_01;2.3005684;0.0031863976587990575;2;axe_yy1_0,axe_out_channels1_0,axe_yy1_1,axe_xx1_0,axe_xx1_1;1120;axe_yy2_0,axe_out_channels2_0,axe_yy2_1,axe_xx2_0,axe_xx2_1;896;Y:5, F:2, Y:1, X:4, W:3, C:1, X:28, W:1, H:3, X:1, Y:12, C:32, F:16, ;346.2531695365906
154;0;MobilNet_01;2.3220726999999997;0.00514263687323928;2;axe_yy1_0,axe_out_channels1_0,axe_yy1_1,axe_xx1_0;70;axe_yy2_0,axe_out_channels2_0,axe_yy2_1,axe_xx2_0;56;Y:1, F:2, Y:5, X:7, W:3, C:1, X:16, W:1, H:3, X:1, Y:12, C:32, F:16, ;347.4577467441559
154;1;MobilNet_01;2.2724482999999998;0.005575905864521094;2;axe_yy1_0,axe_out_channels1_0,axe_yy1_1,axe_xx1_0,axe_xx1_1;1120;axe_yy2_0,axe_out_channels2_0,axe_yy2_1,axe_xx2_0,axe_xx2_1;896;Y:1, F:2, Y:5, X:7, W:3, C:1, X:16, W:1, H:3, X:1, Y:12, C:32, F:16, ;348.6203896999359
155;0;MobilNet_01;2.3030615000000005;0.005400596490203645;2;axe_yy1_0,axe_out_channels1_0,axe_yy1_1,axe_xx1_0;70;axe_yy2_0,axe_out_channels2_0,axe_yy2_1,axe_xx2_0;56;Y:5, F:2, Y:1, X:7, W:3, C:1, X:16, W:1, H:3, X:1, Y:12, C:32, F:16, ;349.8253884315491
155;1;MobilNet_01;2.3013320999999998;0.0027518150174022037;2;axe_yy1_0,axe_out_channels1_0,axe_yy1_1,axe_xx1_0,axe_xx1_1;1120;axe_yy2_0,axe_out_channels2_0,axe_yy2_1,axe_xx2_0,axe_xx2_1;896;Y:5, F:2, Y:1, X:7, W:3, C:1, X:16, W:1, H:3, X:1, Y:12, C:32, F:16, ;350.9903268814087
156;0;MobilNet_01;2.3132097000000003;0.006000685311695709;2;axe_yy1_0,axe_out_channels1_0,axe_yy1_1,axe_xx1_0;80;axe_yy2_0,axe_out_channels2_0,axe_yy2_1,axe_xx2_0;64;Y:1, F:2, Y:5, X:8, W:3, C:1, X:14, W:1, H:3, X:1, Y:12, C:32, F:16, ;352.19898295402527
156;1;MobilNet_01;2.2709323;0.003416124589355574;2;axe_yy1_0,axe_out_channels1_0,axe_yy1_1,axe_xx1_0,axe_xx1_1;1120;axe_yy2_0,axe_out_channels2_0,axe_yy2_1,axe_xx2_0,axe_xx2_1;896;Y:1, F:2, Y:5, X:8, W:3, C:1, X:14, W:1, H:3, X:1, Y:12, C:32, F:16, ;353.36602115631104
157;0;MobilNet_01;2.2981592999999996;0.003865316159125886;2;axe_yy1_0,axe_out_channels1_0,axe_yy1_1,axe_xx1_0;80;axe_yy2_0,axe_out_channels2_0,axe_yy2_1,axe_xx2_0;64;Y:5, F:2, Y:1, X:8, W:3, C:1, X:14, W:1, H:3, X:1, Y:12, C:32, F:16, ;354.5639536380768
157;1;MobilNet_01;2.2909015;0.006608049897662647;2;axe_yy1_0,axe_out_channels1_0,axe_yy1_1,axe_xx1_0,axe_xx1_1;1120;axe_yy2_0,axe_out_channels2_0,axe_yy2_1,axe_xx2_0,axe_xx2_1;896;Y:5, F:2, Y:1, X:8, W:3, C:1, X:14, W:1, H:3, X:1, Y:12, C:32, F:16, ;355.7297742366791
158;0;MobilNet_01;2.2876679;0.006577335561608508;2;axe_yy1_0,axe_out_channels1_0,axe_yy1_1,axe_xx1_0;140;axe_yy2_0,axe_out_channels2_0,axe_yy2_1,axe_xx2_0;112;Y:1, F:2, Y:5, X:14, W:3, C:1, X:8, W:1, H:3, X:1, Y:12, C:32, F:16, ;356.91712713241577
158;1;MobilNet_01;2.2684047;0.005690487343804631;2;axe_yy1_0,axe_out_channels1_0,axe_yy1_1,axe_xx1_0,axe_xx1_1;1120;axe_yy2_0,axe_out_channels2_0,axe_yy2_1,axe_xx2_0,axe_xx2_1;896;Y:1, F:2, Y:5, X:14, W:3, C:1, X:8, W:1, H:3, X:1, Y:12, C:32, F:16, ;358.08046865463257
159;0;MobilNet_01;2.2692562;0.006181354880606704;2;axe_yy1_0,axe_out_channels1_0,axe_yy1_1,axe_xx1_0;140;axe_yy2_0,axe_out_channels2_0,axe_yy2_1,axe_xx2_0;112;Y:5, F:2, Y:1, X:14, W:3, C:1, X:8, W:1, H:3, X:1, Y:12, C:32, F:16, ;359.27004837989807
159;1;MobilNet_01;2.2974276000000002;0.00435994738959084;2;axe_yy1_0,axe_out_channels1_0,axe_yy1_1,axe_xx1_0,axe_xx1_1;1120;axe_yy2_0,axe_out_channels2_0,axe_yy2_1,axe_xx2_0,axe_xx2_1;896;Y:5, F:2, Y:1, X:14, W:3, C:1, X:8, W:1, H:3, X:1, Y:12, C:32, F:16, ;360.4387993812561
160;0;MobilNet_01;2.2777568;0.0032365690105418767;2;axe_yy1_0,axe_out_channels1_0,axe_yy1_1,axe_xx1_0;160;axe_yy2_0,axe_out_channels2_0,axe_yy2_1,axe_xx2_0;128;Y:1, F:2, Y:5, X:16, W:3, C:1, X:7, W:1, H:3, X:1, Y:12, C:32, F:16, ;361.63138341903687
160;1;MobilNet_01;2.2693942;0.003366137008501008;2;axe_yy1_0,axe_out_channels1_0,axe_yy1_1,axe_xx1_0,axe_xx1_1;1120;axe_yy2_0,axe_out_channels2_0,axe_yy2_1,axe_xx2_0,axe_xx2_1;896;Y:1, F:2, Y:5, X:16, W:3, C:1, X:7, W:1, H:3, X:1, Y:12, C:32, F:16, ;362.80113649368286
161;0;MobilNet_01;2.2815052000000002;0.005681734291569732;2;axe_yy1_0,axe_out_channels1_0,axe_yy1_1,axe_xx1_0;160;axe_yy2_0,axe_out_channels2_0,axe_yy2_1,axe_xx2_0;128;Y:5, F:2, Y:1, X:16, W:3, C:1, X:7, W:1, H:3, X:1, Y:12, C:32, F:16, ;363.98628401756287
161;1;MobilNet_01;2.3061253;0.004685467747194555;2;axe_yy1_0,axe_out_channels1_0,axe_yy1_1,axe_xx1_0,axe_xx1_1;1120;axe_yy2_0,axe_out_channels2_0,axe_yy2_1,axe_xx2_0,axe_xx2_1;896;Y:5, F:2, Y:1, X:16, W:3, C:1, X:7, W:1, H:3, X:1, Y:12, C:32, F:16, ;365.15062284469604
162;0;MobilNet_01;2.2811429000000003;0.0035261789078264057;2;axe_yy1_0,axe_out_channels1_0,axe_yy1_1,axe_xx1_0;280;axe_yy2_0,axe_out_channels2_0,axe_yy2_1,axe_xx2_0;224;Y:1, F:2, Y:5, X:28, W:3, C:1, X:4, W:1, H:3, X:1, Y:12, C:32, F:16, ;366.3596782684326
162;1;MobilNet_01;2.2741785;0.006359450499060418;2;axe_yy1_0,axe_out_channels1_0,axe_yy1_1,axe_xx1_0,axe_xx1_1;1120;axe_yy2_0,axe_out_channels2_0,axe_yy2_1,axe_xx2_0,axe_xx2_1;896;Y:1, F:2, Y:5, X:28, W:3, C:1, X:4, W:1, H:3, X:1, Y:12, C:32, F:16, ;367.52695512771606
163;0;MobilNet_01;2.2753506;0.0033549450129622673;2;axe_yy1_0,axe_out_channels1_0,axe_yy1_1,axe_xx1_0;280;axe_yy2_0,axe_out_channels2_0,axe_yy2_1,axe_xx2_0;224;Y:5, F:2, Y:1, X:28, W:3, C:1, X:4, W:1, H:3, X:1, Y:12, C:32, F:16, ;368.73565006256104
163;1;MobilNet_01;2.2883375;0.0067855154594179;2;axe_yy1_0,axe_out_channels1_0,axe_yy1_1,axe_xx1_0,axe_xx1_1;1120;axe_yy2_0,axe_out_channels2_0,axe_yy2_1,axe_xx2_0,axe_xx2_1;896;Y:5, F:2, Y:1, X:28, W:3, C:1, X:4, W:1, H:3, X:1, Y:12, C:32, F:16, ;369.9013566970825
164;0;MobilNet_01;2.2757805;0.0030531092758039084;2;axe_yy1_0,axe_out_channels1_0,axe_yy1_1,axe_xx1_0;560;axe_yy2_0,axe_out_channels2_0,axe_yy2_1,axe_xx2_0;448;Y:1, F:2, Y:5, X:56, W:3, C:1, X:2, W:1, H:3, X:1, Y:12, C:32, F:16, ;371.1147840023041
164;1;MobilNet_01;2.2715079;0.007046423751804857;2;axe_yy1_0,axe_out_channels1_0,axe_yy1_1,axe_xx1_0,axe_xx1_1;1120;axe_yy2_0,axe_out_channels2_0,axe_yy2_1,axe_xx2_0,axe_xx2_1;896;Y:1, F:2, Y:5, X:56, W:3, C:1, X:2, W:1, H:3, X:1, Y:12, C:32, F:16, ;372.2823202610016
165;0;MobilNet_01;2.2751975;0.003868954593943872;2;axe_yy1_0,axe_out_channels1_0,axe_yy1_1,axe_xx1_0;560;axe_yy2_0,axe_out_channels2_0,axe_yy2_1,axe_xx2_0;448;Y:5, F:2, Y:1, X:56, W:3, C:1, X:2, W:1, H:3, X:1, Y:12, C:32, F:16, ;373.48781180381775
165;1;MobilNet_01;2.3053374;0.006572771990568422;2;axe_yy1_0,axe_out_channels1_0,axe_yy1_1,axe_xx1_0,axe_xx1_1;1120;axe_yy2_0,axe_out_channels2_0,axe_yy2_1,axe_xx2_0,axe_xx2_1;896;Y:5, F:2, Y:1, X:56, W:3, C:1, X:2, W:1, H:3, X:1, Y:12, C:32, F:16, ;374.65398621559143
166;0;MobilNet_01;2.2717865999999995;0.0020360040864399473;2;axe_yy1_0,axe_out_channels1_0,axe_yy1_1,axe_xx1_0;1120;axe_yy2_0,axe_out_channels2_0,axe_yy2_1,axe_xx2_0;896;Y:1, F:2, Y:5, X:112, W:3, C:1, X:1, W:1, H:3, X:1, Y:12, C:32, F:16, ;375.8177785873413
166;1;MobilNet_01;2.2711647;0.003386584652714289;2;axe_yy1_0,axe_out_channels1_0,axe_yy1_1,axe_xx1_0,axe_xx1_1;1120;axe_yy2_0,axe_out_channels2_0,axe_yy2_1,axe_xx2_0,axe_xx2_1;896;Y:1, F:2, Y:5, X:112, W:3, C:1, X:1, W:1, H:3, X:1, Y:12, C:32, F:16, ;376.9794023036957
167;0;MobilNet_01;2.297309;0.0047278185032845485;2;axe_yy1_0,axe_out_channels1_0,axe_yy1_1,axe_xx1_0;1120;axe_yy2_0,axe_out_channels2_0,axe_yy2_1,axe_xx2_0;896;Y:5, F:2, Y:1, X:112, W:3, C:1, X:1, W:1, H:3, X:1, Y:12, C:32, F:16, ;378.1375675201416
167;1;MobilNet_01;2.2970461999999996;0.0042982782785668605;2;axe_yy1_0,axe_out_channels1_0,axe_yy1_1,axe_xx1_0,axe_xx1_1;1120;axe_yy2_0,axe_out_channels2_0,axe_yy2_1,axe_xx2_0,axe_xx2_1;896;Y:5, F:2, Y:1, X:112, W:3, C:1, X:1, W:1, H:3, X:1, Y:12, C:32, F:16, ;379.30039739608765
168;0;MobilNet_01;2.3302838;0.0034279809451044636;2;axe_yy1_0,axe_out_channels1_0,axe_yy1_1,axe_xx1_0;56;axe_xx2_1;28;Y:1, F:2, Y:7, X:4, W:3, C:1, X:28, W:1, H:3, X:1, Y:12, C:32, F:16, ;380.5459747314453
168;1;MobilNet_01;2.2433518;0.004620010168820023;2;axe_yy1_0,axe_out_channels1_0,axe_yy1_1,axe_xx1_0,axe_xx1_1;1568;axe_yy2_0,axe_out_channels2_0,axe_yy2_1,axe_xx2_0,axe_xx2_1;448;Y:1, F:2, Y:7, X:4, W:3, C:1, X:28, W:1, H:3, X:1, Y:12, C:32, F:16, ;381.7388184070587
169;0;MobilNet_01;2.3485577999999996;0.008805626324118073;2;axe_yy1_0,axe_out_channels1_0,axe_yy1_1,axe_xx1_0;56;axe_xx2_1;28;Y:7, F:2, Y:1, X:4, W:3, C:1, X:28, W:1, H:3, X:1, Y:12, C:32, F:16, ;382.9745075702667
169;1;MobilNet_01;2.2865847;0.0049697100126667735;2;axe_yy1_0,axe_out_channels1_0,axe_yy1_1,axe_xx1_0,axe_xx1_1;1568;axe_yy2_0,axe_out_channels2_0,axe_yy2_1,axe_xx2_0,axe_xx2_1;448;Y:7, F:2, Y:1, X:4, W:3, C:1, X:28, W:1, H:3, X:1, Y:12, C:32, F:16, ;384.1626663208008
170;0;MobilNet_01;2.2958089;0.006899946209210578;2;axe_yy1_0,axe_out_channels1_0,axe_yy1_1,axe_xx1_0;98;axe_yy2_0,axe_out_channels2_0,axe_yy2_1,axe_xx2_0;28;Y:1, F:2, Y:7, X:7, W:3, C:1, X:16, W:1, H:3, X:1, Y:12, C:32, F:16, ;385.3839213848114
170;1;MobilNet_01;2.2522974;0.004736681648580557;2;axe_yy1_0,axe_out_channels1_0,axe_yy1_1,axe_xx1_0,axe_xx1_1;1568;axe_yy2_0,axe_out_channels2_0,axe_yy2_1,axe_xx2_0,axe_xx2_1;448;Y:1, F:2, Y:7, X:7, W:3, C:1, X:16, W:1, H:3, X:1, Y:12, C:32, F:16, ;386.578106880188
171;0;MobilNet_01;2.2863835;0.005001024280084997;2;axe_yy1_0,axe_out_channels1_0,axe_yy1_1,axe_xx1_0;98;axe_yy2_0,axe_out_channels2_0,axe_yy2_1,axe_xx2_0;28;Y:7, F:2, Y:1, X:7, W:3, C:1, X:16, W:1, H:3, X:1, Y:12, C:32, F:16, ;387.79949498176575
171;1;MobilNet_01;2.2844542;0.0025786056232002595;2;axe_yy1_0,axe_out_channels1_0,axe_yy1_1,axe_xx1_0,axe_xx1_1;1568;axe_yy2_0,axe_out_channels2_0,axe_yy2_1,axe_xx2_0,axe_xx2_1;448;Y:7, F:2, Y:1, X:7, W:3, C:1, X:16, W:1, H:3, X:1, Y:12, C:32, F:16, ;388.98746705055237
172;0;MobilNet_01;2.2969821999999995;0.0064922363604539264;2;axe_yy1_0,axe_out_channels1_0,axe_yy1_1,axe_xx1_0;112;axe_yy2_0,axe_out_channels2_0,axe_yy2_1,axe_xx2_0;32;Y:1, F:2, Y:7, X:8, W:3, C:1, X:14, W:1, H:3, X:1, Y:12, C:32, F:16, ;390.2273254394531
172;1;MobilNet_01;2.2533111;0.002839200889334888;2;axe_yy1_0,axe_out_channels1_0,axe_yy1_1,axe_xx1_0,axe_xx1_1;1568;axe_yy2_0,axe_out_channels2_0,axe_yy2_1,axe_xx2_0,axe_xx2_1;448;Y:1, F:2, Y:7, X:8, W:3, C:1, X:14, W:1, H:3, X:1, Y:12, C:32, F:16, ;391.424320936203
173;0;MobilNet_01;2.2794308000000005;0.0038019073055506696;2;axe_yy1_0,axe_out_channels1_0,axe_yy1_1,axe_xx1_0;112;axe_yy2_0,axe_out_channels2_0,axe_yy2_1,axe_xx2_0;32;Y:7, F:2, Y:1, X:8, W:3, C:1, X:14, W:1, H:3, X:1, Y:12, C:32, F:16, ;392.6491348743439
173;1;MobilNet_01;2.2934429;0.004063711368933596;2;axe_yy1_0,axe_out_channels1_0,axe_yy1_1,axe_xx1_0,axe_xx1_1;1568;axe_yy2_0,axe_out_channels2_0,axe_yy2_1,axe_xx2_0,axe_xx2_1;448;Y:7, F:2, Y:1, X:8, W:3, C:1, X:14, W:1, H:3, X:1, Y:12, C:32, F:16, ;393.8420126438141
174;0;MobilNet_01;2.2639377000000005;0.006130971930289635;2;axe_yy1_0,axe_out_channels1_0,axe_yy1_1,axe_xx1_0;196;axe_yy2_0,axe_out_channels2_0,axe_yy2_1,axe_xx2_0;56;Y:1, F:2, Y:7, X:14, W:3, C:1, X:8, W:1, H:3, X:1, Y:12, C:32, F:16, ;395.05888772010803
174;1;MobilNet_01;2.2537359;0.0032788139456211354;2;axe_yy1_0,axe_out_channels1_0,axe_yy1_1,axe_xx1_0,axe_xx1_1;1568;axe_yy2_0,axe_out_channels2_0,axe_yy2_1,axe_xx2_0,axe_xx2_1;448;Y:1, F:2, Y:7, X:14, W:3, C:1, X:8, W:1, H:3, X:1, Y:12, C:32, F:16, ;396.24492955207825
175;0;MobilNet_01;2.2615203;0.004848739878566483;2;axe_yy1_0,axe_out_channels1_0,axe_yy1_1,axe_xx1_0;196;axe_yy2_0,axe_out_channels2_0,axe_yy2_1,axe_xx2_0;56;Y:7, F:2, Y:1, X:14, W:3, C:1, X:8, W:1, H:3, X:1, Y:12, C:32, F:16, ;397.4574353694916
175;1;MobilNet_01;2.2859563;0.004327684231780363;2;axe_yy1_0,axe_out_channels1_0,axe_yy1_1,axe_xx1_0,axe_xx1_1;1568;axe_yy2_0,axe_out_channels2_0,axe_yy2_1,axe_xx2_0,axe_xx2_1;448;Y:7, F:2, Y:1, X:14, W:3, C:1, X:8, W:1, H:3, X:1, Y:12, C:32, F:16, ;398.6518511772156
176;0;MobilNet_01;2.2582942;0.004504529826741036;2;axe_yy1_0,axe_out_channels1_0,axe_yy1_1,axe_xx1_0;224;axe_yy2_0,axe_out_channels2_0,axe_yy2_1,axe_xx2_0;64;Y:1, F:2, Y:7, X:16, W:3, C:1, X:7, W:1, H:3, X:1, Y:12, C:32, F:16, ;399.8775632381439
176;1;MobilNet_01;2.2565097999999995;0.004109334515465947;2;axe_yy1_0,axe_out_channels1_0,axe_yy1_1,axe_xx1_0,axe_xx1_1;1568;axe_yy2_0,axe_out_channels2_0,axe_yy2_1,axe_xx2_0,axe_xx2_1;448;Y:1, F:2, Y:7, X:16, W:3, C:1, X:7, W:1, H:3, X:1, Y:12, C:32, F:16, ;401.0721433162689
177;0;MobilNet_01;2.2554536;0.0053642327913691265;2;axe_yy1_0,axe_out_channels1_0,axe_yy1_1,axe_xx1_0;224;axe_yy2_0,axe_out_channels2_0,axe_yy2_1,axe_xx2_0;64;Y:7, F:2, Y:1, X:16, W:3, C:1, X:7, W:1, H:3, X:1, Y:12, C:32, F:16, ;402.2854371070862
177;1;MobilNet_01;2.2889797;0.004506775322777964;2;axe_yy1_0,axe_out_channels1_0,axe_yy1_1,axe_xx1_0,axe_xx1_1;1568;axe_yy2_0,axe_out_channels2_0,axe_yy2_1,axe_xx2_0,axe_xx2_1;448;Y:7, F:2, Y:1, X:16, W:3, C:1, X:7, W:1, H:3, X:1, Y:12, C:32, F:16, ;403.47473526000977
178;0;MobilNet_01;2.2580542;0.004282544822882741;2;axe_yy1_0,axe_out_channels1_0,axe_yy1_1,axe_xx1_0;392;axe_yy2_0,axe_out_channels2_0,axe_yy2_1,axe_xx2_0;112;Y:1, F:2, Y:7, X:28, W:3, C:1, X:4, W:1, H:3, X:1, Y:12, C:32, F:16, ;404.71131658554077
178;1;MobilNet_01;2.2532938000000002;0.0017084680740358379;2;axe_yy1_0,axe_out_channels1_0,axe_yy1_1,axe_xx1_0,axe_xx1_1;1568;axe_yy2_0,axe_out_channels2_0,axe_yy2_1,axe_xx2_0,axe_xx2_1;448;Y:1, F:2, Y:7, X:28, W:3, C:1, X:4, W:1, H:3, X:1, Y:12, C:32, F:16, ;405.90220046043396
179;0;MobilNet_01;2.2548392;0.004248831340498172;2;axe_yy1_0,axe_out_channels1_0,axe_yy1_1,axe_xx1_0;392;axe_yy2_0,axe_out_channels2_0,axe_yy2_1,axe_xx2_0;112;Y:7, F:2, Y:1, X:28, W:3, C:1, X:4, W:1, H:3, X:1, Y:12, C:32, F:16, ;407.1349494457245
179;1;MobilNet_01;2.2917364000000005;0.00448655955493735;2;axe_yy1_0,axe_out_channels1_0,axe_yy1_1,axe_xx1_0,axe_xx1_1;1568;axe_yy2_0,axe_out_channels2_0,axe_yy2_1,axe_xx2_0,axe_xx2_1;448;Y:7, F:2, Y:1, X:28, W:3, C:1, X:4, W:1, H:3, X:1, Y:12, C:32, F:16, ;408.3234558105469
180;0;MobilNet_01;2.2358660000000006;0.0027668284008950613;2;axe_yy1_0,axe_out_channels1_0,axe_yy1_1,axe_xx1_0;784;axe_yy2_0,axe_out_channels2_0,axe_yy2_1,axe_xx2_0;224;Y:1, F:2, Y:7, X:56, W:3, C:1, X:2, W:1, H:3, X:1, Y:12, C:32, F:16, ;409.5474646091461
180;1;MobilNet_01;2.2511015;0.00241132694796864;2;axe_yy1_0,axe_out_channels1_0,axe_yy1_1,axe_xx1_0,axe_xx1_1;1568;axe_yy2_0,axe_out_channels2_0,axe_yy2_1,axe_xx2_0,axe_xx2_1;448;Y:1, F:2, Y:7, X:56, W:3, C:1, X:2, W:1, H:3, X:1, Y:12, C:32, F:16, ;410.7372224330902
181;0;MobilNet_01;2.2476253;0.00421257816663378;2;axe_yy1_0,axe_out_channels1_0,axe_yy1_1,axe_xx1_0;784;axe_yy2_0,axe_out_channels2_0,axe_yy2_1,axe_xx2_0;224;Y:7, F:2, Y:1, X:56, W:3, C:1, X:2, W:1, H:3, X:1, Y:12, C:32, F:16, ;411.9551362991333
181;1;MobilNet_01;2.2895520000000005;0.0032486768691268996;2;axe_yy1_0,axe_out_channels1_0,axe_yy1_1,axe_xx1_0,axe_xx1_1;1568;axe_yy2_0,axe_out_channels2_0,axe_yy2_1,axe_xx2_0,axe_xx2_1;448;Y:7, F:2, Y:1, X:56, W:3, C:1, X:2, W:1, H:3, X:1, Y:12, C:32, F:16, ;413.14745259284973
182;0;MobilNet_01;2.2523223;0.004013918186759645;2;axe_yy1_0,axe_out_channels1_0,axe_yy1_1,axe_xx1_0;1568;axe_yy2_0,axe_out_channels2_0,axe_yy2_1,axe_xx2_0;448;Y:1, F:2, Y:7, X:112, W:3, C:1, X:1, W:1, H:3, X:1, Y:12, C:32, F:16, ;414.33766174316406
182;1;MobilNet_01;2.2534450999999995;0.00324426846762093;2;axe_yy1_0,axe_out_channels1_0,axe_yy1_1,axe_xx1_0,axe_xx1_1;1568;axe_yy2_0,axe_out_channels2_0,axe_yy2_1,axe_xx2_0,axe_xx2_1;448;Y:1, F:2, Y:7, X:112, W:3, C:1, X:1, W:1, H:3, X:1, Y:12, C:32, F:16, ;415.5287356376648
183;0;MobilNet_01;2.2945841000000002;0.0025619040750973054;2;axe_yy1_0,axe_out_channels1_0,axe_yy1_1,axe_xx1_0;1568;axe_yy2_0,axe_out_channels2_0,axe_yy2_1,axe_xx2_0;448;Y:7, F:2, Y:1, X:112, W:3, C:1, X:1, W:1, H:3, X:1, Y:12, C:32, F:16, ;416.7180118560791
183;1;MobilNet_01;2.2926749;0.004570080337368161;2;axe_yy1_0,axe_out_channels1_0,axe_yy1_1,axe_xx1_0,axe_xx1_1;1568;axe_yy2_0,axe_out_channels2_0,axe_yy2_1,axe_xx2_0,axe_xx2_1;448;Y:7, F:2, Y:1, X:112, W:3, C:1, X:1, W:1, H:3, X:1, Y:12, C:32, F:16, ;417.90768551826477
184;0;MobilNet_01;2.4523295000000003;0.003038188448730526;2;axe_yy1_0,axe_out_channels1_0,axe_yy1_1,axe_xx1_0;40;axe_yy2_0,axe_out_channels2_0,axe_yy2_1,axe_xx2_0;32;Y:1, F:2, Y:5, X:4, W:3, C:2, X:28, W:1, H:3, X:1, Y:12, C:16, F:16, ;419.1385793685913
184;1;MobilNet_01;2.3266916;0.0034632008373757573;2;axe_yy1_0,axe_out_channels1_0,axe_yy1_1,axe_xx1_0,axe_xx1_1;1120;axe_yy2_0,axe_out_channels2_0,axe_yy2_1,axe_xx2_0,axe_xx2_1;896;Y:1, F:2, Y:5, X:4, W:3, C:2, X:28, W:1, H:3, X:1, Y:12, C:16, F:16, ;420.3345170021057
185;0;MobilNet_01;2.4633689000000003;0.004213072405026945;2;axe_yy1_0,axe_out_channels1_0,axe_yy1_1,axe_xx1_0;40;axe_yy2_0,axe_out_channels2_0,axe_yy2_1,axe_xx2_0;32;Y:5, F:2, Y:1, X:4, W:3, C:2, X:28, W:1, H:3, X:1, Y:12, C:16, F:16, ;421.54691529273987
185;1;MobilNet_01;2.32584;0.004062552301201771;2;axe_yy1_0,axe_out_channels1_0,axe_yy1_1,axe_xx1_0,axe_xx1_1;1120;axe_yy2_0,axe_out_channels2_0,axe_yy2_1,axe_xx2_0,axe_xx2_1;896;Y:5, F:2, Y:1, X:4, W:3, C:2, X:28, W:1, H:3, X:1, Y:12, C:16, F:16, ;422.7408883571625
186;0;MobilNet_01;2.4063987;0.00734593547548577;2;axe_yy1_0,axe_out_channels1_0,axe_yy1_1,axe_xx1_0;70;axe_yy2_0,axe_out_channels2_0,axe_yy2_1,axe_xx2_0;56;Y:1, F:2, Y:5, X:7, W:3, C:2, X:16, W:1, H:3, X:1, Y:12, C:16, F:16, ;423.97544169425964
186;1;MobilNet_01;2.3278144000000003;0.004411795942697254;2;axe_yy1_0,axe_out_channels1_0,axe_yy1_1,axe_xx1_0,axe_xx1_1;1120;axe_yy2_0,axe_out_channels2_0,axe_yy2_1,axe_xx2_0,axe_xx2_1;896;Y:1, F:2, Y:5, X:7, W:3, C:2, X:16, W:1, H:3, X:1, Y:12, C:16, F:16, ;425.1739366054535
187;0;MobilNet_01;2.3965595;0.006854459165390098;2;axe_yy1_0,axe_out_channels1_0,axe_yy1_1,axe_xx1_0;70;axe_yy2_0,axe_out_channels2_0,axe_yy2_1,axe_xx2_0;56;Y:5, F:2, Y:1, X:7, W:3, C:2, X:16, W:1, H:3, X:1, Y:12, C:16, F:16, ;426.41428208351135
187;1;MobilNet_01;2.3319362999999997;0.007561640444374539;2;axe_yy1_0,axe_out_channels1_0,axe_yy1_1,axe_xx1_0,axe_xx1_1;1120;axe_yy2_0,axe_out_channels2_0,axe_yy2_1,axe_xx2_0,axe_xx2_1;896;Y:5, F:2, Y:1, X:7, W:3, C:2, X:16, W:1, H:3, X:1, Y:12, C:16, F:16, ;427.6045331954956
188;0;MobilNet_01;2.3848656;0.007072915582699929;2;axe_yy1_0,axe_out_channels1_0,axe_yy1_1,axe_xx1_0;80;axe_yy2_0,axe_out_channels2_0,axe_yy2_1,axe_xx2_0;64;Y:1, F:2, Y:5, X:8, W:3, C:2, X:14, W:1, H:3, X:1, Y:12, C:16, F:16, ;428.8582751750946
188;1;MobilNet_01;2.3266985999999994;0.0048390783874618;2;axe_yy1_0,axe_out_channels1_0,axe_yy1_1,axe_xx1_0,axe_xx1_1;1120;axe_yy2_0,axe_out_channels2_0,axe_yy2_1,axe_xx2_0,axe_xx2_1;896;Y:1, F:2, Y:5, X:8, W:3, C:2, X:14, W:1, H:3, X:1, Y:12, C:16, F:16, ;430.0597541332245
189;0;MobilNet_01;2.3866412;0.004889741277409269;2;axe_yy1_0,axe_out_channels1_0,axe_yy1_1,axe_xx1_0;80;axe_yy2_0,axe_out_channels2_0,axe_yy2_1,axe_xx2_0;64;Y:5, F:2, Y:1, X:8, W:3, C:2, X:14, W:1, H:3, X:1, Y:12, C:16, F:16, ;431.28936076164246
189;1;MobilNet_01;2.3231773999999996;0.0051021605854773685;2;axe_yy1_0,axe_out_channels1_0,axe_yy1_1,axe_xx1_0,axe_xx1_1;1120;axe_yy2_0,axe_out_channels2_0,axe_yy2_1,axe_xx2_0,axe_xx2_1;896;Y:5, F:2, Y:1, X:8, W:3, C:2, X:14, W:1, H:3, X:1, Y:12, C:16, F:16, ;432.48343086242676
190;0;MobilNet_01;2.3011760000000003;0.002247118465947058;2;axe_yy1_0,axe_out_channels1_0,axe_yy1_1,axe_xx1_0;140;axe_yy2_0,axe_out_channels2_0,axe_yy2_1,axe_xx2_0;112;Y:1, F:2, Y:5, X:14, W:3, C:2, X:8, W:1, H:3, X:1, Y:12, C:16, F:16, ;433.70919942855835
190;1;MobilNet_01;2.3293108;0.004904588847192019;2;axe_yy1_0,axe_out_channels1_0,axe_yy1_1,axe_xx1_0,axe_xx1_1;1120;axe_yy2_0,axe_out_channels2_0,axe_yy2_1,axe_xx2_0,axe_xx2_1;896;Y:1, F:2, Y:5, X:14, W:3, C:2, X:8, W:1, H:3, X:1, Y:12, C:16, F:16, ;434.90927267074585
191;0;MobilNet_01;2.3046071;0.0036187798896866533;2;axe_yy1_0,axe_out_channels1_0,axe_yy1_1,axe_xx1_0;140;axe_yy2_0,axe_out_channels2_0,axe_yy2_1,axe_xx2_0;112;Y:5, F:2, Y:1, X:14, W:3, C:2, X:8, W:1, H:3, X:1, Y:12, C:16, F:16, ;436.12246561050415
191;1;MobilNet_01;2.329783;0.007502252021893175;2;axe_yy1_0,axe_out_channels1_0,axe_yy1_1,axe_xx1_0,axe_xx1_1;1120;axe_yy2_0,axe_out_channels2_0,axe_yy2_1,axe_xx2_0,axe_xx2_1;896;Y:5, F:2, Y:1, X:14, W:3, C:2, X:8, W:1, H:3, X:1, Y:12, C:16, F:16, ;437.31336069107056
192;0;MobilNet_01;2.2873373999999997;0.0024042183428299433;2;axe_yy1_0,axe_out_channels1_0,axe_yy1_1,axe_xx1_0;160;axe_yy2_0,axe_out_channels2_0,axe_yy2_1,axe_xx2_0;128;Y:1, F:2, Y:5, X:16, W:3, C:2, X:7, W:1, H:3, X:1, Y:12, C:16, F:16, ;438.54339361190796
192;1;MobilNet_01;2.3282505;0.004830641515368372;2;axe_yy1_0,axe_out_channels1_0,axe_yy1_1,axe_xx1_0,axe_xx1_1;1120;axe_yy2_0,axe_out_channels2_0,axe_yy2_1,axe_xx2_0,axe_xx2_1;896;Y:1, F:2, Y:5, X:16, W:3, C:2, X:7, W:1, H:3, X:1, Y:12, C:16, F:16, ;439.73901295661926
193;0;MobilNet_01;2.2936752;0.0038923817335919453;2;axe_yy1_0,axe_out_channels1_0,axe_yy1_1,axe_xx1_0;160;axe_yy2_0,axe_out_channels2_0,axe_yy2_1,axe_xx2_0;128;Y:5, F:2, Y:1, X:16, W:3, C:2, X:7, W:1, H:3, X:1, Y:12, C:16, F:16, ;440.94734621047974
193;1;MobilNet_01;2.3268849;0.0025021932559256155;2;axe_yy1_0,axe_out_channels1_0,axe_yy1_1,axe_xx1_0,axe_xx1_1;1120;axe_yy2_0,axe_out_channels2_0,axe_yy2_1,axe_xx2_0,axe_xx2_1;896;Y:5, F:2, Y:1, X:16, W:3, C:2, X:7, W:1, H:3, X:1, Y:12, C:16, F:16, ;442.1405065059662
194;0;MobilNet_01;2.2987857;0.00269097495529038;2;axe_yy1_0,axe_out_channels1_0,axe_yy1_1,axe_xx1_0;280;axe_yy2_0,axe_out_channels2_0,axe_yy2_1,axe_xx2_0;224;Y:1, F:2, Y:5, X:28, W:3, C:2, X:4, W:1, H:3, X:1, Y:12, C:16, F:16, ;443.38916301727295
194;1;MobilNet_01;2.3299256;0.0025173589017063766;2;axe_yy1_0,axe_out_channels1_0,axe_yy1_1,axe_xx1_0,axe_xx1_1;1120;axe_yy2_0,axe_out_channels2_0,axe_yy2_1,axe_xx2_0,axe_xx2_1;896;Y:1, F:2, Y:5, X:28, W:3, C:2, X:4, W:1, H:3, X:1, Y:12, C:16, F:16, ;444.583509683609
195;0;MobilNet_01;2.2960392999999995;0.005100261445259463;2;axe_yy1_0,axe_out_channels1_0,axe_yy1_1,axe_xx1_0;280;axe_yy2_0,axe_out_channels2_0,axe_yy2_1,axe_xx2_0;224;Y:5, F:2, Y:1, X:28, W:3, C:2, X:4, W:1, H:3, X:1, Y:12, C:16, F:16, ;445.8161368370056
195;1;MobilNet_01;2.3336429;0.003767934034719795;2;axe_yy1_0,axe_out_channels1_0,axe_yy1_1,axe_xx1_0,axe_xx1_1;1120;axe_yy2_0,axe_out_channels2_0,axe_yy2_1,axe_xx2_0,axe_xx2_1;896;Y:5, F:2, Y:1, X:28, W:3, C:2, X:4, W:1, H:3, X:1, Y:12, C:16, F:16, ;447.009973526001
196;0;MobilNet_01;2.3326955000000003;0.002865215148989624;2;axe_yy1_0,axe_out_channels1_0,axe_yy1_1,axe_xx1_0;560;axe_yy2_0,axe_out_channels2_0,axe_yy2_1,axe_xx2_0;448;Y:1, F:2, Y:5, X:56, W:3, C:2, X:2, W:1, H:3, X:1, Y:12, C:16, F:16, ;448.2344856262207
196;1;MobilNet_01;2.3312626;0.003897946413177091;2;axe_yy1_0,axe_out_channels1_0,axe_yy1_1,axe_xx1_0,axe_xx1_1;1120;axe_yy2_0,axe_out_channels2_0,axe_yy2_1,axe_xx2_0,axe_xx2_1;896;Y:1, F:2, Y:5, X:56, W:3, C:2, X:2, W:1, H:3, X:1, Y:12, C:16, F:16, ;449.4267599582672
197;0;MobilNet_01;2.3188646000000004;0.003568092745431305;2;axe_yy1_0,axe_out_channels1_0,axe_yy1_1,axe_xx1_0;560;axe_yy2_0,axe_out_channels2_0,axe_yy2_1,axe_xx2_0;448;Y:5, F:2, Y:1, X:56, W:3, C:2, X:2, W:1, H:3, X:1, Y:12, C:16, F:16, ;450.64672446250916
197;1;MobilNet_01;2.3293357;0.004450669007014683;2;axe_yy1_0,axe_out_channels1_0,axe_yy1_1,axe_xx1_0,axe_xx1_1;1120;axe_yy2_0,axe_out_channels2_0,axe_yy2_1,axe_xx2_0,axe_xx2_1;896;Y:5, F:2, Y:1, X:56, W:3, C:2, X:2, W:1, H:3, X:1, Y:12, C:16, F:16, ;451.8379456996918
198;0;MobilNet_01;2.3336997;0.0022202526455338046;2;axe_yy1_0,axe_out_channels1_0,axe_yy1_1,axe_xx1_0;1120;axe_yy2_0,axe_out_channels2_0,axe_yy2_1,axe_xx2_0;896;Y:1, F:2, Y:5, X:112, W:3, C:2, X:1, W:1, H:3, X:1, Y:12, C:16, F:16, ;453.0327558517456
198;1;MobilNet_01;2.3349658;0.004630211394742171;2;axe_yy1_0,axe_out_channels1_0,axe_yy1_1,axe_xx1_0,axe_xx1_1;1120;axe_yy2_0,axe_out_channels2_0,axe_yy2_1,axe_xx2_0,axe_xx2_1;896;Y:1, F:2, Y:5, X:112, W:3, C:2, X:1, W:1, H:3, X:1, Y:12, C:16, F:16, ;454.2253749370575
199;0;MobilNet_01;2.3337347;0.004551436851149318;2;axe_yy1_0,axe_out_channels1_0,axe_yy1_1,axe_xx1_0;1120;axe_yy2_0,axe_out_channels2_0,axe_yy2_1,axe_xx2_0;896;Y:5, F:2, Y:1, X:112, W:3, C:2, X:1, W:1, H:3, X:1, Y:12, C:16, F:16, ;455.4155423641205
199;1;MobilNet_01;2.3324878;0.005120968459188119;2;axe_yy1_0,axe_out_channels1_0,axe_yy1_1,axe_xx1_0,axe_xx1_1;1120;axe_yy2_0,axe_out_channels2_0,axe_yy2_1,axe_xx2_0,axe_xx2_1;896;Y:5, F:2, Y:1, X:112, W:3, C:2, X:1, W:1, H:3, X:1, Y:12, C:16, F:16, ;456.6086685657501
