IdRun;MethodParallelization;NameConv;Time(ms);std;NbMicroKernel;AxeFuse1;SizeAxeFuse1;AxeFuse2;SizeAxeFuse2;Schema;Time_search(3.0158755779266357)
0;0;Yolo9000_04;35.7781898;0.06528740906453558;2;axe_xx1_0,axe_yy1_0,axe_xx1_1,axe_out_channels1_0;112;axe_xx2_0,axe_yy2_0,axe_xx2_1,axe_out_channels2_0;48;X:1, Y:7, X:4, F:4, C:4, W:3, X:34, H:3, W:1, H:1, X:1, Y:13, C:16, F:32, ;8.285588502883911
0;1;Yolo9000_04;37.136823;0.05948793764453298;2;axe_xx1_0,axe_yy1_0,axe_xx1_1,axe_out_channels1_0,axe_xx1_2;3808;axe_xx2_0,axe_yy2_0,axe_xx2_1,axe_out_channels2_0,axe_xx2_2;1632;X:1, Y:7, X:4, F:4, C:4, W:3, X:34, H:3, W:1, H:1, X:1, Y:13, C:16, F:32, ;13.623443603515625
1;0;Yolo9000_04;47.956384899999996;0.046692051234551356;2;axe_xx1_0,axe_yy1_0,axe_xx1_1,axe_out_channels1_0;112;axe_xx2_0,axe_yy2_0,axe_xx2_1,axe_out_channels2_0;48;X:4, Y:7, X:1, F:4, C:4, W:3, X:34, H:3, W:1, H:1, X:1, Y:13, C:16, F:32, ;19.384721994400024
1;1;Yolo9000_04;33.571031;0.05773385704766352;2;axe_xx1_0,axe_yy1_0,axe_xx1_1,axe_out_channels1_0,axe_xx1_2;3808;axe_xx2_0,axe_yy2_0,axe_xx2_1,axe_out_channels2_0,axe_xx2_2;1632;X:4, Y:7, X:1, F:4, C:4, W:3, X:34, H:3, W:1, H:1, X:1, Y:13, C:16, F:32, ;24.544866800308228
2;0;Yolo9000_04;35.051751100000004;0.0594938118890515;2;axe_xx1_0,axe_yy1_0,axe_xx1_1,axe_out_channels1_0;112;axe_xx2_0,axe_yy2_0,axe_xx2_1,axe_out_channels2_0;48;X:2, Y:7, X:2, F:4, C:4, W:3, X:34, H:3, W:1, H:1, X:1, Y:13, C:16, F:32, ;29.799529552459717
2;1;Yolo9000_04;36.410168600000006;0.07786137583834467;2;axe_xx1_0,axe_yy1_0,axe_xx1_1,axe_out_channels1_0,axe_xx1_2;3808;axe_xx2_0,axe_yy2_0,axe_xx2_1,axe_out_channels2_0,axe_xx2_2;1632;X:2, Y:7, X:2, F:4, C:4, W:3, X:34, H:3, W:1, H:1, X:1, Y:13, C:16, F:32, ;35.098560094833374
3;0;Yolo9000_04;35.301824399999994;0.08608335612323685;2;axe_xx1_0,axe_yy1_0,axe_xx1_1,axe_out_channels1_0;96;axe_xx2_0,axe_yy2_0,axe_xx2_1,axe_out_channels2_0;80;X:1, Y:6, X:4, F:4, C:4, W:3, X:34, H:3, W:1, H:1, X:1, Y:11, C:16, F:32, ;40.3401141166687
3;1;Yolo9000_04;32.7852512;0.10789387949443496;2;axe_xx1_0,axe_yy1_0,axe_xx1_1,axe_out_channels1_0,axe_xx1_2;3264;axe_xx2_0,axe_yy2_0,axe_xx2_1,axe_out_channels2_0,axe_xx2_2;2720;X:1, Y:6, X:4, F:4, C:4, W:3, X:34, H:3, W:1, H:1, X:1, Y:11, C:16, F:32, ;45.46107506752014
4;0;Yolo9000_04;35.431359500000006;0.07200733152013103;2;axe_xx1_0,axe_yy1_0,axe_xx1_1,axe_out_channels1_0;96;axe_xx2_0,axe_yy2_0,axe_xx2_1,axe_out_channels2_0;80;X:2, Y:6, X:2, F:4, C:4, W:3, X:34, H:3, W:1, H:1, X:1, Y:11, C:16, F:32, ;50.699097633361816
4;1;Yolo9000_04;32.7259973;0.14010494503053772;2;axe_xx1_0,axe_yy1_0,axe_xx1_1,axe_out_channels1_0,axe_xx1_2;3264;axe_xx2_0,axe_yy2_0,axe_xx2_1,axe_out_channels2_0,axe_xx2_2;2720;X:2, Y:6, X:2, F:4, C:4, W:3, X:34, H:3, W:1, H:1, X:1, Y:11, C:16, F:32, ;55.82198739051819
5;0;Yolo9000_04;35.408262099999995;0.054032532593706877;2;axe_xx1_0,axe_yy1_0,axe_xx1_1,axe_out_channels1_0;96;axe_xx2_0,axe_yy2_0,axe_xx2_1,axe_out_channels2_0;80;X:4, Y:6, X:1, F:4, C:4, W:3, X:34, H:3, W:1, H:1, X:1, Y:11, C:16, F:32, ;61.05287480354309
5;1;Yolo9000_04;32.8093854;0.07425841161807756;2;axe_xx1_0,axe_yy1_0,axe_xx1_1,axe_out_channels1_0,axe_xx1_2;3264;axe_xx2_0,axe_yy2_0,axe_xx2_1,axe_out_channels2_0,axe_xx2_2;2720;X:4, Y:6, X:1, F:4, C:4, W:3, X:34, H:3, W:1, H:1, X:1, Y:11, C:16, F:32, ;66.16813516616821
6;0;Yolo9000_04;33.2057686;0.033789005662198335;2;axe_xx1_0,axe_yy1_0,axe_xx1_1,axe_out_channels1_0;112;axe_xx2_0,axe_yy2_0,axe_xx2_1,axe_out_channels2_0;64;X:1, Y:7, X:4, F:4, C:4, W:3, X:34, H:3, W:1, H:1, X:1, Y:12, C:16, F:32, ;71.3102216720581
6;1;Yolo9000_04;31.3472713;0.10689496548766855;2;axe_xx1_0,axe_yy1_0,axe_xx1_1,axe_out_channels1_0,axe_xx1_2;3808;axe_xx2_0,axe_yy2_0,axe_xx2_1,axe_out_channels2_0,axe_xx2_2;2176;X:1, Y:7, X:4, F:4, C:4, W:3, X:34, H:3, W:1, H:1, X:1, Y:12, C:16, F:32, ;76.38284397125244
7;0;Yolo9000_04;33.17185310000001;0.0400381293655194;2;axe_xx1_0,axe_yy1_0,axe_xx1_1,axe_out_channels1_0;112;axe_xx2_0,axe_yy2_0,axe_xx2_1,axe_out_channels2_0;64;X:4, Y:7, X:1, F:4, C:4, W:3, X:34, H:3, W:1, H:1, X:1, Y:12, C:16, F:32, ;81.52402925491333
7;1;Yolo9000_04;31.385195599999996;0.11529447514274162;2;axe_xx1_0,axe_yy1_0,axe_xx1_1,axe_out_channels1_0,axe_xx1_2;3808;axe_xx2_0,axe_yy2_0,axe_xx2_1,axe_out_channels2_0,axe_xx2_2;2176;X:4, Y:7, X:1, F:4, C:4, W:3, X:34, H:3, W:1, H:1, X:1, Y:12, C:16, F:32, ;86.577810049057
8;0;Yolo9000_04;33.243554599999996;0.03933913224818109;2;axe_xx1_0,axe_yy1_0,axe_xx1_1,axe_out_channels1_0;112;axe_xx2_0,axe_yy2_0,axe_xx2_1,axe_out_channels2_0;64;X:2, Y:7, X:2, F:4, C:4, W:3, X:34, H:3, W:1, H:1, X:1, Y:12, C:16, F:32, ;91.72222423553467
8;1;Yolo9000_04;31.448262399999997;0.08462664097457838;2;axe_xx1_0,axe_yy1_0,axe_xx1_1,axe_out_channels1_0,axe_xx1_2;3808;axe_xx2_0,axe_yy2_0,axe_xx2_1,axe_out_channels2_0,axe_xx2_2;2176;X:2, Y:7, X:2, F:4, C:4, W:3, X:34, H:3, W:1, H:1, X:1, Y:12, C:16, F:32, ;96.78916597366333
9;0;Yolo9000_04;32.850374499999994;0.02889052294871112;2;axe_xx1_0,axe_yy1_0,axe_xx1_1,axe_out_channels1_0;80;axe_xx2_0,axe_yy2_0,axe_xx2_1,axe_out_channels2_0;112;X:1, Y:5, X:4, F:4, C:4, W:3, X:34, H:3, W:1, H:1, X:1, Y:9, C:16, F:32, ;102.05793452262878
9;1;Yolo9000_04;30.891474500000005;0.08139162694313144;2;axe_xx1_0,axe_yy1_0,axe_xx1_1,axe_out_channels1_0,axe_xx1_2;2720;axe_xx2_0,axe_yy2_0,axe_xx2_1,axe_out_channels2_0,axe_xx2_2;3808;X:1, Y:5, X:4, F:4, C:4, W:3, X:34, H:3, W:1, H:1, X:1, Y:9, C:16, F:32, ;107.24280714988708
10;0;Yolo9000_04;32.8344509;0.027945063955733426;2;axe_xx1_0,axe_yy1_0,axe_xx1_1,axe_out_channels1_0;80;axe_xx2_0,axe_yy2_0,axe_xx2_1,axe_out_channels2_0;112;X:4, Y:5, X:1, F:4, C:4, W:3, X:34, H:3, W:1, H:1, X:1, Y:9, C:16, F:32, ;112.50774812698364
10;1;Yolo9000_04;30.8905591;0.04854351610143236;2;axe_xx1_0,axe_yy1_0,axe_xx1_1,axe_out_channels1_0,axe_xx1_2;2720;axe_xx2_0,axe_yy2_0,axe_xx2_1,axe_out_channels2_0,axe_xx2_2;3808;X:4, Y:5, X:1, F:4, C:4, W:3, X:34, H:3, W:1, H:1, X:1, Y:9, C:16, F:32, ;117.68509888648987
11;0;Yolo9000_04;33.446391199999994;0.08938904738143208;2;axe_xx1_0,axe_yy1_0,axe_xx1_1,axe_out_channels1_0;176;axe_xx2_2;34;X:1, Y:11, X:4, F:4, C:4, W:3, X:34, H:3, W:1, H:1, X:1, Y:11, C:16, F:32, ;122.876140832901
11;1;Yolo9000_04;32.7201247;0.1857987140246404;2;axe_xx1_0,axe_yy1_0,axe_xx1_1,axe_out_channels1_0,axe_xx1_2;5984;axe_xx2_0,axe_yy2_0,axe_xx2_1,axe_out_channels2_0,axe_xx2_2;544;X:1, Y:11, X:4, F:4, C:4, W:3, X:34, H:3, W:1, H:1, X:1, Y:11, C:16, F:32, ;128.0177903175354
12;0;Yolo9000_04;33.3705947;0.06897059536505382;2;axe_xx1_0,axe_yy1_0,axe_xx1_1,axe_out_channels1_0;176;axe_xx2_2;34;X:4, Y:11, X:1, F:4, C:4, W:3, X:34, H:3, W:1, H:1, X:1, Y:11, C:16, F:32, ;133.19581246376038
12;1;Yolo9000_04;32.7887929;0.09352966568682824;2;axe_xx1_0,axe_yy1_0,axe_xx1_1,axe_out_channels1_0,axe_xx1_2;5984;axe_xx2_0,axe_yy2_0,axe_xx2_1,axe_out_channels2_0,axe_xx2_2;544;X:4, Y:11, X:1, F:4, C:4, W:3, X:34, H:3, W:1, H:1, X:1, Y:11, C:16, F:32, ;138.33309960365295
13;0;Yolo9000_04;32.797331299999996;0.05688967592463501;2;axe_xx1_0,axe_yy1_0,axe_xx1_1,axe_out_channels1_0;80;axe_xx2_0,axe_yy2_0,axe_xx2_1,axe_out_channels2_0;112;X:2, Y:5, X:2, F:4, C:4, W:3, X:34, H:3, W:1, H:1, X:1, Y:9, C:16, F:32, ;143.60133123397827
13;1;Yolo9000_04;30.9635536;0.06733016097589489;2;axe_xx1_0,axe_yy1_0,axe_xx1_1,axe_out_channels1_0,axe_xx1_2;2720;axe_xx2_0,axe_yy2_0,axe_xx2_1,axe_out_channels2_0,axe_xx2_2;3808;X:2, Y:5, X:2, F:4, C:4, W:3, X:34, H:3, W:1, H:1, X:1, Y:9, C:16, F:32, ;148.7893455028534
14;0;Yolo9000_04;33.367889500000004;0.1150405530691232;2;axe_xx1_0,axe_yy1_0,axe_xx1_1,axe_out_channels1_0;176;axe_xx2_2;34;X:2, Y:11, X:2, F:4, C:4, W:3, X:34, H:3, W:1, H:1, X:1, Y:11, C:16, F:32, ;153.97964239120483
14;1;Yolo9000_04;32.73236870000001;0.12900384163973544;2;axe_xx1_0,axe_yy1_0,axe_xx1_1,axe_out_channels1_0,axe_xx1_2;5984;axe_xx2_0,axe_yy2_0,axe_xx2_1,axe_out_channels2_0,axe_xx2_2;544;X:2, Y:11, X:2, F:4, C:4, W:3, X:34, H:3, W:1, H:1, X:1, Y:11, C:16, F:32, ;159.11975383758545
15;0;Yolo9000_04;32.8617062;0.05217514944262296;2;axe_xx1_0,axe_yy1_0,axe_xx1_1,axe_out_channels1_0;112;axe_xx2_0,axe_yy2_0,axe_xx2_1,axe_out_channels2_0;96;X:1, Y:7, X:4, F:4, C:4, W:3, X:34, H:3, W:1, H:1, X:1, Y:10, C:16, F:32, ;164.24894499778748
15;1;Yolo9000_04;30.807535899999998;0.1192563685858749;2;axe_xx1_0,axe_yy1_0,axe_xx1_1,axe_out_channels1_0,axe_xx1_2;3808;axe_xx2_0,axe_yy2_0,axe_xx2_1,axe_out_channels2_0,axe_xx2_2;3264;X:1, Y:7, X:4, F:4, C:4, W:3, X:34, H:3, W:1, H:1, X:1, Y:10, C:16, F:32, ;169.28657603263855
16;0;Yolo9000_04;32.885918;0.08069293576144097;2;axe_xx1_0,axe_yy1_0,axe_xx1_1,axe_out_channels1_0;112;axe_xx2_0,axe_yy2_0,axe_xx2_1,axe_out_channels2_0;96;X:2, Y:7, X:2, F:4, C:4, W:3, X:34, H:3, W:1, H:1, X:1, Y:10, C:16, F:32, ;174.41670536994934
16;1;Yolo9000_04;30.813588600000003;0.13090475362430448;2;axe_xx1_0,axe_yy1_0,axe_xx1_1,axe_out_channels1_0,axe_xx1_2;3808;axe_xx2_0,axe_yy2_0,axe_xx2_1,axe_out_channels2_0,axe_xx2_2;3264;X:2, Y:7, X:2, F:4, C:4, W:3, X:34, H:3, W:1, H:1, X:1, Y:10, C:16, F:32, ;179.45452070236206
17;0;Yolo9000_04;32.8973039;0.07297440759944517;2;axe_xx1_0,axe_yy1_0,axe_xx1_1,axe_out_channels1_0;112;axe_xx2_0,axe_yy2_0,axe_xx2_1,axe_out_channels2_0;96;X:4, Y:7, X:1, F:4, C:4, W:3, X:34, H:3, W:1, H:1, X:1, Y:10, C:16, F:32, ;184.58015751838684
17;1;Yolo9000_04;30.889117900000002;0.11847457551006493;2;axe_xx1_0,axe_yy1_0,axe_xx1_1,axe_out_channels1_0,axe_xx1_2;3808;axe_xx2_0,axe_yy2_0,axe_xx2_1,axe_out_channels2_0,axe_xx2_2;3264;X:4, Y:7, X:1, F:4, C:4, W:3, X:34, H:3, W:1, H:1, X:1, Y:10, C:16, F:32, ;189.6140260696411
18;0;Yolo9000_04;32.704900800000004;0.1609858486754666;2;axe_xx1_0,axe_yy1_0,axe_xx1_1,axe_out_channels1_0;176;axe_xx2_2;34;X:1, Y:11, X:4, F:4, C:4, W:3, X:34, H:3, W:1, H:1, X:1, Y:10, C:16, F:32, ;194.8034417629242
18;1;Yolo9000_04;30.566205099999998;0.15731246522094208;2;axe_xx1_0,axe_yy1_0,axe_xx1_1,axe_out_channels1_0,axe_xx1_2;5984;axe_xx2_0,axe_yy2_0,axe_xx2_1,axe_out_channels2_0,axe_xx2_2;1088;X:1, Y:11, X:4, F:4, C:4, W:3, X:34, H:3, W:1, H:1, X:1, Y:10, C:16, F:32, ;199.87646389007568
19;0;Yolo9000_04;32.973642999999996;0.10945607756173287;2;axe_xx1_0,axe_yy1_0,axe_xx1_1,axe_out_channels1_0;176;axe_xx2_2;34;X:4, Y:11, X:1, F:4, C:4, W:3, X:34, H:3, W:1, H:1, X:1, Y:10, C:16, F:32, ;205.07392597198486
19;1;Yolo9000_04;30.710513099999996;0.13315128830353098;2;axe_xx1_0,axe_yy1_0,axe_xx1_1,axe_out_channels1_0,axe_xx1_2;5984;axe_xx2_0,axe_yy2_0,axe_xx2_1,axe_out_channels2_0,axe_xx2_2;1088;X:4, Y:11, X:1, F:4, C:4, W:3, X:34, H:3, W:1, H:1, X:1, Y:10, C:16, F:32, ;210.15806913375854
20;0;Yolo9000_04;32.8939261;0.07037671079050264;2;axe_xx1_0,axe_yy1_0,axe_xx1_1,axe_out_channels1_0;176;axe_xx2_2;34;X:2, Y:11, X:2, F:4, C:4, W:3, X:34, H:3, W:1, H:1, X:1, Y:10, C:16, F:32, ;215.36073422431946
20;1;Yolo9000_04;30.689534099999996;0.14492065616774527;2;axe_xx1_0,axe_yy1_0,axe_xx1_1,axe_out_channels1_0,axe_xx1_2;5984;axe_xx2_0,axe_yy2_0,axe_xx2_1,axe_out_channels2_0,axe_xx2_2;1088;X:2, Y:11, X:2, F:4, C:4, W:3, X:34, H:3, W:1, H:1, X:1, Y:10, C:16, F:32, ;220.4469404220581
21;0;Yolo9000_04;32.7591018;0.061949892989091475;2;axe_xx1_0,axe_yy1_0,axe_xx1_1,axe_out_channels1_0;144;axe_xx2_0,axe_yy2_0,axe_xx2_1,axe_out_channels2_0;80;X:1, Y:9, X:4, F:4, C:4, W:3, X:34, H:3, W:1, H:1, X:1, Y:9, C:16, F:32, ;225.55988383293152
21;1;Yolo9000_04;30.910931799999997;0.11670489655091565;2;axe_xx1_0,axe_yy1_0,axe_xx1_1,axe_out_channels1_0,axe_xx1_2;4896;axe_xx2_0,axe_yy2_0,axe_xx2_1,axe_out_channels2_0,axe_xx2_2;2720;X:1, Y:9, X:4, F:4, C:4, W:3, X:34, H:3, W:1, H:1, X:1, Y:9, C:16, F:32, ;230.5917010307312
22;0;Yolo9000_04;32.8543007;0.09688311542580616;2;axe_xx1_0,axe_yy1_0,axe_xx1_1,axe_out_channels1_0;144;axe_xx2_0,axe_yy2_0,axe_xx2_1,axe_out_channels2_0;80;X:4, Y:9, X:1, F:4, C:4, W:3, X:34, H:3, W:1, H:1, X:1, Y:9, C:16, F:32, ;235.70913648605347
22;1;Yolo9000_04;30.719822099999995;0.13484061953020693;2;axe_xx1_0,axe_yy1_0,axe_xx1_1,axe_out_channels1_0,axe_xx1_2;4896;axe_xx2_0,axe_yy2_0,axe_xx2_1,axe_out_channels2_0,axe_xx2_2;2720;X:4, Y:9, X:1, F:4, C:4, W:3, X:34, H:3, W:1, H:1, X:1, Y:9, C:16, F:32, ;240.7308213710785
23;0;Yolo9000_04;32.7646582;0.07868055709614558;2;axe_xx1_0,axe_yy1_0,axe_xx1_1,axe_out_channels1_0;144;axe_xx2_0,axe_yy2_0,axe_xx2_1,axe_out_channels2_0;80;X:2, Y:9, X:2, F:4, C:4, W:3, X:34, H:3, W:1, H:1, X:1, Y:9, C:16, F:32, ;245.8472900390625
23;1;Yolo9000_04;30.987076000000002;0.12488373810788904;2;axe_xx1_0,axe_yy1_0,axe_xx1_1,axe_out_channels1_0,axe_xx1_2;4896;axe_xx2_0,axe_yy2_0,axe_xx2_1,axe_out_channels2_0,axe_xx2_2;2720;X:2, Y:9, X:2, F:4, C:4, W:3, X:34, H:3, W:1, H:1, X:1, Y:9, C:16, F:32, ;250.87990975379944
24;0;Yolo9000_04;28.988509000000004;0.03823121520694839;1;axe_xx1_0,axe_yy1_0,axe_xx1_1,axe_out_channels1_0;272;;;X:1, Y:17, X:4, F:4, C:2, W:3, X:34, H:3, W:1, H:1, X:1, Y:8, C:32, F:32, ;255.70313906669617
24;1;Yolo9000_04;28.0070151;0.05040690425021172;1;axe_xx1_0,axe_yy1_0,axe_xx1_1,axe_out_channels1_0,axe_xx1_2;9248;;;X:1, Y:17, X:4, F:4, C:2, W:3, X:34, H:3, W:1, H:1, X:1, Y:8, C:32, F:32, ;260.47487926483154
25;0;Yolo9000_04;29.307732700000003;0.030710243343385145;1;axe_xx1_0,axe_yy1_0,axe_xx1_1,axe_out_channels1_0;272;;;X:4, Y:17, X:1, F:4, C:2, W:3, X:34, H:3, W:1, H:1, X:1, Y:8, C:32, F:32, ;265.3078022003174
25;1;Yolo9000_04;28.376692900000002;0.10130053850148048;1;axe_xx1_0,axe_yy1_0,axe_xx1_1,axe_out_channels1_0,axe_xx1_2;9248;;;X:4, Y:17, X:1, F:4, C:2, W:3, X:34, H:3, W:1, H:1, X:1, Y:8, C:32, F:32, ;270.0935342311859
26;0;Yolo9000_04;31.234251399999998;0.08042220529455817;1;axe_xx1_0,axe_yy1_0,axe_xx1_1,axe_out_channels1_0;272;;;X:1, Y:17, X:4, F:4, C:4, W:3, X:34, H:3, W:1, H:1, X:1, Y:8, C:16, F:32, ;275.00947999954224
26;1;Yolo9000_04;29.397934799999994;0.21037595708673512;1;axe_xx1_0,axe_yy1_0,axe_xx1_1,axe_out_channels1_0,axe_xx1_2;9248;;;X:1, Y:17, X:4, F:4, C:4, W:3, X:34, H:3, W:1, H:1, X:1, Y:8, C:16, F:32, ;279.8382246494293
27;0;Yolo9000_04;31.6509295;0.09312788613326275;1;axe_xx1_0,axe_yy1_0,axe_xx1_1,axe_out_channels1_0;272;;;X:4, Y:17, X:1, F:4, C:4, W:3, X:34, H:3, W:1, H:1, X:1, Y:8, C:16, F:32, ;284.76049852371216
27;1;Yolo9000_04;29.9076174;0.24188356946274792;1;axe_xx1_0,axe_yy1_0,axe_xx1_1,axe_out_channels1_0,axe_xx1_2;9248;;;X:4, Y:17, X:1, F:4, C:4, W:3, X:34, H:3, W:1, H:1, X:1, Y:8, C:16, F:32, ;289.6030457019806
28;0;Yolo9000_04;29.2468306;0.039728125498694665;1;axe_xx1_0,axe_yy1_0,axe_xx1_1,axe_out_channels1_0;272;;;X:2, Y:17, X:2, F:4, C:2, W:3, X:34, H:3, W:1, H:1, X:1, Y:8, C:32, F:32, ;294.44132947921753
28;1;Yolo9000_04;28.2746031;0.05665520759550718;1;axe_xx1_0,axe_yy1_0,axe_xx1_1,axe_out_channels1_0,axe_xx1_2;9248;;;X:2, Y:17, X:2, F:4, C:2, W:3, X:34, H:3, W:1, H:1, X:1, Y:8, C:32, F:32, ;299.2206721305847
29;0;Yolo9000_04;31.4744304;0.048276292817904576;1;axe_xx1_0,axe_yy1_0,axe_xx1_1,axe_out_channels1_0;272;;;X:2, Y:17, X:2, F:4, C:4, W:3, X:34, H:3, W:1, H:1, X:1, Y:8, C:16, F:32, ;304.14195799827576
29;1;Yolo9000_04;29.858972000000005;0.23554833122142899;1;axe_xx1_0,axe_yy1_0,axe_xx1_1,axe_out_channels1_0,axe_xx1_2;9248;;;X:2, Y:17, X:2, F:4, C:4, W:3, X:34, H:3, W:1, H:1, X:1, Y:8, C:16, F:32, ;308.9818296432495
30;0;Yolo9000_04;27.1147362;0.09765140099332864;2;axe_yy1_1,axe_xx1_0;272;axe_yy2_1,axe_xx2_0;272;Y:1, F:8, C:1, Y:2, X:136, W:3, W:1, H:3, X:1, Y:12, C:64, F:16, ;313.938191652298
30;1;Yolo9000_04;25.930190400000004;0.050492724882303934;2;axe_yy1_0,axe_out_channels1_0,axe_yy1_1,axe_xx1_0;2176;axe_yy2_0,axe_out_channels2_0,axe_yy2_1,axe_xx2_0;8704;Y:1, F:8, C:1, Y:2, X:136, W:3, W:1, H:3, X:1, Y:12, C:64, F:16, ;318.80532145500183
31;0;Yolo9000_04;26.829198199999997;0.07653658361829369;2;axe_yy1_1,axe_xx1_0;272;axe_yy2_1,axe_xx2_0;272;Y:2, F:8, C:1, Y:2, X:136, W:3, W:1, H:3, X:1, Y:13, C:64, F:16, ;323.7163007259369
31;1;Yolo9000_04;25.820176000000004;0.05077700194576292;2;axe_yy1_0,axe_out_channels1_0,axe_yy1_1,axe_xx1_0;4352;axe_yy2_0,axe_out_channels2_0,axe_yy2_1,axe_xx2_0;6528;Y:2, F:8, C:1, Y:2, X:136, W:3, W:1, H:3, X:1, Y:13, C:64, F:16, ;328.5562767982483
32;0;Yolo9000_04;27.1128455;0.10085231478578027;2;axe_yy1_1,axe_xx1_0;136;axe_yy2_1,axe_xx2_0;544;Y:2, F:8, C:1, Y:1, X:136, W:3, W:1, H:3, X:1, Y:12, C:64, F:16, ;333.52307391166687
32;1;Yolo9000_04;26.002034699999996;0.09124396184082455;2;axe_yy1_0,axe_out_channels1_0,axe_yy1_1,axe_xx1_0;2176;axe_yy2_0,axe_out_channels2_0,axe_yy2_1,axe_xx2_0;8704;Y:2, F:8, C:1, Y:1, X:136, W:3, W:1, H:3, X:1, Y:12, C:64, F:16, ;338.4098415374756
33;0;Yolo9000_04;27.041467;0.07326024451092246;2;axe_yy1_1,axe_xx1_0;272;axe_yy2_1,axe_xx2_0;408;Y:2, F:8, C:1, Y:2, X:136, W:3, W:1, H:3, X:1, Y:13, C:64, F:16, ;343.3283061981201
33;1;Yolo9000_04;26.134256400000005;0.07196117054940117;2;axe_yy1_0,axe_out_channels1_0,axe_yy1_1,axe_xx1_0;4352;axe_yy2_0,axe_out_channels2_0,axe_yy2_1,axe_xx2_0;6528;Y:2, F:8, C:1, Y:2, X:136, W:3, W:1, H:3, X:1, Y:13, C:64, F:16, ;348.18766140937805
34;0;Yolo9000_04;31.823542099999997;0.057666948290073565;2;axe_xx1_0,axe_yy1_0,axe_xx1_1,axe_out_channels1_0;224;axe_xx2_0,axe_yy2_0,axe_xx2_1,axe_out_channels2_0;96;X:1, Y:7, X:8, F:4, C:2, W:3, X:17, H:3, W:1, H:1, X:1, Y:13, C:32, F:32, ;353.28864431381226
34;1;Yolo9000_04;34.243413399999994;0.12514459486545967;2;axe_xx1_0,axe_yy1_0,axe_xx1_1,axe_out_channels1_0,axe_xx1_2;3808;axe_xx2_0,axe_yy2_0,axe_xx2_1,axe_out_channels2_0,axe_xx2_2;1632;X:1, Y:7, X:8, F:4, C:2, W:3, X:17, H:3, W:1, H:1, X:1, Y:13, C:32, F:32, ;358.5251588821411
35;0;Yolo9000_04;31.8507833;0.17636907756466372;2;axe_xx1_0,axe_yy1_0,axe_xx1_1,axe_out_channels1_0;224;axe_xx2_0,axe_yy2_0,axe_xx2_1,axe_out_channels2_0;96;X:4, Y:7, X:2, F:4, C:2, W:3, X:17, H:3, W:1, H:1, X:1, Y:13, C:32, F:32, ;363.6341938972473
35;1;Yolo9000_04;34.415816400000004;0.10440188197364991;2;axe_xx1_0,axe_yy1_0,axe_xx1_1,axe_out_channels1_0,axe_xx1_2;3808;axe_xx2_0,axe_yy2_0,axe_xx2_1,axe_out_channels2_0,axe_xx2_2;1632;X:4, Y:7, X:2, F:4, C:2, W:3, X:17, H:3, W:1, H:1, X:1, Y:13, C:32, F:32, ;368.87663674354553
36;0;Yolo9000_04;31.714732400000003;0.03186119788771181;2;axe_xx1_0,axe_yy1_0,axe_xx1_1,axe_out_channels1_0;224;axe_xx2_0,axe_yy2_0,axe_xx2_1,axe_out_channels2_0;96;X:8, Y:7, X:1, F:4, C:2, W:3, X:17, H:3, W:1, H:1, X:1, Y:13, C:32, F:32, ;373.97251534461975
36;1;Yolo9000_04;34.407169100000004;0.20022182035804845;2;axe_xx1_0,axe_yy1_0,axe_xx1_1,axe_out_channels1_0,axe_xx1_2;3808;axe_xx2_0,axe_yy2_0,axe_xx2_1,axe_out_channels2_0,axe_xx2_2;1632;X:8, Y:7, X:1, F:4, C:2, W:3, X:17, H:3, W:1, H:1, X:1, Y:13, C:32, F:32, ;379.1954507827759
37;0;Yolo9000_04;35.063063;0.03537593716638499;2;axe_xx1_0,axe_yy1_0,axe_xx1_1,axe_out_channels1_0;224;axe_xx2_0,axe_yy2_0,axe_xx2_1,axe_out_channels2_0;96;X:1, Y:7, X:8, F:4, C:4, W:3, X:17, H:3, W:1, H:1, X:1, Y:13, C:16, F:32, ;384.42675709724426
37;1;Yolo9000_04;36.2384901;0.10543872865076702;2;axe_xx1_0,axe_yy1_0,axe_xx1_1,axe_out_channels1_0,axe_xx1_2;3808;axe_xx2_0,axe_yy2_0,axe_xx2_1,axe_out_channels2_0,axe_xx2_2;1632;X:1, Y:7, X:8, F:4, C:4, W:3, X:17, H:3, W:1, H:1, X:1, Y:13, C:16, F:32, ;389.73034262657166
38;0;Yolo9000_04;35.1656112;0.2852715307445891;2;axe_xx1_0,axe_yy1_0,axe_xx1_1,axe_out_channels1_0;224;axe_xx2_0,axe_yy2_0,axe_xx2_1,axe_out_channels2_0;96;X:4, Y:7, X:2, F:4, C:4, W:3, X:17, H:3, W:1, H:1, X:1, Y:13, C:16, F:32, ;394.98440051078796
38;1;Yolo9000_04;36.3058316;0.11306111122238165;2;axe_xx1_0,axe_yy1_0,axe_xx1_1,axe_out_channels1_0,axe_xx1_2;3808;axe_xx2_0,axe_yy2_0,axe_xx2_1,axe_out_channels2_0,axe_xx2_2;1632;X:4, Y:7, X:2, F:4, C:4, W:3, X:17, H:3, W:1, H:1, X:1, Y:13, C:16, F:32, ;400.27327728271484
39;0;Yolo9000_04;34.9673201;0.056084667916373905;2;axe_xx1_0,axe_yy1_0,axe_xx1_1,axe_out_channels1_0;224;axe_xx2_0,axe_yy2_0,axe_xx2_1,axe_out_channels2_0;96;X:8, Y:7, X:1, F:4, C:4, W:3, X:17, H:3, W:1, H:1, X:1, Y:13, C:16, F:32, ;405.49877643585205
39;1;Yolo9000_04;36.32462389999999;0.09337636127355828;2;axe_xx1_0,axe_yy1_0,axe_xx1_1,axe_out_channels1_0,axe_xx1_2;3808;axe_xx2_0,axe_yy2_0,axe_xx2_1,axe_out_channels2_0,axe_xx2_2;1632;X:8, Y:7, X:1, F:4, C:4, W:3, X:17, H:3, W:1, H:1, X:1, Y:13, C:16, F:32, ;410.7913181781769
40;0;Yolo9000_04;27.254285599999996;0.09875331476279668;2;axe_yy1_1,axe_xx1_0;816;axe_yy2_1,axe_xx2_0;680;Y:1, F:8, C:1, Y:6, X:136, W:3, W:1, H:3, X:1, Y:11, C:64, F:16, ;415.697794675827
40;1;Yolo9000_04;26.026056500000003;0.07540895256300736;2;axe_yy1_0,axe_out_channels1_0,axe_yy1_1,axe_xx1_0;6528;axe_yy2_0,axe_out_channels2_0,axe_yy2_1,axe_xx2_0;5440;Y:1, F:8, C:1, Y:6, X:136, W:3, W:1, H:3, X:1, Y:11, C:64, F:16, ;420.53331995010376
41;0;Yolo9000_04;26.4373572;0.1333930380280772;2;axe_yy1_1,axe_xx1_0;136;axe_yy2_1,axe_xx2_0;136;Y:6, F:8, C:1, Y:1, X:136, W:3, W:1, H:3, X:1, Y:11, C:64, F:16, ;425.44579124450684
41;1;Yolo9000_04;25.5266375;0.121356686580715;2;axe_yy1_0,axe_out_channels1_0,axe_yy1_1,axe_xx1_0;6528;axe_yy2_0,axe_out_channels2_0,axe_yy2_1,axe_xx2_0;5440;Y:6, F:8, C:1, Y:1, X:136, W:3, W:1, H:3, X:1, Y:11, C:64, F:16, ;430.26682138442993
42;0;Yolo9000_04;27.532317499999998;0.10499234282389294;2;axe_yy1_1,axe_xx1_0;952;axe_yy2_1,axe_xx2_0;544;Y:1, F:8, C:1, Y:7, X:136, W:3, W:1, H:3, X:1, Y:12, C:64, F:16, ;435.19049644470215
42;1;Yolo9000_04;26.254868;0.06813660792701716;2;axe_yy1_0,axe_out_channels1_0,axe_yy1_1,axe_xx1_0;7616;axe_yy2_0,axe_out_channels2_0,axe_yy2_1,axe_xx2_0;4352;Y:1, F:8, C:1, Y:7, X:136, W:3, W:1, H:3, X:1, Y:12, C:64, F:16, ;440.0422406196594
43;0;Yolo9000_04;26.802949800000004;0.190024939774652;2;axe_yy1_1,axe_xx1_0;136;axe_yy2_1,axe_xx2_0;136;Y:7, F:8, C:1, Y:1, X:136, W:3, W:1, H:3, X:1, Y:12, C:64, F:16, ;444.97034549713135
43;1;Yolo9000_04;25.8017113;0.13243631832473252;2;axe_yy1_0,axe_out_channels1_0,axe_yy1_1,axe_xx1_0;7616;axe_yy2_0,axe_out_channels2_0,axe_yy2_1,axe_xx2_0;4352;Y:7, F:8, C:1, Y:1, X:136, W:3, W:1, H:3, X:1, Y:12, C:64, F:16, ;449.7810175418854
44;0;Yolo9000_04;31.771386100000008;0.08211043748811753;2;axe_xx1_0,axe_yy1_0,axe_xx1_1,axe_out_channels1_0;224;axe_xx2_0,axe_yy2_0,axe_xx2_1,axe_out_channels2_0;96;X:2, Y:7, X:4, F:4, C:2, W:3, X:17, H:3, W:1, H:1, X:1, Y:13, C:32, F:32, ;454.8829011917114
44;1;Yolo9000_04;34.4402386;0.1923811803400733;2;axe_xx1_0,axe_yy1_0,axe_xx1_1,axe_out_channels1_0,axe_xx1_2;3808;axe_xx2_0,axe_yy2_0,axe_xx2_1,axe_out_channels2_0,axe_xx2_2;1632;X:2, Y:7, X:4, F:4, C:2, W:3, X:17, H:3, W:1, H:1, X:1, Y:13, C:32, F:32, ;460.1113803386688
45;0;Yolo9000_04;35.1619139;0.3513184212438765;2;axe_xx1_0,axe_yy1_0,axe_xx1_1,axe_out_channels1_0;224;axe_xx2_0,axe_yy2_0,axe_xx2_1,axe_out_channels2_0;96;X:2, Y:7, X:4, F:4, C:4, W:3, X:17, H:3, W:1, H:1, X:1, Y:13, C:16, F:32, ;465.348486661911
45;1;Yolo9000_04;36.278843900000005;0.08373339364966542;2;axe_xx1_0,axe_yy1_0,axe_xx1_1,axe_out_channels1_0,axe_xx1_2;3808;axe_xx2_0,axe_yy2_0,axe_xx2_1,axe_out_channels2_0,axe_xx2_2;1632;X:2, Y:7, X:4, F:4, C:4, W:3, X:17, H:3, W:1, H:1, X:1, Y:13, C:16, F:32, ;470.63391518592834
46;0;Yolo9000_04;28.076138499999995;0.07271220158852337;2;axe_yy1_1,axe_xx1_0;680;axe_yy2_1,axe_xx2_0;952;Y:1, F:8, C:1, Y:5, X:136, W:3, W:1, H:3, X:1, Y:9, C:64, F:16, ;475.71411061286926
46;1;Yolo9000_04;26.8549561;0.06780422032506457;2;axe_yy1_0,axe_out_channels1_0,axe_yy1_1,axe_xx1_0;5440;axe_yy2_0,axe_out_channels2_0,axe_yy2_1,axe_xx2_0;7616;Y:1, F:8, C:1, Y:5, X:136, W:3, W:1, H:3, X:1, Y:9, C:64, F:16, ;480.7163712978363
47;0;Yolo9000_04;27.1969375;0.17868349000467237;2;axe_yy1_1,axe_xx1_0;136;axe_yy2_1,axe_xx2_0;136;Y:5, F:8, C:1, Y:1, X:136, W:3, W:1, H:3, X:1, Y:9, C:64, F:16, ;485.7985942363739
47;1;Yolo9000_04;26.163848899999998;0.0978167606072185;2;axe_yy1_0,axe_out_channels1_0,axe_yy1_1,axe_xx1_0;5440;axe_yy2_0,axe_out_channels2_0,axe_yy2_1,axe_xx2_0;7616;Y:5, F:8, C:1, Y:1, X:136, W:3, W:1, H:3, X:1, Y:9, C:64, F:16, ;490.7681484222412
48;0;Yolo9000_04;27.3916562;0.10755919481457646;2;axe_yy1_1,axe_xx1_0;136;axe_yy2_1,axe_xx2_0;272;Y:4, F:8, C:1, Y:1, X:136, W:3, W:1, H:3, X:1, Y:10, C:64, F:16, ;495.81337308883667
48;1;Yolo9000_04;26.325025400000005;0.09636484113741968;2;axe_yy1_0,axe_out_channels1_0,axe_yy1_1,axe_xx1_0;4352;axe_yy2_0,axe_out_channels2_0,axe_yy2_1,axe_xx2_0;8704;Y:4, F:8, C:1, Y:1, X:136, W:3, W:1, H:3, X:1, Y:10, C:64, F:16, ;500.7618713378906
49;0;Yolo9000_04;27.773420499999997;0.06516995321657063;2;axe_yy1_1,axe_xx1_0;272;axe_yy2_1,axe_xx2_0;136;Y:4, F:8, C:1, Y:2, X:136, W:3, W:1, H:3, X:1, Y:10, C:64, F:16, ;505.71332573890686
49;1;Yolo9000_04;26.656851699999997;0.07945912128767847;2;axe_yy1_0,axe_out_channels1_0,axe_yy1_1,axe_xx1_0;8704;axe_yy2_0,axe_out_channels2_0,axe_yy2_1,axe_xx2_0;4352;Y:4, F:8, C:1, Y:2, X:136, W:3, W:1, H:3, X:1, Y:10, C:64, F:16, ;510.5712435245514
50;0;Yolo9000_04;26.961269400000003;0.12836200148501842;2;axe_yy1_1,axe_xx1_0;272;axe_yy2_1,axe_xx2_0;136;Y:4, F:8, C:1, Y:2, X:136, W:3, W:1, H:3, X:1, Y:11, C:64, F:16, ;515.4939758777618
50;1;Yolo9000_04;25.8786742;0.08045777343526264;2;axe_yy1_0,axe_out_channels1_0,axe_yy1_1,axe_xx1_0;8704;axe_yy2_0,axe_out_channels2_0,axe_yy2_1,axe_xx2_0;4352;Y:4, F:8, C:1, Y:2, X:136, W:3, W:1, H:3, X:1, Y:11, C:64, F:16, ;520.3117537498474
51;0;Yolo9000_04;27.066846299999998;0.062564298744651;2;axe_yy1_1,axe_xx1_0;272;axe_yy2_1,axe_xx2_0;272;Y:5, F:8, C:1, Y:2, X:136, W:3, W:1, H:3, X:1, Y:11, C:64, F:16, ;525.2664186954498
51;1;Yolo9000_04;26.013448699999998;0.08578751495415857;2;axe_yy1_0,axe_out_channels1_0,axe_yy1_1,axe_xx1_0;10880;axe_yy2_0,axe_out_channels2_0,axe_yy2_1,axe_xx2_0;2176;Y:5, F:8, C:1, Y:2, X:136, W:3, W:1, H:3, X:1, Y:11, C:64, F:16, ;530.1474230289459
52;0;Yolo9000_04;27.859813300000003;0.10698882068520062;2;axe_yy1_1,axe_xx1_0;544;axe_yy2_1,axe_xx2_0;544;Y:1, F:8, C:1, Y:4, X:136, W:3, W:1, H:3, X:1, Y:10, C:64, F:16, ;535.1895251274109
52;1;Yolo9000_04;26.7757922;0.06342333386822298;2;axe_yy1_0,axe_out_channels1_0,axe_yy1_1,axe_xx1_0;4352;axe_yy2_0,axe_out_channels2_0,axe_yy2_1,axe_xx2_0;8704;Y:1, F:8, C:1, Y:4, X:136, W:3, W:1, H:3, X:1, Y:10, C:64, F:16, ;540.1496179103851
53;0;Yolo9000_04;28.1649225;0.1128536902048404;2;axe_yy1_1,axe_xx1_0;544;axe_yy2_1,axe_xx2_0;544;Y:2, F:8, C:1, Y:4, X:136, W:3, W:1, H:3, X:1, Y:10, C:64, F:16, ;545.0950610637665
53;1;Yolo9000_04;27.054133099999994;0.11726609418962505;2;axe_yy1_0,axe_out_channels1_0,axe_yy1_1,axe_xx1_0;8704;axe_yy2_0,axe_out_channels2_0,axe_yy2_1,axe_xx2_0;4352;Y:2, F:8, C:1, Y:4, X:136, W:3, W:1, H:3, X:1, Y:10, C:64, F:16, ;549.9739305973053
54;0;Yolo9000_04;27.5030722;0.17424305010576496;2;axe_yy1_1,axe_xx1_0;544;axe_yy2_1,axe_xx2_0;544;Y:2, F:8, C:1, Y:4, X:136, W:3, W:1, H:3, X:1, Y:11, C:64, F:16, ;554.8984594345093
54;1;Yolo9000_04;26.3348211;0.09485599332087633;2;axe_yy1_0,axe_out_channels1_0,axe_yy1_1,axe_xx1_0;8704;axe_yy2_0,axe_out_channels2_0,axe_yy2_1,axe_xx2_0;4352;Y:2, F:8, C:1, Y:4, X:136, W:3, W:1, H:3, X:1, Y:11, C:64, F:16, ;559.7407269477844
55;0;Yolo9000_04;27.0411856;0.036255761934347014;2;axe_yy1_1,axe_xx1_0;680;axe_yy2_1,axe_xx2_0;136;Y:2, F:8, C:1, Y:5, X:136, W:3, W:1, H:3, X:1, Y:11, C:64, F:16, ;564.7260706424713
55;1;Yolo9000_04;26.1423991;0.078897748424718;2;axe_yy1_0,axe_out_channels1_0,axe_yy1_1,axe_xx1_0;10880;axe_yy2_0,axe_out_channels2_0,axe_yy2_1,axe_xx2_0;2176;Y:2, F:8, C:1, Y:5, X:136, W:3, W:1, H:3, X:1, Y:11, C:64, F:16, ;569.6171605587006
56;0;Yolo9000_04;28.234769;0.09024497673000965;2;axe_yy1_1,axe_xx1_0;952;axe_yy2_1,axe_xx2_0;816;Y:1, F:8, C:1, Y:7, X:136, W:3, W:1, H:3, X:1, Y:10, C:64, F:16, ;574.5565798282623
56;1;Yolo9000_04;27.1303237;0.09495585437038603;2;axe_yy1_0,axe_out_channels1_0,axe_yy1_1,axe_xx1_0;7616;axe_yy2_0,axe_out_channels2_0,axe_yy2_1,axe_xx2_0;6528;Y:1, F:8, C:1, Y:7, X:136, W:3, W:1, H:3, X:1, Y:10, C:64, F:16, ;579.4172308444977
57;0;Yolo9000_04;27.293966899999997;0.14131218984606406;2;axe_yy1_1,axe_xx1_0;136;axe_yy2_1,axe_xx2_0;136;Y:7, F:8, C:1, Y:1, X:136, W:3, W:1, H:3, X:1, Y:10, C:64, F:16, ;584.3515863418579
57;1;Yolo9000_04;26.222907799999994;0.12954963708308867;2;axe_yy1_0,axe_out_channels1_0,axe_yy1_1,axe_xx1_0;7616;axe_yy2_0,axe_out_channels2_0,axe_yy2_1,axe_xx2_0;6528;Y:7, F:8, C:1, Y:1, X:136, W:3, W:1, H:3, X:1, Y:10, C:64, F:16, ;589.173234462738
58;0;Yolo9000_04;27.7415683;0.16006581651936225;2;axe_yy1_1,axe_xx1_0;136;axe_yy2_1,axe_xx2_0;136;Y:11, F:8, C:1, Y:1, X:136, W:3, W:1, H:3, X:1, Y:10, C:64, F:16, ;594.1807255744934
58;1;Yolo9000_04;26.697443500000002;0.15682855744809324;2;axe_yy1_0,axe_out_channels1_0,axe_yy1_1,axe_xx1_0;11968;axe_yy2_0,axe_out_channels2_0,axe_yy2_1,axe_xx2_0;2176;Y:11, F:8, C:1, Y:1, X:136, W:3, W:1, H:3, X:1, Y:10, C:64, F:16, ;599.0724122524261
59;0;Yolo9000_04;29.041436500000003;0.10055056296137818;2;axe_yy1_1,axe_xx1_0;272;axe_yy2_1,axe_xx2_0;272;Y:2, F:8, C:1, Y:2, X:136, W:3, W:1, H:3, X:1, Y:9, C:64, F:16, ;604.1380536556244
59;1;Yolo9000_04;27.640487200000003;0.08211588398087116;2;axe_yy1_0,axe_out_channels1_0,axe_yy1_1,axe_xx1_0;4352;axe_yy2_0,axe_out_channels2_0,axe_yy2_1,axe_xx2_0;10880;Y:2, F:8, C:1, Y:2, X:136, W:3, W:1, H:3, X:1, Y:9, C:64, F:16, ;609.1033775806427
60;0;Yolo9000_04;28.5946141;0.14289176247387364;2;axe_yy1_1,axe_xx1_0;1224;axe_yy2_1,axe_xx2_0;680;Y:1, F:8, C:1, Y:9, X:136, W:3, W:1, H:3, X:1, Y:9, C:64, F:16, ;614.0567827224731
60;1;Yolo9000_04;27.453664800000002;0.1053435984327474;2;axe_yy1_0,axe_out_channels1_0,axe_yy1_1,axe_xx1_0;9792;axe_yy2_0,axe_out_channels2_0,axe_yy2_1,axe_xx2_0;5440;Y:1, F:8, C:1, Y:9, X:136, W:3, W:1, H:3, X:1, Y:9, C:64, F:16, ;618.9323210716248
61;0;Yolo9000_04;27.8139158;0.16031630182536052;2;axe_yy1_1,axe_xx1_0;136;axe_yy2_1,axe_xx2_0;136;Y:9, F:8, C:1, Y:1, X:136, W:3, W:1, H:3, X:1, Y:9, C:64, F:16, ;623.8849472999573
61;1;Yolo9000_04;26.671682800000003;0.14584846222281542;2;axe_yy1_0,axe_out_channels1_0,axe_yy1_1,axe_xx1_0;9792;axe_yy2_0,axe_out_channels2_0,axe_yy2_1,axe_xx2_0;5440;Y:9, F:8, C:1, Y:1, X:136, W:3, W:1, H:3, X:1, Y:9, C:64, F:16, ;628.725040435791
62;0;Yolo9000_04;28.6806373;0.1623585397612642;2;axe_yy1_1,axe_xx1_0;272;axe_yy2_1,axe_xx2_0;272;Y:6, F:8, C:1, Y:2, X:136, W:3, W:1, H:3, X:1, Y:9, C:64, F:16, ;633.7555994987488
62;1;Yolo9000_04;27.5260961;0.09896498834885967;2;axe_yy1_0,axe_out_channels1_0,axe_yy1_1,axe_xx1_0;13056;axe_yy2_0,axe_out_channels2_0,axe_yy2_1,axe_xx2_0;2176;Y:6, F:8, C:1, Y:2, X:136, W:3, W:1, H:3, X:1, Y:9, C:64, F:16, ;638.7106161117554
63;0;Yolo9000_04;31.964401;0.02928388112938487;2;axe_xx1_0,axe_yy1_0,axe_xx1_1,axe_out_channels1_0;192;axe_xx2_0,axe_yy2_0,axe_xx2_1,axe_out_channels2_0;160;X:1, Y:6, X:8, F:4, C:2, W:3, X:17, H:3, W:1, H:1, X:1, Y:11, C:32, F:32, ;643.8278832435608
63;1;Yolo9000_04;29.896863500000002;0.08944523077196456;2;axe_xx1_0,axe_yy1_0,axe_xx1_1,axe_out_channels1_0,axe_xx1_2;3264;axe_xx2_0,axe_yy2_0,axe_xx2_1,axe_out_channels2_0,axe_xx2_2;2720;X:1, Y:6, X:8, F:4, C:2, W:3, X:17, H:3, W:1, H:1, X:1, Y:11, C:32, F:32, ;648.8505954742432
64;0;Yolo9000_04;31.9777903;0.2954950690867955;2;axe_xx1_0,axe_yy1_0,axe_xx1_1,axe_out_channels1_0;192;axe_xx2_0,axe_yy2_0,axe_xx2_1,axe_out_channels2_0;160;X:2, Y:6, X:4, F:4, C:2, W:3, X:17, H:3, W:1, H:1, X:1, Y:11, C:32, F:32, ;653.9706597328186
64;1;Yolo9000_04;29.800053;0.07240020477042863;2;axe_xx1_0,axe_yy1_0,axe_xx1_1,axe_out_channels1_0,axe_xx1_2;3264;axe_xx2_0,axe_yy2_0,axe_xx2_1,axe_out_channels2_0,axe_xx2_2;2720;X:2, Y:6, X:4, F:4, C:2, W:3, X:17, H:3, W:1, H:1, X:1, Y:11, C:32, F:32, ;658.9928605556488
65;0;Yolo9000_04;32.1264522;0.3853799060653781;2;axe_xx1_0,axe_yy1_0,axe_xx1_1,axe_out_channels1_0;192;axe_xx2_0,axe_yy2_0,axe_xx2_1,axe_out_channels2_0;160;X:4, Y:6, X:2, F:4, C:2, W:3, X:17, H:3, W:1, H:1, X:1, Y:11, C:32, F:32, ;664.118515253067
65;1;Yolo9000_04;29.8309254;0.10454174921360357;2;axe_xx1_0,axe_yy1_0,axe_xx1_1,axe_out_channels1_0,axe_xx1_2;3264;axe_xx2_0,axe_yy2_0,axe_xx2_1,axe_out_channels2_0,axe_xx2_2;2720;X:4, Y:6, X:2, F:4, C:2, W:3, X:17, H:3, W:1, H:1, X:1, Y:11, C:32, F:32, ;669.1447291374207
66;0;Yolo9000_04;31.884669000000002;0.04265645729546675;2;axe_xx1_0,axe_yy1_0,axe_xx1_1,axe_out_channels1_0;192;axe_xx2_0,axe_yy2_0,axe_xx2_1,axe_out_channels2_0;160;X:8, Y:6, X:1, F:4, C:2, W:3, X:17, H:3, W:1, H:1, X:1, Y:11, C:32, F:32, ;674.2597155570984
66;1;Yolo9000_04;29.693586900000003;0.06410595543699452;2;axe_xx1_0,axe_yy1_0,axe_xx1_1,axe_out_channels1_0,axe_xx1_2;3264;axe_xx2_0,axe_yy2_0,axe_xx2_1,axe_out_channels2_0,axe_xx2_2;2720;X:8, Y:6, X:1, F:4, C:2, W:3, X:17, H:3, W:1, H:1, X:1, Y:11, C:32, F:32, ;679.2823901176453
67;0;Yolo9000_04;30.8423854;0.016737054963164546;2;axe_xx1_0,axe_yy1_0,axe_xx1_1,axe_out_channels1_0;224;axe_xx2_0,axe_yy2_0,axe_xx2_1,axe_out_channels2_0;128;X:1, Y:7, X:8, F:4, C:2, W:3, X:17, H:3, W:1, H:1, X:1, Y:12, C:32, F:32, ;684.3295202255249
67;1;Yolo9000_04;29.614408200000003;0.07082239702354039;2;axe_xx1_0,axe_yy1_0,axe_xx1_1,axe_out_channels1_0,axe_xx1_2;3808;axe_xx2_0,axe_yy2_0,axe_xx2_1,axe_out_channels2_0,axe_xx2_2;2176;X:1, Y:7, X:8, F:4, C:2, W:3, X:17, H:3, W:1, H:1, X:1, Y:12, C:32, F:32, ;689.3378717899323
68;0;Yolo9000_04;30.8753356;0.034342539676616664;2;axe_xx1_0,axe_yy1_0,axe_xx1_1,axe_out_channels1_0;224;axe_xx2_0,axe_yy2_0,axe_xx2_1,axe_out_channels2_0;128;X:4, Y:7, X:2, F:4, C:2, W:3, X:17, H:3, W:1, H:1, X:1, Y:12, C:32, F:32, ;694.3815641403198
68;1;Yolo9000_04;29.773626999999998;0.06751790929227695;2;axe_xx1_0,axe_yy1_0,axe_xx1_1,axe_out_channels1_0,axe_xx1_2;3808;axe_xx2_0,axe_yy2_0,axe_xx2_1,axe_out_channels2_0,axe_xx2_2;2176;X:4, Y:7, X:2, F:4, C:2, W:3, X:17, H:3, W:1, H:1, X:1, Y:12, C:32, F:32, ;699.401091337204
69;0;Yolo9000_04;30.8486555;0.04537354666377734;2;axe_xx1_0,axe_yy1_0,axe_xx1_1,axe_out_channels1_0;224;axe_xx2_0,axe_yy2_0,axe_xx2_1,axe_out_channels2_0;128;X:8, Y:7, X:1, F:4, C:2, W:3, X:17, H:3, W:1, H:1, X:1, Y:12, C:32, F:32, ;704.4429125785828
69;1;Yolo9000_04;29.6637092;0.08684605517327795;2;axe_xx1_0,axe_yy1_0,axe_xx1_1,axe_out_channels1_0,axe_xx1_2;3808;axe_xx2_0,axe_yy2_0,axe_xx2_1,axe_out_channels2_0,axe_xx2_2;2176;X:8, Y:7, X:1, F:4, C:2, W:3, X:17, H:3, W:1, H:1, X:1, Y:12, C:32, F:32, ;709.4501748085022
70;0;Yolo9000_04;35.32301160000001;0.045922941922745784;2;axe_xx1_0,axe_yy1_0,axe_xx1_1,axe_out_channels1_0;192;axe_xx2_0,axe_yy2_0,axe_xx2_1,axe_out_channels2_0;160;X:1, Y:6, X:8, F:4, C:4, W:3, X:17, H:3, W:1, H:1, X:1, Y:11, C:16, F:32, ;714.6797907352448
70;1;Yolo9000_04;32.8592633;0.0755518396136728;2;axe_xx1_0,axe_yy1_0,axe_xx1_1,axe_out_channels1_0,axe_xx1_2;3264;axe_xx2_0,axe_yy2_0,axe_xx2_1,axe_out_channels2_0,axe_xx2_2;2720;X:1, Y:6, X:8, F:4, C:4, W:3, X:17, H:3, W:1, H:1, X:1, Y:11, C:16, F:32, ;719.7986052036285
71;0;Yolo9000_04;35.3540935;0.12034748645837987;2;axe_xx1_0,axe_yy1_0,axe_xx1_1,axe_out_channels1_0;192;axe_xx2_0,axe_yy2_0,axe_xx2_1,axe_out_channels2_0;160;X:2, Y:6, X:4, F:4, C:4, W:3, X:17, H:3, W:1, H:1, X:1, Y:11, C:16, F:32, ;725.0376257896423
71;1;Yolo9000_04;32.8422239;0.09635324755237944;2;axe_xx1_0,axe_yy1_0,axe_xx1_1,axe_out_channels1_0,axe_xx1_2;3264;axe_xx2_0,axe_yy2_0,axe_xx2_1,axe_out_channels2_0,axe_xx2_2;2720;X:2, Y:6, X:4, F:4, C:4, W:3, X:17, H:3, W:1, H:1, X:1, Y:11, C:16, F:32, ;730.1611161231995
72;0;Yolo9000_04;35.3100109;0.04557477670477559;2;axe_xx1_0,axe_yy1_0,axe_xx1_1,axe_out_channels1_0;192;axe_xx2_0,axe_yy2_0,axe_xx2_1,axe_out_channels2_0;160;X:4, Y:6, X:2, F:4, C:4, W:3, X:17, H:3, W:1, H:1, X:1, Y:11, C:16, F:32, ;735.4033427238464
72;1;Yolo9000_04;32.6569726;0.12734533608986268;2;axe_xx1_0,axe_yy1_0,axe_xx1_1,axe_out_channels1_0,axe_xx1_2;3264;axe_xx2_0,axe_yy2_0,axe_xx2_1,axe_out_channels2_0,axe_xx2_2;2720;X:4, Y:6, X:2, F:4, C:4, W:3, X:17, H:3, W:1, H:1, X:1, Y:11, C:16, F:32, ;740.518187046051
73;0;Yolo9000_04;35.3424269;0.10098612808643428;2;axe_xx1_0,axe_yy1_0,axe_xx1_1,axe_out_channels1_0;192;axe_xx2_0,axe_yy2_0,axe_xx2_1,axe_out_channels2_0;160;X:8, Y:6, X:1, F:4, C:4, W:3, X:17, H:3, W:1, H:1, X:1, Y:11, C:16, F:32, ;745.7478106021881
73;1;Yolo9000_04;32.8564063;0.11391035736758277;2;axe_xx1_0,axe_yy1_0,axe_xx1_1,axe_out_channels1_0,axe_xx1_2;3264;axe_xx2_0,axe_yy2_0,axe_xx2_1,axe_out_channels2_0,axe_xx2_2;2720;X:8, Y:6, X:1, F:4, C:4, W:3, X:17, H:3, W:1, H:1, X:1, Y:11, C:16, F:32, ;750.8632757663727
74;0;Yolo9000_04;33.242109600000006;0.0351974534936833;2;axe_xx1_0,axe_yy1_0,axe_xx1_1,axe_out_channels1_0;224;axe_xx2_0,axe_yy2_0,axe_xx2_1,axe_out_channels2_0;128;X:1, Y:7, X:8, F:4, C:4, W:3, X:17, H:3, W:1, H:1, X:1, Y:12, C:16, F:32, ;756.003616809845
74;1;Yolo9000_04;31.3906635;0.09397597807126039;2;axe_xx1_0,axe_yy1_0,axe_xx1_1,axe_out_channels1_0,axe_xx1_2;3808;axe_xx2_0,axe_yy2_0,axe_xx2_1,axe_out_channels2_0,axe_xx2_2;2176;X:1, Y:7, X:8, F:4, C:4, W:3, X:17, H:3, W:1, H:1, X:1, Y:12, C:16, F:32, ;761.0622611045837
75;0;Yolo9000_04;33.2759149;0.03092853927507592;2;axe_xx1_0,axe_yy1_0,axe_xx1_1,axe_out_channels1_0;224;axe_xx2_0,axe_yy2_0,axe_xx2_1,axe_out_channels2_0;128;X:4, Y:7, X:2, F:4, C:4, W:3, X:17, H:3, W:1, H:1, X:1, Y:12, C:16, F:32, ;766.2093482017517
75;1;Yolo9000_04;31.3610648;0.07055988175415265;2;axe_xx1_0,axe_yy1_0,axe_xx1_1,axe_out_channels1_0,axe_xx1_2;3808;axe_xx2_0,axe_yy2_0,axe_xx2_1,axe_out_channels2_0,axe_xx2_2;2176;X:4, Y:7, X:2, F:4, C:4, W:3, X:17, H:3, W:1, H:1, X:1, Y:12, C:16, F:32, ;771.2648043632507
76;0;Yolo9000_04;33.2508983;0.0301948657690343;2;axe_xx1_0,axe_yy1_0,axe_xx1_1,axe_out_channels1_0;224;axe_xx2_0,axe_yy2_0,axe_xx2_1,axe_out_channels2_0;128;X:8, Y:7, X:1, F:4, C:4, W:3, X:17, H:3, W:1, H:1, X:1, Y:12, C:16, F:32, ;776.404901266098
76;1;Yolo9000_04;31.3565313;0.1052032831313263;2;axe_xx1_0,axe_yy1_0,axe_xx1_1,axe_out_channels1_0,axe_xx1_2;3808;axe_xx2_0,axe_yy2_0,axe_xx2_1,axe_out_channels2_0,axe_xx2_2;2176;X:8, Y:7, X:1, F:4, C:4, W:3, X:17, H:3, W:1, H:1, X:1, Y:12, C:16, F:32, ;781.4597313404083
77;0;Yolo9000_04;29.185680400000003;0.10090444528483317;2;axe_yy1_1,axe_xx1_0;272;axe_yy2_1,axe_xx2_0;680;Y:2, F:8, C:1, Y:2, X:136, W:3, W:1, H:3, X:1, Y:9, C:64, F:16, ;786.5393505096436
77;1;Yolo9000_04;27.8782173;0.10643330446721083;2;axe_yy1_0,axe_out_channels1_0,axe_yy1_1,axe_xx1_0;4352;axe_yy2_0,axe_out_channels2_0,axe_yy2_1,axe_xx2_0;10880;Y:2, F:8, C:1, Y:2, X:136, W:3, W:1, H:3, X:1, Y:9, C:64, F:16, ;791.5235674381256
78;0;Yolo9000_04;28.8665978;0.1606278817153482;2;axe_yy1_1,axe_xx1_0;816;axe_yy2_1,axe_xx2_0;136;Y:2, F:8, C:1, Y:6, X:136, W:3, W:1, H:3, X:1, Y:9, C:64, F:16, ;796.5858929157257
78;1;Yolo9000_04;27.640312599999998;0.1646804269882741;2;axe_yy1_0,axe_out_channels1_0,axe_yy1_1,axe_xx1_0;13056;axe_yy2_0,axe_out_channels2_0,axe_yy2_1,axe_xx2_0;2176;Y:2, F:8, C:1, Y:6, X:136, W:3, W:1, H:3, X:1, Y:9, C:64, F:16, ;801.5415844917297
79;0;Yolo9000_04;30.8539647;0.03447098975965141;2;axe_xx1_0,axe_yy1_0,axe_xx1_1,axe_out_channels1_0;224;axe_xx2_0,axe_yy2_0,axe_xx2_1,axe_out_channels2_0;128;X:2, Y:7, X:4, F:4, C:2, W:3, X:17, H:3, W:1, H:1, X:1, Y:12, C:32, F:32, ;806.5897190570831
79;1;Yolo9000_04;29.6941192;0.059677633310645684;2;axe_xx1_0,axe_yy1_0,axe_xx1_1,axe_out_channels1_0,axe_xx1_2;3808;axe_xx2_0,axe_yy2_0,axe_xx2_1,axe_out_channels2_0,axe_xx2_2;2176;X:2, Y:7, X:4, F:4, C:2, W:3, X:17, H:3, W:1, H:1, X:1, Y:12, C:32, F:32, ;811.6187255382538
80;0;Yolo9000_04;33.27085069999999;0.044402896207455085;2;axe_xx1_0,axe_yy1_0,axe_xx1_1,axe_out_channels1_0;224;axe_xx2_0,axe_yy2_0,axe_xx2_1,axe_out_channels2_0;128;X:2, Y:7, X:4, F:4, C:4, W:3, X:17, H:3, W:1, H:1, X:1, Y:12, C:16, F:32, ;816.7688944339752
80;1;Yolo9000_04;31.394320699999998;0.11002105677919154;2;axe_xx1_0,axe_yy1_0,axe_xx1_1,axe_out_channels1_0,axe_xx1_2;3808;axe_xx2_0,axe_yy2_0,axe_xx2_1,axe_out_channels2_0,axe_xx2_2;2176;X:2, Y:7, X:4, F:4, C:4, W:3, X:17, H:3, W:1, H:1, X:1, Y:12, C:16, F:32, ;821.8370249271393
81;0;Yolo9000_04;25.7679319;0.11227478835290669;1;axe_yy1_0,axe_xx1_0,axe_out_channels1_0;136;;;Y:34, X:2, F:2, C:2, H:3, X:68, W:3, H:1, X:1, Y:4, C:32, F:64, ;826.5386862754822
81;1;Yolo9000_04;23.92926;0.04318095278476336;1;axe_yy1_0,axe_xx1_0,axe_out_channels1_0,axe_xx1_1;9248;;;Y:34, X:2, F:2, C:2, H:3, X:68, W:3, H:1, X:1, Y:4, C:32, F:64, ;831.1373128890991
82;0;Yolo9000_04;24.0944699;0.05215880780932435;1;axe_yy1_0,axe_xx1_0,axe_out_channels1_0;272;;;Y:34, X:4, F:2, C:1, H:3, X:34, W:3, H:1, X:1, Y:4, C:64, F:64, ;835.7483580112457
82;1;Yolo9000_04;23.4916975;0.020451624112769615;1;axe_yy1_0,axe_xx1_0,axe_out_channels1_0,axe_xx1_1;9248;;;Y:34, X:4, F:2, C:1, H:3, X:34, W:3, H:1, X:1, Y:4, C:64, F:64, ;840.3262341022491
83;0;Yolo9000_04;24.202941499999998;0.15167896304052914;1;axe_yy1_0,axe_xx1_0,axe_out_channels1_0;272;;;Y:34, X:4, F:2, C:4, H:3, X:34, W:3, H:1, X:1, Y:4, C:16, F:64, ;844.9468519687653
83;1;Yolo9000_04;24.6539286;0.10462137047773726;1;axe_yy1_0,axe_xx1_0,axe_out_channels1_0,axe_xx1_1;9248;;;Y:34, X:4, F:2, C:4, H:3, X:34, W:3, H:1, X:1, Y:4, C:16, F:64, ;849.5758748054504
84;0;Yolo9000_04;30.440243999999996;0.026421442500363643;2;axe_xx1_0,axe_yy1_0,axe_xx1_1,axe_out_channels1_0;160;axe_xx2_0,axe_yy2_0,axe_xx2_1,axe_out_channels2_0;224;X:1, Y:5, X:8, F:4, C:2, W:3, X:17, H:3, W:1, H:1, X:1, Y:9, C:32, F:32, ;854.7788228988647
84;1;Yolo9000_04;29.112973800000002;0.053800311292407886;2;axe_xx1_0,axe_yy1_0,axe_xx1_1,axe_out_channels1_0,axe_xx1_2;2720;axe_xx2_0,axe_yy2_0,axe_xx2_1,axe_out_channels2_0,axe_xx2_2;3808;X:1, Y:5, X:8, F:4, C:2, W:3, X:17, H:3, W:1, H:1, X:1, Y:9, C:32, F:32, ;859.9240100383759
85;0;Yolo9000_04;30.4583796;0.034324065231845106;2;axe_xx1_0,axe_yy1_0,axe_xx1_1,axe_out_channels1_0;160;axe_xx2_0,axe_yy2_0,axe_xx2_1,axe_out_channels2_0;224;X:4, Y:5, X:2, F:4, C:2, W:3, X:17, H:3, W:1, H:1, X:1, Y:9, C:32, F:32, ;865.1328549385071
85;1;Yolo9000_04;29.2012042;0.06273246957644835;2;axe_xx1_0,axe_yy1_0,axe_xx1_1,axe_out_channels1_0,axe_xx1_2;2720;axe_xx2_0,axe_yy2_0,axe_xx2_1,axe_out_channels2_0,axe_xx2_2;3808;X:4, Y:5, X:2, F:4, C:2, W:3, X:17, H:3, W:1, H:1, X:1, Y:9, C:32, F:32, ;870.2793607711792
86;0;Yolo9000_04;30.451259800000003;0.03511376290516283;2;axe_xx1_0,axe_yy1_0,axe_xx1_1,axe_out_channels1_0;160;axe_xx2_0,axe_yy2_0,axe_xx2_1,axe_out_channels2_0;224;X:8, Y:5, X:1, F:4, C:2, W:3, X:17, H:3, W:1, H:1, X:1, Y:9, C:32, F:32, ;875.4804019927979
86;1;Yolo9000_04;29.156967399999996;0.05062726102842142;2;axe_xx1_0,axe_yy1_0,axe_xx1_1,axe_out_channels1_0,axe_xx1_2;2720;axe_xx2_0,axe_yy2_0,axe_xx2_1,axe_out_channels2_0,axe_xx2_2;3808;X:8, Y:5, X:1, F:4, C:2, W:3, X:17, H:3, W:1, H:1, X:1, Y:9, C:32, F:32, ;880.6226785182953
87;0;Yolo9000_04;31.0884086;0.02888848945583684;2;axe_xx1_0,axe_yy1_0,axe_xx1_1,axe_out_channels1_0;352;axe_xx2_0,axe_yy2_0,axe_xx2_1,axe_out_channels2_0;32;X:1, Y:11, X:8, F:4, C:2, W:3, X:17, H:3, W:1, H:1, X:1, Y:11, C:32, F:32, ;885.7199201583862
87;1;Yolo9000_04;30.8934031;0.10300871924303308;2;axe_xx1_0,axe_yy1_0,axe_xx1_1,axe_out_channels1_0,axe_xx1_2;5984;axe_xx2_0,axe_yy2_0,axe_xx2_1,axe_out_channels2_0,axe_xx2_2;544;X:1, Y:11, X:8, F:4, C:2, W:3, X:17, H:3, W:1, H:1, X:1, Y:11, C:32, F:32, ;890.7956976890564
88;0;Yolo9000_04;31.1868039;0.09503239045657018;2;axe_xx1_0,axe_yy1_0,axe_xx1_1,axe_out_channels1_0;352;axe_xx2_0,axe_yy2_0,axe_xx2_1,axe_out_channels2_0;32;X:4, Y:11, X:2, F:4, C:2, W:3, X:17, H:3, W:1, H:1, X:1, Y:11, C:32, F:32, ;895.8995881080627
88;1;Yolo9000_04;31.0034823;0.11936704606469113;2;axe_xx1_0,axe_yy1_0,axe_xx1_1,axe_out_channels1_0,axe_xx1_2;5984;axe_xx2_0,axe_yy2_0,axe_xx2_1,axe_out_channels2_0,axe_xx2_2;544;X:4, Y:11, X:2, F:4, C:2, W:3, X:17, H:3, W:1, H:1, X:1, Y:11, C:32, F:32, ;900.9828398227692
89;0;Yolo9000_04;31.094591399999995;0.09781664639538695;2;axe_xx1_0,axe_yy1_0,axe_xx1_1,axe_out_channels1_0;352;axe_xx2_0,axe_yy2_0,axe_xx2_1,axe_out_channels2_0;32;X:8, Y:11, X:1, F:4, C:2, W:3, X:17, H:3, W:1, H:1, X:1, Y:11, C:32, F:32, ;906.0729176998138
89;1;Yolo9000_04;30.9475634;0.10321327942973271;2;axe_xx1_0,axe_yy1_0,axe_xx1_1,axe_out_channels1_0,axe_xx1_2;5984;axe_xx2_0,axe_yy2_0,axe_xx2_1,axe_out_channels2_0,axe_xx2_2;544;X:8, Y:11, X:1, F:4, C:2, W:3, X:17, H:3, W:1, H:1, X:1, Y:11, C:32, F:32, ;911.1548056602478
90;0;Yolo9000_04;32.8547971;0.02044799386957068;2;axe_xx1_0,axe_yy1_0,axe_xx1_1,axe_out_channels1_0;160;axe_xx2_0,axe_yy2_0,axe_xx2_1,axe_out_channels2_0;224;X:1, Y:5, X:8, F:4, C:4, W:3, X:17, H:3, W:1, H:1, X:1, Y:9, C:16, F:32, ;916.4233152866364
90;1;Yolo9000_04;30.8363789;0.07633581639499262;2;axe_xx1_0,axe_yy1_0,axe_xx1_1,axe_out_channels1_0,axe_xx1_2;2720;axe_xx2_0,axe_yy2_0,axe_xx2_1,axe_out_channels2_0,axe_xx2_2;3808;X:1, Y:5, X:8, F:4, C:4, W:3, X:17, H:3, W:1, H:1, X:1, Y:9, C:16, F:32, ;921.6007170677185
91;0;Yolo9000_04;32.8767661;0.02110872083026334;2;axe_xx1_0,axe_yy1_0,axe_xx1_1,axe_out_channels1_0;160;axe_xx2_0,axe_yy2_0,axe_xx2_1,axe_out_channels2_0;224;X:4, Y:5, X:2, F:4, C:4, W:3, X:17, H:3, W:1, H:1, X:1, Y:9, C:16, F:32, ;926.8759722709656
91;1;Yolo9000_04;30.9258527;0.08398116841298417;2;axe_xx1_0,axe_yy1_0,axe_xx1_1,axe_out_channels1_0,axe_xx1_2;2720;axe_xx2_0,axe_yy2_0,axe_xx2_1,axe_out_channels2_0,axe_xx2_2;3808;X:4, Y:5, X:2, F:4, C:4, W:3, X:17, H:3, W:1, H:1, X:1, Y:9, C:16, F:32, ;932.0607297420502
92;0;Yolo9000_04;32.877012;0.034927498859782184;2;axe_xx1_0,axe_yy1_0,axe_xx1_1,axe_out_channels1_0;160;axe_xx2_0,axe_yy2_0,axe_xx2_1,axe_out_channels2_0;224;X:8, Y:5, X:1, F:4, C:4, W:3, X:17, H:3, W:1, H:1, X:1, Y:9, C:16, F:32, ;937.344938993454
92;1;Yolo9000_04;30.857999;0.06737659145875471;2;axe_xx1_0,axe_yy1_0,axe_xx1_1,axe_out_channels1_0,axe_xx1_2;2720;axe_xx2_0,axe_yy2_0,axe_xx2_1,axe_out_channels2_0,axe_xx2_2;3808;X:8, Y:5, X:1, F:4, C:4, W:3, X:17, H:3, W:1, H:1, X:1, Y:9, C:16, F:32, ;942.5202543735504
93;0;Yolo9000_04;33.7591904;0.07785455629466971;2;axe_xx1_0,axe_yy1_0,axe_xx1_1,axe_out_channels1_0;352;axe_xx2_0,axe_yy2_0,axe_xx2_1,axe_out_channels2_0;32;X:1, Y:11, X:8, F:4, C:4, W:3, X:17, H:3, W:1, H:1, X:1, Y:11, C:16, F:32, ;947.7003746032715
93;1;Yolo9000_04;32.84738689999999;0.18392962987645523;2;axe_xx1_0,axe_yy1_0,axe_xx1_1,axe_out_channels1_0,axe_xx1_2;5984;axe_xx2_0,axe_yy2_0,axe_xx2_1,axe_out_channels2_0,axe_xx2_2;544;X:1, Y:11, X:8, F:4, C:4, W:3, X:17, H:3, W:1, H:1, X:1, Y:11, C:16, F:32, ;952.839836359024
94;0;Yolo9000_04;33.74706809999999;0.07789245616418808;2;axe_xx1_0,axe_yy1_0,axe_xx1_1,axe_out_channels1_0;352;axe_xx2_0,axe_yy2_0,axe_xx2_1,axe_out_channels2_0;32;X:4, Y:11, X:2, F:4, C:4, W:3, X:17, H:3, W:1, H:1, X:1, Y:11, C:16, F:32, ;958.0150408744812
94;1;Yolo9000_04;32.82488600000001;0.18802638182127424;2;axe_xx1_0,axe_yy1_0,axe_xx1_1,axe_out_channels1_0,axe_xx1_2;5984;axe_xx2_0,axe_yy2_0,axe_xx2_1,axe_out_channels2_0,axe_xx2_2;544;X:4, Y:11, X:2, F:4, C:4, W:3, X:17, H:3, W:1, H:1, X:1, Y:11, C:16, F:32, ;963.1609282493591
95;0;Yolo9000_04;33.66499230000001;0.10190825685198418;2;axe_xx1_0,axe_yy1_0,axe_xx1_1,axe_out_channels1_0;352;axe_xx2_0,axe_yy2_0,axe_xx2_1,axe_out_channels2_0;32;X:8, Y:11, X:1, F:4, C:4, W:3, X:17, H:3, W:1, H:1, X:1, Y:11, C:16, F:32, ;968.3255553245544
95;1;Yolo9000_04;32.7203839;0.17018735875878083;2;axe_xx1_0,axe_yy1_0,axe_xx1_1,axe_out_channels1_0,axe_xx1_2;5984;axe_xx2_0,axe_yy2_0,axe_xx2_1,axe_out_channels2_0,axe_xx2_2;544;X:8, Y:11, X:1, F:4, C:4, W:3, X:17, H:3, W:1, H:1, X:1, Y:11, C:16, F:32, ;973.4627933502197
96;0;Yolo9000_04;30.436634499999997;0.025861671489870737;2;axe_xx1_0,axe_yy1_0,axe_xx1_1,axe_out_channels1_0;160;axe_xx2_0,axe_yy2_0,axe_xx2_1,axe_out_channels2_0;224;X:2, Y:5, X:4, F:4, C:2, W:3, X:17, H:3, W:1, H:1, X:1, Y:9, C:32, F:32, ;978.6634051799774
96;1;Yolo9000_04;29.1445292;0.049286006981292374;2;axe_xx1_0,axe_yy1_0,axe_xx1_1,axe_out_channels1_0,axe_xx1_2;2720;axe_xx2_0,axe_yy2_0,axe_xx2_1,axe_out_channels2_0,axe_xx2_2;3808;X:2, Y:5, X:4, F:4, C:2, W:3, X:17, H:3, W:1, H:1, X:1, Y:9, C:32, F:32, ;983.8165624141693
97;0;Yolo9000_04;32.8505693;0.03215115140722201;2;axe_xx1_0,axe_yy1_0,axe_xx1_1,axe_out_channels1_0;160;axe_xx2_0,axe_yy2_0,axe_xx2_1,axe_out_channels2_0;224;X:2, Y:5, X:4, F:4, C:4, W:3, X:17, H:3, W:1, H:1, X:1, Y:9, C:16, F:32, ;989.0970714092255
97;1;Yolo9000_04;30.899003500000003;0.07933290220236455;2;axe_xx1_0,axe_yy1_0,axe_xx1_1,axe_out_channels1_0,axe_xx1_2;2720;axe_xx2_0,axe_yy2_0,axe_xx2_1,axe_out_channels2_0,axe_xx2_2;3808;X:2, Y:5, X:4, F:4, C:4, W:3, X:17, H:3, W:1, H:1, X:1, Y:9, C:16, F:32, ;994.3051433563232
98;0;Yolo9000_04;31.051725000000005;0.07604098578398387;2;axe_xx1_0,axe_yy1_0,axe_xx1_1,axe_out_channels1_0;352;axe_xx2_0,axe_yy2_0,axe_xx2_1,axe_out_channels2_0;32;X:2, Y:11, X:4, F:4, C:2, W:3, X:17, H:3, W:1, H:1, X:1, Y:11, C:32, F:32, ;999.3952143192291
98;1;Yolo9000_04;30.9284489;0.12234889716989607;2;axe_xx1_0,axe_yy1_0,axe_xx1_1,axe_out_channels1_0,axe_xx1_2;5984;axe_xx2_0,axe_yy2_0,axe_xx2_1,axe_out_channels2_0,axe_xx2_2;544;X:2, Y:11, X:4, F:4, C:2, W:3, X:17, H:3, W:1, H:1, X:1, Y:11, C:32, F:32, ;1004.4740235805511
99;0;Yolo9000_04;33.6726007;0.08694862541760039;2;axe_xx1_0,axe_yy1_0,axe_xx1_1,axe_out_channels1_0;352;axe_xx2_0,axe_yy2_0,axe_xx2_1,axe_out_channels2_0;32;X:2, Y:11, X:4, F:4, C:4, W:3, X:17, H:3, W:1, H:1, X:1, Y:11, C:16, F:32, ;1009.6518943309784
99;1;Yolo9000_04;32.77211580000001;0.21047964896958463;2;axe_xx1_0,axe_yy1_0,axe_xx1_1,axe_out_channels1_0,axe_xx1_2;5984;axe_xx2_0,axe_yy2_0,axe_xx2_1,axe_out_channels2_0,axe_xx2_2;544;X:2, Y:11, X:4, F:4, C:4, W:3, X:17, H:3, W:1, H:1, X:1, Y:11, C:16, F:32, ;1014.7952179908752
100;0;Yolo9000_04;30.648515399999997;0.039837015237589944;2;axe_xx1_0,axe_yy1_0,axe_xx1_1,axe_out_channels1_0;224;axe_xx2_0,axe_yy2_0,axe_xx2_1,axe_out_channels2_0;192;X:1, Y:7, X:8, F:4, C:2, W:3, X:17, H:3, W:1, H:1, X:1, Y:10, C:32, F:32, ;1019.8889405727386
100;1;Yolo9000_04;29.1149593;0.07946941452162536;2;axe_xx1_0,axe_yy1_0,axe_xx1_1,axe_out_channels1_0,axe_xx1_2;3808;axe_xx2_0,axe_yy2_0,axe_xx2_1,axe_out_channels2_0,axe_xx2_2;3264;X:1, Y:7, X:8, F:4, C:2, W:3, X:17, H:3, W:1, H:1, X:1, Y:10, C:32, F:32, ;1024.9033036231995
101;0;Yolo9000_04;30.522557999999997;0.020450172498050468;2;axe_xx1_0,axe_yy1_0,axe_xx1_1,axe_out_channels1_0;224;axe_xx2_0,axe_yy2_0,axe_xx2_1,axe_out_channels2_0;192;X:2, Y:7, X:4, F:4, C:2, W:3, X:17, H:3, W:1, H:1, X:1, Y:10, C:32, F:32, ;1029.9997642040253
101;1;Yolo9000_04;29.137512500000003;0.08369987689746035;2;axe_xx1_0,axe_yy1_0,axe_xx1_1,axe_out_channels1_0,axe_xx1_2;3808;axe_xx2_0,axe_yy2_0,axe_xx2_1,axe_out_channels2_0,axe_xx2_2;3264;X:2, Y:7, X:4, F:4, C:2, W:3, X:17, H:3, W:1, H:1, X:1, Y:10, C:32, F:32, ;1035.0192947387695
102;0;Yolo9000_04;30.512814400000003;0.033636823602118476;2;axe_xx1_0,axe_yy1_0,axe_xx1_1,axe_out_channels1_0;224;axe_xx2_0,axe_yy2_0,axe_xx2_1,axe_out_channels2_0;192;X:4, Y:7, X:2, F:4, C:2, W:3, X:17, H:3, W:1, H:1, X:1, Y:10, C:32, F:32, ;1040.1103718280792
102;1;Yolo9000_04;29.158278800000005;0.0528091239196407;2;axe_xx1_0,axe_yy1_0,axe_xx1_1,axe_out_channels1_0,axe_xx1_2;3808;axe_xx2_0,axe_yy2_0,axe_xx2_1,axe_out_channels2_0,axe_xx2_2;3264;X:4, Y:7, X:2, F:4, C:2, W:3, X:17, H:3, W:1, H:1, X:1, Y:10, C:32, F:32, ;1045.1306793689728
103;0;Yolo9000_04;30.5246289;0.037583295170727275;2;axe_xx1_0,axe_yy1_0,axe_xx1_1,axe_out_channels1_0;224;axe_xx2_0,axe_yy2_0,axe_xx2_1,axe_out_channels2_0;192;X:8, Y:7, X:1, F:4, C:2, W:3, X:17, H:3, W:1, H:1, X:1, Y:10, C:32, F:32, ;1050.2177357673645
103;1;Yolo9000_04;29.091479000000003;0.05605549405366102;2;axe_xx1_0,axe_yy1_0,axe_xx1_1,axe_out_channels1_0,axe_xx1_2;3808;axe_xx2_0,axe_yy2_0,axe_xx2_1,axe_out_channels2_0,axe_xx2_2;3264;X:8, Y:7, X:1, F:4, C:2, W:3, X:17, H:3, W:1, H:1, X:1, Y:10, C:32, F:32, ;1055.2250311374664
104;0;Yolo9000_04;30.435105899999996;0.03989164938292262;2;axe_xx1_0,axe_yy1_0,axe_xx1_1,axe_out_channels1_0;352;axe_xx2_0,axe_yy2_0,axe_xx2_1,axe_out_channels2_0;64;X:1, Y:11, X:8, F:4, C:2, W:3, X:17, H:3, W:1, H:1, X:1, Y:10, C:32, F:32, ;1060.3320152759552
104;1;Yolo9000_04;29.051180199999997;0.13107251268805326;2;axe_xx1_0,axe_yy1_0,axe_xx1_1,axe_out_channels1_0,axe_xx1_2;5984;axe_xx2_0,axe_yy2_0,axe_xx2_1,axe_out_channels2_0,axe_xx2_2;1088;X:1, Y:11, X:8, F:4, C:2, W:3, X:17, H:3, W:1, H:1, X:1, Y:10, C:32, F:32, ;1065.3947298526764
105;0;Yolo9000_04;30.3761503;0.03797265875876987;2;axe_xx1_0,axe_yy1_0,axe_xx1_1,axe_out_channels1_0;352;axe_xx2_0,axe_yy2_0,axe_xx2_1,axe_out_channels2_0;64;X:4, Y:11, X:2, F:4, C:2, W:3, X:17, H:3, W:1, H:1, X:1, Y:10, C:32, F:32, ;1070.5025911331177
105;1;Yolo9000_04;29.121077800000005;0.11512584807314091;2;axe_xx1_0,axe_yy1_0,axe_xx1_1,axe_out_channels1_0,axe_xx1_2;5984;axe_xx2_0,axe_yy2_0,axe_xx2_1,axe_out_channels2_0,axe_xx2_2;1088;X:4, Y:11, X:2, F:4, C:2, W:3, X:17, H:3, W:1, H:1, X:1, Y:10, C:32, F:32, ;1075.567528963089
106;0;Yolo9000_04;30.372859999999996;0.05074946269272164;2;axe_xx1_0,axe_yy1_0,axe_xx1_1,axe_out_channels1_0;352;axe_xx2_0,axe_yy2_0,axe_xx2_1,axe_out_channels2_0;64;X:8, Y:11, X:1, F:4, C:2, W:3, X:17, H:3, W:1, H:1, X:1, Y:10, C:32, F:32, ;1080.6696496009827
106;1;Yolo9000_04;29.015013;0.09223755285674051;2;axe_xx1_0,axe_yy1_0,axe_xx1_1,axe_out_channels1_0,axe_xx1_2;5984;axe_xx2_0,axe_yy2_0,axe_xx2_1,axe_out_channels2_0,axe_xx2_2;1088;X:8, Y:11, X:1, F:4, C:2, W:3, X:17, H:3, W:1, H:1, X:1, Y:10, C:32, F:32, ;1085.7188844680786
107;0;Yolo9000_04;27.366348499999997;0.037153022639483085;2;axe_xx1_0,axe_yy1_0,axe_xx1_1,axe_out_channels1_0;224;axe_xx2_0,axe_yy2_0,axe_xx2_1,axe_out_channels2_0;192;X:1, Y:7, X:8, F:4, C:2, W:3, X:17, W:1, H:3, X:1, Y:10, C:32, F:32, ;1090.6492829322815
107;1;Yolo9000_04;25.3903142;0.05009806481851402;2;axe_xx1_0,axe_yy1_0,axe_xx1_1,axe_out_channels1_0,axe_xx1_2;3808;axe_xx2_0,axe_yy2_0,axe_xx2_1,axe_out_channels2_0,axe_xx2_2;3264;X:1, Y:7, X:8, F:4, C:2, W:3, X:17, W:1, H:3, X:1, Y:10, C:32, F:32, ;1095.4985120296478
108;0;Yolo9000_04;27.2340223;0.0341053424467479;2;axe_xx1_0,axe_yy1_0,axe_xx1_1,axe_out_channels1_0;224;axe_xx2_0,axe_yy2_0,axe_xx2_1,axe_out_channels2_0;192;X:2, Y:7, X:4, F:4, C:2, W:3, X:17, W:1, H:3, X:1, Y:10, C:32, F:32, ;1100.4241209030151
108;1;Yolo9000_04;25.4196399;0.053715867809150324;2;axe_xx1_0,axe_yy1_0,axe_xx1_1,axe_out_channels1_0,axe_xx1_2;3808;axe_xx2_0,axe_yy2_0,axe_xx2_1,axe_out_channels2_0,axe_xx2_2;3264;X:2, Y:7, X:4, F:4, C:2, W:3, X:17, W:1, H:3, X:1, Y:10, C:32, F:32, ;1105.2724232673645
109;0;Yolo9000_04;27.261029100000002;0.04419731174279735;2;axe_xx1_0,axe_yy1_0,axe_xx1_1,axe_out_channels1_0;224;axe_xx2_0,axe_yy2_0,axe_xx2_1,axe_out_channels2_0;192;X:4, Y:7, X:2, F:4, C:2, W:3, X:17, W:1, H:3, X:1, Y:10, C:32, F:32, ;1110.1949739456177
109;1;Yolo9000_04;25.444820900000003;0.046862209351352234;2;axe_xx1_0,axe_yy1_0,axe_xx1_1,axe_out_channels1_0,axe_xx1_2;3808;axe_xx2_0,axe_yy2_0,axe_xx2_1,axe_out_channels2_0,axe_xx2_2;3264;X:4, Y:7, X:2, F:4, C:2, W:3, X:17, W:1, H:3, X:1, Y:10, C:32, F:32, ;1115.039929151535
110;0;Yolo9000_04;27.247822099999997;0.0519475969616499;2;axe_xx1_0,axe_yy1_0,axe_xx1_1,axe_out_channels1_0;224;axe_xx2_0,axe_yy2_0,axe_xx2_1,axe_out_channels2_0;192;X:8, Y:7, X:1, F:4, C:2, W:3, X:17, W:1, H:3, X:1, Y:10, C:32, F:32, ;1119.9544134140015
110;1;Yolo9000_04;25.3993042;0.049587265251876504;2;axe_xx1_0,axe_yy1_0,axe_xx1_1,axe_out_channels1_0,axe_xx1_2;3808;axe_xx2_0,axe_yy2_0,axe_xx2_1,axe_out_channels2_0,axe_xx2_2;3264;X:8, Y:7, X:1, F:4, C:2, W:3, X:17, W:1, H:3, X:1, Y:10, C:32, F:32, ;1124.7943074703217
111;0;Yolo9000_04;32.762031300000004;0.0742324107328456;2;axe_xx1_0,axe_yy1_0,axe_xx1_1,axe_out_channels1_0;224;axe_xx2_0,axe_yy2_0,axe_xx2_1,axe_out_channels2_0;192;X:1, Y:7, X:8, F:4, C:4, W:3, X:17, H:3, W:1, H:1, X:1, Y:10, C:16, F:32, ;1129.9188146591187
111;1;Yolo9000_04;30.720415600000003;0.13548656099200376;2;axe_xx1_0,axe_yy1_0,axe_xx1_1,axe_out_channels1_0,axe_xx1_2;3808;axe_xx2_0,axe_yy2_0,axe_xx2_1,axe_out_channels2_0,axe_xx2_2;3264;X:1, Y:7, X:8, F:4, C:4, W:3, X:17, H:3, W:1, H:1, X:1, Y:10, C:16, F:32, ;1134.9558188915253
112;0;Yolo9000_04;32.962548999999996;0.05171319759790434;2;axe_xx1_0,axe_yy1_0,axe_xx1_1,axe_out_channels1_0;224;axe_xx2_0,axe_yy2_0,axe_xx2_1,axe_out_channels2_0;192;X:2, Y:7, X:4, F:4, C:4, W:3, X:17, H:3, W:1, H:1, X:1, Y:10, C:16, F:32, ;1140.0909714698792
112;1;Yolo9000_04;30.8698423;0.12021046922464834;2;axe_xx1_0,axe_yy1_0,axe_xx1_1,axe_out_channels1_0,axe_xx1_2;3808;axe_xx2_0,axe_yy2_0,axe_xx2_1,axe_out_channels2_0,axe_xx2_2;3264;X:2, Y:7, X:4, F:4, C:4, W:3, X:17, H:3, W:1, H:1, X:1, Y:10, C:16, F:32, ;1145.1399796009064
113;0;Yolo9000_04;32.9846998;0.06028587185535242;2;axe_xx1_0,axe_yy1_0,axe_xx1_1,axe_out_channels1_0;224;axe_xx2_0,axe_yy2_0,axe_xx2_1,axe_out_channels2_0;192;X:4, Y:7, X:2, F:4, C:4, W:3, X:17, H:3, W:1, H:1, X:1, Y:10, C:16, F:32, ;1150.2800748348236
113;1;Yolo9000_04;30.864087899999998;0.06327984573535285;2;axe_xx1_0,axe_yy1_0,axe_xx1_1,axe_out_channels1_0,axe_xx1_2;3808;axe_xx2_0,axe_yy2_0,axe_xx2_1,axe_out_channels2_0,axe_xx2_2;3264;X:4, Y:7, X:2, F:4, C:4, W:3, X:17, H:3, W:1, H:1, X:1, Y:10, C:16, F:32, ;1155.326580286026
114;0;Yolo9000_04;32.903546500000004;0.07243777076532776;2;axe_xx1_0,axe_yy1_0,axe_xx1_1,axe_out_channels1_0;224;axe_xx2_0,axe_yy2_0,axe_xx2_1,axe_out_channels2_0;192;X:8, Y:7, X:1, F:4, C:4, W:3, X:17, H:3, W:1, H:1, X:1, Y:10, C:16, F:32, ;1160.4594955444336
114;1;Yolo9000_04;30.792382099999998;0.11692224274144723;2;axe_xx1_0,axe_yy1_0,axe_xx1_1,axe_out_channels1_0,axe_xx1_2;3808;axe_xx2_0,axe_yy2_0,axe_xx2_1,axe_out_channels2_0,axe_xx2_2;3264;X:8, Y:7, X:1, F:4, C:4, W:3, X:17, H:3, W:1, H:1, X:1, Y:10, C:16, F:32, ;1165.4943764209747
115;0;Yolo9000_04;32.6381575;0.10230838431160075;2;axe_xx1_0,axe_yy1_0,axe_xx1_1,axe_out_channels1_0;352;axe_xx2_0,axe_yy2_0,axe_xx2_1,axe_out_channels2_0;64;X:1, Y:11, X:8, F:4, C:4, W:3, X:17, H:3, W:1, H:1, X:1, Y:10, C:16, F:32, ;1170.6704785823822
115;1;Yolo9000_04;30.667549899999994;0.17902241165923907;2;axe_xx1_0,axe_yy1_0,axe_xx1_1,axe_out_channels1_0,axe_xx1_2;5984;axe_xx2_0,axe_yy2_0,axe_xx2_1,axe_out_channels2_0,axe_xx2_2;1088;X:1, Y:11, X:8, F:4, C:4, W:3, X:17, H:3, W:1, H:1, X:1, Y:10, C:16, F:32, ;1175.75142121315
116;0;Yolo9000_04;32.922711;0.04807062915336081;2;axe_xx1_0,axe_yy1_0,axe_xx1_1,axe_out_channels1_0;352;axe_xx2_0,axe_yy2_0,axe_xx2_1,axe_out_channels2_0;64;X:4, Y:11, X:2, F:4, C:4, W:3, X:17, H:3, W:1, H:1, X:1, Y:10, C:16, F:32, ;1180.9352552890778
116;1;Yolo9000_04;30.710950499999996;0.2232921030543847;2;axe_xx1_0,axe_yy1_0,axe_xx1_1,axe_out_channels1_0,axe_xx1_2;5984;axe_xx2_0,axe_yy2_0,axe_xx2_1,axe_out_channels2_0,axe_xx2_2;1088;X:4, Y:11, X:2, F:4, C:4, W:3, X:17, H:3, W:1, H:1, X:1, Y:10, C:16, F:32, ;1186.0194165706635
117;0;Yolo9000_04;32.7777734;0.0911826778255614;2;axe_xx1_0,axe_yy1_0,axe_xx1_1,axe_out_channels1_0;352;axe_xx2_0,axe_yy2_0,axe_xx2_1,axe_out_channels2_0;64;X:8, Y:11, X:1, F:4, C:4, W:3, X:17, H:3, W:1, H:1, X:1, Y:10, C:16, F:32, ;1191.1911823749542
117;1;Yolo9000_04;30.6557218;0.2031310886707403;2;axe_xx1_0,axe_yy1_0,axe_xx1_1,axe_out_channels1_0,axe_xx1_2;5984;axe_xx2_0,axe_yy2_0,axe_xx2_1,axe_out_channels2_0,axe_xx2_2;1088;X:8, Y:11, X:1, F:4, C:4, W:3, X:17, H:3, W:1, H:1, X:1, Y:10, C:16, F:32, ;1196.2759671211243
118;0;Yolo9000_04;30.3605583;0.024019771751830555;2;axe_xx1_0,axe_yy1_0,axe_xx1_1,axe_out_channels1_0;352;axe_xx2_0,axe_yy2_0,axe_xx2_1,axe_out_channels2_0;64;X:2, Y:11, X:4, F:4, C:2, W:3, X:17, H:3, W:1, H:1, X:1, Y:10, C:32, F:32, ;1201.3839864730835
118;1;Yolo9000_04;29.0639324;0.10316448626363636;2;axe_xx1_0,axe_yy1_0,axe_xx1_1,axe_out_channels1_0,axe_xx1_2;5984;axe_xx2_0,axe_yy2_0,axe_xx2_1,axe_out_channels2_0,axe_xx2_2;1088;X:2, Y:11, X:4, F:4, C:2, W:3, X:17, H:3, W:1, H:1, X:1, Y:10, C:32, F:32, ;1206.4411594867706
119;0;Yolo9000_04;32.9133305;0.0749289726210763;2;axe_xx1_0,axe_yy1_0,axe_xx1_1,axe_out_channels1_0;352;axe_xx2_0,axe_yy2_0,axe_xx2_1,axe_out_channels2_0;64;X:2, Y:11, X:4, F:4, C:4, W:3, X:17, H:3, W:1, H:1, X:1, Y:10, C:16, F:32, ;1211.6246545314789
119;1;Yolo9000_04;30.667762899999996;0.1769771711529209;2;axe_xx1_0,axe_yy1_0,axe_xx1_1,axe_out_channels1_0,axe_xx1_2;5984;axe_xx2_0,axe_yy2_0,axe_xx2_1,axe_out_channels2_0,axe_xx2_2;1088;X:2, Y:11, X:4, F:4, C:4, W:3, X:17, H:3, W:1, H:1, X:1, Y:10, C:16, F:32, ;1216.7042405605316
120;0;Yolo9000_04;30.5506993;0.04478381975010606;2;axe_xx1_0,axe_yy1_0,axe_xx1_1,axe_out_channels1_0;288;axe_xx2_0,axe_yy2_0,axe_xx2_1,axe_out_channels2_0;160;X:1, Y:9, X:8, F:4, C:2, W:3, X:17, H:3, W:1, H:1, X:1, Y:9, C:32, F:32, ;1221.7846472263336
120;1;Yolo9000_04;29.020729499999998;0.07699412846866904;2;axe_xx1_0,axe_yy1_0,axe_xx1_1,axe_out_channels1_0,axe_xx1_2;4896;axe_xx2_0,axe_yy2_0,axe_xx2_1,axe_out_channels2_0,axe_xx2_2;2720;X:1, Y:9, X:8, F:4, C:2, W:3, X:17, H:3, W:1, H:1, X:1, Y:9, C:32, F:32, ;1226.7696135044098
121;0;Yolo9000_04;30.5793093;0.019659182211119976;2;axe_xx1_0,axe_yy1_0,axe_xx1_1,axe_out_channels1_0;288;axe_xx2_0,axe_yy2_0,axe_xx2_1,axe_out_channels2_0;160;X:4, Y:9, X:2, F:4, C:2, W:3, X:17, H:3, W:1, H:1, X:1, Y:9, C:32, F:32, ;1231.854005098343
121;1;Yolo9000_04;28.988568199999996;0.112884399423304;2;axe_xx1_0,axe_yy1_0,axe_xx1_1,axe_out_channels1_0,axe_xx1_2;4896;axe_xx2_0,axe_yy2_0,axe_xx2_1,axe_out_channels2_0,axe_xx2_2;2720;X:4, Y:9, X:2, F:4, C:2, W:3, X:17, H:3, W:1, H:1, X:1, Y:9, C:32, F:32, ;1236.8462471961975
122;0;Yolo9000_04;30.3435012;0.0247932510123221;2;axe_xx1_0,axe_yy1_0,axe_xx1_1,axe_out_channels1_0;288;axe_xx2_0,axe_yy2_0,axe_xx2_1,axe_out_channels2_0;160;X:8, Y:9, X:1, F:4, C:2, W:3, X:17, H:3, W:1, H:1, X:1, Y:9, C:32, F:32, ;1241.9053497314453
122;1;Yolo9000_04;29.025685400000004;0.06721031919608751;2;axe_xx1_0,axe_yy1_0,axe_xx1_1,axe_out_channels1_0,axe_xx1_2;4896;axe_xx2_0,axe_yy2_0,axe_xx2_1,axe_out_channels2_0,axe_xx2_2;2720;X:8, Y:9, X:1, F:4, C:2, W:3, X:17, H:3, W:1, H:1, X:1, Y:9, C:32, F:32, ;1246.8870453834534
123;0;Yolo9000_04;26.8800108;0.03110978052895837;2;axe_xx1_0,axe_yy1_0,axe_xx1_1,axe_out_channels1_0;288;axe_xx2_0,axe_yy2_0,axe_xx2_1,axe_out_channels2_0;160;X:1, Y:9, X:8, F:4, C:2, W:3, X:17, W:1, H:3, X:1, Y:9, C:32, F:32, ;1251.7776057720184
123;1;Yolo9000_04;24.9678461;0.05145471623952387;2;axe_xx1_0,axe_yy1_0,axe_xx1_1,axe_out_channels1_0,axe_xx1_2;4896;axe_xx2_0,axe_yy2_0,axe_xx2_1,axe_out_channels2_0,axe_xx2_2;2720;X:1, Y:9, X:8, F:4, C:2, W:3, X:17, W:1, H:3, X:1, Y:9, C:32, F:32, ;1256.5930252075195
124;0;Yolo9000_04;26.8623714;0.021352258499746663;2;axe_xx1_0,axe_yy1_0,axe_xx1_1,axe_out_channels1_0;288;axe_xx2_0,axe_yy2_0,axe_xx2_1,axe_out_channels2_0;160;X:4, Y:9, X:2, F:4, C:2, W:3, X:17, W:1, H:3, X:1, Y:9, C:32, F:32, ;1261.4810659885406
124;1;Yolo9000_04;25.044599499999997;0.04192282014428349;2;axe_xx1_0,axe_yy1_0,axe_xx1_1,axe_out_channels1_0,axe_xx1_2;4896;axe_xx2_0,axe_yy2_0,axe_xx2_1,axe_out_channels2_0,axe_xx2_2;2720;X:4, Y:9, X:2, F:4, C:2, W:3, X:17, W:1, H:3, X:1, Y:9, C:32, F:32, ;1266.300686120987
125;0;Yolo9000_04;26.914737100000004;0.02519192361234031;2;axe_xx1_0,axe_yy1_0,axe_xx1_1,axe_out_channels1_0;288;axe_xx2_0,axe_yy2_0,axe_xx2_1,axe_out_channels2_0;160;X:8, Y:9, X:1, F:4, C:2, W:3, X:17, W:1, H:3, X:1, Y:9, C:32, F:32, ;1271.1954457759857
125;1;Yolo9000_04;25.0031579;0.06277016143750162;2;axe_xx1_0,axe_yy1_0,axe_xx1_1,axe_out_channels1_0,axe_xx1_2;4896;axe_xx2_0,axe_yy2_0,axe_xx2_1,axe_out_channels2_0,axe_xx2_2;2720;X:8, Y:9, X:1, F:4, C:2, W:3, X:17, W:1, H:3, X:1, Y:9, C:32, F:32, ;1276.0055363178253
126;0;Yolo9000_04;32.8021255;0.039827978402748904;2;axe_xx1_0,axe_yy1_0,axe_xx1_1,axe_out_channels1_0;288;axe_xx2_0,axe_yy2_0,axe_xx2_1,axe_out_channels2_0;160;X:1, Y:9, X:8, F:4, C:4, W:3, X:17, H:3, W:1, H:1, X:1, Y:9, C:16, F:32, ;1281.1218552589417
126;1;Yolo9000_04;30.777700399999997;0.1826516332838005;2;axe_xx1_0,axe_yy1_0,axe_xx1_1,axe_out_channels1_0,axe_xx1_2;4896;axe_xx2_0,axe_yy2_0,axe_xx2_1,axe_out_channels2_0,axe_xx2_2;2720;X:1, Y:9, X:8, F:4, C:4, W:3, X:17, H:3, W:1, H:1, X:1, Y:9, C:16, F:32, ;1286.1442289352417
127;0;Yolo9000_04;32.83796389999999;0.038587418227837636;2;axe_xx1_0,axe_yy1_0,axe_xx1_1,axe_out_channels1_0;288;axe_xx2_0,axe_yy2_0,axe_xx2_1,axe_out_channels2_0;160;X:4, Y:9, X:2, F:4, C:4, W:3, X:17, H:3, W:1, H:1, X:1, Y:9, C:16, F:32, ;1291.2635922431946
127;1;Yolo9000_04;30.8716969;0.15259942302214008;2;axe_xx1_0,axe_yy1_0,axe_xx1_1,axe_out_channels1_0,axe_xx1_2;4896;axe_xx2_0,axe_yy2_0,axe_xx2_1,axe_out_channels2_0,axe_xx2_2;2720;X:4, Y:9, X:2, F:4, C:4, W:3, X:17, H:3, W:1, H:1, X:1, Y:9, C:16, F:32, ;1296.3107051849365
128;0;Yolo9000_04;32.8415393;0.059495677209442134;2;axe_xx1_0,axe_yy1_0,axe_xx1_1,axe_out_channels1_0;288;axe_xx2_0,axe_yy2_0,axe_xx2_1,axe_out_channels2_0;160;X:8, Y:9, X:1, F:4, C:4, W:3, X:17, H:3, W:1, H:1, X:1, Y:9, C:16, F:32, ;1301.4250428676605
128;1;Yolo9000_04;30.845833000000006;0.13688418421863086;2;axe_xx1_0,axe_yy1_0,axe_xx1_1,axe_out_channels1_0,axe_xx1_2;4896;axe_xx2_0,axe_yy2_0,axe_xx2_1,axe_out_channels2_0,axe_xx2_2;2720;X:8, Y:9, X:1, F:4, C:4, W:3, X:17, H:3, W:1, H:1, X:1, Y:9, C:16, F:32, ;1306.4483895301819
129;0;Yolo9000_04;30.585737899999998;0.03855341040284347;2;axe_xx1_0,axe_yy1_0,axe_xx1_1,axe_out_channels1_0;288;axe_xx2_0,axe_yy2_0,axe_xx2_1,axe_out_channels2_0;160;X:2, Y:9, X:4, F:4, C:2, W:3, X:17, H:3, W:1, H:1, X:1, Y:9, C:32, F:32, ;1311.5431916713715
129;1;Yolo9000_04;29.067649799999998;0.05151468741592052;2;axe_xx1_0,axe_yy1_0,axe_xx1_1,axe_out_channels1_0,axe_xx1_2;4896;axe_xx2_0,axe_yy2_0,axe_xx2_1,axe_out_channels2_0,axe_xx2_2;2720;X:2, Y:9, X:4, F:4, C:2, W:3, X:17, H:3, W:1, H:1, X:1, Y:9, C:32, F:32, ;1316.5401167869568
130;0;Yolo9000_04;26.931067000000002;0.03183406918067385;2;axe_xx1_0,axe_yy1_0,axe_xx1_1,axe_out_channels1_0;288;axe_xx2_0,axe_yy2_0,axe_xx2_1,axe_out_channels2_0;160;X:2, Y:9, X:4, F:4, C:2, W:3, X:17, W:1, H:3, X:1, Y:9, C:32, F:32, ;1321.4350833892822
130;1;Yolo9000_04;25.0628724;0.0391473526619617;2;axe_xx1_0,axe_yy1_0,axe_xx1_1,axe_out_channels1_0,axe_xx1_2;4896;axe_xx2_0,axe_yy2_0,axe_xx2_1,axe_out_channels2_0,axe_xx2_2;2720;X:2, Y:9, X:4, F:4, C:2, W:3, X:17, W:1, H:3, X:1, Y:9, C:32, F:32, ;1326.2625651359558
131;0;Yolo9000_04;32.878899;0.038438422821443885;2;axe_xx1_0,axe_yy1_0,axe_xx1_1,axe_out_channels1_0;288;axe_xx2_0,axe_yy2_0,axe_xx2_1,axe_out_channels2_0;160;X:2, Y:9, X:4, F:4, C:4, W:3, X:17, H:3, W:1, H:1, X:1, Y:9, C:16, F:32, ;1331.3875720500946
131;1;Yolo9000_04;30.864888999999998;0.108416881432737;2;axe_xx1_0,axe_yy1_0,axe_xx1_1,axe_out_channels1_0,axe_xx1_2;4896;axe_xx2_0,axe_yy2_0,axe_xx2_1,axe_out_channels2_0,axe_xx2_2;2720;X:2, Y:9, X:4, F:4, C:4, W:3, X:17, H:3, W:1, H:1, X:1, Y:9, C:16, F:32, ;1336.4188854694366
132;0;Yolo9000_04;29.766076399999996;0.022032505146714714;2;axe_xx1_0,axe_yy1_0,axe_xx1_1,axe_out_channels1_0;408;axe_xx2_0,axe_yy2_0,axe_xx2_1,axe_out_channels2_0;340;X:1, Y:6, X:17, F:4, C:1, W:3, X:8, H:3, W:1, H:1, X:1, Y:11, C:64, F:32, ;1341.4363152980804
132;1;Yolo9000_04;29.092697599999997;0.042822315239136634;2;axe_xx1_0,axe_yy1_0,axe_xx1_1,axe_out_channels1_0,axe_xx1_2;3264;axe_xx2_0,axe_yy2_0,axe_xx2_1,axe_out_channels2_0,axe_xx2_2;2720;X:1, Y:6, X:17, F:4, C:1, W:3, X:8, H:3, W:1, H:1, X:1, Y:11, C:64, F:32, ;1346.3898332118988
133;0;Yolo9000_04;29.6848449;0.05118674365780616;2;axe_xx1_0,axe_yy1_0,axe_xx1_1,axe_out_channels1_0;408;axe_xx2_0,axe_yy2_0,axe_xx2_1,axe_out_channels2_0;340;X:17, Y:6, X:1, F:4, C:1, W:3, X:8, H:3, W:1, H:1, X:1, Y:11, C:64, F:32, ;1351.4086260795593
133;1;Yolo9000_04;29.052117900000002;0.057025712185731756;2;axe_xx1_0,axe_yy1_0,axe_xx1_1,axe_out_channels1_0,axe_xx1_2;3264;axe_xx2_0,axe_yy2_0,axe_xx2_1,axe_out_channels2_0,axe_xx2_2;2720;X:17, Y:6, X:1, F:4, C:1, W:3, X:8, H:3, W:1, H:1, X:1, Y:11, C:64, F:32, ;1356.3532831668854
134;0;Yolo9000_04;29.838521200000002;0.0464036026463463;2;axe_xx1_0,axe_yy1_0,axe_xx1_1,axe_out_channels1_0;476;axe_xx2_0,axe_yy2_0,axe_xx2_1,axe_out_channels2_0;272;X:1, Y:7, X:17, F:4, C:1, W:3, X:8, H:3, W:1, H:1, X:1, Y:12, C:64, F:32, ;1361.3678524494171
134;1;Yolo9000_04;29.1042781;0.04229142651282849;2;axe_xx1_0,axe_yy1_0,axe_xx1_1,axe_out_channels1_0,axe_xx1_2;3808;axe_xx2_0,axe_yy2_0,axe_xx2_1,axe_out_channels2_0,axe_xx2_2;2176;X:1, Y:7, X:17, F:4, C:1, W:3, X:8, H:3, W:1, H:1, X:1, Y:12, C:64, F:32, ;1366.3210663795471
135;0;Yolo9000_04;29.872637499999996;0.03533919301639508;2;axe_xx1_0,axe_yy1_0,axe_xx1_1,axe_out_channels1_0;476;axe_xx2_0,axe_yy2_0,axe_xx2_1,axe_out_channels2_0;272;X:17, Y:7, X:1, F:4, C:1, W:3, X:8, H:3, W:1, H:1, X:1, Y:12, C:64, F:32, ;1371.3381960391998
135;1;Yolo9000_04;29.091333000000002;0.05395626738016674;2;axe_xx1_0,axe_yy1_0,axe_xx1_1,axe_out_channels1_0,axe_xx1_2;3808;axe_xx2_0,axe_yy2_0,axe_xx2_1,axe_out_channels2_0,axe_xx2_2;2176;X:17, Y:7, X:1, F:4, C:1, W:3, X:8, H:3, W:1, H:1, X:1, Y:12, C:64, F:32, ;1376.2879648208618
136;0;Yolo9000_04;31.7975506;0.2758368997676708;2;axe_xx1_0,axe_yy1_0,axe_xx1_1,axe_out_channels1_0;408;axe_xx2_0,axe_yy2_0,axe_xx2_1,axe_out_channels2_0;340;X:1, Y:6, X:17, F:4, C:2, W:3, X:8, H:3, W:1, H:1, X:1, Y:11, C:32, F:32, ;1381.4387121200562
136;1;Yolo9000_04;29.8188892;0.06937029125180269;2;axe_xx1_0,axe_yy1_0,axe_xx1_1,axe_out_channels1_0,axe_xx1_2;3264;axe_xx2_0,axe_yy2_0,axe_xx2_1,axe_out_channels2_0,axe_xx2_2;2720;X:1, Y:6, X:17, F:4, C:2, W:3, X:8, H:3, W:1, H:1, X:1, Y:11, C:32, F:32, ;1386.4613077640533
137;0;Yolo9000_04;31.937956299999996;0.3609363088914859;2;axe_xx1_0,axe_yy1_0,axe_xx1_1,axe_out_channels1_0;408;axe_xx2_0,axe_yy2_0,axe_xx2_1,axe_out_channels2_0;340;X:17, Y:6, X:1, F:4, C:2, W:3, X:8, H:3, W:1, H:1, X:1, Y:11, C:32, F:32, ;1391.599363565445
137;1;Yolo9000_04;54.310259300000006;0.10828191062966236;2;axe_xx1_0,axe_yy1_0,axe_xx1_1,axe_out_channels1_0,axe_xx1_2;3264;axe_xx2_0,axe_yy2_0,axe_xx2_1,axe_out_channels2_0,axe_xx2_2;2720;X:17, Y:6, X:1, F:4, C:2, W:3, X:8, H:3, W:1, H:1, X:1, Y:11, C:32, F:32, ;1397.5989592075348
138;0;Yolo9000_04;30.7398015;0.02980550997466754;2;axe_xx1_0,axe_yy1_0,axe_xx1_1,axe_out_channels1_0;476;axe_xx2_0,axe_yy2_0,axe_xx2_1,axe_out_channels2_0;272;X:1, Y:7, X:17, F:4, C:2, W:3, X:8, H:3, W:1, H:1, X:1, Y:12, C:32, F:32, ;1402.6646671295166
138;1;Yolo9000_04;29.4924648;0.07260422081504689;2;axe_xx1_0,axe_yy1_0,axe_xx1_1,axe_out_channels1_0,axe_xx1_2;3808;axe_xx2_0,axe_yy2_0,axe_xx2_1,axe_out_channels2_0,axe_xx2_2;2176;X:1, Y:7, X:17, F:4, C:2, W:3, X:8, H:3, W:1, H:1, X:1, Y:12, C:32, F:32, ;1407.669484615326
139;0;Yolo9000_04;30.6810545;0.04252642877611469;2;axe_xx1_0,axe_yy1_0,axe_xx1_1,axe_out_channels1_0;476;axe_xx2_0,axe_yy2_0,axe_xx2_1,axe_out_channels2_0;272;X:17, Y:7, X:1, F:4, C:2, W:3, X:8, H:3, W:1, H:1, X:1, Y:12, C:32, F:32, ;1412.738080739975
139;1;Yolo9000_04;29.419312199999997;0.06339312329551208;2;axe_xx1_0,axe_yy1_0,axe_xx1_1,axe_out_channels1_0,axe_xx1_2;3808;axe_xx2_0,axe_yy2_0,axe_xx2_1,axe_out_channels2_0,axe_xx2_2;2176;X:17, Y:7, X:1, F:4, C:2, W:3, X:8, H:3, W:1, H:1, X:1, Y:12, C:32, F:32, ;1417.7365946769714
140;0;Yolo9000_04;35.0284068;0.0841927601576293;2;axe_xx1_0,axe_yy1_0,axe_xx1_1,axe_out_channels1_0;408;axe_xx2_0,axe_yy2_0,axe_xx2_1,axe_out_channels2_0;340;X:1, Y:6, X:17, F:4, C:4, W:3, X:8, H:3, W:1, H:1, X:1, Y:11, C:16, F:32, ;1422.9823496341705
140;1;Yolo9000_04;32.9340174;0.11201599429028078;2;axe_xx1_0,axe_yy1_0,axe_xx1_1,axe_out_channels1_0,axe_xx1_2;3264;axe_xx2_0,axe_yy2_0,axe_xx2_1,axe_out_channels2_0,axe_xx2_2;2720;X:1, Y:6, X:17, F:4, C:4, W:3, X:8, H:3, W:1, H:1, X:1, Y:11, C:16, F:32, ;1428.1042034626007
141;0;Yolo9000_04;35.0284822;0.050496095058529866;2;axe_xx1_0,axe_yy1_0,axe_xx1_1,axe_out_channels1_0;408;axe_xx2_0,axe_yy2_0,axe_xx2_1,axe_out_channels2_0;340;X:17, Y:6, X:1, F:4, C:4, W:3, X:8, H:3, W:1, H:1, X:1, Y:11, C:16, F:32, ;1433.3411855697632
141;1;Yolo9000_04;32.7342363;0.08308612011527584;2;axe_xx1_0,axe_yy1_0,axe_xx1_1,axe_out_channels1_0,axe_xx1_2;3264;axe_xx2_0,axe_yy2_0,axe_xx2_1,axe_out_channels2_0,axe_xx2_2;2720;X:17, Y:6, X:1, F:4, C:4, W:3, X:8, H:3, W:1, H:1, X:1, Y:11, C:16, F:32, ;1438.4521653652191
142;0;Yolo9000_04;33.0229469;0.039822410784506414;2;axe_xx1_0,axe_yy1_0,axe_xx1_1,axe_out_channels1_0;476;axe_xx2_0,axe_yy2_0,axe_xx2_1,axe_out_channels2_0;272;X:1, Y:7, X:17, F:4, C:4, W:3, X:8, H:3, W:1, H:1, X:1, Y:12, C:16, F:32, ;1443.620479106903
142;1;Yolo9000_04;31.2803629;0.13184119962246285;2;axe_xx1_0,axe_yy1_0,axe_xx1_1,axe_out_channels1_0,axe_xx1_2;3808;axe_xx2_0,axe_yy2_0,axe_xx2_1,axe_out_channels2_0,axe_xx2_2;2176;X:1, Y:7, X:17, F:4, C:4, W:3, X:8, H:3, W:1, H:1, X:1, Y:12, C:16, F:32, ;1448.6722354888916
143;0;Yolo9000_04;33.0215673;0.02436649478300159;2;axe_xx1_0,axe_yy1_0,axe_xx1_1,axe_out_channels1_0;476;axe_xx2_0,axe_yy2_0,axe_xx2_1,axe_out_channels2_0;272;X:17, Y:7, X:1, F:4, C:4, W:3, X:8, H:3, W:1, H:1, X:1, Y:12, C:16, F:32, ;1453.8273875713348
143;1;Yolo9000_04;31.3103791;0.1122025973722985;2;axe_xx1_0,axe_yy1_0,axe_xx1_1,axe_out_channels1_0,axe_xx1_2;3808;axe_xx2_0,axe_yy2_0,axe_xx2_1,axe_out_channels2_0,axe_xx2_2;2176;X:17, Y:7, X:1, F:4, C:4, W:3, X:8, H:3, W:1, H:1, X:1, Y:12, C:16, F:32, ;1458.881952047348
144;0;Yolo9000_04;31.6631784;0.12192777157743899;2;axe_xx1_0,axe_yy1_0,axe_xx1_1,axe_out_channels1_0;476;axe_xx2_0,axe_yy2_0,axe_xx2_1,axe_out_channels2_0;204;X:1, Y:7, X:17, F:4, C:2, W:3, X:8, H:3, W:1, H:1, X:1, Y:13, C:32, F:32, ;1464.006061077118
144;1;Yolo9000_04;34.221794;0.14592858025006597;2;axe_xx1_0,axe_yy1_0,axe_xx1_1,axe_out_channels1_0,axe_xx1_2;3808;axe_xx2_0,axe_yy2_0,axe_xx2_1,axe_out_channels2_0,axe_xx2_2;1632;X:1, Y:7, X:17, F:4, C:2, W:3, X:8, H:3, W:1, H:1, X:1, Y:13, C:32, F:32, ;1469.2248919010162
145;0;Yolo9000_04;31.651194800000003;0.024208668777113338;2;axe_xx1_0,axe_yy1_0,axe_xx1_1,axe_out_channels1_0;476;axe_xx2_0,axe_yy2_0,axe_xx2_1,axe_out_channels2_0;204;X:17, Y:7, X:1, F:4, C:2, W:3, X:8, H:3, W:1, H:1, X:1, Y:13, C:32, F:32, ;1474.3555691242218
145;1;Yolo9000_04;32.956029199999996;0.08912176855718175;2;axe_xx1_0,axe_yy1_0,axe_xx1_1,axe_out_channels1_0,axe_xx1_2;3808;axe_xx2_0,axe_yy2_0,axe_xx2_1,axe_out_channels2_0,axe_xx2_2;1632;X:17, Y:7, X:1, F:4, C:2, W:3, X:8, H:3, W:1, H:1, X:1, Y:13, C:32, F:32, ;1479.527976512909
146;0;Yolo9000_04;34.8576046;0.04199031502668316;2;axe_xx1_0,axe_yy1_0,axe_xx1_1,axe_out_channels1_0;476;axe_xx2_0,axe_yy2_0,axe_xx2_1,axe_out_channels2_0;204;X:1, Y:7, X:17, F:4, C:4, W:3, X:8, H:3, W:1, H:1, X:1, Y:13, C:16, F:32, ;1484.783391237259
146;1;Yolo9000_04;36.197726800000005;0.08419292639741092;2;axe_xx1_0,axe_yy1_0,axe_xx1_1,axe_out_channels1_0,axe_xx1_2;3808;axe_xx2_0,axe_yy2_0,axe_xx2_1,axe_out_channels2_0,axe_xx2_2;1632;X:1, Y:7, X:17, F:4, C:4, W:3, X:8, H:3, W:1, H:1, X:1, Y:13, C:16, F:32, ;1490.0676455497742
147;0;Yolo9000_04;34.8971757;0.06634063663404154;2;axe_xx1_0,axe_yy1_0,axe_xx1_1,axe_out_channels1_0;476;axe_xx2_0,axe_yy2_0,axe_xx2_1,axe_out_channels2_0;204;X:17, Y:7, X:1, F:4, C:4, W:3, X:8, H:3, W:1, H:1, X:1, Y:13, C:16, F:32, ;1495.3402733802795
147;1;Yolo9000_04;34.986693;0.09871717414512964;2;axe_xx1_0,axe_yy1_0,axe_xx1_1,axe_out_channels1_0,axe_xx1_2;3808;axe_xx2_0,axe_yy2_0,axe_xx2_1,axe_out_channels2_0,axe_xx2_2;1632;X:17, Y:7, X:1, F:4, C:4, W:3, X:8, H:3, W:1, H:1, X:1, Y:13, C:16, F:32, ;1500.5740756988525
148;0;Yolo9000_04;28.918041199999998;0.021109284960889006;1;axe_xx1_0,axe_yy1_0,axe_xx1_1,axe_out_channels1_0;544;;;X:1, Y:17, X:8, F:4, C:2, W:3, X:17, H:3, W:1, H:1, X:1, Y:8, C:32, F:32, ;1505.3964622020721
148;1;Yolo9000_04;27.948584599999997;0.11687962193231168;1;axe_xx1_0,axe_yy1_0,axe_xx1_1,axe_out_channels1_0,axe_xx1_2;9248;;;X:1, Y:17, X:8, F:4, C:2, W:3, X:17, H:3, W:1, H:1, X:1, Y:8, C:32, F:32, ;1510.1643087863922
149;0;Yolo9000_04;29.0985809;0.041122508086083996;1;axe_xx1_0,axe_yy1_0,axe_xx1_1,axe_out_channels1_0;544;;;X:4, Y:17, X:2, F:4, C:2, W:3, X:17, H:3, W:1, H:1, X:1, Y:8, C:32, F:32, ;1514.9855012893677
149;1;Yolo9000_04;28.0756392;0.17609030080660282;1;axe_xx1_0,axe_yy1_0,axe_xx1_1,axe_out_channels1_0,axe_xx1_2;9248;;;X:4, Y:17, X:2, F:4, C:2, W:3, X:17, H:3, W:1, H:1, X:1, Y:8, C:32, F:32, ;1519.7569603919983
150;0;Yolo9000_04;29.153691400000003;0.026714813569254085;1;axe_xx1_0,axe_yy1_0,axe_xx1_1,axe_out_channels1_0;544;;;X:8, Y:17, X:1, F:4, C:2, W:3, X:17, H:3, W:1, H:1, X:1, Y:8, C:32, F:32, ;1524.5772058963776
150;1;Yolo9000_04;28.126964500000003;0.08206321249408755;1;axe_xx1_0,axe_yy1_0,axe_xx1_1,axe_out_channels1_0,axe_xx1_2;9248;;;X:8, Y:17, X:1, F:4, C:2, W:3, X:17, H:3, W:1, H:1, X:1, Y:8, C:32, F:32, ;1529.3545343875885
151;0;Yolo9000_04;31.2461076;0.11356832077846371;1;axe_xx1_0,axe_yy1_0,axe_xx1_1,axe_out_channels1_0;544;;;X:1, Y:17, X:8, F:4, C:4, W:3, X:17, H:3, W:1, H:1, X:1, Y:8, C:16, F:32, ;1534.2731714248657
151;1;Yolo9000_04;29.488863599999995;0.24846013661841204;1;axe_xx1_0,axe_yy1_0,axe_xx1_1,axe_out_channels1_0,axe_xx1_2;9248;;;X:1, Y:17, X:8, F:4, C:4, W:3, X:17, H:3, W:1, H:1, X:1, Y:8, C:16, F:32, ;1539.1063277721405
152;0;Yolo9000_04;31.5298029;0.10059782498091036;1;axe_xx1_0,axe_yy1_0,axe_xx1_1,axe_out_channels1_0;544;;;X:4, Y:17, X:2, F:4, C:4, W:3, X:17, H:3, W:1, H:1, X:1, Y:8, C:16, F:32, ;1544.0269482135773
152;1;Yolo9000_04;29.611739;0.1850938754853877;1;axe_xx1_0,axe_yy1_0,axe_xx1_1,axe_out_channels1_0,axe_xx1_2;9248;;;X:4, Y:17, X:2, F:4, C:4, W:3, X:17, H:3, W:1, H:1, X:1, Y:8, C:16, F:32, ;1548.8679084777832
153;0;Yolo9000_04;31.6429888;0.07481237274782813;1;axe_xx1_0,axe_yy1_0,axe_xx1_1,axe_out_channels1_0;544;;;X:8, Y:17, X:1, F:4, C:4, W:3, X:17, H:3, W:1, H:1, X:1, Y:8, C:16, F:32, ;1553.7942566871643
153;1;Yolo9000_04;29.617972400000003;0.13232835307310317;1;axe_xx1_0,axe_yy1_0,axe_xx1_1,axe_out_channels1_0,axe_xx1_2;9248;;;X:8, Y:17, X:1, F:4, C:4, W:3, X:17, H:3, W:1, H:1, X:1, Y:8, C:16, F:32, ;1558.6281113624573
154;0;Yolo9000_04;29.033714100000005;0.03240462686855132;1;axe_xx1_0,axe_yy1_0,axe_xx1_1,axe_out_channels1_0;544;;;X:2, Y:17, X:4, F:4, C:2, W:3, X:17, H:3, W:1, H:1, X:1, Y:8, C:32, F:32, ;1563.4819586277008
154;1;Yolo9000_04;28.0451552;0.11848438498705209;1;axe_xx1_0,axe_yy1_0,axe_xx1_1,axe_out_channels1_0,axe_xx1_2;9248;;;X:2, Y:17, X:4, F:4, C:2, W:3, X:17, H:3, W:1, H:1, X:1, Y:8, C:32, F:32, ;1568.253674507141
155;0;Yolo9000_04;31.496071899999997;0.07711229684486103;1;axe_xx1_0,axe_yy1_0,axe_xx1_1,axe_out_channels1_0;544;;;X:2, Y:17, X:4, F:4, C:4, W:3, X:17, H:3, W:1, H:1, X:1, Y:8, C:16, F:32, ;1573.1823227405548
155;1;Yolo9000_04;29.710982500000007;0.20273108158752992;1;axe_xx1_0,axe_yy1_0,axe_xx1_1,axe_out_channels1_0,axe_xx1_2;9248;;;X:2, Y:17, X:4, F:4, C:4, W:3, X:17, H:3, W:1, H:1, X:1, Y:8, C:16, F:32, ;1578.0258872509003
156;0;Yolo9000_04;29.025219000000003;0.18348770422238175;2;axe_yy1_1,axe_xx1_0;272;axe_yy2_1,axe_xx2_0;272;Y:1, F:8, C:2, Y:2, X:136, W:3, W:1, H:3, X:1, Y:12, C:32, F:16, ;1583.0567722320557
156;1;Yolo9000_04;25.939407699999997;0.07664466418616493;2;axe_yy1_0,axe_out_channels1_0,axe_yy1_1,axe_xx1_0;2176;axe_yy2_0,axe_out_channels2_0,axe_yy2_1,axe_xx2_0;8704;Y:1, F:8, C:2, Y:2, X:136, W:3, W:1, H:3, X:1, Y:12, C:32, F:16, ;1587.9551095962524
157;0;Yolo9000_04;29.318676899999996;0.19814589083725664;2;axe_yy1_1,axe_xx1_0;272;axe_yy2_1,axe_xx2_0;272;Y:2, F:8, C:2, Y:2, X:136, W:3, W:1, H:3, X:1, Y:13, C:32, F:16, ;1592.9617283344269
157;1;Yolo9000_04;26.214759800000003;0.1591345451583659;2;axe_yy1_0,axe_out_channels1_0,axe_yy1_1,axe_xx1_0;4352;axe_yy2_0,axe_out_channels2_0,axe_yy2_1,axe_xx2_0;6528;Y:2, F:8, C:2, Y:2, X:136, W:3, W:1, H:3, X:1, Y:13, C:32, F:16, ;1597.8298602104187
158;0;Yolo9000_04;29.017191099999998;0.17663566963750557;2;axe_yy1_1,axe_xx1_0;136;axe_yy2_1,axe_xx2_0;544;Y:2, F:8, C:2, Y:1, X:136, W:3, W:1, H:3, X:1, Y:12, C:32, F:16, ;1602.8675816059113
158;1;Yolo9000_04;26.0583404;0.14219298050058554;2;axe_yy1_0,axe_out_channels1_0,axe_yy1_1,axe_xx1_0;2176;axe_yy2_0,axe_out_channels2_0,axe_yy2_1,axe_xx2_0;8704;Y:2, F:8, C:2, Y:1, X:136, W:3, W:1, H:3, X:1, Y:12, C:32, F:16, ;1607.78657412529
159;0;Yolo9000_04;29.505989999999997;0.18197175586557346;2;axe_yy1_1,axe_xx1_0;272;axe_yy2_1,axe_xx2_0;408;Y:2, F:8, C:2, Y:2, X:136, W:3, W:1, H:3, X:1, Y:13, C:32, F:16, ;1612.7916688919067
159;1;Yolo9000_04;26.290990599999997;0.17442047829036628;2;axe_yy1_0,axe_out_channels1_0,axe_yy1_1,axe_xx1_0;4352;axe_yy2_0,axe_out_channels2_0,axe_yy2_1,axe_xx2_0;6528;Y:2, F:8, C:2, Y:2, X:136, W:3, W:1, H:3, X:1, Y:13, C:32, F:16, ;1617.6661884784698
160;0;Yolo9000_04;30.059101400000003;0.2058419429378771;2;axe_yy1_1,axe_xx1_0;816;axe_yy2_1,axe_xx2_0;680;Y:1, F:8, C:2, Y:6, X:136, W:3, W:1, H:3, X:1, Y:11, C:32, F:16, ;1622.698395729065
160;1;Yolo9000_04;26.6888604;0.21657639839982598;2;axe_yy1_0,axe_out_channels1_0,axe_yy1_1,axe_xx1_0;6528;axe_yy2_0,axe_out_channels2_0,axe_yy2_1,axe_xx2_0;5440;Y:1, F:8, C:2, Y:6, X:136, W:3, W:1, H:3, X:1, Y:11, C:32, F:16, ;1627.5835344791412
161;0;Yolo9000_04;28.1946828;0.19117636489053805;2;axe_yy1_1,axe_xx1_0;136;axe_yy2_1,axe_xx2_0;136;Y:6, F:8, C:2, Y:1, X:136, W:3, W:1, H:3, X:1, Y:11, C:32, F:16, ;1632.5823085308075
161;1;Yolo9000_04;26.048822;0.20991694012823292;2;axe_yy1_0,axe_out_channels1_0,axe_yy1_1,axe_xx1_0;6528;axe_yy2_0,axe_out_channels2_0,axe_yy2_1,axe_xx2_0;5440;Y:6, F:8, C:2, Y:1, X:136, W:3, W:1, H:3, X:1, Y:11, C:32, F:16, ;1637.4357702732086
162;0;Yolo9000_04;29.5289516;0.19579783253304847;2;axe_yy1_1,axe_xx1_0;952;axe_yy2_1,axe_xx2_0;544;Y:1, F:8, C:2, Y:7, X:136, W:3, W:1, H:3, X:1, Y:12, C:32, F:16, ;1642.4523627758026
162;1;Yolo9000_04;26.310633900000006;0.2062945476959827;2;axe_yy1_0,axe_out_channels1_0,axe_yy1_1,axe_xx1_0;7616;axe_yy2_0,axe_out_channels2_0,axe_yy2_1,axe_xx2_0;4352;Y:1, F:8, C:2, Y:7, X:136, W:3, W:1, H:3, X:1, Y:12, C:32, F:16, ;1647.3267316818237
163;0;Yolo9000_04;27.6929635;0.288224103539676;2;axe_yy1_1,axe_xx1_0;136;axe_yy2_1,axe_xx2_0;136;Y:7, F:8, C:2, Y:1, X:136, W:3, W:1, H:3, X:1, Y:12, C:32, F:16, ;1652.283462047577
163;1;Yolo9000_04;25.8237569;0.212534757815963;2;axe_yy1_0,axe_out_channels1_0,axe_yy1_1,axe_xx1_0;7616;axe_yy2_0,axe_out_channels2_0,axe_yy2_1,axe_xx2_0;4352;Y:7, F:8, C:2, Y:1, X:136, W:3, W:1, H:3, X:1, Y:12, C:32, F:16, ;1657.129007101059
164;0;Yolo9000_04;29.5056406;0.01657312548193601;2;axe_xx1_0,axe_yy1_0,axe_xx1_1,axe_out_channels1_0;340;axe_xx2_0,axe_yy2_0,axe_xx2_1,axe_out_channels2_0;476;X:1, Y:5, X:17, F:4, C:1, W:3, X:8, H:3, W:1, H:1, X:1, Y:9, C:64, F:32, ;1662.268227815628
164;1;Yolo9000_04;28.7352779;0.05098656795951246;2;axe_xx1_0,axe_yy1_0,axe_xx1_1,axe_out_channels1_0,axe_xx1_2;2720;axe_xx2_0,axe_yy2_0,axe_xx2_1,axe_out_channels2_0,axe_xx2_2;3808;X:1, Y:5, X:17, F:4, C:1, W:3, X:8, H:3, W:1, H:1, X:1, Y:9, C:64, F:32, ;1667.3443014621735
165;0;Yolo9000_04;29.519930699999996;0.030670182718889;2;axe_xx1_0,axe_yy1_0,axe_xx1_1,axe_out_channels1_0;340;axe_xx2_0,axe_yy2_0,axe_xx2_1,axe_out_channels2_0;476;X:17, Y:5, X:1, F:4, C:1, W:3, X:8, H:3, W:1, H:1, X:1, Y:9, C:64, F:32, ;1672.481772184372
165;1;Yolo9000_04;28.667246;0.055134330326938846;2;axe_xx1_0,axe_yy1_0,axe_xx1_1,axe_out_channels1_0,axe_xx1_2;2720;axe_xx2_0,axe_yy2_0,axe_xx2_1,axe_out_channels2_0,axe_xx2_2;3808;X:17, Y:5, X:1, F:4, C:1, W:3, X:8, H:3, W:1, H:1, X:1, Y:9, C:64, F:32, ;1677.5635905265808
166;0;Yolo9000_04;30.270685300000004;0.034936106511888415;2;axe_xx1_0,axe_yy1_0,axe_xx1_1,axe_out_channels1_0;340;axe_xx2_0,axe_yy2_0,axe_xx2_1,axe_out_channels2_0;476;X:1, Y:5, X:17, F:4, C:2, W:3, X:8, H:3, W:1, H:1, X:1, Y:9, C:32, F:32, ;1682.7790398597717
166;1;Yolo9000_04;29.054605600000002;0.05734231816939405;2;axe_xx1_0,axe_yy1_0,axe_xx1_1,axe_out_channels1_0,axe_xx1_2;2720;axe_xx2_0,axe_yy2_0,axe_xx2_1,axe_out_channels2_0,axe_xx2_2;3808;X:1, Y:5, X:17, F:4, C:2, W:3, X:8, H:3, W:1, H:1, X:1, Y:9, C:32, F:32, ;1687.9192309379578
167;0;Yolo9000_04;30.248414500000003;0.04902424692588277;2;axe_xx1_0,axe_yy1_0,axe_xx1_1,axe_out_channels1_0;340;axe_xx2_0,axe_yy2_0,axe_xx2_1,axe_out_channels2_0;476;X:17, Y:5, X:1, F:4, C:2, W:3, X:8, H:3, W:1, H:1, X:1, Y:9, C:32, F:32, ;1693.130758523941
167;1;Yolo9000_04;29.145723599999997;0.09926007860282979;2;axe_xx1_0,axe_yy1_0,axe_xx1_1,axe_out_channels1_0,axe_xx1_2;2720;axe_xx2_0,axe_yy2_0,axe_xx2_1,axe_out_channels2_0,axe_xx2_2;3808;X:17, Y:5, X:1, F:4, C:2, W:3, X:8, H:3, W:1, H:1, X:1, Y:9, C:32, F:32, ;1698.2645070552826
168;0;Yolo9000_04;32.6626184;0.060963579763987266;2;axe_xx1_0,axe_yy1_0,axe_xx1_1,axe_out_channels1_0;340;axe_xx2_0,axe_yy2_0,axe_xx2_1,axe_out_channels2_0;476;X:1, Y:5, X:17, F:4, C:4, W:3, X:8, H:3, W:1, H:1, X:1, Y:9, C:16, F:32, ;1703.5442390441895
168;1;Yolo9000_04;30.818384899999995;0.07863502788255318;2;axe_xx1_0,axe_yy1_0,axe_xx1_1,axe_out_channels1_0,axe_xx1_2;2720;axe_xx2_0,axe_yy2_0,axe_xx2_1,axe_out_channels2_0,axe_xx2_2;3808;X:1, Y:5, X:17, F:4, C:4, W:3, X:8, H:3, W:1, H:1, X:1, Y:9, C:16, F:32, ;1708.7201657295227
169;0;Yolo9000_04;32.7092933;0.04656038228805616;2;axe_xx1_0,axe_yy1_0,axe_xx1_1,axe_out_channels1_0;340;axe_xx2_0,axe_yy2_0,axe_xx2_1,axe_out_channels2_0;476;X:17, Y:5, X:1, F:4, C:4, W:3, X:8, H:3, W:1, H:1, X:1, Y:9, C:16, F:32, ;1713.9953298568726
169;1;Yolo9000_04;30.844975499999997;0.06546646978301114;2;axe_xx1_0,axe_yy1_0,axe_xx1_1,axe_out_channels1_0,axe_xx1_2;2720;axe_xx2_0,axe_yy2_0,axe_xx2_1,axe_out_channels2_0,axe_xx2_2;3808;X:17, Y:5, X:1, F:4, C:4, W:3, X:8, H:3, W:1, H:1, X:1, Y:9, C:16, F:32, ;1719.1672320365906
170;0;Yolo9000_04;25.5480147;0.0719139575451801;1;axe_xx1_1;136;;;Y:34, X:1, F:2, C:1, H:3, X:136, W:3, H:1, X:1, Y:4, C:64, F:64, ;1723.8558099269867
170;1;Yolo9000_04;23.610550099999998;0.09193391529076748;1;axe_yy1_0,axe_xx1_0,axe_out_channels1_0,axe_xx1_1;9248;;;Y:34, X:1, F:2, C:1, H:3, X:136, W:3, H:1, X:1, Y:4, C:64, F:64, ;1728.4351572990417
171;0;Yolo9000_04;30.328555;0.2062632957493894;2;axe_yy1_1,axe_xx1_0;680;axe_yy2_1,axe_xx2_0;952;Y:1, F:8, C:2, Y:5, X:136, W:3, W:1, H:3, X:1, Y:9, C:32, F:16, ;1733.615596294403
171;1;Yolo9000_04;27.2053181;0.1506429699411487;2;axe_yy1_0,axe_out_channels1_0,axe_yy1_1,axe_xx1_0;5440;axe_yy2_0,axe_out_channels2_0,axe_yy2_1,axe_xx2_0;7616;Y:1, F:8, C:2, Y:5, X:136, W:3, W:1, H:3, X:1, Y:9, C:32, F:16, ;1738.6711781024933
172;0;Yolo9000_04;28.6421423;0.19795534455985192;2;axe_yy1_1,axe_xx1_0;136;axe_yy2_1,axe_xx2_0;136;Y:5, F:8, C:2, Y:1, X:136, W:3, W:1, H:3, X:1, Y:9, C:32, F:16, ;1743.8048870563507
172;1;Yolo9000_04;26.6441672;0.27367750094182064;2;axe_yy1_0,axe_out_channels1_0,axe_yy1_1,axe_xx1_0;5440;axe_yy2_0,axe_out_channels2_0,axe_yy2_1,axe_xx2_0;7616;Y:5, F:8, C:2, Y:1, X:136, W:3, W:1, H:3, X:1, Y:9, C:32, F:16, ;1748.8244178295135
173;0;Yolo9000_04;28.578166300000003;0.17638983726680557;2;axe_yy1_1,axe_xx1_0;136;axe_yy2_1,axe_xx2_0;272;Y:4, F:8, C:2, Y:1, X:136, W:3, W:1, H:3, X:1, Y:10, C:32, F:16, ;1753.9165601730347
173;1;Yolo9000_04;26.138957200000004;0.14708929578239208;2;axe_yy1_0,axe_out_channels1_0,axe_yy1_1,axe_xx1_0;4352;axe_yy2_0,axe_out_channels2_0,axe_yy2_1,axe_xx2_0;8704;Y:4, F:8, C:2, Y:1, X:136, W:3, W:1, H:3, X:1, Y:10, C:32, F:16, ;1758.8867030143738
174;0;Yolo9000_04;29.0470408;0.28782952920810556;2;axe_yy1_1,axe_xx1_0;272;axe_yy2_1,axe_xx2_0;136;Y:4, F:8, C:2, Y:2, X:136, W:3, W:1, H:3, X:1, Y:10, C:32, F:16, ;1763.893845319748
174;1;Yolo9000_04;26.811472199999997;0.1591473451866542;2;axe_yy1_0,axe_out_channels1_0,axe_yy1_1,axe_xx1_0;8704;axe_yy2_0,axe_out_channels2_0,axe_yy2_1,axe_xx2_0;4352;Y:4, F:8, C:2, Y:2, X:136, W:3, W:1, H:3, X:1, Y:10, C:32, F:16, ;1768.7782649993896
175;0;Yolo9000_04;28.961717599999997;0.2890701930964868;2;axe_yy1_1,axe_xx1_0;272;axe_yy2_1,axe_xx2_0;136;Y:4, F:8, C:2, Y:2, X:136, W:3, W:1, H:3, X:1, Y:11, C:32, F:16, ;1773.7967946529388
175;1;Yolo9000_04;26.7125714;0.24757073712949212;2;axe_yy1_0,axe_out_channels1_0,axe_yy1_1,axe_xx1_0;8704;axe_yy2_0,axe_out_channels2_0,axe_yy2_1,axe_xx2_0;4352;Y:4, F:8, C:2, Y:2, X:136, W:3, W:1, H:3, X:1, Y:11, C:32, F:16, ;1778.6983177661896
176;0;Yolo9000_04;29.8130234;0.36772063546589256;2;axe_yy1_1,axe_xx1_0;272;axe_yy2_1,axe_xx2_0;272;Y:5, F:8, C:2, Y:2, X:136, W:3, W:1, H:3, X:1, Y:11, C:32, F:16, ;1783.7689909934998
176;1;Yolo9000_04;26.6874124;0.2843568807654208;2;axe_yy1_0,axe_out_channels1_0,axe_yy1_1,axe_xx1_0;10880;axe_yy2_0,axe_out_channels2_0,axe_yy2_1,axe_xx2_0;2176;Y:5, F:8, C:2, Y:2, X:136, W:3, W:1, H:3, X:1, Y:11, C:32, F:16, ;1788.718847990036
177;0;Yolo9000_04;29.5341855;0.1194793467702687;2;axe_yy1_1,axe_xx1_0;544;axe_yy2_1,axe_xx2_0;544;Y:1, F:8, C:2, Y:4, X:136, W:3, W:1, H:3, X:1, Y:10, C:32, F:16, ;1793.828411102295
177;1;Yolo9000_04;26.504075699999998;0.2060773769704231;2;axe_yy1_0,axe_out_channels1_0,axe_yy1_1,axe_xx1_0;4352;axe_yy2_0,axe_out_channels2_0,axe_yy2_1,axe_xx2_0;8704;Y:1, F:8, C:2, Y:4, X:136, W:3, W:1, H:3, X:1, Y:10, C:32, F:16, ;1798.8146181106567
178;0;Yolo9000_04;30.228876099999997;0.1855663915602438;2;axe_yy1_1,axe_xx1_0;544;axe_yy2_1,axe_xx2_0;544;Y:2, F:8, C:2, Y:4, X:136, W:3, W:1, H:3, X:1, Y:10, C:32, F:16, ;1803.8704147338867
178;1;Yolo9000_04;27.245252299999997;0.14639349838913582;2;axe_yy1_0,axe_out_channels1_0,axe_yy1_1,axe_xx1_0;8704;axe_yy2_0,axe_out_channels2_0,axe_yy2_1,axe_xx2_0;4352;Y:2, F:8, C:2, Y:4, X:136, W:3, W:1, H:3, X:1, Y:10, C:32, F:16, ;1808.783597946167
179;0;Yolo9000_04;29.9988501;0.22021617585792788;2;axe_yy1_1,axe_xx1_0;544;axe_yy2_1,axe_xx2_0;544;Y:2, F:8, C:2, Y:4, X:136, W:3, W:1, H:3, X:1, Y:11, C:32, F:16, ;1813.8194620609283
179;1;Yolo9000_04;26.647249500000004;0.20214720257982838;2;axe_yy1_0,axe_out_channels1_0,axe_yy1_1,axe_xx1_0;8704;axe_yy2_0,axe_out_channels2_0,axe_yy2_1,axe_xx2_0;4352;Y:2, F:8, C:2, Y:4, X:136, W:3, W:1, H:3, X:1, Y:11, C:32, F:16, ;1818.710713148117
180;0;Yolo9000_04;29.6864109;0.2976270530820245;2;axe_yy1_1,axe_xx1_0;680;axe_yy2_1,axe_xx2_0;136;Y:2, F:8, C:2, Y:5, X:136, W:3, W:1, H:3, X:1, Y:11, C:32, F:16, ;1823.7867891788483
180;1;Yolo9000_04;26.6678431;0.16178745430561112;2;axe_yy1_0,axe_out_channels1_0,axe_yy1_1,axe_xx1_0;10880;axe_yy2_0,axe_out_channels2_0,axe_yy2_1,axe_xx2_0;2176;Y:2, F:8, C:2, Y:5, X:136, W:3, W:1, H:3, X:1, Y:11, C:32, F:16, ;1828.7187645435333
181;0;Yolo9000_04;30.4180883;0.22479971925562997;2;axe_yy1_1,axe_xx1_0;952;axe_yy2_1,axe_xx2_0;816;Y:1, F:8, C:2, Y:7, X:136, W:3, W:1, H:3, X:1, Y:10, C:32, F:16, ;1833.7560966014862
181;1;Yolo9000_04;27.4022487;0.20158058537569984;2;axe_yy1_0,axe_out_channels1_0,axe_yy1_1,axe_xx1_0;7616;axe_yy2_0,axe_out_channels2_0,axe_yy2_1,axe_xx2_0;6528;Y:1, F:8, C:2, Y:7, X:136, W:3, W:1, H:3, X:1, Y:10, C:32, F:16, ;1838.6635348796844
182;0;Yolo9000_04;28.5256644;0.23443568691144248;2;axe_yy1_1,axe_xx1_0;136;axe_yy2_1,axe_xx2_0;136;Y:7, F:8, C:2, Y:1, X:136, W:3, W:1, H:3, X:1, Y:10, C:32, F:16, ;1843.6401805877686
182;1;Yolo9000_04;26.6740362;0.2589548647010903;2;axe_yy1_0,axe_out_channels1_0,axe_yy1_1,axe_xx1_0;7616;axe_yy2_0,axe_out_channels2_0,axe_yy2_1,axe_xx2_0;6528;Y:7, F:8, C:2, Y:1, X:136, W:3, W:1, H:3, X:1, Y:10, C:32, F:16, ;1848.511878490448
183;0;Yolo9000_04;28.311529999999998;0.47401809239985754;2;axe_yy1_1,axe_xx1_0;136;axe_yy2_1,axe_xx2_0;136;Y:11, F:8, C:2, Y:1, X:136, W:3, W:1, H:3, X:1, Y:10, C:32, F:16, ;1853.5268387794495
183;1;Yolo9000_04;26.592528499999997;0.35718308255914133;2;axe_yy1_0,axe_out_channels1_0,axe_yy1_1,axe_xx1_0;11968;axe_yy2_0,axe_out_channels2_0,axe_yy2_1,axe_xx2_0;2176;Y:11, F:8, C:2, Y:1, X:136, W:3, W:1, H:3, X:1, Y:10, C:32, F:16, ;1858.4425139427185
184;0;Yolo9000_04;30.905004399999996;0.10161423671927088;2;axe_xx1_0,axe_yy1_0,axe_xx1_1,axe_out_channels1_0;748;axe_xx2_0,axe_yy2_0,axe_xx2_1,axe_out_channels2_0;68;X:1, Y:11, X:17, F:4, C:2, W:3, X:8, H:3, W:1, H:1, X:1, Y:11, C:32, F:32, ;1863.5556609630585
184;1;Yolo9000_04;30.959621700000003;0.15162692178307183;2;axe_xx1_0,axe_yy1_0,axe_xx1_1,axe_out_channels1_0,axe_xx1_2;5984;axe_xx2_0,axe_yy2_0,axe_xx2_1,axe_out_channels2_0,axe_xx2_2;544;X:1, Y:11, X:17, F:4, C:2, W:3, X:8, H:3, W:1, H:1, X:1, Y:11, C:32, F:32, ;1868.6315262317657
185;0;Yolo9000_04;30.868364200000002;0.09966063434255203;2;axe_xx1_0,axe_yy1_0,axe_xx1_1,axe_out_channels1_0;748;axe_xx2_0,axe_yy2_0,axe_xx2_1,axe_out_channels2_0;68;X:17, Y:11, X:1, F:4, C:2, W:3, X:8, H:3, W:1, H:1, X:1, Y:11, C:32, F:32, ;1873.7449214458466
185;1;Yolo9000_04;30.922902500000003;0.08662241279166656;2;axe_xx1_0,axe_yy1_0,axe_xx1_1,axe_out_channels1_0,axe_xx1_2;5984;axe_xx2_0,axe_yy2_0,axe_xx2_1,axe_out_channels2_0,axe_xx2_2;544;X:17, Y:11, X:1, F:4, C:2, W:3, X:8, H:3, W:1, H:1, X:1, Y:11, C:32, F:32, ;1878.8215181827545
186;0;Yolo9000_04;33.4083333;0.04157728661432802;2;axe_xx1_0,axe_yy1_0,axe_xx1_1,axe_out_channels1_0;748;axe_xx2_0,axe_yy2_0,axe_xx2_1,axe_out_channels2_0;68;X:1, Y:11, X:17, F:4, C:4, W:3, X:8, H:3, W:1, H:1, X:1, Y:11, C:16, F:32, ;1884.0100972652435
186;1;Yolo9000_04;32.6965991;0.2121566264656615;2;axe_xx1_0,axe_yy1_0,axe_xx1_1,axe_out_channels1_0,axe_xx1_2;5984;axe_xx2_0,axe_yy2_0,axe_xx2_1,axe_out_channels2_0,axe_xx2_2;544;X:1, Y:11, X:17, F:4, C:4, W:3, X:8, H:3, W:1, H:1, X:1, Y:11, C:16, F:32, ;1889.1473543643951
187;0;Yolo9000_04;33.4851703;0.049775821952127826;2;axe_xx1_0,axe_yy1_0,axe_xx1_1,axe_out_channels1_0;748;axe_xx2_0,axe_yy2_0,axe_xx2_1,axe_out_channels2_0;68;X:17, Y:11, X:1, F:4, C:4, W:3, X:8, H:3, W:1, H:1, X:1, Y:11, C:16, F:32, ;1894.3363859653473
187;1;Yolo9000_04;32.687141600000004;0.1526886073040142;2;axe_xx1_0,axe_yy1_0,axe_xx1_1,axe_out_channels1_0,axe_xx1_2;5984;axe_xx2_0,axe_yy2_0,axe_xx2_1,axe_out_channels2_0,axe_xx2_2;544;X:17, Y:11, X:1, F:4, C:4, W:3, X:8, H:3, W:1, H:1, X:1, Y:11, C:16, F:32, ;1899.4773988723755
188;0;Yolo9000_04;29.7283543;0.21362207284878182;2;axe_yy1_1,axe_xx1_0;272;axe_yy2_1,axe_xx2_0;272;Y:2, F:8, C:2, Y:2, X:136, W:3, W:1, H:3, X:1, Y:9, C:32, F:16, ;1904.5715825557709
188;1;Yolo9000_04;27.5496223;0.14336355208075083;2;axe_yy1_0,axe_out_channels1_0,axe_yy1_1,axe_xx1_0;4352;axe_yy2_0,axe_out_channels2_0,axe_yy2_1,axe_xx2_0;10880;Y:2, F:8, C:2, Y:2, X:136, W:3, W:1, H:3, X:1, Y:9, C:32, F:16, ;1909.5689163208008
189;0;Yolo9000_04;31.0646444;0.25143195615362823;2;axe_yy1_1,axe_xx1_0;1224;axe_yy2_1,axe_xx2_0;680;Y:1, F:8, C:2, Y:9, X:136, W:3, W:1, H:3, X:1, Y:9, C:32, F:16, ;1914.6218819618225
189;1;Yolo9000_04;28.106016699999998;0.21977751313000565;2;axe_yy1_0,axe_out_channels1_0,axe_yy1_1,axe_xx1_0;9792;axe_yy2_0,axe_out_channels2_0,axe_yy2_1,axe_xx2_0;5440;Y:1, F:8, C:2, Y:9, X:136, W:3, W:1, H:3, X:1, Y:9, C:32, F:16, ;1919.5508058071136
190;0;Yolo9000_04;29.1295549;0.2908649419529448;2;axe_yy1_1,axe_xx1_0;136;axe_yy2_1,axe_xx2_0;136;Y:9, F:8, C:2, Y:1, X:136, W:3, W:1, H:3, X:1, Y:9, C:32, F:16, ;1924.5463240146637
190;1;Yolo9000_04;27.4184325;0.2284486147536251;2;axe_yy1_0,axe_out_channels1_0,axe_yy1_1,axe_xx1_0;9792;axe_yy2_0,axe_out_channels2_0,axe_yy2_1,axe_xx2_0;5440;Y:9, F:8, C:2, Y:1, X:136, W:3, W:1, H:3, X:1, Y:9, C:32, F:16, ;1929.450845003128
191;0;Yolo9000_04;30.517066;0.29651776700764493;2;axe_yy1_1,axe_xx1_0;272;axe_yy2_1,axe_xx2_0;272;Y:6, F:8, C:2, Y:2, X:136, W:3, W:1, H:3, X:1, Y:9, C:32, F:16, ;1934.572151184082
191;1;Yolo9000_04;28.043225;0.14045762996078176;2;axe_yy1_0,axe_out_channels1_0,axe_yy1_1,axe_xx1_0;13056;axe_yy2_0,axe_out_channels2_0,axe_yy2_1,axe_xx2_0;2176;Y:6, F:8, C:2, Y:2, X:136, W:3, W:1, H:3, X:1, Y:9, C:32, F:16, ;1939.584656715393
192;0;Yolo9000_04;30.769394899999998;0.27505619763184735;2;axe_yy1_1,axe_xx1_0;272;axe_yy2_1,axe_xx2_0;680;Y:2, F:8, C:2, Y:2, X:136, W:3, W:1, H:3, X:1, Y:9, C:32, F:16, ;1944.7109797000885
192;1;Yolo9000_04;27.820955499999997;0.10874917091844903;2;axe_yy1_0,axe_out_channels1_0,axe_yy1_1,axe_xx1_0;4352;axe_yy2_0,axe_out_channels2_0,axe_yy2_1,axe_xx2_0;10880;Y:2, F:8, C:2, Y:2, X:136, W:3, W:1, H:3, X:1, Y:9, C:32, F:16, ;1949.7203059196472
193;0;Yolo9000_04;30.7658267;0.25396024856817634;2;axe_yy1_1,axe_xx1_0;816;axe_yy2_1,axe_xx2_0;136;Y:2, F:8, C:2, Y:6, X:136, W:3, W:1, H:3, X:1, Y:9, C:32, F:16, ;1954.8437881469727
193;1;Yolo9000_04;28.086073399999997;0.3123376821887492;2;axe_yy1_0,axe_out_channels1_0,axe_yy1_1,axe_xx1_0;13056;axe_yy2_0,axe_out_channels2_0,axe_yy2_1,axe_xx2_0;2176;Y:2, F:8, C:2, Y:6, X:136, W:3, W:1, H:3, X:1, Y:9, C:32, F:16, ;1959.8610033988953
194;0;Yolo9000_04;24.6469011;0.028945834465255716;1;axe_yy1_0,axe_xx1_0,axe_out_channels1_0;136;;;Y:34, X:2, F:2, C:1, H:3, X:68, W:3, H:1, X:1, Y:4, C:64, F:64, ;1964.505998134613
194;1;Yolo9000_04;23.4996839;0.0684554931462049;1;axe_yy1_0,axe_xx1_0,axe_out_channels1_0,axe_xx1_1;9248;;;Y:34, X:2, F:2, C:1, H:3, X:68, W:3, H:1, X:1, Y:4, C:64, F:64, ;1969.0973143577576
195;0;Yolo9000_04;24.887566299999996;0.028944015350500275;1;axe_yy1_0,axe_xx1_0,axe_out_channels1_0;272;;;Y:34, X:4, F:2, C:2, H:3, X:34, W:3, H:1, X:1, Y:4, C:32, F:64, ;1973.7449922561646
195;1;Yolo9000_04;23.8881701;0.02944560595555846;1;axe_yy1_0,axe_xx1_0,axe_out_channels1_0,axe_xx1_1;9248;;;Y:34, X:4, F:2, C:2, H:3, X:34, W:3, H:1, X:1, Y:4, C:32, F:64, ;1978.341722726822
196;0;Yolo9000_04;29.371927499999998;0.02221056897627878;2;axe_xx1_0,axe_yy1_0,axe_xx1_1,axe_out_channels1_0;476;axe_xx2_0,axe_yy2_0,axe_xx2_1,axe_out_channels2_0;408;X:1, Y:7, X:17, F:4, C:1, W:3, X:8, H:3, W:1, H:1, X:1, Y:10, C:64, F:32, ;1983.335179567337
196;1;Yolo9000_04;28.742855300000002;0.03727650206242518;2;axe_xx1_0,axe_yy1_0,axe_xx1_1,axe_out_channels1_0,axe_xx1_2;3808;axe_xx2_0,axe_yy2_0,axe_xx2_1,axe_out_channels2_0,axe_xx2_2;3264;X:1, Y:7, X:17, F:4, C:1, W:3, X:8, H:3, W:1, H:1, X:1, Y:10, C:64, F:32, ;1988.2818388938904
197;0;Yolo9000_04;29.2885231;0.025688034726113463;2;axe_xx1_0,axe_yy1_0,axe_xx1_1,axe_out_channels1_0;476;axe_xx2_0,axe_yy2_0,axe_xx2_1,axe_out_channels2_0;408;X:17, Y:7, X:1, F:4, C:1, W:3, X:8, H:3, W:1, H:1, X:1, Y:10, C:64, F:32, ;1993.2758901119232
197;1;Yolo9000_04;28.6672247;0.042237943181575484;2;axe_xx1_0,axe_yy1_0,axe_xx1_1,axe_out_channels1_0,axe_xx1_2;3808;axe_xx2_0,axe_yy2_0,axe_xx2_1,axe_out_channels2_0,axe_xx2_2;3264;X:17, Y:7, X:1, F:4, C:1, W:3, X:8, H:3, W:1, H:1, X:1, Y:10, C:64, F:32, ;1998.205774307251
198;0;Yolo9000_04;29.218104700000005;0.025051291599635525;2;axe_xx1_0,axe_yy1_0,axe_xx1_1,axe_out_channels1_0;748;axe_xx2_0,axe_yy2_0,axe_xx2_1,axe_out_channels2_0;136;X:1, Y:11, X:17, F:4, C:1, W:3, X:8, H:3, W:1, H:1, X:1, Y:10, C:64, F:32, ;2003.251748085022
198;1;Yolo9000_04;28.568111800000004;0.03761612197927925;2;axe_xx1_0,axe_yy1_0,axe_xx1_1,axe_out_channels1_0,axe_xx1_2;5984;axe_xx2_0,axe_yy2_0,axe_xx2_1,axe_out_channels2_0,axe_xx2_2;1088;X:1, Y:11, X:17, F:4, C:1, W:3, X:8, H:3, W:1, H:1, X:1, Y:10, C:64, F:32, ;2008.2377541065216
199;0;Yolo9000_04;29.162824299999993;0.02675147858362192;2;axe_xx1_0,axe_yy1_0,axe_xx1_1,axe_out_channels1_0;748;axe_xx2_0,axe_yy2_0,axe_xx2_1,axe_out_channels2_0;136;X:17, Y:11, X:1, F:4, C:1, W:3, X:8, H:3, W:1, H:1, X:1, Y:10, C:64, F:32, ;2013.2722129821777
199;1;Yolo9000_04;28.482814800000007;0.027007283257669955;2;axe_xx1_0,axe_yy1_0,axe_xx1_1,axe_out_channels1_0,axe_xx1_2;5984;axe_xx2_0,axe_yy2_0,axe_xx2_1,axe_out_channels2_0,axe_xx2_2;1088;X:17, Y:11, X:1, F:4, C:1, W:3, X:8, H:3, W:1, H:1, X:1, Y:10, C:64, F:32, ;2018.2436051368713
