perf,CACHE_MISS_L1,CACHE_MISS_L2,scheme
65.14,601122,118362,"[V f; U (2, f); U (8, y); T (16, c); Hoist_vars [c]; T (3, h); T (56, x);  T (3, w); T (4, c); T (2, f); T (1, x); T (7, y); T (1, x)]"
69.04,620548,106032,"[V f; U (2, f); U (14, y); T (16, c); Hoist_vars [c]; T (3, h); T (28, x);  T (3, w); T (4, c); T (2, f); T (2, x); T (4, y); T (1, x)]"
67.82,619124,97572,"[V f; U (2, f); U (14, y); T (16, c); Hoist_vars [c]; T (3, h); T (28, x);  T (3, w); T (4, c); T (2, f); T (1, x); T (4, y); T (2, x)]"
69.54,426478,75911,"[V f; U (4, f); U (4, y); U (3, w); T (16, c); Hoist_vars [c]; T (56, x);  T (3, h); T (4, c); T (1, x); T (14, y); T (1, x)]"
73.05,440171,88166,"[V f; U (4, f); U (7, y); T (16, c); Hoist_vars [c]; T (3, h); T (28, x);  T (3, w); T (4, c); T (2, x); T (8, y); T (1, x)]"
72.26,446097,78701,"[V f; U (4, f); U (7, y); T (16, c); Hoist_vars [c]; T (3, h); T (28, x);  T (3, w); T (4, c); T (1, x); T (8, y); T (2, x)]"
69.17,414258,88295,"[V f; U (4, f); U (7, y); U (3, h); T (16, c); Hoist_vars [c]; T (28, x);  T (3, w); T (4, c); T (2, x); T (8, y); T (1, x)]"
69.60,409770,80845,"[V f; U (4, f); U (7, y); U (3, h); T (16, c); Hoist_vars [c]; T (28, x);  T (3, w); T (4, c); T (1, x); T (8, y); T (2, x)]"
73.70,1256773,85582,"[V f; U (4, f); U (7, y); U (3, w); T (64, c); Hoist_vars [c]; T (28, x);  T (3, h); T (1, c); T (2, x); T (8, y); T (1, x)]"
69.12,494997,83360,"[V f; U (4, f); U (7, y); U (3, w); T (16, c); Hoist_vars [c]; T (28, x);  T (3, h); T (4, c); T (2, x); T (8, y); T (1, x)]"
75.32,1260282,77913,"[V f; U (4, f); U (7, y); U (3, w); T (64, c); Hoist_vars [c]; T (28, x);  T (3, h); T (1, c); T (1, x); T (8, y); T (2, x)]"
71.66,498863,77900,"[V f; U (4, f); U (7, y); U (3, w); T (16, c); Hoist_vars [c]; T (28, x);  T (3, h); T (4, c); T (1, x); T (8, y); T (2, x)]"
65.89,625309,104159,"[V f; U (2, f); ULambda y; T (16, c); Hoist_vars [c]; T (3, h); T (28, x);  T (3, w); T (4, c); T (2, f); T (2, x);  Lambda_apply y [((Iter 1), (Arg 11)); ((Iter 3), (Arg 15))]; T (1, x)]"
69.41,627725,99484,"[V f; U (2, f); ULambda y; T (16, c); Hoist_vars [c]; T (3, h); T (28, x);  T (3, w); T (4, c); T (2, f); T (1, x);  Lambda_apply y [((Iter 1), (Arg 11)); ((Iter 3), (Arg 15))]; T (2, x)]"
70.25,701067,91039,"[V f; U (2, f); U (8, y); T (32, c); Hoist_vars [c]; T (3, h); T (28, x);  T (3, w); T (2, c); T (2, f); T (2, x); T (7, y); T (1, x)]"
70.01,622297,90962,"[V f; U (2, f); U (8, y); T (16, c); Hoist_vars [c]; T (3, h); T (28, x);  T (3, w); T (4, c); T (2, f); T (2, x); T (7, y); T (1, x)]"
74.73,703319,81174,"[V f; U (2, f); U (8, y); T (32, c); Hoist_vars [c]; T (3, h); T (28, x);  T (3, w); T (2, c); T (2, f); T (1, x); T (7, y); T (2, x)]"
68.47,620270,82723,"[V f; U (2, f); U (8, y); T (16, c); Hoist_vars [c]; T (3, h); T (28, x);  T (3, w); T (4, c); T (2, f); T (1, x); T (7, y); T (2, x)]"
51.19,781250,270439,"[V f; U (1, f); U (14, y); U (3, h); T (64, c); Hoist_vars [c]; T (3, w);  T (56, x); T (4, y); T (1, c); T (4, f); T (1, y)]"
50.62,781167,270783,"[V f; U (1, f); U (14, y); U (3, h); T (64, c); Hoist_vars [c]; T (3, w);  T (56, x); T (2, y); T (1, c); T (4, f); T (2, y)]"
50.75,782032,205333,"[V f; U (1, f); U (14, y); U (3, h); T (64, c); Hoist_vars [c]; T (3, w);  T (56, x); T (1, y); T (1, c); T (4, f); T (4, y)]"
44.33,1147846,336963,"[V f; U (1, f); U (14, y); U (3, h); T (16, c); Hoist_vars [c]; T (3, w);  T (56, x); T (1, y); T (4, c); T (4, f); T (4, y)]"
72.06,818588,85629,"[V f; U (2, f); U (14, y); T (32, c); Hoist_vars [c]; T (3, h); T (14, x);  T (3, w); T (2, c); T (2, f); T (4, x); T (4, y); T (1, x)]"
70.82,645710,87771,"[V f; U (2, f); U (14, y); T (16, c); Hoist_vars [c]; T (3, h); T (14, x);  T (3, w); T (4, c); T (2, f); T (4, x); T (4, y); T (1, x)]"
72.93,820949,82808,"[V f; U (2, f); U (14, y); T (32, c); Hoist_vars [c]; T (3, h); T (14, x);  T (3, w); T (2, c); T (2, f); T (2, x); T (4, y); T (2, x)]"
72.91,644819,83841,"[V f; U (2, f); U (14, y); T (16, c); Hoist_vars [c]; T (3, h); T (14, x);  T (3, w); T (4, c); T (2, f); T (2, x); T (4, y); T (2, x)]"
73.37,819732,76625,"[V f; U (2, f); U (14, y); T (32, c); Hoist_vars [c]; T (3, h); T (14, x);  T (3, w); T (2, c); T (2, f); T (1, x); T (4, y); T (4, x)]"
71.30,643891,77398,"[V f; U (2, f); U (14, y); T (16, c); Hoist_vars [c]; T (3, h); T (14, x);  T (3, w); T (4, c); T (2, f); T (1, x); T (4, y); T (4, x)]"
69.52,620120,101514,"[V f; U (2, f); ULambda y; T (16, c); Hoist_vars [c]; T (3, h); T (28, x);  T (3, w); T (4, c); T (2, f); T (2, x);  Lambda_apply y [((Iter 2), (Arg 10)); ((Iter 3), (Arg 12))]; T (1, x)]"
72.01,620314,92772,"[V f; U (2, f); ULambda y; T (16, c); Hoist_vars [c]; T (3, h); T (28, x);  T (3, w); T (4, c); T (2, f); T (1, x);  Lambda_apply y [((Iter 2), (Arg 10)); ((Iter 3), (Arg 12))]; T (2, x)]"
69.87,632046,99319,"[V f; U (2, f); ULambda y; T (16, c); Hoist_vars [c]; T (3, h); T (28, x);  T (3, w); T (4, c); T (2, f); T (2, x);  Lambda_apply y [((Iter 3), (Arg 10)); ((Iter 2), (Arg 13))]; T (1, x)]"
68.42,618593,91251,"[V f; U (2, f); ULambda y; T (16, c); Hoist_vars [c]; T (3, h); T (28, x);  T (3, w); T (4, c); T (2, f); T (1, x);  Lambda_apply y [((Iter 3), (Arg 10)); ((Iter 2), (Arg 13))]; T (2, x)]"
71.90,617906,98743,"[V f; U (2, f); ULambda y; T (16, c); Hoist_vars [c]; T (3, h); T (28, x);  T (3, w); T (4, c); T (2, f); T (2, x);  Lambda_apply y [((Iter 4), (Arg 11)); ((Iter 1), (Arg 12))]; T (1, x)]"
68.16,628454,100244,"[V f; U (2, f); ULambda y; T (16, c); Hoist_vars [c]; T (3, h); T (28, x);  T (3, w); T (4, c); T (2, f); T (1, x);  Lambda_apply y [((Iter 4), (Arg 11)); ((Iter 1), (Arg 12))]; T (2, x)]"
54.34,581372,100251,"[V f; U (2, f); ULambda y; U (3, h); T (16, c); Hoist_vars [c]; T (28, x);  T (3, w); T (4, c); T (2, f); T (2, x);  Lambda_apply y [((Iter 2), (Arg 10)); ((Iter 3), (Arg 12))]; T (1, x)]"
56.00,580181,93333,"[V f; U (2, f); ULambda y; U (3, h); T (16, c); Hoist_vars [c]; T (28, x);  T (3, w); T (4, c); T (2, f); T (1, x);  Lambda_apply y [((Iter 2), (Arg 10)); ((Iter 3), (Arg 12))]; T (2, x)]"
60.95,612514,98004,"[V f; U (2, f); ULambda y; U (3, h); T (16, c); Hoist_vars [c]; T (28, x);  T (3, w); T (4, c); T (2, f); T (2, x);  Lambda_apply y [((Iter 4), (Arg 11)); ((Iter 1), (Arg 12))]; T (1, x)]"
59.25,616139,90733,"[V f; U (2, f); ULambda y; U (3, h); T (16, c); Hoist_vars [c]; T (28, x);  T (3, w); T (4, c); T (2, f); T (1, x);  Lambda_apply y [((Iter 4), (Arg 11)); ((Iter 1), (Arg 12))]; T (2, x)]"
75.26,447954,86873,"[V f; U (4, f); ULambda y; T (16, c); Hoist_vars [c]; T (3, h); T (28, x);  T (3, w); T (4, c); T (2, x);  Lambda_apply y [((Iter 7), (Arg 6)); ((Iter 2), (Arg 7))]; T (1, x)]"
73.37,475141,79001,"[V f; U (4, f); ULambda y; T (16, c); Hoist_vars [c]; T (3, h); T (28, x);  T (3, w); T (4, c); T (1, x);  Lambda_apply y [((Iter 7), (Arg 6)); ((Iter 2), (Arg 7))]; T (2, x)]"
76.74,1381129,83920,"[V f; U (4, f); ULambda y; U (3, w); T (64, c); Hoist_vars [c]; T (28, x);  T (3, h); T (1, c); T (2, x);  Lambda_apply y [((Iter 7), (Arg 6)); ((Iter 2), (Arg 7))]; T (1, x)]"
78.20,1380644,76743,"[V f; U (4, f); ULambda y; U (3, w); T (64, c); Hoist_vars [c]; T (28, x);  T (3, h); T (1, c); T (1, x);  Lambda_apply y [((Iter 7), (Arg 6)); ((Iter 2), (Arg 7))]; T (2, x)]"
76.13,568041,78417,"[V f; U (4, f); U (4, y); U (3, w); T (32, c); Hoist_vars [c]; T (56, x);  T (3, h); T (2, c); T (1, x); T (14, y); T (1, x)]"
74.19,754790,93152,"[V f; U (2, f); ULambda y; T (32, c); Hoist_vars [c]; T (3, h); T (28, x);  T (3, w); T (2, c); T (2, f); T (2, x);  Lambda_apply y [((Iter 5), (Arg 9)); ((Iter 1), (Arg 11))]; T (1, x)]"
70.44,618271,93576,"[V f; U (2, f); ULambda y; T (16, c); Hoist_vars [c]; T (3, h); T (28, x);  T (3, w); T (4, c); T (2, f); T (2, x);  Lambda_apply y [((Iter 5), (Arg 9)); ((Iter 1), (Arg 11))]; T (1, x)]"
66.03,761314,111192,"[V f; U (2, f); ULambda y; T (32, c); Hoist_vars [c]; T (3, h); T (28, x);  T (3, w); T (2, c); T (2, f); T (1, x);  Lambda_apply y [((Iter 5), (Arg 9)); ((Iter 1), (Arg 11))]; T (2, x)]"
70.86,622049,88621,"[V f; U (2, f); ULambda y; T (16, c); Hoist_vars [c]; T (3, h); T (28, x);  T (3, w); T (4, c); T (2, f); T (1, x);  Lambda_apply y [((Iter 5), (Arg 9)); ((Iter 1), (Arg 11))]; T (2, x)]"
69.51,642314,95153,"[V f; U (2, f); ULambda y; U (3, h); T (32, c); Hoist_vars [c]; T (28, x);  T (3, w); T (2, c); T (2, f); T (2, x);  Lambda_apply y [((Iter 5), (Arg 9)); ((Iter 1), (Arg 11))]; T (1, x)]"
69.47,599326,97890,"[V f; U (2, f); ULambda y; U (3, h); T (16, c); Hoist_vars [c]; T (28, x);  T (3, w); T (4, c); T (2, f); T (2, x);  Lambda_apply y [((Iter 5), (Arg 9)); ((Iter 1), (Arg 11))]; T (1, x)]"
72.95,656498,82158,"[V f; U (2, f); ULambda y; U (3, h); T (32, c); Hoist_vars [c]; T (28, x);  T (3, w); T (2, c); T (2, f); T (1, x);  Lambda_apply y [((Iter 5), (Arg 9)); ((Iter 1), (Arg 11))]; T (2, x)]"
