perf,CACHE_MISS_L1,CACHE_MISS_L2,scheme
72.82,964485,96439,"[V f; U (4, f); U (7, y); T (3, c); Hoist_vars [c]; T (7, w); T (7, h);  T (112, x); T (16, y); T (1, c); T (1, y)]"
71.10,1008146,99344,"[V f; U (4, f); U (7, y); T (3, c); Hoist_vars [c]; T (7, w); T (7, h);  T (112, x); T (8, y); T (1, c); T (2, y)]"
71.16,992410,98953,"[V f; U (4, f); U (7, y); T (3, c); Hoist_vars [c]; T (7, w); T (7, h);  T (112, x); T (4, y); T (1, c); T (4, y)]"
69.39,1032625,97550,"[V f; U (4, f); U (7, y); T (3, c); Hoist_vars [c]; T (7, w); T (7, h);  T (112, x); T (2, y); T (1, c); T (8, y)]"
70.86,1005328,96169,"[V f; U (4, f); U (7, y); T (3, c); Hoist_vars [c]; T (7, w); T (7, h);  T (112, x); T (1, y); T (1, c); T (16, y)]"
26.14,2908943,135563,"[V f; U (2, f); U (14, y); T (3, c); Hoist_vars [c]; T (28, x); T (1, c);  T (7, w); T (7, h); T (4, x); T (8, y); T (2, f); T (1, y)]"
25.90,2909250,141042,"[V f; U (2, f); U (14, y); T (3, c); Hoist_vars [c]; T (28, x); T (1, c);  T (7, w); T (7, h); T (4, x); T (4, y); T (2, f); T (2, y)]"
26.21,2909205,127166,"[V f; U (2, f); U (14, y); T (3, c); Hoist_vars [c]; T (28, x); T (1, c);  T (7, w); T (7, h); T (4, x); T (2, y); T (2, f); T (4, y)]"
25.12,2928907,147488,"[V f; U (2, f); U (14, y); T (3, c); Hoist_vars [c]; T (28, x); T (1, c);  T (7, w); T (7, h); T (4, x); T (1, y); T (2, f); T (8, y)]"
26.41,2830438,155117,"[V f; U (2, f); U (14, y); T (3, c); Hoist_vars [c]; T (16, x); T (1, c);  T (7, w); T (7, h); T (7, x); T (8, y); T (2, f); T (1, y)]"
26.37,2827689,153974,"[V f; U (2, f); U (14, y); T (3, c); Hoist_vars [c]; T (16, x); T (1, c);  T (7, w); T (7, h); T (7, x); T (4, y); T (2, f); T (2, y)]"
26.04,2827603,142286,"[V f; U (2, f); U (14, y); T (3, c); Hoist_vars [c]; T (16, x); T (1, c);  T (7, w); T (7, h); T (7, x); T (2, y); T (2, f); T (4, y)]"
26.32,2826963,117564,"[V f; U (2, f); U (14, y); T (3, c); Hoist_vars [c]; T (16, x); T (1, c);  T (7, w); T (7, h); T (7, x); T (1, y); T (2, f); T (8, y)]"
25.92,2834668,161119,"[V f; U (2, f); U (14, y); T (3, c); Hoist_vars [c]; T (14, x); T (1, c);  T (7, w); T (7, h); T (8, x); T (8, y); T (2, f); T (1, y)]"
25.85,2851565,163475,"[V f; U (2, f); U (14, y); T (3, c); Hoist_vars [c]; T (14, x); T (1, c);  T (7, w); T (7, h); T (8, x); T (4, y); T (2, f); T (2, y)]"
25.77,2852438,153260,"[V f; U (2, f); U (14, y); T (3, c); Hoist_vars [c]; T (14, x); T (1, c);  T (7, w); T (7, h); T (8, x); T (2, y); T (2, f); T (4, y)]"
25.98,2832758,121264,"[V f; U (2, f); U (14, y); T (3, c); Hoist_vars [c]; T (14, x); T (1, c);  T (7, w); T (7, h); T (8, x); T (1, y); T (2, f); T (8, y)]"
29.22,1688694,176792,"[V f; U (2, f); U (14, y); T (3, c); Hoist_vars [c]; T (8, x); T (1, c);  T (7, w); T (7, h); T (14, x); T (8, y); T (2, f); T (1, y)]"
29.37,1683301,177187,"[V f; U (2, f); U (14, y); T (3, c); Hoist_vars [c]; T (8, x); T (1, c);  T (7, w); T (7, h); T (14, x); T (4, y); T (2, f); T (2, y)]"
29.59,1684607,160517,"[V f; U (2, f); U (14, y); T (3, c); Hoist_vars [c]; T (8, x); T (1, c);  T (7, w); T (7, h); T (14, x); T (2, y); T (2, f); T (4, y)]"
29.59,1688173,131274,"[V f; U (2, f); U (14, y); T (3, c); Hoist_vars [c]; T (8, x); T (1, c);  T (7, w); T (7, h); T (14, x); T (1, y); T (2, f); T (8, y)]"
33.89,1135325,180908,"[V f; U (2, f); U (14, y); T (3, c); Hoist_vars [c]; T (7, x); T (1, c);  T (7, w); T (7, h); T (16, x); T (8, y); T (2, f); T (1, y)]"
34.32,1136767,169510,"[V f; U (2, f); U (14, y); T (3, c); Hoist_vars [c]; T (7, x); T (1, c);  T (7, w); T (7, h); T (16, x); T (4, y); T (2, f); T (2, y)]"
34.47,1135167,155052,"[V f; U (2, f); U (14, y); T (3, c); Hoist_vars [c]; T (7, x); T (1, c);  T (7, w); T (7, h); T (16, x); T (2, y); T (2, f); T (4, y)]"
34.92,1136553,128330,"[V f; U (2, f); U (14, y); T (3, c); Hoist_vars [c]; T (7, x); T (1, c);  T (7, w); T (7, h); T (16, x); T (1, y); T (2, f); T (8, y)]"
31.34,362344,139215,"[V f; U (2, f); U (14, y); T (3, c); Hoist_vars [c]; T (4, x); T (1, c);  T (7, w); T (7, h); T (28, x); T (8, y); T (2, f); T (1, y)]"
31.49,362423,136609,"[V f; U (2, f); U (14, y); T (3, c); Hoist_vars [c]; T (4, x); T (1, c);  T (7, w); T (7, h); T (28, x); T (4, y); T (2, f); T (2, y)]"
31.46,362333,124939,"[V f; U (2, f); U (14, y); T (3, c); Hoist_vars [c]; T (4, x); T (1, c);  T (7, w); T (7, h); T (28, x); T (2, y); T (2, f); T (4, y)]"
31.77,362418,102122,"[V f; U (2, f); U (14, y); T (3, c); Hoist_vars [c]; T (4, x); T (1, c);  T (7, w); T (7, h); T (28, x); T (1, y); T (2, f); T (8, y)]"
29.85,477058,137906,"[V f; U (2, f); U (14, y); T (3, c); Hoist_vars [c]; T (2, x); T (1, c);  T (7, w); T (7, h); T (56, x); T (8, y); T (2, f); T (1, y)]"
30.20,470829,121939,"[V f; U (2, f); U (14, y); T (3, c); Hoist_vars [c]; T (2, x); T (1, c);  T (7, w); T (7, h); T (56, x); T (4, y); T (2, f); T (2, y)]"
29.97,471094,107877,"[V f; U (2, f); U (14, y); T (3, c); Hoist_vars [c]; T (2, x); T (1, c);  T (7, w); T (7, h); T (56, x); T (2, y); T (2, f); T (4, y)]"
30.38,471009,91335,"[V f; U (2, f); U (14, y); T (3, c); Hoist_vars [c]; T (2, x); T (1, c);  T (7, w); T (7, h); T (56, x); T (1, y); T (2, f); T (8, y)]"
36.19,802337,127984,"[V f; U (2, f); U (14, y); T (3, c); Hoist_vars [c]; T (1, x); T (1, c);  T (7, w); T (7, h); T (112, x); T (8, y); T (2, f); T (1, y)]"
37.02,801908,123119,"[V f; U (2, f); U (14, y); T (3, c); Hoist_vars [c]; T (1, x); T (1, c);  T (7, w); T (7, h); T (112, x); T (4, y); T (2, f); T (2, y)]"
36.79,800334,109161,"[V f; U (2, f); U (14, y); T (3, c); Hoist_vars [c]; T (1, x); T (1, c);  T (7, w); T (7, h); T (112, x); T (2, y); T (2, f); T (4, y)]"
37.29,800745,89781,"[V f; U (2, f); U (14, y); T (3, c); Hoist_vars [c]; T (1, x); T (1, c);  T (7, w); T (7, h); T (112, x); T (1, y); T (2, f); T (8, y)]"
26.47,2899944,145122,"[V f; U (2, f); ULambda y; T (3, c); Hoist_vars [c]; T (28, x); T (1, c);  T (7, w); T (7, h); T (4, x);  Lambda_apply y [((Iter 1), (Arg 8)); ((Iter 8), (Arg 13))]; T (2, f);  T (1, y)]"
26.39,2900220,110192,"[V f; U (2, f); ULambda y; T (3, c); Hoist_vars [c]; T (28, x); T (1, c);  T (7, w); T (7, h); T (4, x); T (1, y); T (2, f);  Lambda_apply y [((Iter 1), (Arg 8)); ((Iter 8), (Arg 13))]]"
28.48,2813739,155501,"[V f; U (2, f); ULambda y; T (3, c); Hoist_vars [c]; T (16, x); T (1, c);  T (7, w); T (7, h); T (7, x);  Lambda_apply y [((Iter 1), (Arg 8)); ((Iter 8), (Arg 13))]; T (2, f);  T (1, y)]"
28.77,2812889,115928,"[V f; U (2, f); ULambda y; T (3, c); Hoist_vars [c]; T (16, x); T (1, c);  T (7, w); T (7, h); T (7, x); T (1, y); T (2, f);  Lambda_apply y [((Iter 1), (Arg 8)); ((Iter 8), (Arg 13))]]"
27.42,2833157,188067,"[V f; U (2, f); ULambda y; T (3, c); Hoist_vars [c]; T (14, x); T (1, c);  T (7, w); T (7, h); T (8, x);  Lambda_apply y [((Iter 1), (Arg 8)); ((Iter 8), (Arg 13))]; T (2, f);  T (1, y)]"
27.97,2829254,126323,"[V f; U (2, f); ULambda y; T (3, c); Hoist_vars [c]; T (14, x); T (1, c);  T (7, w); T (7, h); T (8, x); T (1, y); T (2, f);  Lambda_apply y [((Iter 1), (Arg 8)); ((Iter 8), (Arg 13))]]"
30.93,1611681,174744,"[V f; U (2, f); ULambda y; T (3, c); Hoist_vars [c]; T (8, x); T (1, c);  T (7, w); T (7, h); T (14, x);  Lambda_apply y [((Iter 1), (Arg 8)); ((Iter 8), (Arg 13))]; T (2, f);  T (1, y)]"
31.86,1580572,123709,"[V f; U (2, f); ULambda y; T (3, c); Hoist_vars [c]; T (8, x); T (1, c);  T (7, w); T (7, h); T (14, x); T (1, y); T (2, f);  Lambda_apply y [((Iter 1), (Arg 8)); ((Iter 8), (Arg 13))]]"
34.68,1066149,176621,"[V f; U (2, f); ULambda y; T (3, c); Hoist_vars [c]; T (7, x); T (1, c);  T (7, w); T (7, h); T (16, x);  Lambda_apply y [((Iter 1), (Arg 8)); ((Iter 8), (Arg 13))]; T (2, f);  T (1, y)]"
35.82,1057014,119168,"[V f; U (2, f); ULambda y; T (3, c); Hoist_vars [c]; T (7, x); T (1, c);  T (7, w); T (7, h); T (16, x); T (1, y); T (2, f);  Lambda_apply y [((Iter 1), (Arg 8)); ((Iter 8), (Arg 13))]]"
32.56,375200,135359,"[V f; U (2, f); ULambda y; T (3, c); Hoist_vars [c]; T (4, x); T (1, c);  T (7, w); T (7, h); T (28, x);  Lambda_apply y [((Iter 1), (Arg 8)); ((Iter 8), (Arg 13))]; T (2, f);  T (1, y)]"
32.87,377084,97248,"[V f; U (2, f); ULambda y; T (3, c); Hoist_vars [c]; T (4, x); T (1, c);  T (7, w); T (7, h); T (28, x); T (1, y); T (2, f);  Lambda_apply y [((Iter 1), (Arg 8)); ((Iter 8), (Arg 13))]]"
31.37,507520,125410,"[V f; U (2, f); ULambda y; T (3, c); Hoist_vars [c]; T (2, x); T (1, c);  T (7, w); T (7, h); T (56, x);  Lambda_apply y [((Iter 1), (Arg 8)); ((Iter 8), (Arg 13))]; T (2, f);  T (1, y)]"
