perf,CACHE_MISS_L1,CACHE_MISS_L2,scheme
32.07,15380519,5618080,"[V f; U (2, f); ULambda y; T (32, c); Hoist_vars [c]; T (3, w); T (3, h);  T (17, x); T (16, c);  Lambda_apply y [((Iter 1), (Arg 8)); ((Iter 1), (Arg 9))]; T (32, f);  T (1, c); T (1, c)]"
47.32,17356098,1819957,"[V f; U (2, f); ULambda y; T (16, c); Hoist_vars [c]; T (3, w); T (3, h);  T (17, x); T (32, c);  Lambda_apply y [((Iter 1), (Arg 8)); ((Iter 1), (Arg 9))]; T (32, f);  T (1, c); T (1, c)]"
42.28,23290423,2406617,"[V f; U (2, f); ULambda y; T (8, c); Hoist_vars [c]; T (3, w); T (3, h);  T (17, x); T (64, c);  Lambda_apply y [((Iter 1), (Arg 8)); ((Iter 1), (Arg 9))]; T (32, f);  T (1, c); T (1, c)]"
33.00,30173296,4501419,"[V f; U (2, f); ULambda y; T (4, c); Hoist_vars [c]; T (3, w); T (3, h);  T (17, x); T (128, c);  Lambda_apply y [((Iter 1), (Arg 8)); ((Iter 1), (Arg 9))]; T (32, f);  T (1, c); T (1, c)]"
33.67,16344864,8214518,"[V f; U (4, f); ULambda y; U (3, h); T (32, c); Hoist_vars [c]; T (3, w);  T (17, x); T (16, c);  Lambda_apply y [((Iter 1), (Arg 5)); ((Iter 2), (Arg 6))]; T (16, f);  T (1, c); T (1, c)]"
51.99,17021348,2161126,"[V f; U (4, f); ULambda y; U (3, h); T (16, c); Hoist_vars [c]; T (3, w);  T (17, x); T (32, c);  Lambda_apply y [((Iter 1), (Arg 5)); ((Iter 2), (Arg 6))]; T (16, f);  T (1, c); T (1, c)]"
54.07,18632843,2602168,"[V f; U (4, f); ULambda y; U (3, h); T (8, c); Hoist_vars [c]; T (3, w);  T (17, x); T (64, c);  Lambda_apply y [((Iter 1), (Arg 5)); ((Iter 2), (Arg 6))]; T (16, f);  T (1, c); T (1, c)]"
33.57,16380710,8095234,"[V f; U (4, f); ULambda y; U (3, h); T (32, c); Hoist_vars [c]; T (3, w);  T (17, x); T (16, c);  Lambda_apply y [((Iter 2), (Arg 5)); ((Iter 1), (Arg 7))]; T (16, f);  T (1, c); T (1, c)]"
50.34,17194313,2156914,"[V f; U (4, f); ULambda y; U (3, h); T (16, c); Hoist_vars [c]; T (3, w);  T (17, x); T (32, c);  Lambda_apply y [((Iter 2), (Arg 5)); ((Iter 1), (Arg 7))]; T (16, f);  T (1, c); T (1, c)]"
48.68,18921162,2617588,"[V f; U (4, f); ULambda y; U (3, h); T (8, c); Hoist_vars [c]; T (3, w);  T (17, x); T (64, c);  Lambda_apply y [((Iter 2), (Arg 5)); ((Iter 1), (Arg 7))]; T (16, f);  T (1, c); T (1, c)]"
33.25,20541725,8029498,"[V f; U (4, f); ULambda y; U (3, w); T (32, c); Hoist_vars [c]; T (3, h);  T (17, x); T (16, c);  Lambda_apply y [((Iter 1), (Arg 5)); ((Iter 2), (Arg 6))]; T (16, f);  T (1, c); T (1, c)]"
53.82,20656249,2341869,"[V f; U (4, f); ULambda y; U (3, w); T (16, c); Hoist_vars [c]; T (3, h);  T (17, x); T (32, c);  Lambda_apply y [((Iter 1), (Arg 5)); ((Iter 2), (Arg 6))]; T (16, f);  T (1, c); T (1, c)]"
50.87,23115904,3003580,"[V f; U (4, f); ULambda y; U (3, w); T (8, c); Hoist_vars [c]; T (3, h);  T (17, x); T (64, c);  Lambda_apply y [((Iter 1), (Arg 5)); ((Iter 2), (Arg 6))]; T (16, f);  T (1, c); T (1, c)]"
32.79,21651625,8461237,"[V f; U (4, f); ULambda y; U (3, w); T (32, c); Hoist_vars [c]; T (3, h);  T (17, x); T (16, c);  Lambda_apply y [((Iter 2), (Arg 5)); ((Iter 1), (Arg 7))]; T (16, f);  T (1, c); T (1, c)]"
50.35,21863411,2381614,"[V f; U (4, f); ULambda y; U (3, w); T (16, c); Hoist_vars [c]; T (3, h);  T (17, x); T (32, c);  Lambda_apply y [((Iter 2), (Arg 5)); ((Iter 1), (Arg 7))]; T (16, f);  T (1, c); T (1, c)]"
48.05,23900898,2886239,"[V f; U (4, f); ULambda y; U (3, w); T (8, c); Hoist_vars [c]; T (3, h);  T (17, x); T (64, c);  Lambda_apply y [((Iter 2), (Arg 5)); ((Iter 1), (Arg 7))]; T (16, f);  T (1, c); T (1, c)]"
32.55,15361706,5702249,"[V f; U (2, f); ULambda y; T (32, c); Hoist_vars [c]; T (3, w); T (3, h);  T (17, x); T (8, c);  Lambda_apply y [((Iter 1), (Arg 8)); ((Iter 1), (Arg 9))]; T (32, f);  T (2, c); T (1, c)]"
48.76,17312943,1848165,"[V f; U (2, f); ULambda y; T (16, c); Hoist_vars [c]; T (3, w); T (3, h);  T (17, x); T (16, c);  Lambda_apply y [((Iter 1), (Arg 8)); ((Iter 1), (Arg 9))]; T (32, f);  T (2, c); T (1, c)]"
43.39,23252562,2379427,"[V f; U (2, f); ULambda y; T (8, c); Hoist_vars [c]; T (3, w); T (3, h);  T (17, x); T (32, c);  Lambda_apply y [((Iter 1), (Arg 8)); ((Iter 1), (Arg 9))]; T (32, f);  T (2, c); T (1, c)]"
33.87,30088023,4594164,"[V f; U (2, f); ULambda y; T (4, c); Hoist_vars [c]; T (3, w); T (3, h);  T (17, x); T (64, c);  Lambda_apply y [((Iter 1), (Arg 8)); ((Iter 1), (Arg 9))]; T (32, f);  T (2, c); T (1, c)]"
33.24,15420570,5543857,"[V f; U (2, f); ULambda y; T (32, c); Hoist_vars [c]; T (3, w); T (3, h);  T (17, x); T (8, c);  Lambda_apply y [((Iter 1), (Arg 8)); ((Iter 1), (Arg 9))]; T (32, f);  T (1, c); T (2, c)]"
49.35,17240136,1853523,"[V f; U (2, f); ULambda y; T (16, c); Hoist_vars [c]; T (3, w); T (3, h);  T (17, x); T (16, c);  Lambda_apply y [((Iter 1), (Arg 8)); ((Iter 1), (Arg 9))]; T (32, f);  T (1, c); T (2, c)]"
43.63,23425829,2444821,"[V f; U (2, f); ULambda y; T (8, c); Hoist_vars [c]; T (3, w); T (3, h);  T (17, x); T (32, c);  Lambda_apply y [((Iter 1), (Arg 8)); ((Iter 1), (Arg 9))]; T (32, f);  T (1, c); T (2, c)]"
34.32,29974098,4614850,"[V f; U (2, f); ULambda y; T (4, c); Hoist_vars [c]; T (3, w); T (3, h);  T (17, x); T (64, c);  Lambda_apply y [((Iter 1), (Arg 8)); ((Iter 1), (Arg 9))]; T (32, f);  T (1, c); T (2, c)]"
33.45,15210785,5474328,"[V f; U (2, f); ULambda y; T (32, c); Hoist_vars [c]; T (3, w); T (3, h);  T (17, x); T (1, c);  Lambda_apply y [((Iter 1), (Arg 8)); ((Iter 1), (Arg 9))]; T (32, f);  T (16, c); T (1, c)]"
51.68,17130745,1635526,"[V f; U (2, f); ULambda y; T (16, c); Hoist_vars [c]; T (3, w); T (3, h);  T (17, x); T (2, c);  Lambda_apply y [((Iter 1), (Arg 8)); ((Iter 1), (Arg 9))]; T (32, f);  T (16, c); T (1, c)]"
45.83,23134177,1851569,"[V f; U (2, f); ULambda y; T (8, c); Hoist_vars [c]; T (3, w); T (3, h);  T (17, x); T (4, c);  Lambda_apply y [((Iter 1), (Arg 8)); ((Iter 1), (Arg 9))]; T (32, f);  T (16, c); T (1, c)]"
35.96,30029069,2924318,"[V f; U (2, f); ULambda y; T (4, c); Hoist_vars [c]; T (3, w); T (3, h);  T (17, x); T (8, c);  Lambda_apply y [((Iter 1), (Arg 8)); ((Iter 1), (Arg 9))]; T (32, f);  T (16, c); T (1, c)]"
33.08,15185025,5484882,"[V f; U (2, f); ULambda y; T (32, c); Hoist_vars [c]; T (3, w); T (3, h);  T (17, x); T (1, c);  Lambda_apply y [((Iter 1), (Arg 8)); ((Iter 1), (Arg 9))]; T (32, f);  T (2, c); T (8, c)]"
51.09,17162148,1507538,"[V f; U (2, f); ULambda y; T (16, c); Hoist_vars [c]; T (3, w); T (3, h);  T (17, x); T (2, c);  Lambda_apply y [((Iter 1), (Arg 8)); ((Iter 1), (Arg 9))]; T (32, f);  T (2, c); T (8, c)]"
46.14,23041364,1737463,"[V f; U (2, f); ULambda y; T (8, c); Hoist_vars [c]; T (3, w); T (3, h);  T (17, x); T (4, c);  Lambda_apply y [((Iter 1), (Arg 8)); ((Iter 1), (Arg 9))]; T (32, f);  T (2, c); T (8, c)]"
36.27,30072426,2875416,"[V f; U (2, f); ULambda y; T (4, c); Hoist_vars [c]; T (3, w); T (3, h);  T (17, x); T (8, c);  Lambda_apply y [((Iter 1), (Arg 8)); ((Iter 1), (Arg 9))]; T (32, f);  T (2, c); T (8, c)]"
34.41,15156454,5534205,"[V f; U (2, f); ULambda y; T (32, c); Hoist_vars [c]; T (3, w); T (3, h);  T (17, x); T (1, c);  Lambda_apply y [((Iter 1), (Arg 8)); ((Iter 1), (Arg 9))]; T (32, f);  T (1, c); T (16, c)]"
51.77,17169409,1479399,"[V f; U (2, f); ULambda y; T (16, c); Hoist_vars [c]; T (3, w); T (3, h);  T (17, x); T (2, c);  Lambda_apply y [((Iter 1), (Arg 8)); ((Iter 1), (Arg 9))]; T (32, f);  T (1, c); T (16, c)]"
45.27,23232271,1964543,"[V f; U (2, f); ULambda y; T (8, c); Hoist_vars [c]; T (3, w); T (3, h);  T (17, x); T (4, c);  Lambda_apply y [((Iter 1), (Arg 8)); ((Iter 1), (Arg 9))]; T (32, f);  T (1, c); T (16, c)]"
36.22,16326003,8177159,"[V f; U (4, f); ULambda y; U (3, h); T (32, c); Hoist_vars [c]; T (3, w);  T (17, x); T (8, c);  Lambda_apply y [((Iter 1), (Arg 5)); ((Iter 2), (Arg 6))]; T (16, f);  T (2, c); T (1, c)]"
55.19,17006841,2083043,"[V f; U (4, f); ULambda y; U (3, h); T (16, c); Hoist_vars [c]; T (3, w);  T (17, x); T (16, c);  Lambda_apply y [((Iter 1), (Arg 5)); ((Iter 2), (Arg 6))]; T (16, f);  T (2, c); T (1, c)]"
55.54,18649634,2620107,"[V f; U (4, f); ULambda y; U (3, h); T (8, c); Hoist_vars [c]; T (3, w);  T (17, x); T (32, c);  Lambda_apply y [((Iter 1), (Arg 5)); ((Iter 2), (Arg 6))]; T (16, f);  T (2, c); T (1, c)]"
36.32,16326330,8112392,"[V f; U (4, f); ULambda y; U (3, h); T (32, c); Hoist_vars [c]; T (3, w);  T (17, x); T (8, c);  Lambda_apply y [((Iter 1), (Arg 5)); ((Iter 2), (Arg 6))]; T (16, f);  T (1, c); T (2, c)]"
57.24,17011815,2109659,"[V f; U (4, f); ULambda y; U (3, h); T (16, c); Hoist_vars [c]; T (3, w);  T (17, x); T (16, c);  Lambda_apply y [((Iter 1), (Arg 5)); ((Iter 2), (Arg 6))]; T (16, f);  T (1, c); T (2, c)]"
54.76,18630106,2578694,"[V f; U (4, f); ULambda y; U (3, h); T (8, c); Hoist_vars [c]; T (3, w);  T (17, x); T (32, c);  Lambda_apply y [((Iter 1), (Arg 5)); ((Iter 2), (Arg 6))]; T (16, f);  T (1, c); T (2, c)]"
32.19,16369687,8237135,"[V f; U (4, f); ULambda y; U (3, h); T (32, c); Hoist_vars [c]; T (3, w);  T (17, x); T (8, c);  Lambda_apply y [((Iter 2), (Arg 5)); ((Iter 1), (Arg 7))]; T (16, f);  T (2, c); T (1, c)]"
52.80,17170255,2152495,"[V f; U (4, f); ULambda y; U (3, h); T (16, c); Hoist_vars [c]; T (3, w);  T (17, x); T (16, c);  Lambda_apply y [((Iter 2), (Arg 5)); ((Iter 1), (Arg 7))]; T (16, f);  T (2, c); T (1, c)]"
51.32,18891924,2622277,"[V f; U (4, f); ULambda y; U (3, h); T (8, c); Hoist_vars [c]; T (3, w);  T (17, x); T (32, c);  Lambda_apply y [((Iter 2), (Arg 5)); ((Iter 1), (Arg 7))]; T (16, f);  T (2, c); T (1, c)]"
33.99,16359192,8395857,"[V f; U (4, f); ULambda y; U (3, h); T (32, c); Hoist_vars [c]; T (3, w);  T (17, x); T (8, c);  Lambda_apply y [((Iter 2), (Arg 5)); ((Iter 1), (Arg 7))]; T (16, f);  T (1, c); T (2, c)]"
53.26,17185882,2055313,"[V f; U (4, f); ULambda y; U (3, h); T (16, c); Hoist_vars [c]; T (3, w);  T (17, x); T (16, c);  Lambda_apply y [((Iter 2), (Arg 5)); ((Iter 1), (Arg 7))]; T (16, f);  T (1, c); T (2, c)]"
51.38,18920693,2665516,"[V f; U (4, f); ULambda y; U (3, h); T (8, c); Hoist_vars [c]; T (3, w);  T (17, x); T (32, c);  Lambda_apply y [((Iter 2), (Arg 5)); ((Iter 1), (Arg 7))]; T (16, f);  T (1, c); T (2, c)]"
33.48,20463106,8107123,"[V f; U (4, f); ULambda y; U (3, w); T (32, c); Hoist_vars [c]; T (3, h);  T (17, x); T (8, c);  Lambda_apply y [((Iter 1), (Arg 5)); ((Iter 2), (Arg 6))]; T (16, f);  T (2, c); T (1, c)]"
55.25,20700339,2476717,"[V f; U (4, f); ULambda y; U (3, w); T (16, c); Hoist_vars [c]; T (3, h);  T (17, x); T (16, c);  Lambda_apply y [((Iter 1), (Arg 5)); ((Iter 2), (Arg 6))]; T (16, f);  T (2, c); T (1, c)]"
53.11,23103873,2999603,"[V f; U (4, f); ULambda y; U (3, w); T (8, c); Hoist_vars [c]; T (3, h);  T (17, x); T (32, c);  Lambda_apply y [((Iter 1), (Arg 5)); ((Iter 2), (Arg 6))]; T (16, f);  T (2, c); T (1, c)]"
