perf,CACHE_MISS_L1,CACHE_MISS_L2,scheme
50.19,68716,12480,"[V f; U (4, f); U (7, y); T (256, c); Hoist_vars [c]; T (7, x); T (1, c);  T (8, f); T (1, y); T (1, f)]"
50.86,68682,12343,"[V f; U (4, f); U (7, y); T (256, c); Hoist_vars [c]; T (7, x); T (1, c);  T (1, f); T (1, y); T (8, f)]"
39.96,72519,12635,"[V f; U (4, f); U (7, y); T (128, c); Hoist_vars [c]; T (7, x); T (2, c);  T (8, f); T (1, y); T (1, f)]"
49.95,72529,13303,"[V f; U (4, f); U (7, y); T (128, c); Hoist_vars [c]; T (7, x); T (2, c);  T (1, f); T (1, y); T (8, f)]"
47.64,80019,14818,"[V f; U (4, f); U (7, y); T (64, c); Hoist_vars [c]; T (7, x); T (4, c);  T (8, f); T (1, y); T (1, f)]"
52.63,79654,15479,"[V f; U (4, f); U (7, y); T (64, c); Hoist_vars [c]; T (7, x); T (4, c);  T (1, f); T (1, y); T (8, f)]"
48.31,94616,15975,"[V f; U (4, f); U (7, y); T (32, c); Hoist_vars [c]; T (7, x); T (8, c);  T (8, f); T (1, y); T (1, f)]"
45.44,94623,15301,"[V f; U (4, f); U (7, y); T (32, c); Hoist_vars [c]; T (7, x); T (8, c);  T (1, f); T (1, y); T (8, f)]"
44.45,121388,15401,"[V f; U (4, f); U (7, y); T (16, c); Hoist_vars [c]; T (7, x); T (16, c);  T (8, f); T (1, y); T (1, f)]"
44.43,121114,14710,"[V f; U (4, f); U (7, y); T (16, c); Hoist_vars [c]; T (7, x); T (16, c);  T (1, f); T (1, y); T (8, f)]"
34.25,178447,15712,"[V f; U (4, f); U (7, y); T (8, c); Hoist_vars [c]; T (7, x); T (32, c);  T (8, f); T (1, y); T (1, f)]"
35.68,179171,15094,"[V f; U (4, f); U (7, y); T (8, c); Hoist_vars [c]; T (7, x); T (32, c);  T (1, f); T (1, y); T (8, f)]"
23.49,287993,15968,"[V f; U (4, f); U (7, y); T (4, c); Hoist_vars [c]; T (7, x); T (64, c);  T (8, f); T (1, y); T (1, f)]"
22.47,285279,15771,"[V f; U (4, f); U (7, y); T (4, c); Hoist_vars [c]; T (7, x); T (64, c);  T (1, f); T (1, y); T (8, f)]"
12.08,445090,11861,"[V f; U (4, f); U (7, y); T (2, c); Hoist_vars [c]; T (7, x); T (128, c);  T (8, f); T (1, y); T (1, f)]"
12.16,443468,12429,"[V f; U (4, f); U (7, y); T (2, c); Hoist_vars [c]; T (7, x); T (128, c);  T (1, f); T (1, y); T (8, f)]"
7.16,907867,12256,"[V f; U (4, f); U (7, y); T (1, c); Hoist_vars [c]; T (7, x); T (256, c);  T (8, f); T (1, y); T (1, f)]"
7.28,911000,11799,"[V f; U (4, f); U (7, y); T (1, c); Hoist_vars [c]; T (7, x); T (256, c);  T (1, f); T (1, y); T (8, f)]"
44.73,68647,12429,"[V f; U (4, f); U (7, y); T (256, c); Hoist_vars [c]; T (7, x); T (1, c);  T (4, f); T (1, y); T (2, f)]"
50.19,72625,13532,"[V f; U (4, f); U (7, y); T (128, c); Hoist_vars [c]; T (7, x); T (2, c);  T (4, f); T (1, y); T (2, f)]"
35.60,80016,14940,"[V f; U (4, f); U (7, y); T (64, c); Hoist_vars [c]; T (7, x); T (4, c);  T (4, f); T (1, y); T (2, f)]"
45.32,94837,14577,"[V f; U (4, f); U (7, y); T (32, c); Hoist_vars [c]; T (7, x); T (8, c);  T (4, f); T (1, y); T (2, f)]"
44.56,121141,15238,"[V f; U (4, f); U (7, y); T (16, c); Hoist_vars [c]; T (7, x); T (16, c);  T (4, f); T (1, y); T (2, f)]"
35.69,177874,16171,"[V f; U (4, f); U (7, y); T (8, c); Hoist_vars [c]; T (7, x); T (32, c);  T (4, f); T (1, y); T (2, f)]"
23.24,285600,16398,"[V f; U (4, f); U (7, y); T (4, c); Hoist_vars [c]; T (7, x); T (64, c);  T (4, f); T (1, y); T (2, f)]"
12.36,443990,11766,"[V f; U (4, f); U (7, y); T (2, c); Hoist_vars [c]; T (7, x); T (128, c);  T (4, f); T (1, y); T (2, f)]"
7.24,911542,11735,"[V f; U (4, f); U (7, y); T (1, c); Hoist_vars [c]; T (7, x); T (256, c);  T (4, f); T (1, y); T (2, f)]"
50.58,68671,13269,"[V f; U (4, f); U (7, y); T (256, c); Hoist_vars [c]; T (7, x); T (1, c);  T (2, f); T (1, y); T (4, f)]"
47.36,72552,13769,"[V f; U (4, f); U (7, y); T (128, c); Hoist_vars [c]; T (7, x); T (2, c);  T (2, f); T (1, y); T (4, f)]"
39.83,79687,14674,"[V f; U (4, f); U (7, y); T (64, c); Hoist_vars [c]; T (7, x); T (4, c);  T (2, f); T (1, y); T (4, f)]"
48.88,94677,14878,"[V f; U (4, f); U (7, y); T (32, c); Hoist_vars [c]; T (7, x); T (8, c);  T (2, f); T (1, y); T (4, f)]"
38.81,121911,16734,"[V f; U (4, f); U (7, y); T (16, c); Hoist_vars [c]; T (7, x); T (16, c);  T (2, f); T (1, y); T (4, f)]"
35.43,177559,15929,"[V f; U (4, f); U (7, y); T (8, c); Hoist_vars [c]; T (7, x); T (32, c);  T (2, f); T (1, y); T (4, f)]"
23.43,288161,16163,"[V f; U (4, f); U (7, y); T (4, c); Hoist_vars [c]; T (7, x); T (64, c);  T (2, f); T (1, y); T (4, f)]"
12.20,444924,11848,"[V f; U (4, f); U (7, y); T (2, c); Hoist_vars [c]; T (7, x); T (128, c);  T (2, f); T (1, y); T (4, f)]"
7.25,911111,11758,"[V f; U (4, f); U (7, y); T (1, c); Hoist_vars [c]; T (7, x); T (256, c);  T (2, f); T (1, y); T (4, f)]"
