perf,CACHE_MISS_L1,CACHE_MISS_L2,scheme
21.09,6218624,3024693,"[V f; U (4, f); U (7, y); T (32, c); Hoist_vars [c]; T (3, w); T (3, h);  T (7, x); T (32, c); T (1, y); T (16, f); T (1, c); T (1, c)]"
30.49,7500936,1388635,"[V f; U (4, f); U (7, y); T (16, c); Hoist_vars [c]; T (3, w); T (3, h);  T (7, x); T (64, c); T (1, y); T (16, f); T (1, c); T (1, c)]"
26.63,10390627,1783074,"[V f; U (4, f); U (7, y); T (8, c); Hoist_vars [c]; T (3, w); T (3, h);  T (7, x); T (128, c); T (1, y); T (16, f); T (1, c); T (1, c)]"
22.01,5622758,3006883,"[V f; U (4, f); U (7, y); U (3, h); T (32, c); Hoist_vars [c]; T (3, w);  T (7, x); T (32, c); T (1, y); T (16, f); T (1, c); T (1, c)]"
26.93,6079466,1314669,"[V f; U (4, f); U (7, y); U (3, h); T (16, c); Hoist_vars [c]; T (3, w);  T (7, x); T (64, c); T (1, y); T (16, f); T (1, c); T (1, c)]"
27.10,7382260,1622121,"[V f; U (4, f); U (7, y); U (3, h); T (8, c); Hoist_vars [c]; T (3, w);  T (7, x); T (128, c); T (1, y); T (16, f); T (1, c); T (1, c)]"
23.12,11896456,3039817,"[V f; U (4, f); U (7, y); U (3, w); T (32, c); Hoist_vars [c]; T (3, h);  T (7, x); T (32, c); T (1, y); T (16, f); T (1, c); T (1, c)]"
30.24,11091078,1465812,"[V f; U (4, f); U (7, y); U (3, w); T (16, c); Hoist_vars [c]; T (3, h);  T (7, x); T (64, c); T (1, y); T (16, f); T (1, c); T (1, c)]"
27.83,12203011,1717004,"[V f; U (4, f); U (7, y); U (3, w); T (8, c); Hoist_vars [c]; T (3, h);  T (7, x); T (128, c); T (1, y); T (16, f); T (1, c); T (1, c)]"
24.95,6198790,3020216,"[V f; U (4, f); U (7, y); T (32, c); Hoist_vars [c]; T (3, w); T (3, h);  T (7, x); T (16, c); T (1, y); T (16, f); T (2, c); T (1, c)]"
32.22,7576083,1462873,"[V f; U (4, f); U (7, y); T (16, c); Hoist_vars [c]; T (3, w); T (3, h);  T (7, x); T (32, c); T (1, y); T (16, f); T (2, c); T (1, c)]"
28.45,10438424,1737470,"[V f; U (4, f); U (7, y); T (8, c); Hoist_vars [c]; T (3, w); T (3, h);  T (7, x); T (64, c); T (1, y); T (16, f); T (2, c); T (1, c)]"
25.12,6176888,3016149,"[V f; U (4, f); U (7, y); T (32, c); Hoist_vars [c]; T (3, w); T (3, h);  T (7, x); T (16, c); T (1, y); T (16, f); T (1, c); T (2, c)]"
31.83,7566331,1401443,"[V f; U (4, f); U (7, y); T (16, c); Hoist_vars [c]; T (3, w); T (3, h);  T (7, x); T (32, c); T (1, y); T (16, f); T (1, c); T (2, c)]"
28.12,10462487,1852854,"[V f; U (4, f); U (7, y); T (8, c); Hoist_vars [c]; T (3, w); T (3, h);  T (7, x); T (64, c); T (1, y); T (16, f); T (1, c); T (2, c)]"
20.34,5629604,3011218,"[V f; U (4, f); U (7, y); U (3, h); T (32, c); Hoist_vars [c]; T (3, w);  T (7, x); T (16, c); T (1, y); T (16, f); T (2, c); T (1, c)]"
28.59,6091578,1326450,"[V f; U (4, f); U (7, y); U (3, h); T (16, c); Hoist_vars [c]; T (3, w);  T (7, x); T (32, c); T (1, y); T (16, f); T (2, c); T (1, c)]"
29.04,7390216,1706820,"[V f; U (4, f); U (7, y); U (3, h); T (8, c); Hoist_vars [c]; T (3, w);  T (7, x); T (64, c); T (1, y); T (16, f); T (2, c); T (1, c)]"
21.49,5617670,2994917,"[V f; U (4, f); U (7, y); U (3, h); T (32, c); Hoist_vars [c]; T (3, w);  T (7, x); T (16, c); T (1, y); T (16, f); T (1, c); T (2, c)]"
28.84,6088606,1332015,"[V f; U (4, f); U (7, y); U (3, h); T (16, c); Hoist_vars [c]; T (3, w);  T (7, x); T (32, c); T (1, y); T (16, f); T (1, c); T (2, c)]"
29.44,7303894,1754009,"[V f; U (4, f); U (7, y); U (3, h); T (8, c); Hoist_vars [c]; T (3, w);  T (7, x); T (64, c); T (1, y); T (16, f); T (1, c); T (2, c)]"
22.02,11933612,2998379,"[V f; U (4, f); U (7, y); U (3, w); T (32, c); Hoist_vars [c]; T (3, h);  T (7, x); T (16, c); T (1, y); T (16, f); T (2, c); T (1, c)]"
30.70,11067194,1467077,"[V f; U (4, f); U (7, y); U (3, w); T (16, c); Hoist_vars [c]; T (3, h);  T (7, x); T (32, c); T (1, y); T (16, f); T (2, c); T (1, c)]"
29.43,12177516,1804240,"[V f; U (4, f); U (7, y); U (3, w); T (8, c); Hoist_vars [c]; T (3, h);  T (7, x); T (64, c); T (1, y); T (16, f); T (2, c); T (1, c)]"
23.02,11921180,3030057,"[V f; U (4, f); U (7, y); U (3, w); T (32, c); Hoist_vars [c]; T (3, h);  T (7, x); T (16, c); T (1, y); T (16, f); T (1, c); T (2, c)]"
31.14,11079241,1456394,"[V f; U (4, f); U (7, y); U (3, w); T (16, c); Hoist_vars [c]; T (3, h);  T (7, x); T (32, c); T (1, y); T (16, f); T (1, c); T (2, c)]"
29.40,12196299,1834552,"[V f; U (4, f); U (7, y); U (3, w); T (8, c); Hoist_vars [c]; T (3, h);  T (7, x); T (64, c); T (1, y); T (16, f); T (1, c); T (2, c)]"
25.19,6208447,3008611,"[V f; U (4, f); U (7, y); T (32, c); Hoist_vars [c]; T (3, w); T (3, h);  T (7, x); T (8, c); T (1, y); T (16, f); T (4, c); T (1, c)]"
32.75,7543355,1404274,"[V f; U (4, f); U (7, y); T (16, c); Hoist_vars [c]; T (3, w); T (3, h);  T (7, x); T (16, c); T (1, y); T (16, f); T (4, c); T (1, c)]"
29.01,10443992,1951090,"[V f; U (4, f); U (7, y); T (8, c); Hoist_vars [c]; T (3, w); T (3, h);  T (7, x); T (32, c); T (1, y); T (16, f); T (4, c); T (1, c)]"
25.00,6194315,3041556,"[V f; U (4, f); U (7, y); T (32, c); Hoist_vars [c]; T (3, w); T (3, h);  T (7, x); T (8, c); T (1, y); T (16, f); T (2, c); T (2, c)]"
32.15,7538248,1445600,"[V f; U (4, f); U (7, y); T (16, c); Hoist_vars [c]; T (3, w); T (3, h);  T (7, x); T (16, c); T (1, y); T (16, f); T (2, c); T (2, c)]"
29.29,10455437,1906768,"[V f; U (4, f); U (7, y); T (8, c); Hoist_vars [c]; T (3, w); T (3, h);  T (7, x); T (32, c); T (1, y); T (16, f); T (2, c); T (2, c)]"
24.72,6213725,3012426,"[V f; U (4, f); U (7, y); T (32, c); Hoist_vars [c]; T (3, w); T (3, h);  T (7, x); T (8, c); T (1, y); T (16, f); T (1, c); T (4, c)]"
33.02,7540685,1410564,"[V f; U (4, f); U (7, y); T (16, c); Hoist_vars [c]; T (3, w); T (3, h);  T (7, x); T (16, c); T (1, y); T (16, f); T (1, c); T (4, c)]"
29.16,10512832,1937158,"[V f; U (4, f); U (7, y); T (8, c); Hoist_vars [c]; T (3, w); T (3, h);  T (7, x); T (32, c); T (1, y); T (16, f); T (1, c); T (4, c)]"
21.85,5615118,3013339,"[V f; U (4, f); U (7, y); U (3, h); T (32, c); Hoist_vars [c]; T (3, w);  T (7, x); T (8, c); T (1, y); T (16, f); T (4, c); T (1, c)]"
29.30,6061926,1295122,"[V f; U (4, f); U (7, y); U (3, h); T (16, c); Hoist_vars [c]; T (3, w);  T (7, x); T (16, c); T (1, y); T (16, f); T (4, c); T (1, c)]"
30.21,7295698,1738273,"[V f; U (4, f); U (7, y); U (3, h); T (8, c); Hoist_vars [c]; T (3, w);  T (7, x); T (32, c); T (1, y); T (16, f); T (4, c); T (1, c)]"
22.38,5609678,3029089,"[V f; U (4, f); U (7, y); U (3, h); T (32, c); Hoist_vars [c]; T (3, w);  T (7, x); T (8, c); T (1, y); T (16, f); T (2, c); T (2, c)]"
28.36,6084686,1319890,"[V f; U (4, f); U (7, y); U (3, h); T (16, c); Hoist_vars [c]; T (3, w);  T (7, x); T (16, c); T (1, y); T (16, f); T (2, c); T (2, c)]"
30.77,7361083,1781461,"[V f; U (4, f); U (7, y); U (3, h); T (8, c); Hoist_vars [c]; T (3, w);  T (7, x); T (32, c); T (1, y); T (16, f); T (2, c); T (2, c)]"
22.71,5609200,3000934,"[V f; U (4, f); U (7, y); U (3, h); T (32, c); Hoist_vars [c]; T (3, w);  T (7, x); T (8, c); T (1, y); T (16, f); T (1, c); T (4, c)]"
29.22,6075701,1326954,"[V f; U (4, f); U (7, y); U (3, h); T (16, c); Hoist_vars [c]; T (3, w);  T (7, x); T (16, c); T (1, y); T (16, f); T (1, c); T (4, c)]"
30.22,7358688,1801608,"[V f; U (4, f); U (7, y); U (3, h); T (8, c); Hoist_vars [c]; T (3, w);  T (7, x); T (32, c); T (1, y); T (16, f); T (1, c); T (4, c)]"
23.67,11916241,3026499,"[V f; U (4, f); U (7, y); U (3, w); T (32, c); Hoist_vars [c]; T (3, h);  T (7, x); T (8, c); T (1, y); T (16, f); T (4, c); T (1, c)]"
31.70,11102540,1395842,"[V f; U (4, f); U (7, y); U (3, w); T (16, c); Hoist_vars [c]; T (3, h);  T (7, x); T (16, c); T (1, y); T (16, f); T (4, c); T (1, c)]"
30.49,12172007,1780808,"[V f; U (4, f); U (7, y); U (3, w); T (8, c); Hoist_vars [c]; T (3, h);  T (7, x); T (32, c); T (1, y); T (16, f); T (4, c); T (1, c)]"
24.92,11872187,3036998,"[V f; U (4, f); U (7, y); U (3, w); T (32, c); Hoist_vars [c]; T (3, h);  T (7, x); T (8, c); T (1, y); T (16, f); T (2, c); T (2, c)]"
31.89,11052043,1403365,"[V f; U (4, f); U (7, y); U (3, w); T (16, c); Hoist_vars [c]; T (3, h);  T (7, x); T (16, c); T (1, y); T (16, f); T (2, c); T (2, c)]"
