L1 volume, L2 volume
208373760, 9964544
208373760, 10178560
208373760, 10606592
208373760, 11462656
208373760, 13174784
208373760, 10929152
208373760, 10178560
208373760, 10606592
208373760, 11462656
208373760, 13174784
208373760, 10929152
208373760, 10606592
208373760, 11462656
208373760, 13174784
208373760, 10929152
208373760, 11462656
208373760, 13174784
208373760, 10929152
208373760, 13174784
208373760, 10929152
208373760, 10929152
211193856, 10277888
211193856, 10491904
211193856, 10919936
211193856, 11776000
211193856, 5495296
211193856, 5495296
211193856, 10491904
211193856, 10919936
211193856, 11776000
211193856, 5680128
211193856, 5680128
211193856, 10919936
211193856, 11776000
211193856, 6049792
211193856, 6049792
211193856, 11776000
211193856, 6789120
211193856, 6789120
211193856, 7971840
211193856, 7971840
211193856, 10929152
65839104, 10904576
65839104, 11118592
65839104, 11546624
65839104, 6087168
65839104, 6087168
65839104, 6087168
65839104, 11118592
65839104, 11546624
65839104, 6272000
65839104, 6272000
65839104, 6272000
65839104, 11546624
65839104, 6641664
65839104, 6641664
65839104, 6641664
65839104, 6493184
65839104, 6493184
65839104, 6493184
65839104, 7971840
65839104, 7971840
65839104, 10929152
77119488, 12157952
77119488, 12371968
77119488, 7270912
77119488, 7270912
77119488, 7270912
77119488, 7270912
77119488, 12371968
77119488, 7455744
77119488, 7455744
77119488, 7455744
77119488, 7455744
77119488, 5753856
77119488, 5753856
77119488, 5753856
77119488, 5753856
77119488, 6493184
77119488, 6493184
77119488, 6493184
77119488, 7971840
77119488, 7971840
77119488, 10929152
99680256, 14664704
99680256, 9823232
99680256, 9638400
99680256, 9638400
99680256, 9638400
99680256, 9638400
99680256, 9823232
99680256, 9823232
99680256, 9823232
99680256, 9823232
99680256, 9823232
99680256, 5753856
99680256, 5753856
99680256, 5753856
99680256, 5753856
99680256, 6493184
99680256, 6493184
99680256, 6493184
99680256, 7971840
99680256, 7971840
99680256, 10929152
56328192, 19678208
56328192, 14373376
56328192, 14373376
56328192, 14373376
56328192, 14373376
56328192, 14373376
56328192, 5384192
56328192, 5384192
56328192, 5384192
56328192, 5384192
56328192, 5384192
56328192, 5753856
56328192, 5753856
56328192, 5753856
56328192, 5753856
56328192, 6493184
56328192, 6493184
56328192, 6493184
56328192, 7971840
56328192, 7971840
56328192, 10929152
36339712, 23843328
36339712, 23843328
36339712, 23843328
36339712, 23843328
36339712, 23843328
36339712, 23843328
36339712, 5384192
36339712, 5384192
36339712, 5384192
36339712, 5384192
36339712, 5384192
36339712, 5753856
36339712, 5753856
36339712, 5753856
36339712, 5753856
36339712, 6493184
36339712, 6493184
36339712, 6493184
36339712, 7971840
36339712, 7971840
36339712, 10929152
49759232, 42783232
49973248, 42783232
50401280, 42783232
51257344, 42783232
52969472, 42783232
48513024, 42783232
49973248, 5384192
50401280, 5384192
51257344, 5384192
52969472, 5384192
48513024, 5384192
50401280, 5753856
51257344, 5753856
52969472, 5753856
48513024, 5753856
51257344, 6493184
52969472, 6493184
48513024, 6493184
52969472, 7971840
48513024, 7971840
48513024, 10929152
89867264, 80663040
90081280, 80663040
90509312, 80663040
91365376, 80663040
93077504, 80663040
86392832, 80663040
90081280, 5384192
90509312, 5384192
91365376, 5384192
93077504, 5384192
86392832, 5384192
90509312, 5753856
91365376, 5753856
93077504, 5753856
86392832, 5753856
91365376, 6493184
93077504, 6493184
86392832, 6493184
93077504, 7971840
86392832, 7971840
86392832, 10929152
170083328, 156422656
170297344, 156422656
170725376, 156422656
171581440, 156422656
173293568, 156422656
162152448, 156422656
170297344, 5384192
170725376, 5384192
171581440, 5384192
173293568, 5384192
162152448, 5384192
170725376, 5753856
171581440, 5753856
173293568, 5753856
162152448, 5753856
171581440, 6493184
173293568, 6493184
162152448, 6493184
173293568, 7971840
162152448, 7971840
162152448, 10929152
208373760, 161319936
208373760, 161894400
208373760, 163043328
208373760, 165341184
208373760, 169936896
208373760, 10929152
208373760, 161894400
208373760, 163043328
208373760, 165341184
208373760, 169936896
208373760, 10929152
208373760, 163043328
208373760, 165341184
208373760, 169936896
208373760, 10929152
208373760, 165341184
208373760, 169936896
208373760, 10929152
208373760, 169936896
208373760, 10929152
208373760, 10929152
211193856, 161633280
211193856, 162207744
211193856, 163356672
211193856, 165654528
211193856, 5495296
211193856, 5495296
211193856, 162207744
211193856, 163356672
211193856, 165654528
211193856, 5680128
211193856, 5680128
211193856, 163356672
211193856, 165654528
211193856, 6049792
211193856, 6049792
211193856, 165654528
211193856, 6789120
211193856, 6789120
211193856, 7971840
211193856, 7971840
211193856, 10929152
209313792, 162259968
209313792, 162834432
209313792, 163983360
209313792, 6087168
209313792, 6087168
209313792, 6087168
209313792, 162834432
209313792, 163983360
209313792, 6272000
209313792, 6272000
209313792, 6272000
209313792, 163983360
209313792, 6641664
209313792, 6641664
209313792, 6641664
209313792, 6493184
209313792, 6493184
209313792, 6493184
209313792, 7971840
209313792, 7971840
209313792, 10929152
181321728, 163513344
181321728, 164087808
181321728, 7270912
181321728, 7270912
181321728, 7270912
181321728, 7270912
181321728, 164087808
181321728, 7455744
181321728, 7455744
181321728, 7455744
181321728, 7455744
181321728, 5753856
181321728, 5753856
181321728, 5753856
181321728, 5753856
181321728, 6493184
181321728, 6493184
181321728, 6493184
181321728, 7971840
181321728, 7971840
181321728, 10929152
183828480, 166020096
183828480, 9823232
183828480, 9638400
183828480, 9638400
183828480, 9638400
183828480, 9638400
183828480, 9823232
183828480, 9823232
183828480, 9823232
183828480, 9823232
183828480, 9823232
183828480, 5753856
183828480, 5753856
183828480, 5753856
183828480, 5753856
183828480, 6493184
183828480, 6493184
183828480, 6493184
183828480, 7971840
183828480, 7971840
183828480, 10929152
171033600, 19678208
171608064, 14373376
172756992, 14373376
175054848, 14373376
179650560, 14373376
26312704, 14373376
171608064, 5384192
172756992, 5384192
175054848, 5384192
179650560, 5384192
26312704, 5384192
172756992, 5753856
175054848, 5753856
179650560, 5753856
26312704, 5753856
175054848, 6493184
179650560, 6493184
26312704, 6493184
179650560, 7971840
26312704, 7971840
26312704, 10929152
181060608, 23843328
181635072, 23843328
182784000, 23843328
185081856, 23843328
32915456, 23843328
36339712, 23843328
181635072, 5384192
182784000, 5384192
185081856, 5384192
32915456, 5384192
36339712, 5384192
182784000, 5753856
185081856, 5753856
32915456, 5753856
36339712, 5753856
185081856, 6493184
32915456, 6493184
36339712, 6493184
32915456, 7971840
36339712, 7971840
36339712, 10929152
201114624, 42783232
201689088, 42783232
202838016, 42783232
51257344, 42783232
52969472, 42783232
48513024, 42783232
201689088, 5384192
202838016, 5384192
51257344, 5384192
52969472, 5384192
48513024, 5384192
202838016, 5753856
51257344, 5753856
52969472, 5753856
48513024, 5753856
51257344, 6493184
52969472, 6493184
48513024, 6493184
52969472, 7971840
48513024, 7971840
48513024, 10929152
241222656, 80663040
241797120, 80663040
90509312, 80663040
91365376, 80663040
93077504, 80663040
86392832, 80663040
241797120, 5384192
90509312, 5384192
91365376, 5384192
93077504, 5384192
86392832, 5384192
90509312, 5753856
91365376, 5753856
93077504, 5753856
86392832, 5753856
91365376, 6493184
93077504, 6493184
86392832, 6493184
93077504, 7971840
86392832, 7971840
86392832, 10929152
321438720, 156422656
322013184, 156422656
170725376, 156422656
171581440, 156422656
173293568, 156422656
162152448, 156422656
322013184, 5384192
170725376, 5384192
171581440, 5384192
173293568, 5384192
162152448, 5384192
170725376, 5753856
171581440, 5753856
173293568, 5753856
162152448, 5753856
171581440, 6493184
173293568, 6493184
162152448, 6493184
173293568, 7971840
162152448, 7971840
162152448, 10929152
251615232, 18204672
251615232, 18204672
251615232, 18204672
251615232, 18204672
251615232, 18204672
251615232, 18204672
251615232, 18204672
251615232, 18204672
251615232, 18204672
251615232, 18204672
251615232, 18204672
251615232, 18204672
251615232, 18204672
251615232, 18204672
251615232, 18204672
252555264, 15015936
252555264, 15249408
252555264, 15716352
252555264, 16650240
252555264, 5495296
252555264, 15249408
252555264, 15716352
252555264, 16650240
252555264, 5680128
252555264, 15716352
252555264, 16650240
252555264, 6049792
252555264, 16650240
252555264, 6789120
252555264, 7971840
254435328, 15642624
254435328, 15876096
254435328, 16343040
254435328, 6087168
254435328, 6087168
254435328, 15876096
254435328, 16343040
254435328, 6272000
254435328, 6272000
254435328, 16343040
254435328, 6641664
254435328, 6641664
254435328, 6493184
254435328, 6493184
254435328, 7971840
258195456, 16896000
258195456, 17129472
258195456, 7270912
258195456, 7270912
258195456, 7270912
258195456, 17129472
258195456, 7455744
258195456, 7455744
258195456, 7455744
258195456, 5753856
258195456, 5753856
258195456, 5753856
258195456, 6493184
258195456, 6493184
258195456, 7971840
39223296, 19402752
39223296, 9823232
39223296, 9638400
39223296, 9638400
39223296, 9638400
39223296, 9823232
39223296, 9823232
39223296, 9823232
39223296, 9823232
39223296, 5753856
39223296, 5753856
39223296, 5753856
39223296, 6493184
39223296, 6493184
39223296, 7971840
54263808, 14373376
54263808, 14373376
54263808, 14373376
54263808, 14373376
54263808, 14373376
54263808, 5384192
54263808, 5384192
54263808, 5384192
54263808, 5384192
54263808, 5753856
54263808, 5753856
54263808, 5753856
54263808, 6493184
54263808, 6493184
54263808, 7971840
84344832, 23843328
84344832, 23843328
84344832, 23843328
84344832, 23843328
84344832, 23843328
84344832, 5384192
84344832, 5384192
84344832, 5384192
84344832, 5384192
84344832, 5753856
84344832, 5753856
84344832, 5753856
84344832, 6493184
84344832, 6493184
84344832, 7971840
57999360, 42783232
57999360, 42783232
57999360, 42783232
57999360, 42783232
57999360, 42783232
57999360, 5384192
57999360, 5384192
57999360, 5384192
57999360, 5384192
57999360, 5753856
57999360, 5753856
57999360, 5753856
57999360, 6493184
57999360, 6493184
57999360, 7971840
94605312, 80663040
94838784, 80663040
95305728, 80663040
96239616, 80663040
83435520, 80663040
94838784, 5384192
95305728, 5384192
96239616, 5384192
83435520, 5384192
95305728, 5753856
96239616, 5753856
83435520, 5753856
96239616, 6493184
83435520, 6493184
83435520, 7971840
174821376, 156422656
175054848, 156422656
175521792, 156422656
176455680, 156422656
159195136, 156422656
175054848, 5384192
175521792, 5384192
176455680, 5384192
159195136, 5384192
175521792, 5753856
176455680, 5753856
159195136, 5753856
176455680, 6493184
159195136, 6493184
159195136, 7971840
251615232, 250988544
251615232, 250988544
251615232, 250988544
251615232, 250988544
251615232, 250988544
251615232, 250988544
251615232, 250988544
251615232, 250988544
251615232, 250988544
251615232, 250988544
251615232, 250988544
251615232, 250988544
251615232, 250988544
251615232, 250988544
251615232, 250988544
252555264, 241901568
252555264, 242528256
252555264, 243781632
252555264, 246288384
252555264, 5495296
252555264, 242528256
252555264, 243781632
252555264, 246288384
252555264, 5680128
252555264, 243781632
252555264, 246288384
252555264, 6049792
252555264, 246288384
252555264, 6789120
252555264, 7971840
254435328, 242528256
254435328, 243154944
254435328, 244408320
254435328, 6087168
254435328, 6087168
254435328, 243154944
254435328, 244408320
254435328, 6272000
254435328, 6272000
254435328, 244408320
254435328, 6641664
254435328, 6641664
254435328, 6493184
254435328, 6493184
254435328, 7971840
258195456, 243781632
258195456, 244408320
258195456, 7270912
258195456, 7270912
258195456, 7270912
258195456, 244408320
258195456, 7455744
258195456, 7455744
258195456, 7455744
258195456, 5753856
258195456, 5753856
258195456, 5753856
258195456, 6493184
258195456, 6493184
258195456, 7971840
255688704, 246288384
255688704, 9823232
255688704, 9638400
255688704, 9638400
255688704, 9638400
255688704, 9823232
255688704, 9823232
255688704, 9823232
255688704, 9823232
255688704, 5753856
255688704, 5753856
255688704, 5753856
255688704, 6493184
255688704, 6493184
255688704, 7971840
260702208, 14373376
260702208, 14373376
260702208, 14373376
260702208, 14373376
260702208, 14373376
260702208, 5384192
260702208, 5384192
260702208, 5384192
260702208, 5384192
260702208, 5753856
260702208, 5753856
260702208, 5753856
260702208, 6493184
260702208, 6493184
260702208, 7971840
261328896, 23843328
261955584, 23843328
263208960, 23843328
265715712, 23843328
37945344, 23843328
261955584, 5384192
263208960, 5384192
265715712, 5384192
37945344, 5384192
263208960, 5753856
265715712, 5753856
37945344, 5753856
265715712, 6493184
37945344, 6493184
37945344, 7971840
281382912, 42783232
282009600, 42783232
283262976, 42783232
56131584, 42783232
57999360, 42783232
282009600, 5384192
283262976, 5384192
56131584, 5384192
57999360, 5384192
283262976, 5753856
56131584, 5753856
57999360, 5753856
56131584, 6493184
57999360, 6493184
57999360, 7971840
321490944, 80663040
322117632, 80663040
95305728, 80663040
96239616, 80663040
83435520, 80663040
322117632, 5384192
95305728, 5384192
96239616, 5384192
83435520, 5384192
95305728, 5753856
96239616, 5753856
83435520, 5753856
96239616, 6493184
83435520, 6493184
83435520, 7971840
401707008, 156422656
175054848, 156422656
175521792, 156422656
176455680, 156422656
159195136, 156422656
175054848, 5384192
175521792, 5384192
176455680, 5384192
159195136, 5384192
175521792, 5753856
176455680, 5753856
159195136, 5753856
176455680, 6493184
159195136, 6493184
159195136, 7971840
253025280, 18723840
253025280, 18723840
253025280, 18723840
253025280, 18723840
253025280, 18723840
253025280, 18723840
253025280, 18723840
253025280, 18723840
253025280, 18723840
253025280, 18723840
253025280, 18723840
253025280, 18723840
253025280, 18723840
253025280, 18723840
253025280, 18723840
254121984, 15149568
254121984, 15412224
254121984, 15937536
254121984, 16988160
254121984, 5495296
254121984, 15412224
254121984, 15937536
254121984, 16988160
254121984, 5680128
254121984, 15937536
254121984, 16988160
254121984, 6049792
254121984, 16988160
254121984, 6789120
254121984, 7971840
256315392, 15880704
256315392, 16143360
256315392, 16668672
256315392, 6087168
256315392, 6087168
256315392, 16143360
256315392, 16668672
256315392, 6272000
256315392, 6272000
256315392, 16668672
256315392, 6641664
256315392, 6641664
256315392, 6493184
256315392, 6493184
256315392, 7971840
260702208, 17342976
260702208, 17605632
260702208, 7270912
260702208, 7270912
260702208, 7270912
260702208, 17605632
260702208, 7455744
260702208, 7455744
260702208, 7455744
260702208, 5753856
260702208, 5753856
260702208, 5753856
260702208, 6493184
260702208, 6493184
260702208, 7971840
42983424, 20267520
42983424, 9823232
42983424, 9638400
42983424, 9638400
42983424, 9638400
42983424, 9823232
42983424, 9823232
42983424, 9823232
42983424, 9823232
42983424, 5753856
42983424, 5753856
42983424, 5753856
42983424, 6493184
42983424, 6493184
42983424, 7971840
60530688, 26116608
60530688, 14373376
60530688, 14373376
60530688, 14373376
60530688, 14373376
60530688, 5384192
60530688, 5384192
60530688, 5384192
60530688, 5384192
60530688, 5753856
60530688, 5753856
60530688, 5753856
60530688, 6493184
60530688, 6493184
60530688, 7971840
95625216, 23843328
95625216, 23843328
95625216, 23843328
95625216, 23843328
95625216, 23843328
95625216, 5384192
95625216, 5384192
95625216, 5384192
95625216, 5384192
95625216, 5753856
95625216, 5753856
95625216, 5753856
95625216, 6493184
95625216, 6493184
95625216, 7971840
165814272, 42783232
165814272, 42783232
165814272, 42783232
165814272, 42783232
165814272, 42783232
165814272, 5384192
165814272, 5384192
165814272, 5384192
165814272, 5384192
165814272, 5753856
165814272, 5753856
165814272, 5753856
165814272, 6493184
165814272, 6493184
165814272, 7971840
306192384, 80663040
306192384, 80663040
306192384, 80663040
306192384, 80663040
306192384, 80663040
306192384, 5384192
306192384, 5384192
306192384, 5384192
306192384, 5384192
306192384, 5753856
306192384, 5753856
306192384, 5753856
306192384, 6493184
306192384, 6493184
306192384, 7971840
205529088, 156422656
205529088, 156422656
205529088, 156422656
205529088, 156422656
205529088, 156422656
205529088, 5384192
205529088, 5384192
205529088, 5384192
205529088, 5384192
205529088, 5753856
205529088, 5753856
205529088, 5753856
205529088, 6493184
205529088, 6493184
205529088, 7971840
253025280, 252294144
253025280, 252294144
253025280, 252294144
253025280, 252294144
253025280, 252294144
253025280, 252294144
253025280, 252294144
253025280, 252294144
253025280, 252294144
253025280, 252294144
253025280, 252294144
253025280, 252294144
253025280, 252294144
253025280, 252294144
253025280, 252294144
254121984, 242084352
254121984, 242789376
254121984, 244199424
254121984, 247019520
254121984, 5495296
254121984, 242789376
254121984, 244199424
254121984, 247019520
254121984, 5680128
254121984, 244199424
254121984, 247019520
254121984, 6049792
254121984, 247019520
254121984, 6789120
254121984, 7971840
256315392, 242815488
256315392, 243520512
256315392, 244930560
256315392, 6087168
256315392, 6087168
256315392, 243520512
256315392, 244930560
256315392, 6272000
256315392, 6272000
256315392, 244930560
256315392, 6641664
256315392, 6641664
256315392, 6493184
256315392, 6493184
256315392, 7971840
260702208, 244277760
260702208, 244982784
260702208, 7270912
260702208, 7270912
260702208, 7270912
260702208, 244982784
260702208, 7455744
260702208, 7455744
260702208, 7455744
260702208, 5753856
260702208, 5753856
260702208, 5753856
260702208, 6493184
260702208, 6493184
260702208, 7971840
257777664, 247202304
257777664, 9823232
257777664, 9638400
257777664, 9638400
257777664, 9638400
257777664, 9823232
257777664, 9823232
257777664, 9823232
257777664, 9823232
257777664, 5753856
257777664, 5753856
257777664, 5753856
257777664, 6493184
257777664, 6493184
257777664, 7971840
263626752, 26116608
263626752, 14373376
263626752, 14373376
263626752, 14373376
263626752, 14373376
263626752, 5384192
263626752, 5384192
263626752, 5384192
263626752, 5384192
263626752, 5753856
263626752, 5753856
263626752, 5753856
263626752, 6493184
263626752, 6493184
263626752, 7971840
264749568, 23843328
265454592, 23843328
266864640, 23843328
269684736, 23843328
41754624, 23843328
265454592, 5384192
266864640, 5384192
269684736, 5384192
41754624, 5384192
266864640, 5753856
269684736, 5753856
41754624, 5753856
269684736, 6493184
41754624, 6493184
41754624, 7971840
288145920, 42783232
288850944, 42783232
290260992, 42783232
63049728, 42783232
65150976, 42783232
288850944, 5384192
290260992, 5384192
63049728, 5384192
65150976, 5384192
290260992, 5753856
63049728, 5753856
65150976, 5753856
63049728, 6493184
65150976, 6493184
65150976, 7971840
334938624, 80663040
335643648, 80663040
108791808, 80663040
109842432, 80663040
111943680, 80663040
335643648, 5384192
108791808, 5384192
109842432, 5384192
111943680, 5384192
108791808, 5753856
109842432, 5753856
111943680, 5753856
109842432, 6493184
111943680, 6493184
111943680, 7971840
428524032, 156422656
429229056, 156422656
202377216, 156422656
203427840, 156422656
205529088, 156422656
429229056, 5384192
202377216, 5384192
203427840, 5384192
205529088, 5384192
202377216, 5753856
203427840, 5753856
205529088, 5753856
203427840, 6493184
205529088, 6493184
205529088, 7971840
346976256, 23580672
346976256, 23580672
346976256, 23580672
346976256, 23580672
346976256, 23580672
346976256, 23580672
346976256, 23580672
346976256, 23580672
346976256, 23580672
346976256, 23580672
346976256, 23580672
346976256, 23580672
346976256, 23580672
346976256, 23580672
346976256, 23580672
348020736, 19843072
348020736, 20115456
348020736, 20660224
348020736, 21749760
348020736, 5495296
348020736, 20115456
348020736, 20660224
348020736, 21749760
348020736, 5680128
348020736, 20660224
348020736, 21749760
348020736, 6049792
348020736, 21749760
348020736, 6789120
348020736, 7971840
350109696, 20539392
350109696, 20811776
350109696, 21356544
350109696, 6087168
350109696, 6087168
350109696, 20811776
350109696, 21356544
350109696, 6272000
350109696, 6272000
350109696, 21356544
350109696, 6641664
350109696, 6641664
350109696, 6493184
350109696, 6493184
350109696, 7971840
354287616, 21932032
354287616, 22204416
354287616, 7270912
354287616, 7270912
354287616, 7270912
354287616, 22204416
354287616, 7455744
354287616, 7455744
354287616, 7455744
354287616, 5753856
354287616, 5753856
354287616, 5753856
354287616, 6493184
354287616, 6493184
354287616, 7971840
44924928, 24717312
44924928, 9823232
44924928, 9638400
44924928, 9638400
44924928, 9638400
44924928, 9823232
44924928, 9823232
44924928, 9823232
44924928, 9823232
44924928, 5753856
44924928, 5753856
44924928, 5753856
44924928, 6493184
44924928, 6493184
44924928, 7971840
61636608, 14373376
61636608, 14373376
61636608, 14373376
61636608, 14373376
61636608, 14373376
61636608, 5384192
61636608, 5384192
61636608, 5384192
61636608, 5384192
61636608, 5753856
61636608, 5753856
61636608, 5753856
61636608, 6493184
61636608, 6493184
61636608, 7971840
45514752, 23843328
45514752, 23843328
45514752, 23843328
45514752, 23843328
45514752, 23843328
45514752, 5384192
45514752, 5384192
45514752, 5384192
45514752, 5384192
45514752, 5753856
45514752, 5753856
45514752, 5753856
45514752, 6493184
45514752, 6493184
45514752, 7971840
67796992, 42783232
67796992, 42783232
67796992, 42783232
67796992, 42783232
67796992, 42783232
67796992, 5384192
67796992, 5384192
67796992, 5384192
67796992, 5384192
67796992, 5753856
67796992, 5753856
67796992, 5753856
67796992, 6493184
67796992, 6493184
67796992, 7971840
108275712, 80663040
108548096, 80663040
109092864, 80663040
110182400, 80663040
83435520, 80663040
108548096, 5384192
109092864, 5384192
110182400, 5384192
83435520, 5384192
109092864, 5753856
110182400, 5753856
83435520, 5753856
110182400, 6493184
83435520, 6493184
83435520, 7971840
197404672, 156422656
197677056, 156422656
198221824, 156422656
199311360, 156422656
159195136, 156422656
197677056, 5384192
198221824, 5384192
199311360, 5384192
159195136, 5384192
198221824, 5753856
199311360, 5753856
159195136, 5753856
199311360, 6493184
159195136, 6493184
159195136, 7971840
346976256, 332910592
346976256, 332910592
346976256, 332910592
346976256, 332910592
346976256, 332910592
346976256, 332910592
346976256, 332910592
346976256, 332910592
346976256, 332910592
346976256, 332910592
346976256, 332910592
346976256, 332910592
346976256, 332910592
346976256, 332910592
346976256, 332910592
348020736, 322291712
348020736, 323022848
348020736, 324485120
348020736, 327409664
348020736, 5495296
348020736, 323022848
348020736, 324485120
348020736, 327409664
348020736, 5680128
348020736, 324485120
348020736, 327409664
348020736, 6049792
348020736, 327409664
348020736, 6789120
348020736, 7971840
350109696, 322988032
350109696, 323719168
350109696, 325181440
350109696, 6087168
350109696, 6087168
350109696, 323719168
350109696, 325181440
350109696, 6272000
350109696, 6272000
350109696, 325181440
350109696, 6641664
350109696, 6641664
350109696, 6493184
350109696, 6493184
350109696, 7971840
354287616, 324380672
354287616, 325111808
354287616, 7270912
354287616, 7270912
354287616, 7270912
354287616, 325111808
354287616, 7455744
354287616, 7455744
354287616, 7455744
354287616, 5753856
354287616, 5753856
354287616, 5753856
354287616, 6493184
354287616, 6493184
354287616, 7971840
338132992, 327165952
338132992, 9823232
338132992, 9638400
338132992, 9638400
338132992, 9638400
338132992, 9823232
338132992, 9823232
338132992, 9823232
338132992, 9823232
338132992, 5753856
338132992, 5753856
338132992, 5753856
338132992, 6493184
338132992, 6493184
338132992, 7971840
343703552, 14373376
343703552, 14373376
343703552, 14373376
343703552, 14373376
343703552, 14373376
343703552, 5384192
343703552, 5384192
343703552, 5384192
343703552, 5384192
343703552, 5753856
343703552, 5753856
343703552, 5753856
343703552, 6493184
343703552, 6493184
343703552, 7971840
343877632, 23843328
344608768, 23843328
346071040, 23843328
348995584, 23843328
45514752, 23843328
344608768, 5384192
346071040, 5384192
348995584, 5384192
45514752, 5384192
346071040, 5753856
348995584, 5753856
45514752, 5753856
348995584, 6493184
45514752, 6493184
45514752, 7971840
366159872, 42783232
366891008, 42783232
368353280, 42783232
65617920, 42783232
67796992, 42783232
366891008, 5384192
368353280, 5384192
65617920, 5384192
67796992, 5384192
368353280, 5753856
65617920, 5753856
67796992, 5753856
65617920, 6493184
67796992, 6493184
67796992, 7971840
410724352, 80663040
411455488, 80663040
109092864, 80663040
110182400, 80663040
83435520, 80663040
411455488, 5384192
109092864, 5384192
110182400, 5384192
83435520, 5384192
109092864, 5753856
110182400, 5753856
83435520, 5753856
110182400, 6493184
83435520, 6493184
83435520, 7971840
499853312, 156422656
197677056, 156422656
198221824, 156422656
199311360, 156422656
159195136, 156422656
197677056, 5384192
198221824, 5384192
199311360, 5384192
159195136, 5384192
198221824, 5753856
199311360, 5753856
159195136, 5753856
199311360, 6493184
159195136, 6493184
159195136, 7971840
264148992, 18204672
264148992, 18204672
264148992, 18204672
264148992, 18204672
264148992, 18204672
264148992, 18204672
264148992, 18204672
264148992, 18204672
264148992, 18204672
264148992, 18204672
264148992, 18204672
264148992, 18204672
264148992, 18204672
264148992, 18204672
264148992, 18204672
265089024, 15015936
265089024, 15249408
265089024, 15716352
265089024, 16650240
265089024, 5495296
265089024, 15249408
265089024, 15716352
265089024, 16650240
265089024, 5680128
265089024, 15716352
265089024, 16650240
265089024, 6049792
265089024, 16650240
265089024, 6789120
265089024, 7971840
266969088, 15642624
266969088, 15876096
266969088, 16343040
266969088, 6087168
266969088, 6087168
266969088, 15876096
266969088, 16343040
266969088, 6272000
266969088, 6272000
266969088, 16343040
266969088, 6641664
266969088, 6641664
266969088, 6493184
266969088, 6493184
266969088, 7971840
270729216, 16896000
270729216, 17129472
270729216, 7270912
270729216, 7270912
270729216, 7270912
270729216, 17129472
270729216, 7455744
270729216, 7455744
270729216, 7455744
270729216, 5753856
270729216, 5753856
270729216, 5753856
270729216, 6493184
270729216, 6493184
270729216, 7971840
37601280, 19402752
37601280, 9823232
37601280, 9638400
37601280, 9638400
37601280, 9638400
37601280, 9823232
37601280, 9823232
37601280, 9823232
37601280, 9823232
37601280, 5753856
37601280, 5753856
37601280, 5753856
37601280, 6493184
37601280, 6493184
37601280, 7971840
52641792, 14373376
52641792, 14373376
52641792, 14373376
52641792, 14373376
52641792, 14373376
52641792, 5384192
52641792, 5384192
52641792, 5384192
52641792, 5384192
52641792, 5753856
52641792, 5753856
52641792, 5753856
52641792, 6493184
52641792, 6493184
52641792, 7971840
82722816, 23843328
82722816, 23843328
82722816, 23843328
82722816, 23843328
82722816, 23843328
82722816, 5384192
82722816, 5384192
82722816, 5384192
82722816, 5384192
82722816, 5753856
82722816, 5753856
82722816, 5753856
82722816, 6493184
82722816, 6493184
82722816, 7971840
57999360, 42783232
57999360, 42783232
57999360, 42783232
57999360, 42783232
57999360, 42783232
57999360, 5384192
57999360, 5384192
57999360, 5384192
57999360, 5384192
57999360, 5753856
57999360, 5753856
57999360, 5753856
57999360, 6493184
57999360, 6493184
57999360, 7971840
94605312, 80663040
94838784, 80663040
95305728, 80663040
96239616, 80663040
83435520, 80663040
94838784, 5384192
95305728, 5384192
96239616, 5384192
83435520, 5384192
95305728, 5753856
96239616, 5753856
83435520, 5753856
96239616, 6493184
83435520, 6493184
83435520, 7971840
174821376, 156422656
175054848, 156422656
175521792, 156422656
176455680, 156422656
159195136, 156422656
175054848, 5384192
175521792, 5384192
176455680, 5384192
159195136, 5384192
175521792, 5753856
176455680, 5753856
159195136, 5753856
176455680, 6493184
159195136, 6493184
159195136, 7971840
264148992, 250988544
264148992, 250988544
264148992, 250988544
264148992, 250988544
264148992, 250988544
264148992, 250988544
264148992, 250988544
264148992, 250988544
264148992, 250988544
264148992, 250988544
264148992, 250988544
264148992, 250988544
264148992, 250988544
264148992, 250988544
264148992, 250988544
265089024, 241901568
265089024, 242528256
265089024, 243781632
265089024, 246288384
265089024, 5495296
265089024, 242528256
265089024, 243781632
265089024, 246288384
265089024, 5680128
265089024, 243781632
265089024, 246288384
265089024, 6049792
265089024, 246288384
265089024, 6789120
265089024, 7971840
266969088, 242528256
266969088, 243154944
266969088, 244408320
266969088, 6087168
266969088, 6087168
266969088, 243154944
266969088, 244408320
266969088, 6272000
266969088, 6272000
266969088, 244408320
266969088, 6641664
266969088, 6641664
266969088, 6493184
266969088, 6493184
266969088, 7971840
270729216, 243781632
270729216, 244408320
270729216, 7270912
270729216, 7270912
270729216, 7270912
270729216, 244408320
270729216, 7455744
270729216, 7455744
270729216, 7455744
270729216, 5753856
270729216, 5753856
270729216, 5753856
270729216, 6493184
270729216, 6493184
270729216, 7971840
255688704, 246288384
255688704, 9823232
255688704, 9638400
255688704, 9638400
255688704, 9638400
255688704, 9823232
255688704, 9823232
255688704, 9823232
255688704, 9823232
255688704, 5753856
255688704, 5753856
255688704, 5753856
255688704, 6493184
255688704, 6493184
255688704, 7971840
260702208, 14373376
260702208, 14373376
260702208, 14373376
260702208, 14373376
260702208, 14373376
260702208, 5384192
260702208, 5384192
260702208, 5384192
260702208, 5384192
260702208, 5753856
260702208, 5753856
260702208, 5753856
260702208, 6493184
260702208, 6493184
260702208, 7971840
261328896, 23843328
261955584, 23843328
263208960, 23843328
265715712, 23843328
37945344, 23843328
261955584, 5384192
263208960, 5384192
265715712, 5384192
37945344, 5384192
263208960, 5753856
265715712, 5753856
37945344, 5753856
265715712, 6493184
37945344, 6493184
37945344, 7971840
281382912, 42783232
282009600, 42783232
283262976, 42783232
56131584, 42783232
57999360, 42783232
282009600, 5384192
283262976, 5384192
56131584, 5384192
57999360, 5384192
283262976, 5753856
56131584, 5753856
57999360, 5753856
56131584, 6493184
57999360, 6493184
57999360, 7971840
321490944, 80663040
322117632, 80663040
95305728, 80663040
96239616, 80663040
83435520, 80663040
322117632, 5384192
95305728, 5384192
96239616, 5384192
83435520, 5384192
95305728, 5753856
96239616, 5753856
83435520, 5753856
96239616, 6493184
83435520, 6493184
83435520, 7971840
401707008, 156422656
175054848, 156422656
175521792, 156422656
176455680, 156422656
159195136, 156422656
175054848, 5384192
175521792, 5384192
176455680, 5384192
159195136, 5384192
175521792, 5753856
176455680, 5753856
159195136, 5753856
176455680, 6493184
159195136, 6493184
159195136, 7971840
268065792, 18723840
268065792, 18723840
268065792, 18723840
268065792, 18723840
268065792, 18723840
268065792, 18723840
268065792, 18723840
268065792, 18723840
268065792, 18723840
268065792, 18723840
268065792, 18723840
268065792, 18723840
268065792, 18723840
268065792, 18723840
268065792, 18723840
269162496, 15149568
269162496, 15412224
269162496, 15937536
269162496, 16988160
269162496, 5495296
269162496, 15412224
269162496, 15937536
269162496, 16988160
269162496, 5680128
269162496, 15937536
269162496, 16988160
269162496, 6049792
269162496, 16988160
269162496, 6789120
269162496, 7971840
271355904, 15880704
271355904, 16143360
271355904, 16668672
271355904, 6087168
271355904, 6087168
271355904, 16143360
271355904, 16668672
271355904, 6272000
271355904, 6272000
271355904, 16668672
271355904, 6641664
271355904, 6641664
271355904, 6493184
271355904, 6493184
271355904, 7971840
275742720, 17342976
275742720, 17605632
275742720, 7270912
275742720, 7270912
275742720, 7270912
275742720, 17605632
275742720, 7455744
275742720, 7455744
275742720, 7455744
275742720, 5753856
275742720, 5753856
275742720, 5753856
275742720, 6493184
275742720, 6493184
275742720, 7971840
41508864, 20267520
41508864, 9823232
41508864, 9638400
41508864, 9638400
41508864, 9638400
41508864, 9823232
41508864, 9823232
41508864, 9823232
41508864, 9823232
41508864, 5753856
41508864, 5753856
41508864, 5753856
41508864, 6493184
41508864, 6493184
41508864, 7971840
59056128, 26116608
59056128, 14373376
59056128, 14373376
59056128, 14373376
59056128, 14373376
59056128, 5384192
59056128, 5384192
59056128, 5384192
59056128, 5384192
59056128, 5753856
59056128, 5753856
59056128, 5753856
59056128, 6493184
59056128, 6493184
59056128, 7971840
94150656, 23843328
94150656, 23843328
94150656, 23843328
94150656, 23843328
94150656, 23843328
94150656, 5384192
94150656, 5384192
94150656, 5384192
94150656, 5384192
94150656, 5753856
94150656, 5753856
94150656, 5753856
94150656, 6493184
94150656, 6493184
94150656, 7971840
164339712, 42783232
164339712, 42783232
164339712, 42783232
164339712, 42783232
164339712, 42783232
164339712, 5384192
164339712, 5384192
164339712, 5384192
164339712, 5384192
164339712, 5753856
164339712, 5753856
164339712, 5753856
164339712, 6493184
164339712, 6493184
164339712, 7971840
304717824, 80663040
304717824, 80663040
304717824, 80663040
304717824, 80663040
304717824, 80663040
304717824, 5384192
304717824, 5384192
304717824, 5384192
304717824, 5384192
304717824, 5753856
304717824, 5753856
304717824, 5753856
304717824, 6493184
304717824, 6493184
304717824, 7971840
205529088, 156422656
205529088, 156422656
205529088, 156422656
205529088, 156422656
205529088, 156422656
205529088, 5384192
205529088, 5384192
205529088, 5384192
205529088, 5384192
205529088, 5753856
205529088, 5753856
205529088, 5753856
205529088, 6493184
205529088, 6493184
205529088, 7971840
268065792, 252294144
268065792, 252294144
268065792, 252294144
268065792, 252294144
268065792, 252294144
268065792, 252294144
268065792, 252294144
268065792, 252294144
268065792, 252294144
268065792, 252294144
268065792, 252294144
268065792, 252294144
268065792, 252294144
268065792, 252294144
268065792, 252294144
269162496, 242084352
269162496, 242789376
269162496, 244199424
269162496, 247019520
269162496, 5495296
269162496, 242789376
269162496, 244199424
269162496, 247019520
269162496, 5680128
269162496, 244199424
269162496, 247019520
269162496, 6049792
269162496, 247019520
269162496, 6789120
269162496, 7971840
271355904, 242815488
271355904, 243520512
271355904, 244930560
271355904, 6087168
271355904, 6087168
271355904, 243520512
271355904, 244930560
271355904, 6272000
271355904, 6272000
271355904, 244930560
271355904, 6641664
271355904, 6641664
271355904, 6493184
271355904, 6493184
271355904, 7971840
275742720, 244277760
275742720, 244982784
275742720, 7270912
275742720, 7270912
275742720, 7270912
275742720, 244982784
275742720, 7455744
275742720, 7455744
275742720, 7455744
275742720, 5753856
275742720, 5753856
275742720, 5753856
275742720, 6493184
275742720, 6493184
275742720, 7971840
257777664, 247202304
257777664, 9823232
257777664, 9638400
257777664, 9638400
257777664, 9638400
257777664, 9823232
257777664, 9823232
257777664, 9823232
257777664, 9823232
257777664, 5753856
257777664, 5753856
257777664, 5753856
257777664, 6493184
257777664, 6493184
257777664, 7971840
263626752, 26116608
263626752, 14373376
263626752, 14373376
263626752, 14373376
263626752, 14373376
263626752, 5384192
263626752, 5384192
263626752, 5384192
263626752, 5384192
263626752, 5753856
263626752, 5753856
263626752, 5753856
263626752, 6493184
263626752, 6493184
263626752, 7971840
264749568, 23843328
265454592, 23843328
266864640, 23843328
269684736, 23843328
41754624, 23843328
265454592, 5384192
266864640, 5384192
269684736, 5384192
41754624, 5384192
266864640, 5753856
269684736, 5753856
41754624, 5753856
269684736, 6493184
41754624, 6493184
41754624, 7971840
288145920, 42783232
288850944, 42783232
290260992, 42783232
63049728, 42783232
65150976, 42783232
288850944, 5384192
290260992, 5384192
63049728, 5384192
65150976, 5384192
290260992, 5753856
63049728, 5753856
65150976, 5753856
63049728, 6493184
65150976, 6493184
65150976, 7971840
334938624, 80663040
335643648, 80663040
108791808, 80663040
109842432, 80663040
111943680, 80663040
335643648, 5384192
108791808, 5384192
109842432, 5384192
111943680, 5384192
108791808, 5753856
109842432, 5753856
111943680, 5753856
109842432, 6493184
111943680, 6493184
111943680, 7971840
428524032, 156422656
429229056, 156422656
202377216, 156422656
203427840, 156422656
205529088, 156422656
429229056, 5384192
202377216, 5384192
203427840, 5384192
205529088, 5384192
202377216, 5753856
203427840, 5753856
205529088, 5753856
203427840, 6493184
205529088, 6493184
205529088, 7971840
