NameConv_SP;autoscheduler;autoTVM;oneDNN;mOpt;tvm_ttile
ResNet18_01_Seq;3.2871;4.9849;4.0387;3.936;3.4897
ResNet18_01_Par;1.0495;0.4753;0.35;0.496;0.1518
ResNet18_02_Seq;2.2083;2.377;3.652;2.472;1.9326
ResNet18_02_Par;0.2151;0.1932;0.26;0.629;0.0852
ResNet18_03_Seq;0.5551;0.6941;0.4411;0.832;0.2854
ResNet18_03_Par;0.3149;0.144;0.19;0.367;0.0217
ResNet18_04_Seq;1.2515;1.2737;1.8499;1.754;1.0271
ResNet18_04_Par;0.1776;0.1555;0.22;0.592;0.053
ResNet18_05_Seq;0.3187;0.4235;0.2404;0.475;0.1273
ResNet18_05_Par;0.375;0.1078;0.13;-1.0;0.0174
ResNet18_06_Seq;2.0898;2.1325;3.5546;2.485;1.8657
ResNet18_06_Par;0.1928;0.1914;0.26;0.68;0.0786
ResNet18_07_Seq;1.2482;1.3385;1.7583;1.86;1.1498
ResNet18_07_Par;0.1837;0.2088;0.26;0.699;0.0779
ResNet18_08_Seq;4.1171;4.2021;7.043;-1;4.0551
ResNet18_08_Par;0.333;0.3048;0.37;-1;0.1684
ResNet18_09_Seq;2.3743;2.4648;3.2732;3.12;2.3466
ResNet18_09_Par;0.1943;0.361;0.33;0.855;0.1403
ResNet18_10_Seq;3.9464;5.0967;3.9946;-1;3.781
ResNet18_10_Par;0.2777;0.2378;0.39;-1;0.2255
ResNet18_11_Seq;0.2828;0.2531;0.2161;0.361;0.115
ResNet18_11_Par;0.086;0.0659;0.15;0.314;0.0158
ResNet18_12_Seq;3.9601;4.2166;3.6019;4.648;3.5925
ResNet18_12_Par;0.204;0.1859;0.32;1.589;0.2244
Yolo9000_00_Seq;40.0043;47.9231;10.4938;14.632;8.6837
Yolo9000_00_Par;4.0348;5.0787;1.74;1.554;0.3685
Yolo9000_02_Seq;38.6138;47.5304;43.1695;34.295;23.597
Yolo9000_02_Par;2.5224;2.8334;1.58;1.852;0.889
Yolo9000_04_Seq;27.2529;31.8397;42.2836;31.117;23.4917
Yolo9000_04_Par;1.5535;1.7277;1.25;1.542;0.9178
Yolo9000_05_Seq;6.6561;9.6548;5.4928;5.634;3.7695
Yolo9000_05_Par;1.1655;1.0309;0.68;0.668;0.1321
Yolo9000_08_Seq;23.7267;25.7612;41.8473;27.217;24.0101
Yolo9000_08_Par;1.3463;1.3767;1.21;1.672;0.9401
Yolo9000_09_Seq;4.2356;5.3525;4.7838;5.375;3.1762
Yolo9000_09_Par;0.466;0.462;0.43;0.619;0.177
Yolo9000_12_Seq;24.8464;25.2704;40.9239;27.136;23.1258
Yolo9000_12_Par;1.0147;1.109;1.32;2.354;1.1826
Yolo9000_13_Seq;4.1092;3.7436;4.721;5.126;2.9195
Yolo9000_13_Par;0.6476;0.3901;0.47;0.677;0.1499
Yolo9000_18_Seq;27.3031;30.2834;40.401;33.433;27.5213
Yolo9000_18_Par;1.194;1.233;1.5;2.344;1.7714
Yolo9000_19_Seq;3.8289;4.5259;4.9815;4.692;3.6445
Yolo9000_19_Par;0.3388;0.3238;0.62;1.159;0.2624
Yolo9000_23_Seq;406.1171;491.9897;282.394;258.318;162.7559
Yolo9000_23_Par;15.3817;19.2592;22.65;15.147;8.7816
