NameConv;Time;Std
ResNet18_01;4.997;0.0
ResNet18_02;3.758;0.0
ResNet18_03;0.775;0.0
ResNet18_04;2.048;0.0
ResNet18_05;0.421;0.0
ResNet18_06;3.752;0.0
ResNet18_07;2.104;0.0
ResNet18_09;4.066;0.0
ResNet18_11;0.341;0.0
ResNet18_12;5.326;0.0
Yolo9000_00;16.340;0.0
Yolo9000_02;48.424;0.0
Yolo9000_04;46.462;0.0
Yolo9000_05;5.768;0.0
Yolo9000_08;43.655;0.0
Yolo9000_09;5.736;0.0
Yolo9000_12;43.500;0.0
Yolo9000_13;5.528;0.0
Yolo9000_18;45.939;0.0
Yolo9000_19;5.324;0.0
Yolo9000_23;290.642;0.0
