NameConv;Time;Std
Yolo9000_00;0.3685257;0.0037053658672255344
ResNet18_02;0.0851528;0.0005238661661149705
Yolo9000_08;0.9401057;0.007686870326081987
ResNet18_11;0.015795800000000002;0.00027293728217302985
Yolo9000_02;0.8889926000000001;0.005385224065904762
ResNet18_01;0.15183259999999998;0.005689815835332451
ResNet18_05;0.0173953;0.00029019202263329036
Yolo9000_18;1.7714276999999998;0.013087908855504751
Yolo9000_12;1.1825926000000002;0.017909246048898878
Yolo9000_19;0.26237999999999995;0.004494637137745368
ResNet18_07;0.0779201;0.00046054933503371863
ResNet18_03;0.021717399999999998;0.00029175270350075645
Yolo9000_09;0.17695329999999998;0.001002471351211592
Yolo9000_05;0.13208219999999998;0.0009469794929141801
ResNet18_06;0.07857;0.00175026837942071
ResNet18_08;0.1684296;0.001719227628907823
ResNet18_04;0.05302080000000001;0.0008671126570405964
ResNet18_09;0.1402539;0.0012605555481612046
ResNet18_10;0.2255257;0.012156457543626762
ResNet18_12;0.2243696;0.011337719649029965
Yolo9000_23;8.781569600000001;0.018228166096456708
Yolo9000_13;0.14985120000000002;0.0005546187519368622
Yolo9000_04;0.9178206;0.0013328222086985324
