NameConv;Time;Std
ResNet18_01;0.496;0.0
ResNet18_02;0.629;0.0
ResNet18_03;0.367;0.0
ResNet18_04;0.592;0.0
ResNet18_05;-1.0;0.0
ResNet18_06;0.680;0.0
ResNet18_07;0.699;0.0
ResNet18_09;0.855;0.0
ResNet18_11;0.314;0.0
ResNet18_12;1.589;0.0
Yolo9000_00;1.554;0.0
Yolo9000_02;1.852;0.0
Yolo9000_04;1.542;0.0
Yolo9000_05;0.668;0.0
Yolo9000_08;1.672;0.0
Yolo9000_09;0.619;0.0
Yolo9000_12;2.354;0.0
Yolo9000_13;0.677;0.0
Yolo9000_18;2.344;0.0
Yolo9000_19;1.159;0.0
Yolo9000_23;15.147;0.0
