perf,CACHE_MISS_L1,CACHE_MISS_L2,scheme
70.55,70010,169459,"[V f; U (2, f); U (4, y); T (64, c); Hoist_vars [c]; T (56, x); T (14, y);  T (4, f); T (1, x); T (1, y)]"
72.28,70261,171981,"[V f; U (2, f); U (4, y); T (64, c); Hoist_vars [c]; T (56, x); T (7, y);  T (4, f); T (1, x); T (2, y)]"
74.14,71857,117644,"[V f; U (2, f); U (4, y); T (64, c); Hoist_vars [c]; T (56, x); T (2, y);  T (4, f); T (1, x); T (7, y)]"
74.47,65369,94257,"[V f; U (2, f); U (4, y); T (64, c); Hoist_vars [c]; T (56, x); T (1, y);  T (4, f); T (1, x); T (14, y)]"
68.03,63449,141629,"[V f; U (2, f); U (4, y); T (64, c); Hoist_vars [c]; T (28, x); T (14, y);  T (4, f); T (2, x); T (1, y)]"
74.85,73019,131859,"[V f; U (2, f); U (4, y); T (64, c); Hoist_vars [c]; T (28, x); T (7, y);  T (4, f); T (2, x); T (2, y)]"
78.54,77240,77754,"[V f; U (2, f); U (4, y); T (64, c); Hoist_vars [c]; T (28, x); T (2, y);  T (4, f); T (2, x); T (7, y)]"
78.60,66973,71541,"[V f; U (2, f); U (4, y); T (64, c); Hoist_vars [c]; T (28, x); T (1, y);  T (4, f); T (2, x); T (14, y)]"
75.76,70910,134404,"[V f; U (2, f); U (4, y); T (64, c); Hoist_vars [c]; T (14, x); T (14, y);  T (4, f); T (4, x); T (1, y)]"
77.18,72425,102321,"[V f; U (2, f); U (4, y); T (64, c); Hoist_vars [c]; T (14, x); T (7, y);  T (4, f); T (4, x); T (2, y)]"
80.14,49880,61441,"[V f; U (2, f); U (4, y); T (64, c); Hoist_vars [c]; T (14, x); T (2, y);  T (4, f); T (4, x); T (7, y)]"
80.45,66463,76990,"[V f; U (2, f); U (4, y); T (64, c); Hoist_vars [c]; T (14, x); T (1, y);  T (4, f); T (4, x); T (14, y)]"
79.64,71739,85428,"[V f; U (2, f); U (4, y); T (64, c); Hoist_vars [c]; T (8, x); T (14, y);  T (4, f); T (7, x); T (1, y)]"
76.52,72261,66759,"[V f; U (2, f); U (4, y); T (64, c); Hoist_vars [c]; T (8, x); T (7, y);  T (4, f); T (7, x); T (2, y)]"
79.66,59226,68425,"[V f; U (2, f); U (4, y); T (64, c); Hoist_vars [c]; T (8, x); T (2, y);  T (4, f); T (7, x); T (7, y)]"
81.50,59093,71317,"[V f; U (2, f); U (4, y); T (64, c); Hoist_vars [c]; T (8, x); T (1, y);  T (4, f); T (7, x); T (14, y)]"
80.91,71788,75440,"[V f; U (2, f); U (4, y); T (64, c); Hoist_vars [c]; T (7, x); T (14, y);  T (4, f); T (8, x); T (1, y)]"
80.66,74940,63627,"[V f; U (2, f); U (4, y); T (64, c); Hoist_vars [c]; T (7, x); T (7, y);  T (4, f); T (8, x); T (2, y)]"
80.33,44818,58951,"[V f; U (2, f); U (4, y); T (64, c); Hoist_vars [c]; T (7, x); T (2, y);  T (4, f); T (8, x); T (7, y)]"
79.64,46485,71163,"[V f; U (2, f); U (4, y); T (64, c); Hoist_vars [c]; T (7, x); T (1, y);  T (4, f); T (8, x); T (14, y)]"
79.15,65634,58320,"[V f; U (2, f); U (4, y); T (64, c); Hoist_vars [c]; T (4, x); T (14, y);  T (4, f); T (14, x); T (1, y)]"
81.49,49948,52055,"[V f; U (2, f); U (4, y); T (64, c); Hoist_vars [c]; T (4, x); T (7, y);  T (4, f); T (14, x); T (2, y)]"
78.60,35371,61499,"[V f; U (2, f); U (4, y); T (64, c); Hoist_vars [c]; T (4, x); T (2, y);  T (4, f); T (14, x); T (7, y)]"
79.73,40230,70865,"[V f; U (2, f); U (4, y); T (64, c); Hoist_vars [c]; T (4, x); T (1, y);  T (4, f); T (14, x); T (14, y)]"
82.76,49354,45394,"[V f; U (2, f); U (4, y); T (64, c); Hoist_vars [c]; T (2, x); T (14, y);  T (4, f); T (28, x); T (1, y)]"
82.08,50739,51437,"[V f; U (2, f); U (4, y); T (64, c); Hoist_vars [c]; T (2, x); T (7, y);  T (4, f); T (28, x); T (2, y)]"
78.47,31765,61666,"[V f; U (2, f); U (4, y); T (64, c); Hoist_vars [c]; T (2, x); T (2, y);  T (4, f); T (28, x); T (7, y)]"
80.75,29247,67063,"[V f; U (2, f); U (4, y); T (64, c); Hoist_vars [c]; T (2, x); T (1, y);  T (4, f); T (28, x); T (14, y)]"
83.62,43077,47494,"[V f; U (2, f); U (4, y); T (64, c); Hoist_vars [c]; T (1, x); T (14, y);  T (4, f); T (56, x); T (1, y)]"
83.69,37589,52974,"[V f; U (2, f); U (4, y); T (64, c); Hoist_vars [c]; T (1, x); T (7, y);  T (4, f); T (56, x); T (2, y)]"
78.83,29105,64027,"[V f; U (2, f); U (4, y); T (64, c); Hoist_vars [c]; T (1, x); T (2, y);  T (4, f); T (56, x); T (7, y)]"
80.77,25496,63753,"[V f; U (2, f); U (4, y); T (64, c); Hoist_vars [c]; T (1, x); T (1, y);  T (4, f); T (56, x); T (14, y)]"
71.60,64084,147262,"[V f; U (2, f); ULambda y; T (64, c); Hoist_vars [c]; T (56, x);  Lambda_apply y [((Iter 1), (Arg 4)); ((Iter 2), (Arg 5))]; T (4, f);  T (1, x); T (4, y)]"
71.38,69853,166419,"[V f; U (2, f); ULambda y; T (64, c); Hoist_vars [c]; T (56, x); T (4, y);  T (4, f); T (1, x);  Lambda_apply y [((Iter 1), (Arg 4)); ((Iter 2), (Arg 5))]]"
78.48,74006,97512,"[V f; U (2, f); ULambda y; T (64, c); Hoist_vars [c]; T (28, x);  Lambda_apply y [((Iter 1), (Arg 4)); ((Iter 2), (Arg 5))]; T (4, f);  T (2, x); T (4, y)]"
78.40,73102,113691,"[V f; U (2, f); ULambda y; T (64, c); Hoist_vars [c]; T (28, x); T (4, y);  T (4, f); T (2, x);  Lambda_apply y [((Iter 1), (Arg 4)); ((Iter 2), (Arg 5))]]"
81.10,75463,75022,"[V f; U (2, f); ULambda y; T (64, c); Hoist_vars [c]; T (14, x);  Lambda_apply y [((Iter 1), (Arg 4)); ((Iter 2), (Arg 5))]; T (4, f);  T (4, x); T (4, y)]"
82.21,74776,68329,"[V f; U (2, f); ULambda y; T (64, c); Hoist_vars [c]; T (14, x); T (4, y);  T (4, f); T (4, x);  Lambda_apply y [((Iter 1), (Arg 4)); ((Iter 2), (Arg 5))]]"
82.93,67486,63115,"[V f; U (2, f); ULambda y; T (64, c); Hoist_vars [c]; T (8, x);  Lambda_apply y [((Iter 1), (Arg 4)); ((Iter 2), (Arg 5))]; T (4, f);  T (7, x); T (4, y)]"
81.00,71776,65444,"[V f; U (2, f); ULambda y; T (64, c); Hoist_vars [c]; T (8, x); T (4, y);  T (4, f); T (7, x);  Lambda_apply y [((Iter 1), (Arg 4)); ((Iter 2), (Arg 5))]]"
83.07,67050,64480,"[V f; U (2, f); ULambda y; T (64, c); Hoist_vars [c]; T (7, x);  Lambda_apply y [((Iter 1), (Arg 4)); ((Iter 2), (Arg 5))]; T (4, f);  T (8, x); T (4, y)]"
83.60,57833,56304,"[V f; U (2, f); ULambda y; T (64, c); Hoist_vars [c]; T (7, x); T (4, y);  T (4, f); T (8, x);  Lambda_apply y [((Iter 1), (Arg 4)); ((Iter 2), (Arg 5))]]"
82.55,46456,60997,"[V f; U (2, f); ULambda y; T (64, c); Hoist_vars [c]; T (4, x);  Lambda_apply y [((Iter 1), (Arg 4)); ((Iter 2), (Arg 5))]; T (4, f);  T (14, x); T (4, y)]"
84.66,63153,55898,"[V f; U (2, f); ULambda y; T (64, c); Hoist_vars [c]; T (4, x); T (4, y);  T (4, f); T (14, x);  Lambda_apply y [((Iter 1), (Arg 4)); ((Iter 2), (Arg 5))]]"
83.52,36786,54784,"[V f; U (2, f); ULambda y; T (64, c); Hoist_vars [c]; T (2, x);  Lambda_apply y [((Iter 1), (Arg 4)); ((Iter 2), (Arg 5))]; T (4, f);  T (28, x); T (4, y)]"
84.15,47542,56350,"[V f; U (2, f); ULambda y; T (64, c); Hoist_vars [c]; T (2, x); T (4, y);  T (4, f); T (28, x);  Lambda_apply y [((Iter 1), (Arg 4)); ((Iter 2), (Arg 5))]]"
85.30,28098,54200,"[V f; U (2, f); ULambda y; T (64, c); Hoist_vars [c]; T (1, x);  Lambda_apply y [((Iter 1), (Arg 4)); ((Iter 2), (Arg 5))]; T (4, f);  T (56, x); T (4, y)]"
84.56,31169,55651,"[V f; U (2, f); ULambda y; T (64, c); Hoist_vars [c]; T (1, x); T (4, y);  T (4, f); T (56, x);  Lambda_apply y [((Iter 1), (Arg 4)); ((Iter 2), (Arg 5))]]"
