perf,CACHE_MISS_L1,CACHE_MISS_L2,scheme
25.95,6447832,16470102,"[V f; U (4, f); U (4, y); T (3, c); Hoist_vars [c]; T (544, x); T (3, w);  T (3, h); T (2, y); T (4, y); T (1, x); T (17, y)]"
29.25,6285666,15495102,"[V f; U (4, f); U (4, y); T (3, c); Hoist_vars [c]; T (136, x); T (3, w);  T (3, h); T (1, y); T (136, y); T (4, x); T (1, y)]"
28.78,7255852,18880770,"[V f; U (4, f); U (4, y); T (3, c); Hoist_vars [c]; T (136, x); T (3, w);  T (3, h); T (1, y); T (1, y); T (4, x); T (136, y)]"
33.82,7104127,6236456,"[V f; U (4, f); U (4, y); T (3, c); Hoist_vars [c]; T (68, x); T (3, w);  T (3, h); T (34, y); T (4, y); T (8, x); T (1, y)]"
39.71,6387429,2274060,"[V f; U (4, f); U (4, y); T (3, c); Hoist_vars [c]; T (34, x); T (3, w);  T (3, h); T (1, y); T (68, y); T (16, x); T (2, y)]"
39.83,6394678,2308285,"[V f; U (4, f); U (4, y); T (3, c); Hoist_vars [c]; T (32, x); T (3, w);  T (3, h); T (1, y); T (68, y); T (17, x); T (2, y)]"
39.91,6240710,2463841,"[V f; U (4, f); U (4, y); T (3, c); Hoist_vars [c]; T (16, x); T (3, w);  T (3, h); T (1, y); T (8, y); T (34, x); T (17, y)]"
44.54,1961557,1550624,"[V f; U (4, f); U (4, y); T (3, c); Hoist_vars [c]; T (8, x); T (3, w);  T (3, h); T (4, y); T (34, y); T (68, x); T (1, y)]"
39.41,671792,1527793,"[V f; U (4, f); U (4, y); T (3, c); Hoist_vars [c]; T (1, x); T (3, w);  T (3, h); T (4, y); T (2, y); T (544, x); T (17, y)]"
26.80,2386085,8251874,"[V f; U (2, f); U (8, y); U (3, h); T (3, c); Hoist_vars [c]; T (136, x);  T (3, w); T (4, y); T (4, x); T (17, y); T (2, f); T (1, x)]"
35.00,2863084,3348348,"[V f; U (2, f); U (8, y); U (3, h); T (3, c); Hoist_vars [c]; T (17, x);  T (3, w); T (4, y); T (32, x); T (17, y); T (2, f); T (1, x)]"
32.46,2142883,5249577,"[V f; U (2, f); U (8, y); U (3, h); T (3, c); Hoist_vars [c]; T (8, x);  T (3, w); T (1, y); T (68, x); T (68, y); T (2, f); T (1, x)]"
26.43,3209839,9785789,"[V f; U (2, f); U (8, y); U (3, h); T (3, c); Hoist_vars [c]; T (272, x);  T (3, w); T (1, y); T (1, x); T (68, y); T (2, f); T (2, x)]"
29.95,2506583,4329032,"[V f; U (2, f); U (8, y); U (3, h); T (3, c); Hoist_vars [c]; T (68, x);  T (3, w); T (34, y); T (4, x); T (2, y); T (2, f); T (2, x)]"
28.81,3187845,9407075,"[V f; U (2, f); U (8, y); U (3, h); T (3, c); Hoist_vars [c]; T (136, x);  T (3, w); T (68, y); T (1, x); T (1, y); T (2, f); T (4, x)]"
33.03,3135802,3319030,"[V f; U (2, f); U (8, y); U (3, h); T (3, c); Hoist_vars [c]; T (34, x);  T (3, w); T (4, y); T (4, x); T (17, y); T (2, f); T (4, x)]"
34.61,2097732,4972298,"[V f; U (2, f); U (8, y); U (3, h); T (3, c); Hoist_vars [c]; T (8, x);  T (3, w); T (1, y); T (17, x); T (68, y); T (2, f); T (4, x)]"
34.07,1075281,3134816,"[V f; U (2, f); U (8, y); U (3, h); T (3, c); Hoist_vars [c]; T (4, x);  T (3, w); T (2, y); T (34, x); T (34, y); T (2, f); T (4, x)]"
36.91,2004074,2769119,"[V f; U (2, f); U (8, y); U (3, h); T (3, c); Hoist_vars [c]; T (17, x);  T (3, w); T (17, y); T (4, x); T (4, y); T (2, f); T (8, x)]"
34.68,3106260,3132974,"[V f; U (2, f); U (8, y); U (3, h); T (3, c); Hoist_vars [c]; T (34, x);  T (3, w); T (4, y); T (1, x); T (17, y); T (2, f); T (16, x)]"
35.38,1051007,2204644,"[V f; U (2, f); U (8, y); U (3, h); T (3, c); Hoist_vars [c]; T (1, x);  T (3, w); T (2, y); T (34, x); T (34, y); T (2, f); T (16, x)]"
33.46,773223,2319696,"[V f; U (2, f); U (8, y); U (3, h); T (3, c); Hoist_vars [c]; T (4, x);  T (3, w); T (34, y); T (8, x); T (2, y); T (2, f); T (17, x)]"
34.75,1069483,2591023,"[V f; U (2, f); U (8, y); U (3, h); T (3, c); Hoist_vars [c]; T (2, x);  T (3, w); T (4, y); T (16, x); T (17, y); T (2, f); T (17, x)]"
38.09,810231,2246757,"[V f; U (2, f); U (8, y); U (3, h); T (3, c); Hoist_vars [c]; T (1, x);  T (3, w); T (34, y); T (32, x); T (2, y); T (2, f); T (17, x)]"
39.20,1008706,2284452,"[V f; U (2, f); U (8, y); U (3, h); T (3, c); Hoist_vars [c]; T (4, x);  T (3, w); T (68, y); T (2, x); T (1, y); T (2, f); T (68, x)]"
33.99,806248,2144601,"[V f; U (2, f); U (8, y); U (3, h); T (3, c); Hoist_vars [c]; T (2, x);  T (3, w); T (68, y); T (4, x); T (1, y); T (2, f); T (68, x)]"
38.23,1138376,1814808,"[V f; U (2, f); U (8, y); U (3, h); T (3, c); Hoist_vars [c]; T (2, x);  T (3, w); T (68, y); T (2, x); T (1, y); T (2, f); T (136, x)]"
40.19,1031943,1604707,"[V f; U (2, f); U (8, y); U (3, h); T (3, c); Hoist_vars [c]; T (1, x);  T (3, w); T (17, y); T (4, x); T (4, y); T (2, f); T (136, x)]"
30.54,2793516,7996407,"[V f; U (4, f); U (4, y); U (3, h); T (3, c); Hoist_vars [c]; T (272, x);  T (3, w); T (2, y); T (68, y); T (2, x); T (1, y)]"
29.20,2302283,6811835,"[V f; U (4, f); U (4, y); U (3, h); T (3, c); Hoist_vars [c]; T (272, x);  T (3, w); T (17, y); T (2, y); T (2, x); T (4, y)]"
35.35,1938531,1524752,"[V f; U (4, f); U (4, y); U (3, h); T (3, c); Hoist_vars [c]; T (34, x);  T (3, w); T (136, y); T (1, y); T (16, x); T (1, y)]"
36.19,2296958,2362121,"[V f; U (4, f); U (4, y); U (3, h); T (3, c); Hoist_vars [c]; T (32, x);  T (3, w); T (4, y); T (1, y); T (17, x); T (34, y)]"
38.26,1911541,1567042,"[V f; U (4, f); U (4, y); U (3, h); T (3, c); Hoist_vars [c]; T (17, x);  T (3, w); T (68, y); T (2, y); T (32, x); T (1, y)]"
40.69,1407052,1524249,"[V f; U (4, f); U (4, y); U (3, h); T (3, c); Hoist_vars [c]; T (8, x);  T (3, w); T (17, y); T (4, y); T (68, x); T (2, y)]"
38.09,702390,1377026,"[V f; U (4, f); U (4, y); U (3, h); T (3, c); Hoist_vars [c]; T (4, x);  T (3, w); T (34, y); T (4, y); T (136, x); T (1, y)]"
39.68,724872,1384795,"[V f; U (4, f); U (4, y); U (3, h); T (3, c); Hoist_vars [c]; T (4, x);  T (3, w); T (1, y); T (136, y); T (136, x); T (1, y)]"
41.65,755472,1305253,"[V f; U (4, f); U (4, y); U (3, h); T (3, c); Hoist_vars [c]; T (1, x);  T (3, w); T (34, y); T (4, y); T (544, x); T (1, y)]"
40.22,750396,1348348,"[V f; U (4, f); U (4, y); U (3, h); T (3, c); Hoist_vars [c]; T (1, x);  T (3, w); T (68, y); T (1, y); T (544, x); T (2, y)]"
29.03,2114887,6543090,"[V f; U (4, f); U (4, y); U (3, w); T (3, c); Hoist_vars [c]; T (272, x);  T (3, h); T (17, y); T (4, y); T (2, x); T (2, y)]"
29.91,2769503,9132557,"[V f; U (4, f); U (4, y); U (3, w); T (3, c); Hoist_vars [c]; T (272, x);  T (3, h); T (2, y); T (1, y); T (2, x); T (68, y)]"
34.08,2702387,7711635,"[V f; U (4, f); U (4, y); U (3, w); T (3, c); Hoist_vars [c]; T (136, x);  T (3, h); T (34, y); T (1, y); T (4, x); T (4, y)]"
33.50,2696576,5362641,"[V f; U (4, f); U (4, y); U (3, w); T (3, c); Hoist_vars [c]; T (68, x);  T (3, h); T (1, y); T (1, y); T (8, x); T (136, y)]"
33.16,1981193,1582946,"[V f; U (4, f); U (4, y); U (3, w); T (3, c); Hoist_vars [c]; T (34, x);  T (3, h); T (1, y); T (17, y); T (16, x); T (8, y)]"
35.50,2392926,2373861,"[V f; U (4, f); U (4, y); U (3, w); T (3, c); Hoist_vars [c]; T (34, x);  T (3, h); T (4, y); T (1, y); T (16, x); T (34, y)]"
33.55,1943946,1476956,"[V f; U (4, f); U (4, y); U (3, w); T (3, c); Hoist_vars [c]; T (32, x);  T (3, h); T (1, y); T (8, y); T (17, x); T (17, y)]"
33.91,1989045,3112527,"[V f; U (4, f); U (4, y); U (3, w); T (3, c); Hoist_vars [c]; T (32, x);  T (3, h); T (1, y); T (1, y); T (17, x); T (136, y)]"
39.25,2152721,1545517,"[V f; U (4, f); U (4, y); U (3, w); T (3, c); Hoist_vars [c]; T (17, x);  T (3, h); T (17, y); T (2, y); T (32, x); T (4, y)]"
39.25,1278616,1513599,"[V f; U (4, f); U (4, y); U (3, w); T (3, c); Hoist_vars [c]; T (8, x);  T (3, h); T (68, y); T (1, y); T (68, x); T (2, y)]"
37.97,1634936,2958673,"[V f; U (4, f); U (4, y); U (3, w); T (3, c); Hoist_vars [c]; T (8, x);  T (3, h); T (1, y); T (2, y); T (68, x); T (68, y)]"
40.79,714232,1391113,"[V f; U (4, f); U (4, y); U (3, w); T (3, c); Hoist_vars [c]; T (4, x);  T (3, h); T (136, y); T (1, y); T (136, x); T (1, y)]"
40.75,705884,1316694,"[V f; U (4, f); U (4, y); U (3, w); T (3, c); Hoist_vars [c]; T (2, x);  T (3, h); T (4, y); T (34, y); T (272, x); T (1, y)]"
40.33,711019,1335610,"[V f; U (4, f); U (4, y); U (3, w); T (3, c); Hoist_vars [c]; T (2, x);  T (3, h); T (1, y); T (68, y); T (272, x); T (2, y)]"
40.53,679731,1558418,"[V f; U (4, f); U (4, y); U (3, w); T (3, c); Hoist_vars [c]; T (2, x);  T (3, h); T (4, y); T (2, y); T (272, x); T (17, y)]"
43.06,755802,1336356,"[V f; U (4, f); U (4, y); U (3, w); T (3, c); Hoist_vars [c]; T (1, x);  T (3, h); T (1, y); T (136, y); T (544, x); T (1, y)]"
41.86,765502,1371488,"[V f; U (4, f); U (4, y); U (3, w); T (3, c); Hoist_vars [c]; T (1, x);  T (3, h); T (68, y); T (1, y); T (544, x); T (2, y)]"
40.82,680592,1583497,"[V f; U (4, f); U (4, y); U (3, w); T (3, c); Hoist_vars [c]; T (1, x);  T (3, h); T (1, y); T (17, y); T (544, x); T (8, y)]"
22.44,7220114,20447519,"[V f; U (4, f); ULambda y; T (3, c); Hoist_vars [c]; T (544, x); T (3, w);  T (3, h); T (1, y); T (32, y); T (1, x);  Lambda_apply y [((Iter 3), (Arg 4)); ((Iter 1), (Arg 5))]]"
25.99,7151542,19761705,"[V f; U (4, f); ULambda y; T (3, c); Hoist_vars [c]; T (272, x); T (3, w);  T (3, h); Lambda_apply y [((Iter 3), (Arg 4)); ((Iter 1), (Arg 5))];  T (8, y); T (2, x); T (4, y)]"
27.20,6399330,16787462,"[V f; U (4, f); ULambda y; T (3, c); Hoist_vars [c]; T (272, x); T (3, w);  T (3, h); T (4, y); T (8, y); T (2, x);  Lambda_apply y [((Iter 3), (Arg 4)); ((Iter 1), (Arg 5))]]"
36.52,5662820,2465828,"[V f; U (4, f); ULambda y; T (3, c); Hoist_vars [c]; T (34, x); T (3, w);  T (3, h); T (2, y);  Lambda_apply y [((Iter 3), (Arg 4)); ((Iter 1), (Arg 5))]; T (16, x);  T (16, y)]"
42.74,2267033,1749490,"[V f; U (4, f); ULambda y; T (3, c); Hoist_vars [c]; T (8, x); T (3, w);  T (3, h); Lambda_apply y [((Iter 3), (Arg 4)); ((Iter 1), (Arg 5))];  T (4, y); T (68, x); T (8, y)]"
43.45,2249596,1635935,"[V f; U (4, f); ULambda y; T (3, c); Hoist_vars [c]; T (8, x); T (3, w);  T (3, h); T (4, y); T (8, y); T (68, x);  Lambda_apply y [((Iter 3), (Arg 4)); ((Iter 1), (Arg 5))]]"
31.96,3157924,3948246,"[V f; U (2, f); ULambda y; U (3, h); T (3, c); Hoist_vars [c]; T (34, x);  T (3, w); Lambda_apply y [((Iter 1), (Arg 8)); ((Iter 1), (Arg 9))];  T (8, x); T (32, y); T (2, f); T (2, x)]"
34.46,1082208,2421443,"[V f; U (2, f); ULambda y; U (3, h); T (3, c); Hoist_vars [c]; T (2, x);  T (3, w); T (32, y); T (34, x);  Lambda_apply y [((Iter 1), (Arg 8)); ((Iter 1), (Arg 9))]; T (2, f);  T (8, x)]"
36.37,2079150,3051589,"[V f; U (2, f); ULambda y; U (3, h); T (3, c); Hoist_vars [c]; T (8, x);  T (3, w); Lambda_apply y [((Iter 1), (Arg 8)); ((Iter 1), (Arg 9))];  T (4, x); T (32, y); T (2, f); T (17, x)]"
36.30,1116034,2216403,"[V f; U (2, f); ULambda y; U (3, h); T (3, c); Hoist_vars [c]; T (1, x);  T (3, w); T (32, y); T (32, x);  Lambda_apply y [((Iter 1), (Arg 8)); ((Iter 1), (Arg 9))]; T (2, f);  T (17, x)]"
30.93,999886,2939027,"[V f; U (2, f); ULambda y; U (3, h); T (3, c); Hoist_vars [c]; T (2, x);  T (3, w); Lambda_apply y [((Iter 3), (Arg 8)); ((Iter 1), (Arg 10))];  T (272, x); T (16, y); T (2, f); T (1, x)]"
34.86,2019162,3637000,"[V f; U (2, f); ULambda y; U (3, h); T (3, c); Hoist_vars [c]; T (8, x);  T (3, w); Lambda_apply y [((Iter 3), (Arg 8)); ((Iter 1), (Arg 10))];  T (34, x); T (16, y); T (2, f); T (2, x)]"
33.59,3051328,3555651,"[V f; U (2, f); ULambda y; U (3, h); T (3, c); Hoist_vars [c]; T (34, x);  T (3, w); Lambda_apply y [((Iter 3), (Arg 8)); ((Iter 1), (Arg 10))];  T (2, x); T (16, y); T (2, f); T (8, x)]"
41.41,759377,2361019,"[V f; U (2, f); U (4, y); T (3, c); Hoist_vars [c]; T (4, x); T (3, w);  T (3, h); T (34, y); T (136, x); T (4, y); T (2, f); T (1, x)]"
38.06,1034978,3102381,"[V f; U (2, f); U (4, y); T (3, c); Hoist_vars [c]; T (4, x); T (3, w);  T (3, h); T (2, y); T (136, x); T (68, y); T (2, f); T (1, x)]"
35.84,10688226,4472258,"[V f; U (2, f); U (4, y); T (3, c); Hoist_vars [c]; T (34, x); T (3, w);  T (3, h); T (8, y); T (8, x); T (17, y); T (2, f); T (2, x)]"
31.00,8297664,7381366,"[V f; U (2, f); U (4, y); T (3, c); Hoist_vars [c]; T (16, x); T (3, w);  T (3, h); T (1, y); T (17, x); T (136, y); T (2, f); T (2, x)]"
50.04,1943973,2900394,"[V f; U (2, f); U (4, y); T (3, c); Hoist_vars [c]; T (8, x); T (3, w);  T (3, h); T (136, y); T (17, x); T (1, y); T (2, f); T (4, x)]"
30.86,10572178,9630080,"[V f; U (2, f); U (4, y); T (3, c); Hoist_vars [c]; T (68, x); T (3, w);  T (3, h); T (1, y); T (1, x); T (136, y); T (2, f); T (8, x)]"
43.78,813979,2664329,"[V f; U (2, f); U (4, y); T (3, c); Hoist_vars [c]; T (1, x); T (3, w);  T (3, h); T (4, y); T (68, x); T (34, y); T (2, f); T (8, x)]"
51.87,1013141,2883072,"[V f; U (2, f); U (4, y); T (3, c); Hoist_vars [c]; T (2, x); T (3, w);  T (3, h); T (17, y); T (17, x); T (8, y); T (2, f); T (16, x)]"
36.64,808339,2305546,"[V f; U (2, f); U (4, y); T (3, c); Hoist_vars [c]; T (2, x); T (3, w);  T (3, h); T (136, y); T (16, x); T (1, y); T (2, f); T (17, x)]"
38.90,10002204,3476476,"[V f; U (2, f); U (4, y); T (3, c); Hoist_vars [c]; T (16, x); T (3, w);  T (3, h); T (34, y); T (1, x); T (4, y); T (2, f); T (34, x)]"
61.43,862937,1752077,"[V f; U (2, f); U (4, y); T (3, c); Hoist_vars [c]; T (1, x); T (3, w);  T (3, h); T (68, y); T (4, x); T (2, y); T (2, f); T (136, x)]"
61.62,829599,1915375,"[V f; U (2, f); U (4, y); T (3, c); Hoist_vars [c]; T (1, x); T (3, w);  T (3, h); T (8, y); T (4, x); T (17, y); T (2, f); T (136, x)]"
34.88,4112532,5391954,"[V f; U (1, f); U (8, y); U (3, h); T (3, c); Hoist_vars [c]; T (34, x);  T (3, w); T (4, y); T (16, x); T (17, y); T (4, f); T (1, x)]"
31.57,4252409,7040883,"[V f; U (1, f); U (8, y); U (3, h); T (3, c); Hoist_vars [c]; T (34, x);  T (3, w); T (1, y); T (16, x); T (68, y); T (4, f); T (1, x)]"
40.78,1844200,4006303,"[V f; U (1, f); U (8, y); U (3, h); T (3, c); Hoist_vars [c]; T (1, x);  T (3, w); T (68, y); T (544, x); T (1, y); T (4, f); T (1, x)]"
22.92,4993261,14703709,"[V f; U (1, f); U (8, y); U (3, h); T (3, c); Hoist_vars [c]; T (272, x);  T (3, w); T (34, y); T (1, x); T (2, y); T (4, f); T (2, x)]"
33.50,1551981,4291179,"[V f; U (1, f); U (8, y); U (3, h); T (3, c); Hoist_vars [c]; T (2, x);  T (3, w); T (34, y); T (136, x); T (2, y); T (4, f); T (2, x)]"
43.69,3997481,5439216,"[V f; U (1, f); U (8, y); U (3, h); T (3, c); Hoist_vars [c]; T (17, x);  T (3, w); T (68, y); T (8, x); T (1, y); T (4, f); T (4, x)]"
43.50,3983001,5445051,"[V f; U (1, f); U (8, y); U (3, h); T (3, c); Hoist_vars [c]; T (17, x);  T (3, w); T (34, y); T (8, x); T (2, y); T (4, f); T (4, x)]"
34.22,1486050,4703571,"[V f; U (1, f); U (8, y); U (3, h); T (3, c); Hoist_vars [c]; T (4, x);  T (3, w); T (4, y); T (34, x); T (17, y); T (4, f); T (4, x)]"
35.69,4758446,7079725,"[V f; U (1, f); U (8, y); U (3, h); T (3, c); Hoist_vars [c]; T (68, x);  T (3, w); T (34, y); T (1, x); T (2, y); T (4, f); T (8, x)]"
36.49,1457197,4631022,"[V f; U (1, f); U (8, y); U (3, h); T (3, c); Hoist_vars [c]; T (2, x);  T (3, w); T (4, y); T (34, x); T (17, y); T (4, f); T (8, x)]"
46.89,3996919,5278439,"[V f; U (1, f); U (8, y); U (3, h); T (3, c); Hoist_vars [c]; T (17, x);  T (3, w); T (68, y); T (2, x); T (1, y); T (4, f); T (16, x)]"
45.86,4017573,5226796,"[V f; U (1, f); U (8, y); U (3, h); T (3, c); Hoist_vars [c]; T (17, x);  T (3, w); T (1, y); T (2, x); T (68, y); T (4, f); T (16, x)]"
46.96,2266689,5005481,"[V f; U (1, f); U (8, y); U (3, h); T (3, c); Hoist_vars [c]; T (8, x);  T (3, w); T (17, y); T (4, x); T (4, y); T (4, f); T (17, x)]"
41.36,1562404,4163956,"[V f; U (1, f); U (8, y); U (3, h); T (3, c); Hoist_vars [c]; T (4, x);  T (3, w); T (1, y); T (4, x); T (68, y); T (4, f); T (34, x)]"
54.30,1503040,4073848,"[V f; U (1, f); U (8, y); U (3, h); T (3, c); Hoist_vars [c]; T (1, x);  T (3, w); T (4, y); T (8, x); T (17, y); T (4, f); T (68, x)]"
53.51,1535249,2715772,"[V f; U (1, f); U (8, y); U (3, h); T (3, c); Hoist_vars [c]; T (4, x);  T (3, w); T (4, y); T (1, x); T (17, y); T (4, f); T (136, x)]"
58.00,1818894,1218560,"[V f; U (1, f); U (8, y); U (3, h); T (3, c); Hoist_vars [c]; T (1, x);  T (3, w); T (68, y); T (2, x); T (1, y); T (4, f); T (272, x)]"
58.57,1725995,1054786,"[V f; U (1, f); U (8, y); U (3, h); T (3, c); Hoist_vars [c]; T (1, x);  T (3, w); T (17, y); T (1, x); T (4, y); T (4, f); T (544, x)]"
34.32,4079993,4926922,"[V f; U (2, f); U (4, y); U (3, h); T (3, c); Hoist_vars [c]; T (68, x);  T (3, w); T (8, y); T (8, x); T (17, y); T (2, f); T (1, x)]"
44.40,3372599,3087476,"[V f; U (2, f); U (4, y); U (3, h); T (3, c); Hoist_vars [c]; T (32, x);  T (3, w); T (17, y); T (17, x); T (8, y); T (2, f); T (1, x)]"
42.71,3553052,5606128,"[V f; U (2, f); U (4, y); U (3, h); T (3, c); Hoist_vars [c]; T (17, x);  T (3, w); T (2, y); T (32, x); T (68, y); T (2, f); T (1, x)]"
54.84,1917986,3325138,"[V f; U (2, f); U (4, y); U (3, h); T (3, c); Hoist_vars [c]; T (8, x);  T (3, w); T (8, y); T (68, x); T (17, y); T (2, f); T (1, x)]"
46.85,875316,2504817,"[V f; U (2, f); U (4, y); U (3, h); T (3, c); Hoist_vars [c]; T (1, x);  T (3, w); T (34, y); T (544, x); T (4, y); T (2, f); T (1, x)]"
45.02,1235315,3398251,"[V f; U (2, f); U (4, y); U (3, h); T (3, c); Hoist_vars [c]; T (8, x);  T (3, w); T (4, y); T (34, x); T (34, y); T (2, f); T (2, x)]"
51.62,1208741,2854430,"[V f; U (2, f); U (4, y); U (3, h); T (3, c); Hoist_vars [c]; T (4, x);  T (3, w); T (8, y); T (68, x); T (17, y); T (2, f); T (2, x)]"
59.70,1889559,2829566,"[V f; U (2, f); U (4, y); U (3, h); T (3, c); Hoist_vars [c]; T (8, x);  T (3, w); T (136, y); T (17, x); T (1, y); T (2, f); T (4, x)]"
48.73,864329,2342240,"[V f; U (2, f); U (4, y); U (3, h); T (3, c); Hoist_vars [c]; T (1, x);  T (3, w); T (68, y); T (136, x); T (2, y); T (2, f); T (4, x)]"
38.81,753473,2522569,"[V f; U (2, f); U (4, y); U (3, h); T (3, c); Hoist_vars [c]; T (4, x);  T (3, w); T (4, y); T (17, x); T (34, y); T (2, f); T (8, x)]"
58.20,1892939,3105503,"[V f; U (2, f); U (4, y); U (3, h); T (3, c); Hoist_vars [c]; T (8, x);  T (3, w); T (17, y); T (4, x); T (8, y); T (2, f); T (17, x)]"
26.97,836260,2017120,"[V f; U (2, f); U (4, y); U (3, h); T (3, c); Hoist_vars [c]; T (1, x);  T (3, w); T (1, y); T (32, x); T (136, y); T (2, f); T (17, x)]"
61.94,1664942,2668036,"[V f; U (2, f); U (4, y); U (3, h); T (3, c); Hoist_vars [c]; T (8, x);  T (3, w); T (34, y); T (1, x); T (4, y); T (2, f); T (68, x)]"
45.53,807273,2250908,"[V f; U (2, f); U (4, y); U (3, h); T (3, c); Hoist_vars [c]; T (2, x);  T (3, w); T (136, y); T (4, x); T (1, y); T (2, f); T (68, x)]"
31.15,3826652,5462119,"[V f; U (2, f); U (4, y); U (3, w); T (3, c); Hoist_vars [c]; T (68, x);  T (3, h); T (68, y); T (8, x); T (2, y); T (2, f); T (1, x)]"
41.83,3420192,3274956,"[V f; U (2, f); U (4, y); U (3, w); T (3, c); Hoist_vars [c]; T (34, x);  T (3, h); T (68, y); T (16, x); T (2, y); T (2, f); T (1, x)]"
41.21,3383008,3375512,"[V f; U (2, f); U (4, y); U (3, w); T (3, c); Hoist_vars [c]; T (32, x);  T (3, h); T (17, y); T (17, x); T (8, y); T (2, f); T (1, x)]"
43.68,1154426,2843268,"[V f; U (2, f); U (4, y); U (3, w); T (3, c); Hoist_vars [c]; T (2, x);  T (3, h); T (8, y); T (272, x); T (17, y); T (2, f); T (1, x)]"
36.38,2128574,5918582,"[V f; U (2, f); U (4, y); U (3, w); T (3, c); Hoist_vars [c]; T (17, x);  T (3, h); T (1, y); T (16, x); T (136, y); T (2, f); T (2, x)]"
28.66,742087,2621895,"[V f; U (2, f); U (4, y); U (3, w); T (3, c); Hoist_vars [c]; T (4, x);  T (3, h); T (8, y); T (68, x); T (17, y); T (2, f); T (2, x)]"
47.70,1159987,2903796,"[V f; U (2, f); U (4, y); U (3, w); T (3, c); Hoist_vars [c]; T (2, x);  T (3, h); T (17, y); T (34, x); T (8, y); T (2, f); T (8, x)]"
48.30,3374745,3147361,"[V f; U (2, f); U (4, y); U (3, w); T (3, c); Hoist_vars [c]; T (16, x);  T (3, h); T (1, y); T (1, x); T (136, y); T (2, f); T (34, x)]"
51.11,1256335,2579872,"[V f; U (2, f); U (4, y); U (3, w); T (3, c); Hoist_vars [c]; T (8, x);  T (3, h); T (2, y); T (2, x); T (68, y); T (2, f); T (34, x)]"
47.19,1070504,2547919,"[V f; U (2, f); U (4, y); U (3, w); T (3, c); Hoist_vars [c]; T (2, x);  T (3, h); T (1, y); T (8, x); T (136, y); T (2, f); T (34, x)]"
37.21,775060,2342975,"[V f; U (2, f); U (4, y); U (3, w); T (3, c); Hoist_vars [c]; T (4, x);  T (3, h); T (17, y); T (2, x); T (8, y); T (2, f); T (68, x)]"
53.96,1162298,2047575,"[V f; U (2, f); U (4, y); U (3, w); T (3, c); Hoist_vars [c]; T (4, x);  T (3, h); T (2, y); T (1, x); T (68, y); T (2, f); T (136, x)]"
50.50,1240873,2100446,"[V f; U (2, f); U (4, y); U (3, w); T (3, c); Hoist_vars [c]; T (2, x);  T (3, h); T (34, y); T (2, x); T (4, y); T (2, f); T (136, x)]"
68.12,853798,1804052,"[V f; U (2, f); U (4, y); U (3, w); T (3, c); Hoist_vars [c]; T (1, x);  T (3, h); T (17, y); T (4, x); T (8, y); T (2, f); T (136, x)]"
52.21,1235021,1367509,"[V f; U (2, f); U (4, y); U (3, w); T (3, c); Hoist_vars [c]; T (2, x);  T (3, h); T (34, y); T (1, x); T (4, y); T (2, f); T (272, x)]"
28.99,2727289,8928808,"[V f; U (4, f); U (4, y); U (3, w); T (3, c); Hoist_vars [c]; T (544, x);  T (3, h); T (4, y); T (34, y); T (1, x); T (1, y)]"
31.99,2540458,7712590,"[V f; U (4, f); U (4, y); U (3, w); T (3, c); Hoist_vars [c]; T (136, x);  T (3, h); T (4, y); T (34, y); T (4, x); T (1, y)]"
32.51,2455859,7427113,"[V f; U (4, f); U (4, y); U (3, w); T (3, c); Hoist_vars [c]; T (136, x);  T (3, h); T (4, y); T (17, y); T (4, x); T (2, y)]"
33.91,2739383,7916299,"[V f; U (4, f); U (4, y); U (3, w); T (3, c); Hoist_vars [c]; T (136, x);  T (3, h); T (2, y); T (34, y); T (4, x); T (2, y)]"
29.53,2100765,6094024,"[V f; U (4, f); U (4, y); U (3, w); T (3, c); Hoist_vars [c]; T (136, x);  T (3, h); T (2, y); T (17, y); T (4, x); T (4, y)]"
34.04,2665649,3561253,"[V f; U (4, f); U (4, y); U (3, w); T (3, c); Hoist_vars [c]; T (68, x);  T (3, h); T (68, y); T (2, y); T (8, x); T (1, y)]"
30.39,2085920,3144594,"[V f; U (4, f); U (4, y); U (3, w); T (3, c); Hoist_vars [c]; T (68, x);  T (3, h); T (1, y); T (2, y); T (8, x); T (68, y)]"
34.66,2221295,1759618,"[V f; U (4, f); U (4, y); U (3, w); T (3, c); Hoist_vars [c]; T (32, x);  T (3, h); T (17, y); T (1, y); T (17, x); T (8, y)]"
31.92,1939137,1566908,"[V f; U (4, f); U (4, y); U (3, w); T (3, c); Hoist_vars [c]; T (32, x);  T (3, h); T (4, y); T (2, y); T (17, x); T (17, y)]"
38.95,2145658,1537047,"[V f; U (4, f); U (4, y); U (3, w); T (3, c); Hoist_vars [c]; T (16, x);  T (3, h); T (34, y); T (2, y); T (34, x); T (2, y)]"
41.21,1500138,1568988,"[V f; U (4, f); U (4, y); U (3, w); T (3, c); Hoist_vars [c]; T (8, x);  T (3, h); T (1, y); T (68, y); T (68, x); T (2, y)]"
40.99,1501963,1589961,"[V f; U (4, f); U (4, y); U (3, w); T (3, c); Hoist_vars [c]; T (8, x);  T (3, h); T (1, y); T (34, y); T (68, x); T (4, y)]"
41.83,752810,1378724,"[V f; U (4, f); U (4, y); U (3, w); T (3, c); Hoist_vars [c]; T (1, x);  T (3, h); T (1, y); T (68, y); T (544, x); T (2, y)]"
48.34,2058045,2964684,"[V f; U (2, f); ULambda y; T (3, c); Hoist_vars [c]; T (8, x); T (3, w);  T (3, h); Lambda_apply y [((Iter 3), (Arg 4)); ((Iter 1), (Arg 5))];  T (4, x); T (32, y); T (2, f); T (17, x)]"
49.21,804025,2423050,"[V f; U (2, f); ULambda y; T (3, c); Hoist_vars [c]; T (1, x); T (3, w);  T (3, h); T (32, y); T (17, x);  Lambda_apply y [((Iter 3), (Arg 4)); ((Iter 1), (Arg 5))]; T (2, f);  T (32, x)]"
34.53,1614140,4290254,"[V f; U (1, f); ULambda y; U (3, h); T (3, c); Hoist_vars [c]; T (1, x);  T (3, w); T (32, y); T (544, x);  Lambda_apply y [((Iter 1), (Arg 8)); ((Iter 1), (Arg 9))]; T (4, f);  T (1, x)]"
35.24,4605565,7306226,"[V f; U (1, f); ULambda y; U (3, h); T (3, c); Hoist_vars [c]; T (68, x);  T (3, w); Lambda_apply y [((Iter 1), (Arg 8)); ((Iter 1), (Arg 9))];  T (1, x); T (32, y); T (4, f); T (8, x)]"
54.30,1620851,1257454,"[V f; U (1, f); ULambda y; U (3, h); T (3, c); Hoist_vars [c]; T (2, x);  T (3, w); Lambda_apply y [((Iter 1), (Arg 8)); ((Iter 1), (Arg 9))];  T (1, x); T (32, y); T (4, f); T (272, x)]"
37.29,1508420,4359719,"[V f; U (1, f); ULambda y; U (3, h); T (3, c); Hoist_vars [c]; T (1, x);  T (3, w); T (16, y); T (136, x);  Lambda_apply y [((Iter 3), (Arg 8)); ((Iter 1), (Arg 10))]; T (4, f);  T (4, x)]"
35.15,1534994,4452484,"[V f; U (1, f); ULambda y; U (3, h); T (3, c); Hoist_vars [c]; T (2, x);  T (3, w); T (16, y); T (34, x);  Lambda_apply y [((Iter 3), (Arg 8)); ((Iter 1), (Arg 10))]; T (4, f);  T (8, x)]"
49.42,1593956,2714625,"[V f; U (1, f); ULambda y; U (3, h); T (3, c); Hoist_vars [c]; T (2, x);  T (3, w); T (16, y); T (2, x);  Lambda_apply y [((Iter 3), (Arg 8)); ((Iter 1), (Arg 10))]; T (4, f);  T (136, x)]"
31.92,4766680,7988015,"[V f; U (1, f); ULambda y; U (3, h); T (3, c); Hoist_vars [c]; T (68, x);  T (3, w); Lambda_apply y [((Iter 3), (Arg 8)); ((Iter 4), (Arg 11))];  T (1, x); T (8, y); T (4, f); T (8, x)]"
34.64,1471482,4666811,"[V f; U (1, f); ULambda y; U (3, h); T (3, c); Hoist_vars [c]; T (2, x);  T (3, w); T (8, y); T (34, x);  Lambda_apply y [((Iter 3), (Arg 8)); ((Iter 4), (Arg 11))]; T (4, f);  T (8, x)]"
24.30,4979494,9870910,"[V f; U (1, f); ULambda y; U (3, h); T (3, c); Hoist_vars [c]; T (68, x);  T (3, w); Lambda_apply y [((Iter 1), (Arg 8)); ((Iter 2), (Arg 12))];  T (8, x); T (17, y); T (4, f); T (1, x)]"
28.12,4285963,5467187,"[V f; U (1, f); ULambda y; U (3, h); T (3, c); Hoist_vars [c]; T (34, x);  T (3, w); T (17, y); T (16, x);  Lambda_apply y [((Iter 1), (Arg 8)); ((Iter 2), (Arg 12))]; T (4, f);  T (1, x)]"
30.14,1572643,4819751,"[V f; U (1, f); ULambda y; U (3, h); T (3, c); Hoist_vars [c]; T (4, x);  T (3, w); Lambda_apply y [((Iter 1), (Arg 8)); ((Iter 2), (Arg 12))];  T (17, x); T (17, y); T (4, f); T (8, x)]"
37.61,4104742,5604482,"[V f; U (1, f); ULambda y; U (3, h); T (3, c); Hoist_vars [c]; T (17, x);  T (3, w); Lambda_apply y [((Iter 1), (Arg 8)); ((Iter 2), (Arg 12))];  T (1, x); T (17, y); T (4, f); T (32, x)]"
40.86,1578273,4378913,"[V f; U (1, f); ULambda y; U (3, h); T (3, c); Hoist_vars [c]; T (1, x);  T (3, w); Lambda_apply y [((Iter 1), (Arg 8)); ((Iter 2), (Arg 12))];  T (8, x); T (17, y); T (4, f); T (68, x)]"
26.89,4354356,5843318,"[V f; U (1, f); ULambda y; U (3, h); T (3, c); Hoist_vars [c]; T (32, x);  T (3, w); Lambda_apply y [((Iter 1), (Arg 8)); ((Iter 2), (Arg 13))];  T (17, x); T (16, y); T (4, f); T (1, x)]"
33.41,1595604,4224320,"[V f; U (1, f); ULambda y; U (3, h); T (3, c); Hoist_vars [c]; T (1, x);  T (3, w); T (16, y); T (32, x);  Lambda_apply y [((Iter 1), (Arg 8)); ((Iter 2), (Arg 13))]; T (4, f);  T (17, x)]"
30.98,1600706,4345849,"[V f; U (1, f); ULambda y; U (3, h); T (3, c); Hoist_vars [c]; T (2, x);  T (3, w); T (16, y); T (8, x);  Lambda_apply y [((Iter 1), (Arg 8)); ((Iter 2), (Arg 13))]; T (4, f);  T (34, x)]"
45.32,1825198,1096705,"[V f; U (1, f); ULambda y; U (3, h); T (3, c); Hoist_vars [c]; T (1, x);  T (3, w); Lambda_apply y [((Iter 1), (Arg 8)); ((Iter 2), (Arg 13))];  T (1, x); T (16, y); T (4, f); T (544, x)]"
45.86,1757034,1104193,"[V f; U (1, f); ULambda y; U (3, h); T (3, c); Hoist_vars [c]; T (1, x);  T (3, w); T (16, y); T (1, x);  Lambda_apply y [((Iter 1), (Arg 8)); ((Iter 2), (Arg 13))]; T (4, f);  T (544, x)]"
37.20,4024598,5546078,"[V f; U (1, f); ULambda y; U (3, h); T (3, c); Hoist_vars [c]; T (17, x);  T (3, w); T (8, y); T (16, x);  Lambda_apply y [((Iter 2), (Arg 9)); ((Iter 5), (Arg 10))]; T (4, f);  T (2, x)]"
37.41,4023444,5702217,"[V f; U (1, f); ULambda y; U (3, h); T (3, c); Hoist_vars [c]; T (16, x);  T (3, w); T (8, y); T (17, x);  Lambda_apply y [((Iter 2), (Arg 9)); ((Iter 5), (Arg 10))]; T (4, f);  T (2, x)]"
34.88,1502498,4595890,"[V f; U (1, f); ULambda y; U (3, h); T (3, c); Hoist_vars [c]; T (4, x);  T (3, w); T (8, y); T (17, x);  Lambda_apply y [((Iter 2), (Arg 9)); ((Iter 5), (Arg 10))]; T (4, f);  T (8, x)]"
42.91,4031282,5577731,"[V f; U (1, f); ULambda y; U (3, h); T (3, c); Hoist_vars [c]; T (16, x);  T (3, w); Lambda_apply y [((Iter 2), (Arg 9)); ((Iter 5), (Arg 10))];  T (2, x); T (8, y); T (4, f); T (17, x)]"
42.82,2394191,4582215,"[V f; U (1, f); ULambda y; U (3, h); T (3, c); Hoist_vars [c]; T (8, x);  T (3, w); Lambda_apply y [((Iter 2), (Arg 9)); ((Iter 5), (Arg 10))];  T (2, x); T (8, y); T (4, f); T (34, x)]"
36.60,2454427,5641038,"[V f; U (1, f); ULambda y; U (3, h); T (3, c); Hoist_vars [c]; T (8, x);  T (3, w); T (4, y); T (34, x);  Lambda_apply y [((Iter 9), (Arg 9)); ((Iter 5), (Arg 11))]; T (4, f);  T (2, x)]"
33.08,1522922,4473405,"[V f; U (1, f); ULambda y; U (3, h); T (3, c); Hoist_vars [c]; T (4, x);  T (3, w); Lambda_apply y [((Iter 9), (Arg 9)); ((Iter 5), (Arg 11))];  T (34, x); T (4, y); T (4, f); T (4, x)]"
36.38,1491867,4897268,"[V f; U (1, f); ULambda y; U (3, h); T (3, c); Hoist_vars [c]; T (1, x);  T (3, w); T (4, y); T (68, x);  Lambda_apply y [((Iter 9), (Arg 9)); ((Iter 5), (Arg 11))]; T (4, f);  T (8, x)]"
51.01,1598197,2653446,"[V f; U (1, f); ULambda y; U (3, h); T (3, c); Hoist_vars [c]; T (1, x);  T (3, w); Lambda_apply y [((Iter 9), (Arg 9)); ((Iter 5), (Arg 11))];  T (4, x); T (4, y); T (4, f); T (136, x)]"
35.06,4009108,5759745,"[V f; U (1, f); ULambda y; U (3, h); T (3, c); Hoist_vars [c]; T (17, x);  T (3, w); T (4, y); T (4, x);  Lambda_apply y [((Iter 5), (Arg 9)); ((Iter 7), (Arg 13))]; T (4, f);  T (8, x)]"
32.89,1475325,4276157,"[V f; U (1, f); ULambda y; U (3, h); T (3, c); Hoist_vars [c]; T (1, x);  T (3, w); Lambda_apply y [((Iter 5), (Arg 9)); ((Iter 7), (Arg 13))];  T (32, x); T (4, y); T (4, f); T (17, x)]"
32.64,2492776,5455374,"[V f; U (1, f); ULambda y; U (3, h); T (3, c); Hoist_vars [c]; T (8, x);  T (3, w); Lambda_apply y [((Iter 1), (Arg 10)); ((Iter 2), (Arg 11))];  T (34, x); T (17, y); T (4, f); T (2, x)]"
33.68,1508160,4355745,"[V f; U (1, f); ULambda y; U (3, h); T (3, c); Hoist_vars [c]; T (4, x);  T (3, w); T (17, y); T (17, x);  Lambda_apply y [((Iter 1), (Arg 10)); ((Iter 2), (Arg 11))]; T (4, f);  T (8, x)]"
39.35,4039483,5432246,"[V f; U (1, f); ULambda y; U (3, h); T (3, c); Hoist_vars [c]; T (17, x);  T (3, w); Lambda_apply y [((Iter 1), (Arg 10)); ((Iter 2), (Arg 11))];  T (2, x); T (17, y); T (4, f); T (16, x)]"
37.05,1501113,4256240,"[V f; U (1, f); ULambda y; U (3, h); T (3, c); Hoist_vars [c]; T (1, x);  T (3, w); Lambda_apply y [((Iter 1), (Arg 10)); ((Iter 2), (Arg 11))];  T (17, x); T (17, y); T (4, f); T (32, x)]"
34.07,3998815,5523417,"[V f; U (1, f); ULambda y; U (3, h); T (3, c); Hoist_vars [c]; T (17, x);  T (3, w); T (17, y); T (32, x);  Lambda_apply y [((Iter 2), (Arg 10)); ((Iter 1), (Arg 12))]; T (4, f);  T (1, x)]"
34.91,2623069,5110495,"[V f; U (1, f); ULambda y; U (3, h); T (3, c); Hoist_vars [c]; T (8, x);  T (3, w); T (17, y); T (68, x);  Lambda_apply y [((Iter 2), (Arg 10)); ((Iter 1), (Arg 12))]; T (4, f);  T (1, x)]"
34.86,4001012,5607822,"[V f; U (1, f); ULambda y; U (3, h); T (3, c); Hoist_vars [c]; T (16, x);  T (3, w); T (17, y); T (17, x);  Lambda_apply y [((Iter 2), (Arg 10)); ((Iter 1), (Arg 12))]; T (4, f);  T (2, x)]"
33.09,1620890,4510131,"[V f; U (1, f); ULambda y; U (3, h); T (3, c); Hoist_vars [c]; T (1, x);  T (3, w); T (17, y); T (272, x);  Lambda_apply y [((Iter 2), (Arg 10)); ((Iter 1), (Arg 12))]; T (4, f);  T (2, x)]"
35.61,2630250,5114103,"[V f; U (1, f); ULambda y; U (3, h); T (3, c); Hoist_vars [c]; T (8, x);  T (3, w); T (17, y); T (17, x);  Lambda_apply y [((Iter 2), (Arg 10)); ((Iter 1), (Arg 12))]; T (4, f);  T (4, x)]"
37.98,4096712,5709527,"[V f; U (1, f); ULambda y; U (3, h); T (3, c); Hoist_vars [c]; T (16, x);  T (3, w); Lambda_apply y [((Iter 2), (Arg 10)); ((Iter 1), (Arg 12))];  T (2, x); T (17, y); T (4, f); T (17, x)]"
38.40,1507173,3945113,"[V f; U (1, f); ULambda y; U (3, h); T (3, c); Hoist_vars [c]; T (2, x);  T (3, w); Lambda_apply y [((Iter 2), (Arg 10)); ((Iter 1), (Arg 12))];  T (4, x); T (17, y); T (4, f); T (68, x)]"
43.48,1579442,2642243,"[V f; U (1, f); ULambda y; U (3, h); T (3, c); Hoist_vars [c]; T (4, x);  T (3, w); Lambda_apply y [((Iter 2), (Arg 10)); ((Iter 1), (Arg 12))];  T (1, x); T (17, y); T (4, f); T (136, x)]"
21.99,4592894,13446349,"[V f; U (1, f); ULambda y; U (3, h); T (3, c); Hoist_vars [c]; T (136, x);  T (3, w); T (4, y); T (1, x);  Lambda_apply y [((Iter 11), (Arg 10)); ((Iter 2), (Arg 13))]; T (4, f);  T (4, x)]"
35.44,2548092,5778259,"[V f; U (1, f); ULambda y; U (3, h); T (3, c); Hoist_vars [c]; T (8, x);  T (3, w); T (4, y); T (17, x);  Lambda_apply y [((Iter 11), (Arg 10)); ((Iter 2), (Arg 13))]; T (4, f);  T (4, x)]"
35.59,1474169,4425090,"[V f; U (1, f); ULambda y; U (3, h); T (3, c); Hoist_vars [c]; T (1, x);  T (3, w); Lambda_apply y [((Iter 11), (Arg 10)); ((Iter 2), (Arg 13))];  T (68, x); T (4, y); T (4, f); T (8, x)]"
33.11,1554826,4524782,"[V f; U (1, f); ULambda y; U (3, h); T (3, c); Hoist_vars [c]; T (4, x);  T (3, w); Lambda_apply y [((Iter 11), (Arg 10)); ((Iter 2), (Arg 13))];  T (8, x); T (4, y); T (4, f); T (17, x)]"
35.57,1482218,4526907,"[V f; U (1, f); ULambda y; U (3, h); T (3, c); Hoist_vars [c]; T (1, x);  T (3, w); Lambda_apply y [((Iter 11), (Arg 10)); ((Iter 2), (Arg 13))];  T (32, x); T (4, y); T (4, f); T (17, x)]"
46.23,1483215,4048121,"[V f; U (1, f); ULambda y; U (3, h); T (3, c); Hoist_vars [c]; T (1, x);  T (3, w); T (4, y); T (8, x);  Lambda_apply y [((Iter 11), (Arg 10)); ((Iter 2), (Arg 13))]; T (4, f);  T (68, x)]"
29.87,4127355,6354734,"[V f; U (1, f); ULambda y; U (3, h); T (3, c); Hoist_vars [c]; T (17, x);  T (3, w); Lambda_apply y [((Iter 2), (Arg 11)); ((Iter 1), (Arg 12))];  T (32, x); T (16, y); T (4, f); T (1, x)]"
27.34,1535339,4366160,"[V f; U (1, f); ULambda y; U (3, h); T (3, c); Hoist_vars [c]; T (2, x);  T (3, w); T (16, y); T (272, x);  Lambda_apply y [((Iter 2), (Arg 11)); ((Iter 1), (Arg 12))]; T (4, f);  T (1, x)]"
20.36,4876360,15696763,"[V f; U (1, f); ULambda y; U (3, h); T (3, c); Hoist_vars [c]; T (136, x);  T (3, w); Lambda_apply y [((Iter 2), (Arg 11)); ((Iter 1), (Arg 12))];  T (2, x); T (16, y); T (4, f); T (2, x)]"
30.01,1547086,4424508,"[V f; U (1, f); ULambda y; U (3, h); T (3, c); Hoist_vars [c]; T (4, x);  T (3, w); T (16, y); T (34, x);  Lambda_apply y [((Iter 2), (Arg 11)); ((Iter 1), (Arg 12))]; T (4, f);  T (4, x)]"
33.12,1539694,4326498,"[V f; U (1, f); ULambda y; U (3, h); T (3, c); Hoist_vars [c]; T (1, x);  T (3, w); T (16, y); T (136, x);  Lambda_apply y [((Iter 2), (Arg 11)); ((Iter 1), (Arg 12))]; T (4, f);  T (4, x)]"
37.53,4105870,5522309,"[V f; U (1, f); ULambda y; U (3, h); T (3, c); Hoist_vars [c]; T (16, x);  T (3, w); Lambda_apply y [((Iter 2), (Arg 11)); ((Iter 1), (Arg 12))];  T (2, x); T (16, y); T (4, f); T (17, x)]"
36.65,2658867,5220664,"[V f; U (1, f); ULambda y; U (3, h); T (3, c); Hoist_vars [c]; T (8, x);  T (3, w); Lambda_apply y [((Iter 2), (Arg 11)); ((Iter 1), (Arg 12))];  T (4, x); T (16, y); T (4, f); T (17, x)]"
37.61,2529585,4892458,"[V f; U (1, f); ULambda y; U (3, h); T (3, c); Hoist_vars [c]; T (8, x);  T (3, w); T (16, y); T (4, x);  Lambda_apply y [((Iter 2), (Arg 11)); ((Iter 1), (Arg 12))]; T (4, f);  T (17, x)]"
31.88,1512535,3883207,"[V f; U (1, f); ULambda y; U (3, h); T (3, c); Hoist_vars [c]; T (2, x);  T (3, w); Lambda_apply y [((Iter 2), (Arg 11)); ((Iter 1), (Arg 12))];  T (8, x); T (16, y); T (4, f); T (34, x)]"
48.81,1672694,1227156,"[V f; U (1, f); ULambda y; U (3, h); T (3, c); Hoist_vars [c]; T (1, x);  T (3, w); T (16, y); T (2, x);  Lambda_apply y [((Iter 2), (Arg 11)); ((Iter 1), (Arg 12))]; T (4, f);  T (272, x)]"
29.53,4092345,5096156,"[V f; U (1, f); ULambda y; U (3, h); T (3, c); Hoist_vars [c]; T (32, x);  T (3, w); T (8, y); T (17, x);  Lambda_apply y [((Iter 5), (Arg 11)); ((Iter 1), (Arg 13))]; T (4, f);  T (1, x)]"
27.90,1448803,4709264,"[V f; U (1, f); ULambda y; U (3, h); T (3, c); Hoist_vars [c]; T (2, x);  T (3, w); Lambda_apply y [((Iter 5), (Arg 11)); ((Iter 1), (Arg 13))];  T (136, x); T (8, y); T (4, f); T (2, x)]"
23.10,5005641,9455422,"[V f; U (1, f); ULambda y; U (3, h); T (3, c); Hoist_vars [c]; T (68, x);  T (3, w); T (4, y); T (8, x);  Lambda_apply y [((Iter 7), (Arg 12)); ((Iter 4), (Arg 13))]; T (4, f);  T (1, x)]"
20.36,5027606,15577778,"[V f; U (1, f); ULambda y; U (3, h); T (3, c); Hoist_vars [c]; T (136, x);  T (3, w); Lambda_apply y [((Iter 7), (Arg 12)); ((Iter 4), (Arg 13))];  T (1, x); T (4, y); T (4, f); T (4, x)]"
26.94,1559987,4521091,"[V f; U (1, f); ULambda y; U (3, h); T (3, c); Hoist_vars [c]; T (2, x);  T (3, w); Lambda_apply y [((Iter 7), (Arg 12)); ((Iter 4), (Arg 13))];  T (34, x); T (4, y); T (4, f); T (8, x)]"
33.32,4160065,5567748,"[V f; U (1, f); ULambda y; U (3, h); T (3, c); Hoist_vars [c]; T (17, x);  T (3, w); Lambda_apply y [((Iter 7), (Arg 12)); ((Iter 4), (Arg 13))];  T (2, x); T (4, y); T (4, f); T (16, x)]"
42.29,1658317,1189979,"[V f; U (1, f); ULambda y; U (3, h); T (3, c); Hoist_vars [c]; T (1, x);  T (3, w); Lambda_apply y [((Iter 7), (Arg 12)); ((Iter 4), (Arg 13))];  T (2, x); T (4, y); T (4, f); T (272, x)]"
48.64,3494093,4524632,"[V f; U (2, f); ULambda y; U (3, h); T (3, c); Hoist_vars [c]; T (16, x);  T (3, w); Lambda_apply y [((Iter 3), (Arg 4)); ((Iter 1), (Arg 5))];  T (34, x); T (32, y); T (2, f); T (1, x)]"
43.30,2033458,3857212,"[V f; U (2, f); ULambda y; U (3, h); T (3, c); Hoist_vars [c]; T (17, x);  T (3, w); Lambda_apply y [((Iter 3), (Arg 4)); ((Iter 1), (Arg 5))];  T (16, x); T (32, y); T (2, f); T (2, x)]"
53.64,1245455,2691731,"[V f; U (2, f); ULambda y; U (3, h); T (3, c); Hoist_vars [c]; T (2, x);  T (3, w); T (32, y); T (17, x);  Lambda_apply y [((Iter 3), (Arg 4)); ((Iter 1), (Arg 5))]; T (2, f);  T (16, x)]"
50.68,1191926,2514862,"[V f; U (2, f); ULambda y; U (3, h); T (3, c); Hoist_vars [c]; T (2, x);  T (3, w); Lambda_apply y [((Iter 3), (Arg 4)); ((Iter 1), (Arg 5))];  T (8, x); T (32, y); T (2, f); T (34, x)]"
47.76,759194,1804822,"[V f; U (2, f); ULambda y; U (3, h); T (3, c); Hoist_vars [c]; T (1, x);  T (3, w); Lambda_apply y [((Iter 3), (Arg 4)); ((Iter 1), (Arg 5))];  T (4, x); T (32, y); T (2, f); T (136, x)]"
38.19,2095346,3194009,"[V f; U (2, f); ULambda y; U (3, h); T (3, c); Hoist_vars [c]; T (34, x);  T (3, w); Lambda_apply y [((Iter 1), (Arg 4)); ((Iter 2), (Arg 6))];  T (8, x); T (34, y); T (2, f); T (2, x)]"
46.98,3502481,4641461,"[V f; U (2, f); ULambda y; U (3, h); T (3, c); Hoist_vars [c]; T (16, x);  T (3, w); Lambda_apply y [((Iter 1), (Arg 4)); ((Iter 2), (Arg 6))];  T (17, x); T (34, y); T (2, f); T (2, x)]"
33.62,3676212,10160004,"[V f; U (2, f); ULambda y; U (3, h); T (3, c); Hoist_vars [c]; T (136, x);  T (3, w); Lambda_apply y [((Iter 1), (Arg 4)); ((Iter 2), (Arg 6))];  T (1, x); T (34, y); T (2, f); T (4, x)]"
52.35,931434,2436983,"[V f; U (2, f); ULambda y; U (3, h); T (3, c); Hoist_vars [c]; T (1, x);  T (3, w); T (34, y); T (17, x);  Lambda_apply y [((Iter 1), (Arg 4)); ((Iter 2), (Arg 6))]; T (2, f);  T (32, x)]"
53.06,1232544,2632790,"[V f; U (2, f); ULambda y; U (3, h); T (3, c); Hoist_vars [c]; T (4, x);  T (3, w); T (34, y); T (4, x);  Lambda_apply y [((Iter 1), (Arg 4)); ((Iter 2), (Arg 6))]; T (2, f);  T (34, x)]"
42.75,979278,2347793,"[V f; U (2, f); ULambda y; U (3, h); T (3, c); Hoist_vars [c]; T (4, x);  T (3, w); T (17, y); T (2, x);  Lambda_apply y [((Iter 1), (Arg 4)); ((Iter 4), (Arg 7))]; T (2, f);  T (68, x)]"
33.74,757396,2725991,"[V f; U (2, f); ULambda y; U (3, h); T (3, c); Hoist_vars [c]; T (4, x);  T (3, w); Lambda_apply y [((Iter 2), (Arg 5)); ((Iter 1), (Arg 6))];  T (136, x); T (34, y); T (2, f); T (1, x)]"
52.15,1192520,2640460,"[V f; U (2, f); ULambda y; U (3, h); T (3, c); Hoist_vars [c]; T (4, x);  T (3, w); T (34, y); T (136, x);  Lambda_apply y [((Iter 2), (Arg 5)); ((Iter 1), (Arg 6))]; T (2, f);  T (1, x)]"
51.90,1201437,2482713,"[V f; U (2, f); ULambda y; U (3, h); T (3, c); Hoist_vars [c]; T (2, x);  T (3, w); Lambda_apply y [((Iter 2), (Arg 5)); ((Iter 1), (Arg 6))];  T (8, x); T (34, y); T (2, f); T (34, x)]"
30.06,3681632,10900988,"[V f; U (2, f); ULambda y; U (3, h); T (3, c); Hoist_vars [c]; T (272, x);  T (3, w); T (32, y); T (2, x);  Lambda_apply y [((Iter 2), (Arg 5)); ((Iter 1), (Arg 7))]; T (2, f);  T (1, x)]"
35.97,765843,2586155,"[V f; U (2, f); ULambda y; U (3, h); T (3, c); Hoist_vars [c]; T (4, x);  T (3, w); Lambda_apply y [((Iter 2), (Arg 5)); ((Iter 1), (Arg 7))];  T (17, x); T (32, y); T (2, f); T (8, x)]"
42.33,3436374,3099626,"[V f; U (2, f); ULambda y; U (3, h); T (3, c); Hoist_vars [c]; T (34, x);  T (3, w); T (17, y); T (1, x);  Lambda_apply y [((Iter 3), (Arg 6)); ((Iter 2), (Arg 7))]; T (2, f);  T (16, x)]"
47.22,1016622,2603717,"[V f; U (2, f); ULambda y; U (3, h); T (3, c); Hoist_vars [c]; T (1, x);  T (3, w); T (17, y); T (34, x);  Lambda_apply y [((Iter 3), (Arg 6)); ((Iter 2), (Arg 7))]; T (2, f);  T (16, x)]"
42.95,1120219,2645024,"[V f; U (2, f); ULambda y; U (3, w); T (3, c); Hoist_vars [c]; T (2, x);  T (3, h); T (32, y); T (136, x);  Lambda_apply y [((Iter 3), (Arg 4)); ((Iter 1), (Arg 5))]; T (2, f);  T (2, x)]"
32.26,3967350,6223150,"[V f; U (2, f); ULambda y; U (3, w); T (3, c); Hoist_vars [c]; T (68, x);  T (3, h); Lambda_apply y [((Iter 3), (Arg 4)); ((Iter 1), (Arg 5))];  T (2, x); T (32, y); T (2, f); T (4, x)]"
42.31,1215713,3611815,"[V f; U (2, f); ULambda y; U (3, w); T (3, c); Hoist_vars [c]; T (2, x);  T (3, h); Lambda_apply y [((Iter 3), (Arg 4)); ((Iter 1), (Arg 5))];  T (68, x); T (32, y); T (2, f); T (4, x)]"
41.56,1143818,3581081,"[V f; U (2, f); ULambda y; U (3, w); T (3, c); Hoist_vars [c]; T (1, x);  T (3, h); Lambda_apply y [((Iter 3), (Arg 4)); ((Iter 1), (Arg 5))];  T (136, x); T (32, y); T (2, f); T (4, x)]"
41.05,1216962,2596608,"[V f; U (2, f); ULambda y; U (3, w); T (3, c); Hoist_vars [c]; T (2, x);  T (3, h); Lambda_apply y [((Iter 3), (Arg 4)); ((Iter 1), (Arg 5))];  T (17, x); T (32, y); T (2, f); T (16, x)]"
49.28,1086117,2309086,"[V f; U (2, f); ULambda y; U (3, w); T (3, c); Hoist_vars [c]; T (1, x);  T (3, h); Lambda_apply y [((Iter 3), (Arg 4)); ((Iter 1), (Arg 5))];  T (16, x); T (32, y); T (2, f); T (34, x)]"
21.43,2410309,7613205,"[V f; U (2, f); ULambda y; U (3, w); T (3, c); Hoist_vars [c]; T (544, x);  T (3, h); Lambda_apply y [((Iter 1), (Arg 4)); ((Iter 2), (Arg 6))];  T (1, x); T (34, y); T (2, f); T (1, x)]"
30.45,3676235,6038477,"[V f; U (2, f); ULambda y; U (3, w); T (3, c); Hoist_vars [c]; T (68, x);  T (3, h); Lambda_apply y [((Iter 1), (Arg 4)); ((Iter 2), (Arg 6))];  T (4, x); T (34, y); T (2, f); T (2, x)]"
37.15,981827,2520100,"[V f; U (2, f); ULambda y; U (3, w); T (3, c); Hoist_vars [c]; T (2, x);  T (3, h); T (34, y); T (8, x);  Lambda_apply y [((Iter 1), (Arg 4)); ((Iter 2), (Arg 6))]; T (2, f);  T (34, x)]"
24.30,3603293,11014416,"[V f; U (2, f); ULambda y; U (3, w); T (3, c); Hoist_vars [c]; T (544, x);  T (3, h); Lambda_apply y [((Iter 1), (Arg 4)); ((Iter 4), (Arg 7))];  T (1, x); T (17, y); T (2, f); T (1, x)]"
30.59,3689717,5680620,"[V f; U (2, f); ULambda y; U (3, w); T (3, c); Hoist_vars [c]; T (68, x);  T (3, h); Lambda_apply y [((Iter 1), (Arg 4)); ((Iter 4), (Arg 7))];  T (4, x); T (17, y); T (2, f); T (2, x)]"
41.00,2230950,3540865,"[V f; U (2, f); ULambda y; U (3, w); T (3, c); Hoist_vars [c]; T (8, x);  T (3, h); Lambda_apply y [((Iter 1), (Arg 4)); ((Iter 4), (Arg 7))];  T (34, x); T (17, y); T (2, f); T (2, x)]"
37.76,1130490,2922520,"[V f; U (2, f); ULambda y; U (3, w); T (3, c); Hoist_vars [c]; T (4, x);  T (3, h); Lambda_apply y [((Iter 1), (Arg 4)); ((Iter 4), (Arg 7))];  T (68, x); T (17, y); T (2, f); T (2, x)]"
40.32,1985049,2986418,"[V f; U (2, f); ULambda y; U (3, w); T (3, c); Hoist_vars [c]; T (17, x);  T (3, h); T (17, y); T (8, x);  Lambda_apply y [((Iter 1), (Arg 4)); ((Iter 4), (Arg 7))]; T (2, f);  T (4, x)]"
38.82,1133816,2893755,"[V f; U (2, f); ULambda y; U (3, w); T (3, c); Hoist_vars [c]; T (4, x);  T (3, h); Lambda_apply y [((Iter 1), (Arg 4)); ((Iter 4), (Arg 7))];  T (34, x); T (17, y); T (2, f); T (4, x)]"
36.68,1052340,2650686,"[V f; U (2, f); ULambda y; U (3, w); T (3, c); Hoist_vars [c]; T (2, x);  T (3, h); T (17, y); T (68, x);  Lambda_apply y [((Iter 1), (Arg 4)); ((Iter 4), (Arg 7))]; T (2, f);  T (4, x)]"
41.56,3055836,3244116,"[V f; U (2, f); ULambda y; U (3, w); T (3, c); Hoist_vars [c]; T (16, x);  T (3, h); T (17, y); T (2, x);  Lambda_apply y [((Iter 1), (Arg 4)); ((Iter 4), (Arg 7))]; T (2, f);  T (17, x)]"
42.74,1051933,1276319,"[V f; U (2, f); ULambda y; U (3, w); T (3, c); Hoist_vars [c]; T (2, x);  T (3, h); T (17, y); T (1, x);  Lambda_apply y [((Iter 1), (Arg 4)); ((Iter 4), (Arg 7))]; T (2, f);  T (272, x)]"
44.25,1006638,1264049,"[V f; U (2, f); ULambda y; U (3, w); T (3, c); Hoist_vars [c]; T (1, x);  T (3, h); Lambda_apply y [((Iter 1), (Arg 4)); ((Iter 4), (Arg 7))];  T (2, x); T (17, y); T (2, f); T (272, x)]"
35.32,1150038,3385844,"[V f; U (2, f); ULambda y; U (3, w); T (3, c); Hoist_vars [c]; T (4, x);  T (3, h); Lambda_apply y [((Iter 2), (Arg 5)); ((Iter 1), (Arg 6))];  T (136, x); T (34, y); T (2, f); T (1, x)]"
38.74,3388636,3309138,"[V f; U (2, f); ULambda y; U (3, w); T (3, c); Hoist_vars [c]; T (34, x);  T (3, h); T (34, y); T (2, x);  Lambda_apply y [((Iter 2), (Arg 5)); ((Iter 1), (Arg 6))]; T (2, f);  T (8, x)]"
42.70,804160,2410598,"[V f; U (2, f); ULambda y; U (3, w); T (3, c); Hoist_vars [c]; T (1, x);  T (3, h); T (34, y); T (68, x);  Lambda_apply y [((Iter 2), (Arg 5)); ((Iter 1), (Arg 6))]; T (2, f);  T (8, x)]"
33.26,1156929,2035685,"[V f; U (2, f); ULambda y; U (3, w); T (3, c); Hoist_vars [c]; T (1, x);  T (3, h); Lambda_apply y [((Iter 2), (Arg 5)); ((Iter 1), (Arg 6))];  T (34, x); T (34, y); T (2, f); T (16, x)]"
41.70,1044102,2152946,"[V f; U (2, f); ULambda y; U (3, w); T (3, c); Hoist_vars [c]; T (1, x);  T (3, h); Lambda_apply y [((Iter 2), (Arg 5)); ((Iter 1), (Arg 6))];  T (8, x); T (34, y); T (2, f); T (68, x)]"
49.89,1148060,1819370,"[V f; U (2, f); ULambda y; U (3, w); T (3, c); Hoist_vars [c]; T (1, x);  T (3, h); T (34, y); T (4, x);  Lambda_apply y [((Iter 2), (Arg 5)); ((Iter 1), (Arg 6))]; T (2, f);  T (136, x)]"
35.57,3421640,4220279,"[V f; U (2, f); ULambda y; U (3, w); T (3, c); Hoist_vars [c]; T (32, x);  T (3, h); Lambda_apply y [((Iter 2), (Arg 5)); ((Iter 1), (Arg 7))];  T (17, x); T (32, y); T (2, f); T (1, x)]"
32.61,1055203,3377812,"[V f; U (2, f); ULambda y; U (3, w); T (3, c); Hoist_vars [c]; T (1, x);  T (3, h); Lambda_apply y [((Iter 2), (Arg 5)); ((Iter 1), (Arg 7))];  T (544, x); T (32, y); T (2, f); T (1, x)]"
28.76,3949327,11098089,"[V f; U (2, f); ULambda y; U (3, w); T (3, c); Hoist_vars [c]; T (136, x);  T (3, h); Lambda_apply y [((Iter 2), (Arg 5)); ((Iter 1), (Arg 7))];  T (2, x); T (32, y); T (2, f); T (2, x)]"
38.00,3378557,3185144,"[V f; U (2, f); ULambda y; U (3, w); T (3, c); Hoist_vars [c]; T (34, x);  T (3, h); T (32, y); T (1, x);  Lambda_apply y [((Iter 2), (Arg 5)); ((Iter 1), (Arg 7))]; T (2, f);  T (16, x)]"
42.44,3266661,3196870,"[V f; U (2, f); ULambda y; U (3, w); T (3, c); Hoist_vars [c]; T (17, x);  T (3, h); T (32, y); T (2, x);  Lambda_apply y [((Iter 2), (Arg 5)); ((Iter 1), (Arg 7))]; T (2, f);  T (16, x)]"
31.86,869451,2432018,"[V f; U (2, f); ULambda y; U (3, w); T (3, c); Hoist_vars [c]; T (2, x);  T (3, h); T (32, y); T (16, x);  Lambda_apply y [((Iter 2), (Arg 5)); ((Iter 1), (Arg 7))]; T (2, f);  T (17, x)]"
43.71,3194662,3130978,"[V f; U (2, f); ULambda y; U (3, w); T (3, c); Hoist_vars [c]; T (17, x);  T (3, h); T (32, y); T (1, x);  Lambda_apply y [((Iter 2), (Arg 5)); ((Iter 1), (Arg 7))]; T (2, f);  T (32, x)]"
44.55,1106612,1952860,"[V f; U (2, f); ULambda y; U (3, w); T (3, c); Hoist_vars [c]; T (4, x);  T (3, h); Lambda_apply y [((Iter 2), (Arg 5)); ((Iter 1), (Arg 7))];  T (1, x); T (32, y); T (2, f); T (136, x)]"
40.75,3036599,3266009,"[V f; U (2, f); ULambda y; U (3, w); T (3, c); Hoist_vars [c]; T (17, x);  T (3, h); T (17, y); T (32, x);  Lambda_apply y [((Iter 3), (Arg 6)); ((Iter 2), (Arg 7))]; T (2, f);  T (1, x)]"
25.72,3564578,11388116,"[V f; U (2, f); ULambda y; U (3, w); T (3, c); Hoist_vars [c]; T (272, x);  T (3, h); T (17, y); T (1, x);  Lambda_apply y [((Iter 3), (Arg 6)); ((Iter 2), (Arg 7))]; T (2, f);  T (2, x)]"
41.31,3046583,3207544,"[V f; U (2, f); ULambda y; U (3, w); T (3, c); Hoist_vars [c]; T (17, x);  T (3, h); T (17, y); T (8, x);  Lambda_apply y [((Iter 3), (Arg 6)); ((Iter 2), (Arg 7))]; T (2, f);  T (4, x)]"
38.99,1040347,2599651,"[V f; U (2, f); ULambda y; U (3, w); T (3, c); Hoist_vars [c]; T (2, x);  T (3, h); T (17, y); T (8, x);  Lambda_apply y [((Iter 3), (Arg 6)); ((Iter 2), (Arg 7))]; T (2, f);  T (34, x)]"
44.92,1004309,2340492,"[V f; U (2, f); ULambda y; U (3, w); T (3, c); Hoist_vars [c]; T (1, x);  T (3, h); T (17, y); T (8, x);  Lambda_apply y [((Iter 3), (Arg 6)); ((Iter 2), (Arg 7))]; T (2, f);  T (68, x)]"
38.47,2144435,6391528,"[V f; U (4, f); ULambda y; U (3, w); T (3, c); Hoist_vars [c]; T (136, x);  T (3, h); Lambda_apply y [((Iter 4), (Arg 3)); ((Iter 1), (Arg 4))];  T (1, y); T (4, x); T (34, y)]"
41.42,2863599,3870905,"[V f; U (4, f); ULambda y; U (3, w); T (3, c); Hoist_vars [c]; T (68, x);  T (3, h); Lambda_apply y [((Iter 4), (Arg 3)); ((Iter 1), (Arg 4))];  T (1, y); T (8, x); T (34, y)]"
51.23,1905657,1608489,"[V f; U (4, f); ULambda y; U (3, w); T (3, c); Hoist_vars [c]; T (17, x);  T (3, h); T (34, y); T (1, y); T (32, x);  Lambda_apply y [((Iter 4), (Arg 3)); ((Iter 1), (Arg 4))]]"
51.42,2243341,2053018,"[V f; U (4, f); ULambda y; U (3, w); T (3, c); Hoist_vars [c]; T (17, x);  T (3, h); Lambda_apply y [((Iter 4), (Arg 3)); ((Iter 1), (Arg 4))];  T (2, y); T (32, x); T (17, y)]"
55.59,1526291,1584454,"[V f; U (4, f); ULambda y; U (3, w); T (3, c); Hoist_vars [c]; T (8, x);  T (3, h); T (34, y); T (1, y); T (68, x);  Lambda_apply y [((Iter 4), (Arg 3)); ((Iter 1), (Arg 4))]]"
54.70,732427,1906794,"[V f; U (4, f); ULambda y; U (3, w); T (3, c); Hoist_vars [c]; T (4, x);  T (3, h); T (1, y);  Lambda_apply y [((Iter 4), (Arg 3)); ((Iter 1), (Arg 4))]; T (136, x);  T (34, y)]"
