perf,CACHE_MISS_L1,CACHE_MISS_L2,scheme
50.16,10661489,31649621,"[V f; U (2, f); U (4, y); T (32, c); Hoist_vars [c]; T (272, x); T (3, w);  T (3, h); T (17, y); T (1, x); T (4, y); T (4, f); T (1, x)]"
57.87,10757072,22995963,"[V f; U (2, f); U (4, y); T (32, c); Hoist_vars [c]; T (136, x); T (3, w);  T (3, h); T (4, y); T (2, x); T (17, y); T (4, f); T (1, x)]"
63.63,10406843,13331462,"[V f; U (2, f); U (4, y); T (32, c); Hoist_vars [c]; T (68, x); T (3, w);  T (3, h); T (68, y); T (2, x); T (1, y); T (4, f); T (2, x)]"
69.56,12183951,5027671,"[V f; U (2, f); U (4, y); T (32, c); Hoist_vars [c]; T (2, x); T (3, w);  T (3, h); T (68, y); T (17, x); T (1, y); T (4, f); T (8, x)]"
69.83,12204665,3387837,"[V f; U (2, f); U (4, y); T (32, c); Hoist_vars [c]; T (2, x); T (3, w);  T (3, h); T (17, y); T (17, x); T (4, y); T (4, f); T (8, x)]"
75.18,28886480,5308645,"[V f; U (2, f); U (4, y); T (32, c); Hoist_vars [c]; T (1, x); T (3, w);  T (3, h); T (1, y); T (17, x); T (68, y); T (4, f); T (16, x)]"
79.81,8443019,6316800,"[V f; U (2, f); U (4, y); T (32, c); Hoist_vars [c]; T (8, x); T (3, w);  T (3, h); T (34, y); T (2, x); T (2, y); T (4, f); T (17, x)]"
76.96,27958667,3667122,"[V f; U (2, f); U (4, y); T (32, c); Hoist_vars [c]; T (1, x); T (3, w);  T (3, h); T (2, y); T (16, x); T (34, y); T (4, f); T (17, x)]"
79.27,9510888,4494701,"[V f; U (2, f); U (4, y); T (32, c); Hoist_vars [c]; T (4, x); T (3, w);  T (3, h); T (2, y); T (2, x); T (34, y); T (4, f); T (34, x)]"
82.60,29782867,4178166,"[V f; U (2, f); U (4, y); T (32, c); Hoist_vars [c]; T (1, x); T (3, w);  T (3, h); T (4, y); T (8, x); T (17, y); T (4, f); T (34, x)]"
76.09,15640423,4213398,"[V f; U (2, f); U (4, y); T (32, c); Hoist_vars [c]; T (2, x); T (3, w);  T (3, h); T (34, y); T (2, x); T (2, y); T (4, f); T (68, x)]"
50.96,9278088,21518493,"[V f; U (1, f); U (8, y); U (3, h); T (32, c); Hoist_vars [c]; T (272, x);  T (3, w); T (2, y); T (1, x); T (17, y); T (8, f); T (1, x)]"
54.16,9314910,20123619,"[V f; U (1, f); U (8, y); U (3, h); T (32, c); Hoist_vars [c]; T (136, x);  T (3, w); T (34, y); T (2, x); T (1, y); T (8, f); T (1, x)]"
60.05,9891967,11825858,"[V f; U (1, f); U (8, y); U (3, h); T (32, c); Hoist_vars [c]; T (34, x);  T (3, w); T (1, y); T (8, x); T (34, y); T (8, f); T (1, x)]"
67.67,27367613,7826142,"[V f; U (1, f); U (8, y); U (3, h); T (32, c); Hoist_vars [c]; T (1, x);  T (3, w); T (34, y); T (272, x); T (1, y); T (8, f); T (1, x)]"
70.03,15084700,8131451,"[V f; U (1, f); U (8, y); U (3, h); T (32, c); Hoist_vars [c]; T (2, x);  T (3, w); T (2, y); T (34, x); T (17, y); T (8, f); T (4, x)]"
71.32,27002421,7440240,"[V f; U (1, f); U (8, y); U (3, h); T (32, c); Hoist_vars [c]; T (1, x);  T (3, w); T (17, y); T (68, x); T (2, y); T (8, f); T (4, x)]"
71.50,25733545,8207459,"[V f; U (1, f); U (8, y); U (3, h); T (32, c); Hoist_vars [c]; T (1, x);  T (3, w); T (2, y); T (17, x); T (17, y); T (8, f); T (16, x)]"
76.34,12603666,8522592,"[V f; U (1, f); U (8, y); U (3, h); T (32, c); Hoist_vars [c]; T (4, x);  T (3, w); T (34, y); T (1, x); T (1, y); T (8, f); T (68, x)]"
75.88,12648230,8807065,"[V f; U (1, f); U (8, y); U (3, h); T (32, c); Hoist_vars [c]; T (4, x);  T (3, w); T (17, y); T (1, x); T (2, y); T (8, f); T (68, x)]"
75.45,16943720,9693799,"[V f; U (1, f); U (8, y); U (3, h); T (32, c); Hoist_vars [c]; T (2, x);  T (3, w); T (34, y); T (2, x); T (1, y); T (8, f); T (68, x)]"
68.07,5720040,10594028,"[V f; U (2, f); U (4, y); U (3, h); T (32, c); Hoist_vars [c]; T (68, x);  T (3, w); T (1, y); T (4, x); T (68, y); T (4, f); T (1, x)]"
71.83,5130453,8599843,"[V f; U (2, f); U (4, y); U (3, h); T (32, c); Hoist_vars [c]; T (16, x);  T (3, w); T (1, y); T (17, x); T (68, y); T (4, f); T (1, x)]"
73.13,6569242,7868645,"[V f; U (2, f); U (4, y); U (3, h); T (32, c); Hoist_vars [c]; T (8, x);  T (3, w); T (1, y); T (34, x); T (68, y); T (4, f); T (1, x)]"
70.21,14556963,6083320,"[V f; U (2, f); U (4, y); U (3, h); T (32, c); Hoist_vars [c]; T (2, x);  T (3, w); T (2, y); T (136, x); T (34, y); T (4, f); T (1, x)]"
66.00,5407206,11339633,"[V f; U (2, f); U (4, y); U (3, h); T (32, c); Hoist_vars [c]; T (136, x);  T (3, w); T (1, y); T (1, x); T (68, y); T (4, f); T (2, x)]"
70.00,14702228,11154569,"[V f; U (2, f); U (4, y); U (3, h); T (32, c); Hoist_vars [c]; T (2, x);  T (3, w); T (34, y); T (68, x); T (2, y); T (4, f); T (2, x)]"
75.47,24769653,3446687,"[V f; U (2, f); U (4, y); U (3, h); T (32, c); Hoist_vars [c]; T (1, x);  T (3, w); T (1, y); T (16, x); T (68, y); T (4, f); T (17, x)]"
80.90,6274325,5089551,"[V f; U (2, f); U (4, y); U (3, h); T (32, c); Hoist_vars [c]; T (8, x);  T (3, w); T (4, y); T (1, x); T (17, y); T (4, f); T (34, x)]"
70.37,6178643,11279163,"[V f; U (2, f); U (4, y); U (3, w); T (32, c); Hoist_vars [c]; T (136, x);  T (3, h); T (34, y); T (2, x); T (2, y); T (4, f); T (1, x)]"
69.86,6185757,12332651,"[V f; U (2, f); U (4, y); U (3, w); T (32, c); Hoist_vars [c]; T (136, x);  T (3, h); T (1, y); T (2, x); T (68, y); T (4, f); T (1, x)]"
78.29,6287900,5386418,"[V f; U (2, f); U (4, y); U (3, w); T (32, c); Hoist_vars [c]; T (8, x);  T (3, h); T (17, y); T (34, x); T (4, y); T (4, f); T (1, x)]"
75.80,8374970,9185996,"[V f; U (2, f); U (4, y); U (3, w); T (32, c); Hoist_vars [c]; T (8, x);  T (3, h); T (1, y); T (34, x); T (68, y); T (4, f); T (1, x)]"
70.24,3972199,5701032,"[V f; U (2, f); U (4, y); U (3, w); T (32, c); Hoist_vars [c]; T (68, x);  T (3, h); T (34, y); T (1, x); T (2, y); T (4, f); T (4, x)]"
83.19,6759621,5652474,"[V f; U (2, f); U (4, y); U (3, w); T (32, c); Hoist_vars [c]; T (17, x);  T (3, h); T (2, y); T (4, x); T (34, y); T (4, f); T (4, x)]"
79.97,15427937,5365981,"[V f; U (2, f); U (4, y); U (3, w); T (32, c); Hoist_vars [c]; T (2, x);  T (3, h); T (2, y); T (17, x); T (34, y); T (4, f); T (8, x)]"
76.53,14982703,5148713,"[V f; U (2, f); U (4, y); U (3, w); T (32, c); Hoist_vars [c]; T (2, x);  T (3, h); T (2, y); T (8, x); T (34, y); T (4, f); T (17, x)]"
82.32,7771857,5665444,"[V f; U (2, f); U (4, y); U (3, w); T (32, c); Hoist_vars [c]; T (8, x);  T (3, h); T (34, y); T (1, x); T (2, y); T (4, f); T (34, x)]"
82.83,10583439,5175475,"[V f; U (2, f); U (4, y); U (3, w); T (32, c); Hoist_vars [c]; T (4, x);  T (3, h); T (2, y); T (1, x); T (34, y); T (4, f); T (68, x)]"
81.13,15506597,4866004,"[V f; U (2, f); U (4, y); U (3, w); T (32, c); Hoist_vars [c]; T (2, x);  T (3, h); T (1, y); T (2, x); T (68, y); T (4, f); T (68, x)]"
76.75,26073464,4123725,"[V f; U (2, f); U (4, y); U (3, w); T (32, c); Hoist_vars [c]; T (1, x);  T (3, h); T (4, y); T (1, x); T (17, y); T (4, f); T (272, x)]"
56.56,4924121,8929958,"[V f; U (4, f); U (4, y); U (3, w); T (32, c); Hoist_vars [c]; T (272, x);  T (3, h); T (1, c); T (17, y); T (1, x); T (4, y); T (2, f); T (1, x)]"
54.12,4382565,11506070,"[V f; U (4, f); U (4, y); U (3, w); T (16, c); Hoist_vars [c]; T (136, x);  T (3, h); T (2, c); T (34, y); T (2, x); T (2, y); T (2, f); T (1, x)]"
33.63,27112024,32857794,"[V f; U (4, f); U (4, y); U (3, w); T (2, c); Hoist_vars [c]; T (68, x);  T (3, h); T (16, c); T (34, y); T (4, x); T (2, y); T (2, f); T (1, x)]"
56.72,6389999,2682452,"[V f; U (4, f); U (4, y); U (3, w); T (32, c); Hoist_vars [c]; T (8, x);  T (3, h); T (1, c); T (4, y); T (34, x); T (17, y); T (2, f); T (1, x)]"
58.59,10314534,3664354,"[V f; U (4, f); U (4, y); U (3, w); T (32, c); Hoist_vars [c]; T (4, x);  T (3, h); T (1, c); T (34, y); T (68, x); T (2, y); T (2, f); T (1, x)]"
39.79,8596339,4162845,"[V f; U (4, f); U (4, y); U (3, w); T (1, c); Hoist_vars [c]; T (4, x);  T (3, h); T (32, c); T (1, y); T (68, x); T (68, y); T (2, f); T (1, x)]"
43.60,16213479,3027950,"[V f; U (4, f); U (4, y); U (3, w); T (4, c); Hoist_vars [c]; T (2, x);  T (3, h); T (8, c); T (2, y); T (136, x); T (34, y); T (2, f); T (1, x)]"
53.00,24281408,14666083,"[V f; U (4, f); U (4, y); U (3, w); T (16, c); Hoist_vars [c]; T (1, x);  T (3, h); T (2, c); T (68, y); T (272, x); T (1, y); T (2, f); T (1, x)]"
54.11,24223796,2546810,"[V f; U (4, f); U (4, y); U (3, w); T (16, c); Hoist_vars [c]; T (1, x);  T (3, h); T (2, c); T (34, y); T (272, x); T (2, y); T (2, f); T (1, x)]"
25.78,53185802,123622524,"[V f; U (4, f); U (4, y); U (3, w); T (1, c); Hoist_vars [c]; T (136, x);  T (3, h); T (32, c); T (17, y); T (1, x); T (4, y); T (2, f); T (2, x)]"
42.86,17650848,23034352,"[V f; U (4, f); U (4, y); U (3, w); T (4, c); Hoist_vars [c]; T (68, x);  T (3, h); T (8, c); T (17, y); T (2, x); T (4, y); T (2, f); T (2, x)]"
35.74,47077969,8181047,"[V f; U (4, f); U (4, y); U (3, w); T (1, c); Hoist_vars [c]; T (34, x);  T (3, h); T (32, c); T (4, y); T (4, x); T (17, y); T (2, f); T (2, x)]"
35.97,47052414,7742433,"[V f; U (4, f); U (4, y); U (3, w); T (1, c); Hoist_vars [c]; T (34, x);  T (3, h); T (32, c); T (2, y); T (4, x); T (34, y); T (2, f); T (2, x)]"
44.66,9680867,4554464,"[V f; U (4, f); U (4, y); U (3, w); T (4, c); Hoist_vars [c]; T (34, x);  T (3, h); T (8, c); T (1, y); T (4, x); T (68, y); T (2, f); T (2, x)]"
36.37,42820992,4961090,"[V f; U (4, f); U (4, y); U (3, w); T (1, c); Hoist_vars [c]; T (17, x);  T (3, h); T (32, c); T (4, y); T (8, x); T (17, y); T (2, f); T (2, x)]"
51.22,7882925,5868017,"[V f; U (4, f); U (4, y); U (3, w); T (8, c); Hoist_vars [c]; T (8, x);  T (3, h); T (4, c); T (1, y); T (17, x); T (68, y); T (2, f); T (2, x)]"
46.67,10168044,2795886,"[V f; U (4, f); U (4, y); U (3, w); T (4, c); Hoist_vars [c]; T (4, x);  T (3, h); T (8, c); T (17, y); T (34, x); T (4, y); T (2, f); T (2, x)]"
50.56,8540579,4528178,"[V f; U (4, f); U (4, y); U (3, w); T (8, c); Hoist_vars [c]; T (4, x);  T (3, h); T (4, c); T (1, y); T (34, x); T (68, y); T (2, f); T (2, x)]"
37.32,15182599,3062498,"[V f; U (4, f); U (4, y); U (3, w); T (1, c); Hoist_vars [c]; T (2, x);  T (3, h); T (32, c); T (17, y); T (68, x); T (4, y); T (2, f); T (2, x)]"
44.84,28244966,3525286,"[V f; U (4, f); U (4, y); U (3, w); T (4, c); Hoist_vars [c]; T (1, x);  T (3, h); T (8, c); T (17, y); T (136, x); T (4, y); T (2, f); T (2, x)]"
41.37,11375097,14562952,"[V f; U (4, f); U (4, y); U (3, w); T (4, c); Hoist_vars [c]; T (68, x);  T (3, h); T (8, c); T (4, y); T (1, x); T (17, y); T (2, f); T (4, x)]"
34.20,27043762,32497410,"[V f; U (4, f); U (4, y); U (3, w); T (2, c); Hoist_vars [c]; T (68, x);  T (3, h); T (16, c); T (4, y); T (1, x); T (17, y); T (2, f); T (4, x)]"
38.81,23266155,5282717,"[V f; U (4, f); U (4, y); U (3, w); T (2, c); Hoist_vars [c]; T (34, x);  T (3, h); T (16, c); T (17, y); T (2, x); T (4, y); T (2, f); T (4, x)]"
39.43,21691738,3494766,"[V f; U (4, f); U (4, y); U (3, w); T (2, c); Hoist_vars [c]; T (17, x);  T (3, h); T (16, c); T (17, y); T (4, x); T (4, y); T (2, f); T (4, x)]"
36.40,42657193,3902751,"[V f; U (4, f); U (4, y); U (3, w); T (1, c); Hoist_vars [c]; T (17, x);  T (3, h); T (32, c); T (17, y); T (4, x); T (4, y); T (2, f); T (4, x)]"
39.42,10985009,4493744,"[V f; U (4, f); U (4, y); U (3, w); T (2, c); Hoist_vars [c]; T (4, x);  T (3, h); T (16, c); T (2, y); T (17, x); T (34, y); T (2, f); T (4, x)]"
44.09,28268180,14462308,"[V f; U (4, f); U (4, y); U (3, w); T (4, c); Hoist_vars [c]; T (1, x);  T (3, h); T (8, c); T (34, y); T (68, x); T (2, y); T (2, f); T (4, x)]"
44.83,30275828,2751533,"[V f; U (4, f); U (4, y); U (3, w); T (4, c); Hoist_vars [c]; T (1, x);  T (3, h); T (8, c); T (4, y); T (68, x); T (17, y); T (2, f); T (4, x)]"
60.05,6100269,3183267,"[V f; U (4, f); U (4, y); U (3, w); T (32, c); Hoist_vars [c]; T (17, x);  T (3, h); T (1, c); T (1, y); T (2, x); T (68, y); T (2, f); T (8, x)]"
39.22,31634244,2305924,"[V f; U (4, f); U (4, y); U (3, w); T (1, c); Hoist_vars [c]; T (1, x);  T (3, h); T (32, c); T (68, y); T (34, x); T (1, y); T (2, f); T (8, x)]"
44.67,28016205,2727709,"[V f; U (4, f); U (4, y); U (3, w); T (4, c); Hoist_vars [c]; T (1, x);  T (3, h); T (8, c); T (1, y); T (34, x); T (68, y); T (2, f); T (8, x)]"
46.99,13745242,3265391,"[V f; U (4, f); U (4, y); U (3, w); T (4, c); Hoist_vars [c]; T (16, x);  T (3, h); T (8, c); T (17, y); T (1, x); T (4, y); T (2, f); T (17, x)]"
51.33,8799589,2520968,"[V f; U (4, f); U (4, y); U (3, w); T (8, c); Hoist_vars [c]; T (4, x);  T (3, h); T (4, c); T (4, y); T (4, x); T (17, y); T (2, f); T (17, x)]"
40.40,8569103,2392947,"[V f; U (4, f); U (4, y); U (3, w); T (1, c); Hoist_vars [c]; T (4, x);  T (3, h); T (32, c); T (1, y); T (4, x); T (68, y); T (2, f); T (17, x)]"
50.78,24686277,3729673,"[V f; U (4, f); U (4, y); U (3, w); T (8, c); Hoist_vars [c]; T (1, x);  T (3, h); T (4, c); T (68, y); T (16, x); T (1, y); T (2, f); T (17, x)]"
44.31,27650502,2384854,"[V f; U (4, f); U (4, y); U (3, w); T (4, c); Hoist_vars [c]; T (1, x);  T (3, h); T (8, c); T (17, y); T (16, x); T (4, y); T (2, f); T (17, x)]"
54.28,6826522,2460858,"[V f; U (4, f); U (4, y); U (3, w); T (16, c); Hoist_vars [c]; T (4, x);  T (3, h); T (2, c); T (68, y); T (2, x); T (1, y); T (2, f); T (34, x)]"
39.88,11475612,2480782,"[V f; U (4, f); U (4, y); U (3, w); T (2, c); Hoist_vars [c]; T (4, x);  T (3, h); T (16, c); T (34, y); T (2, x); T (2, y); T (2, f); T (34, x)]"
49.24,11567872,2043014,"[V f; U (4, f); U (4, y); U (3, w); T (16, c); Hoist_vars [c]; T (2, x);  T (3, h); T (2, c); T (2, y); T (4, x); T (34, y); T (2, f); T (34, x)]"
44.64,15687519,2214853,"[V f; U (4, f); U (4, y); U (3, w); T (4, c); Hoist_vars [c]; T (2, x);  T (3, h); T (8, c); T (2, y); T (4, x); T (34, y); T (2, f); T (34, x)]"
50.73,13663133,3185564,"[V f; U (4, f); U (4, y); U (3, w); T (8, c); Hoist_vars [c]; T (2, x);  T (3, h); T (4, c); T (1, y); T (4, x); T (68, y); T (2, f); T (34, x)]"
38.04,31148869,19377041,"[V f; U (4, f); U (4, y); U (3, w); T (1, c); Hoist_vars [c]; T (1, x);  T (3, h); T (32, c); T (34, y); T (8, x); T (2, y); T (2, f); T (34, x)]"
57.31,23308928,2722403,"[V f; U (4, f); U (4, y); U (3, w); T (32, c); Hoist_vars [c]; T (1, x);  T (3, h); T (1, c); T (4, y); T (8, x); T (17, y); T (2, f); T (34, x)]"
39.86,31509125,3576977,"[V f; U (4, f); U (4, y); U (3, w); T (1, c); Hoist_vars [c]; T (1, x);  T (3, h); T (32, c); T (2, y); T (8, x); T (34, y); T (2, f); T (34, x)]"
43.23,29512076,14534811,"[V f; U (4, f); U (4, y); U (3, w); T (4, c); Hoist_vars [c]; T (1, x);  T (3, h); T (8, c); T (1, y); T (8, x); T (68, y); T (2, f); T (34, x)]"
55.86,12910125,2715359,"[V f; U (4, f); U (4, y); U (3, w); T (16, c); Hoist_vars [c]; T (2, x);  T (3, h); T (2, c); T (34, y); T (2, x); T (2, y); T (2, f); T (68, x)]"
39.90,31858068,3787881,"[V f; U (4, f); U (4, y); U (3, w); T (1, c); Hoist_vars [c]; T (1, x);  T (3, h); T (32, c); T (34, y); T (4, x); T (2, y); T (2, f); T (68, x)]"
58.37,14996265,3347258,"[V f; U (4, f); U (4, y); U (3, w); T (32, c); Hoist_vars [c]; T (2, x);  T (3, h); T (1, c); T (17, y); T (1, x); T (4, y); T (2, f); T (136, x)]"
57.15,23410951,2675094,"[V f; U (4, f); U (4, y); U (3, w); T (32, c); Hoist_vars [c]; T (1, x);  T (3, h); T (1, c); T (2, y); T (2, x); T (34, y); T (2, f); T (136, x)]"
74.06,7593111,5803239,"[V f; U (2, f); ULambda y; T (32, c); Hoist_vars [c]; T (34, x); T (3, w);  T (3, h); T (16, y); T (8, x);  Lambda_apply y [((Iter 3), (Arg 4)); ((Iter 1), (Arg 5))]; T (4, f);  T (1, x)]"
77.05,27571978,3994818,"[V f; U (2, f); ULambda y; T (32, c); Hoist_vars [c]; T (1, x); T (3, w);  T (3, h); T (16, y); T (68, x);  Lambda_apply y [((Iter 3), (Arg 4)); ((Iter 1), (Arg 5))]; T (4, f);  T (4, x)]"
72.31,11246451,3172134,"[V f; U (2, f); ULambda y; T (32, c); Hoist_vars [c]; T (2, x); T (3, w);  T (3, h); Lambda_apply y [((Iter 3), (Arg 4)); ((Iter 1), (Arg 5))];  T (8, x); T (16, y); T (4, f); T (17, x)]"
75.12,21769953,6967793,"[V f; U (2, f); ULambda y; T (32, c); Hoist_vars [c]; T (1, x); T (3, w);  T (3, h); Lambda_apply y [((Iter 3), (Arg 4)); ((Iter 1), (Arg 5))];  T (8, x); T (16, y); T (4, f); T (34, x)]"
72.45,24860953,6932278,"[V f; U (1, f); ULambda y; U (3, h); T (32, c); Hoist_vars [c]; T (1, x);  T (3, w); T (8, y); T (34, x);  Lambda_apply y [((Iter 3), (Arg 8)); ((Iter 1), (Arg 10))]; T (8, f);  T (8, x)]"
55.49,9854106,16039885,"[V f; U (1, f); ULambda y; U (3, h); T (32, c); Hoist_vars [c]; T (68, x);  T (3, w); T (4, y); T (4, x);  Lambda_apply y [((Iter 3), (Arg 8)); ((Iter 4), (Arg 11))]; T (8, f);  T (1, x)]"
72.32,9682370,7635078,"[V f; U (1, f); ULambda y; U (3, h); T (32, c); Hoist_vars [c]; T (8, x);  T (3, w); T (4, y); T (1, x);  Lambda_apply y [((Iter 3), (Arg 8)); ((Iter 4), (Arg 11))]; T (8, f);  T (34, x)]"
73.24,22742003,5377796,"[V f; U (1, f); ULambda y; U (3, h); T (32, c); Hoist_vars [c]; T (1, x);  T (3, w); Lambda_apply y [((Iter 3), (Arg 8)); ((Iter 4), (Arg 11))];  T (2, x); T (4, y); T (8, f); T (136, x)]"
64.97,13447797,7491742,"[V f; U (1, f); ULambda y; U (3, h); T (32, c); Hoist_vars [c]; T (2, x);  T (3, w); T (4, y); T (136, x);  Lambda_apply y [((Iter 1), (Arg 8)); ((Iter 5), (Arg 12))]; T (8, f);  T (1, x)]"
65.19,9665869,8297217,"[V f; U (1, f); ULambda y; U (3, h); T (32, c); Hoist_vars [c]; T (8, x);  T (3, w); T (4, y); T (17, x);  Lambda_apply y [((Iter 1), (Arg 8)); ((Iter 5), (Arg 12))]; T (8, f);  T (2, x)]"
63.55,19535966,9425775,"[V f; U (1, f); ULambda y; U (3, h); T (32, c); Hoist_vars [c]; T (1, x);  T (3, w); Lambda_apply y [((Iter 1), (Arg 8)); ((Iter 5), (Arg 12))];  T (136, x); T (4, y); T (8, f); T (2, x)]"
64.95,10423609,16061523,"[V f; U (1, f); ULambda y; U (3, h); T (32, c); Hoist_vars [c]; T (68, x);  T (3, w); Lambda_apply y [((Iter 1), (Arg 8)); ((Iter 5), (Arg 12))];  T (1, x); T (4, y); T (8, f); T (4, x)]"
47.67,9441338,18449051,"[V f; U (1, f); ULambda y; U (3, h); T (32, c); Hoist_vars [c]; T (272, x);  T (3, w); Lambda_apply y [((Iter 1), (Arg 8)); ((Iter 2), (Arg 13))];  T (1, x); T (8, y); T (8, f); T (1, x)]"
60.81,9730727,8019789,"[V f; U (1, f); ULambda y; U (3, h); T (32, c); Hoist_vars [c]; T (17, x);  T (3, w); T (8, y); T (16, x);  Lambda_apply y [((Iter 1), (Arg 8)); ((Iter 2), (Arg 13))]; T (8, f);  T (1, x)]"
59.50,8901946,7800499,"[V f; U (1, f); ULambda y; U (3, h); T (32, c); Hoist_vars [c]; T (16, x);  T (3, w); Lambda_apply y [((Iter 1), (Arg 8)); ((Iter 2), (Arg 13))];  T (17, x); T (8, y); T (8, f); T (1, x)]"
67.14,12277866,8251906,"[V f; U (1, f); ULambda y; U (3, h); T (32, c); Hoist_vars [c]; T (2, x);  T (3, w); Lambda_apply y [((Iter 1), (Arg 8)); ((Iter 2), (Arg 13))];  T (34, x); T (8, y); T (8, f); T (4, x)]"
61.38,13556209,8102166,"[V f; U (1, f); ULambda y; U (3, h); T (32, c); Hoist_vars [c]; T (2, x);  T (3, w); Lambda_apply y [((Iter 2), (Arg 9)); ((Iter 5), (Arg 10))];  T (136, x); T (4, y); T (8, f); T (1, x)]"
71.15,22357345,6966858,"[V f; U (1, f); ULambda y; U (3, h); T (32, c); Hoist_vars [c]; T (1, x);  T (3, w); T (4, y); T (2, x);  Lambda_apply y [((Iter 2), (Arg 9)); ((Iter 5), (Arg 10))]; T (8, f);  T (136, x)]"
59.28,9998913,9888174,"[V f; U (1, f); ULambda y; U (3, h); T (32, c); Hoist_vars [c]; T (8, x);  T (3, w); T (2, y); T (34, x);  Lambda_apply y [((Iter 9), (Arg 9)); ((Iter 5), (Arg 11))]; T (8, f);  T (1, x)]"
67.74,12013411,9542804,"[V f; U (1, f); ULambda y; U (3, h); T (32, c); Hoist_vars [c]; T (4, x);  T (3, w); T (2, y); T (2, x);  Lambda_apply y [((Iter 9), (Arg 9)); ((Iter 5), (Arg 11))]; T (8, f);  T (34, x)]"
68.10,15360120,8879296,"[V f; U (1, f); ULambda y; U (3, h); T (32, c); Hoist_vars [c]; T (2, x);  T (3, w); Lambda_apply y [((Iter 9), (Arg 9)); ((Iter 5), (Arg 11))];  T (4, x); T (2, y); T (8, f); T (34, x)]"
58.80,14016817,7950103,"[V f; U (1, f); ULambda y; U (3, h); T (32, c); Hoist_vars [c]; T (2, x);  T (3, w); Lambda_apply y [((Iter 5), (Arg 9)); ((Iter 7), (Arg 13))];  T (136, x); T (2, y); T (8, f); T (1, x)]"
53.68,10579120,16400637,"[V f; U (1, f); ULambda y; U (3, h); T (32, c); Hoist_vars [c]; T (68, x);  T (3, w); Lambda_apply y [((Iter 5), (Arg 9)); ((Iter 7), (Arg 13))];  T (2, x); T (2, y); T (8, f); T (2, x)]"
67.45,10234481,7686470,"[V f; U (1, f); ULambda y; U (3, h); T (32, c); Hoist_vars [c]; T (8, x);  T (3, w); T (2, y); T (2, x);  Lambda_apply y [((Iter 5), (Arg 9)); ((Iter 7), (Arg 13))]; T (8, f);  T (17, x)]"
63.26,20389216,7581430,"[V f; U (1, f); ULambda y; U (3, h); T (32, c); Hoist_vars [c]; T (1, x);  T (3, w); T (2, y); T (136, x);  Lambda_apply y [((Iter 7), (Arg 10)); ((Iter 6), (Arg 11))]; T (8, f);  T (2, x)]"
68.38,9272384,8222022,"[V f; U (1, f); ULambda y; U (3, h); T (32, c); Hoist_vars [c]; T (17, x);  T (3, w); Lambda_apply y [((Iter 7), (Arg 10)); ((Iter 6), (Arg 11))];  T (4, x); T (2, y); T (8, f); T (4, x)]"
66.43,20438999,9494885,"[V f; U (1, f); ULambda y; U (3, h); T (32, c); Hoist_vars [c]; T (1, x);  T (3, w); T (2, y); T (68, x);  Lambda_apply y [((Iter 7), (Arg 10)); ((Iter 6), (Arg 11))]; T (8, f);  T (4, x)]"
61.50,10498841,10426302,"[V f; U (1, f); ULambda y; U (3, h); T (32, c); Hoist_vars [c]; T (34, x);  T (3, w); T (8, y); T (4, x);  Lambda_apply y [((Iter 1), (Arg 10)); ((Iter 2), (Arg 12))]; T (8, f);  T (2, x)]"
58.97,19137477,16959188,"[V f; U (1, f); ULambda y; U (3, h); T (32, c); Hoist_vars [c]; T (1, x);  T (3, w); Lambda_apply y [((Iter 1), (Arg 10)); ((Iter 2), (Arg 12))];  T (136, x); T (8, y); T (8, f); T (2, x)]"
68.46,11176613,11195560,"[V f; U (1, f); ULambda y; U (3, h); T (32, c); Hoist_vars [c]; T (34, x);  T (3, w); Lambda_apply y [((Iter 1), (Arg 10)); ((Iter 2), (Arg 12))];  T (2, x); T (8, y); T (8, f); T (4, x)]"
68.45,11128041,10829289,"[V f; U (1, f); ULambda y; U (3, h); T (32, c); Hoist_vars [c]; T (34, x);  T (3, w); T (8, y); T (2, x);  Lambda_apply y [((Iter 1), (Arg 10)); ((Iter 2), (Arg 12))]; T (8, f);  T (4, x)]"
70.02,8945716,7908043,"[V f; U (1, f); ULambda y; U (3, h); T (32, c); Hoist_vars [c]; T (17, x);  T (3, w); T (8, y); T (1, x);  Lambda_apply y [((Iter 1), (Arg 10)); ((Iter 2), (Arg 12))]; T (8, f);  T (16, x)]"
72.29,9934654,7860134,"[V f; U (1, f); ULambda y; U (3, h); T (32, c); Hoist_vars [c]; T (8, x);  T (3, w); T (8, y); T (2, x);  Lambda_apply y [((Iter 1), (Arg 10)); ((Iter 2), (Arg 12))]; T (8, f);  T (17, x)]"
49.55,10058985,20933597,"[V f; U (1, f); ULambda y; U (3, h); T (32, c); Hoist_vars [c]; T (272, x);  T (3, w); T (2, y); T (1, x);  Lambda_apply y [((Iter 11), (Arg 10)); ((Iter 2), (Arg 13))]; T (8, f);  T (1, x)]"
57.47,10193426,11251330,"[V f; U (1, f); ULambda y; U (3, h); T (32, c); Hoist_vars [c]; T (34, x);  T (3, w); T (2, y); T (8, x);  Lambda_apply y [((Iter 11), (Arg 10)); ((Iter 2), (Arg 13))]; T (8, f);  T (1, x)]"
63.52,9699547,8610253,"[V f; U (1, f); ULambda y; U (3, h); T (32, c); Hoist_vars [c]; T (8, x);  T (3, w); Lambda_apply y [((Iter 11), (Arg 10)); ((Iter 2), (Arg 13))];  T (34, x); T (2, y); T (8, f); T (1, x)]"
59.86,20978381,16060275,"[V f; U (1, f); ULambda y; U (3, h); T (32, c); Hoist_vars [c]; T (1, x);  T (3, w); Lambda_apply y [((Iter 11), (Arg 10)); ((Iter 2), (Arg 13))];  T (34, x); T (2, y); T (8, f); T (8, x)]"
71.01,11973455,9133591,"[V f; U (1, f); ULambda y; U (3, h); T (32, c); Hoist_vars [c]; T (4, x);  T (3, w); T (2, y); T (2, x);  Lambda_apply y [((Iter 11), (Arg 10)); ((Iter 2), (Arg 13))]; T (8, f);  T (34, x)]"
73.30,21978821,6737856,"[V f; U (1, f); ULambda y; U (3, h); T (32, c); Hoist_vars [c]; T (1, x);  T (3, w); Lambda_apply y [((Iter 11), (Arg 10)); ((Iter 2), (Arg 13))];  T (2, x); T (2, y); T (8, f); T (136, x)]"
63.09,13117180,7341856,"[V f; U (1, f); ULambda y; U (3, h); T (32, c); Hoist_vars [c]; T (2, x);  T (3, w); T (8, y); T (136, x);  Lambda_apply y [((Iter 2), (Arg 11)); ((Iter 1), (Arg 12))]; T (8, f);  T (1, x)]"
60.87,9768728,8499096,"[V f; U (1, f); ULambda y; U (3, h); T (32, c); Hoist_vars [c]; T (16, x);  T (3, w); Lambda_apply y [((Iter 7), (Arg 12)); ((Iter 4), (Arg 13))];  T (17, x); T (2, y); T (8, f); T (1, x)]"
63.11,9739193,8943912,"[V f; U (1, f); ULambda y; U (3, h); T (32, c); Hoist_vars [c]; T (17, x);  T (3, w); Lambda_apply y [((Iter 7), (Arg 12)); ((Iter 4), (Arg 13))];  T (8, x); T (2, y); T (8, f); T (2, x)]"
71.09,4503927,5427242,"[V f; U (2, f); ULambda y; U (3, h); T (32, c); Hoist_vars [c]; T (34, x);  T (3, w); T (16, y); T (4, x);  Lambda_apply y [((Iter 3), (Arg 4)); ((Iter 1), (Arg 5))]; T (4, f);  T (2, x)]"
66.57,18859437,5474589,"[V f; U (2, f); ULambda y; U (3, h); T (32, c); Hoist_vars [c]; T (1, x);  T (3, w); Lambda_apply y [((Iter 1), (Arg 4)); ((Iter 2), (Arg 6))];  T (272, x); T (17, y); T (4, f); T (1, x)]"
71.13,6277029,6146554,"[V f; U (2, f); ULambda y; U (3, h); T (32, c); Hoist_vars [c]; T (8, x);  T (3, w); Lambda_apply y [((Iter 1), (Arg 4)); ((Iter 2), (Arg 6))];  T (17, x); T (17, y); T (4, f); T (2, x)]"
68.82,4474577,5347968,"[V f; U (2, f); ULambda y; U (3, h); T (32, c); Hoist_vars [c]; T (34, x);  T (3, w); Lambda_apply y [((Iter 5), (Arg 4)); ((Iter 2), (Arg 7))];  T (2, x); T (8, y); T (4, f); T (4, x)]"
69.88,12505021,5549037,"[V f; U (2, f); ULambda y; U (3, h); T (32, c); Hoist_vars [c]; T (2, x);  T (3, w); Lambda_apply y [((Iter 5), (Arg 4)); ((Iter 2), (Arg 7))];  T (34, x); T (8, y); T (4, f); T (4, x)]"
74.44,8949605,5520318,"[V f; U (2, f); ULambda y; U (3, h); T (32, c); Hoist_vars [c]; T (4, x);  T (3, w); Lambda_apply y [((Iter 5), (Arg 4)); ((Iter 2), (Arg 7))];  T (1, x); T (8, y); T (4, f); T (68, x)]"
66.13,5683295,9534371,"[V f; U (2, f); ULambda y; U (3, h); T (32, c); Hoist_vars [c]; T (68, x);  T (3, w); Lambda_apply y [((Iter 2), (Arg 5)); ((Iter 1), (Arg 6))];  T (4, x); T (17, y); T (4, f); T (1, x)]"
65.83,4854802,11053943,"[V f; U (2, f); ULambda y; U (3, h); T (32, c); Hoist_vars [c]; T (136, x);  T (3, w); T (17, y); T (1, x);  Lambda_apply y [((Iter 2), (Arg 5)); ((Iter 1), (Arg 6))]; T (4, f);  T (2, x)]"
69.42,5378832,6037081,"[V f; U (2, f); ULambda y; U (3, h); T (32, c); Hoist_vars [c]; T (34, x);  T (3, w); Lambda_apply y [((Iter 2), (Arg 5)); ((Iter 1), (Arg 6))];  T (4, x); T (17, y); T (4, f); T (2, x)]"
76.09,6240054,5142248,"[V f; U (2, f); ULambda y; U (3, h); T (32, c); Hoist_vars [c]; T (8, x);  T (3, w); Lambda_apply y [((Iter 2), (Arg 5)); ((Iter 1), (Arg 6))];  T (1, x); T (17, y); T (4, f); T (34, x)]"
74.95,11762783,4140460,"[V f; U (2, f); ULambda y; U (3, h); T (32, c); Hoist_vars [c]; T (2, x);  T (3, w); Lambda_apply y [((Iter 2), (Arg 5)); ((Iter 1), (Arg 6))];  T (1, x); T (17, y); T (4, f); T (136, x)]"
74.45,19441741,3172114,"[V f; U (2, f); ULambda y; U (3, h); T (32, c); Hoist_vars [c]; T (1, x);  T (3, w); T (17, y); T (1, x);  Lambda_apply y [((Iter 2), (Arg 5)); ((Iter 1), (Arg 6))]; T (4, f);  T (272, x)]"
66.48,9919053,3973050,"[V f; U (2, f); ULambda y; U (3, h); T (32, c); Hoist_vars [c]; T (2, x);  T (3, w); Lambda_apply y [((Iter 2), (Arg 5)); ((Iter 1), (Arg 7))];  T (68, x); T (16, y); T (4, f); T (2, x)]"
69.26,11214896,4880228,"[V f; U (2, f); ULambda y; U (3, h); T (32, c); Hoist_vars [c]; T (2, x);  T (3, w); T (16, y); T (34, x);  Lambda_apply y [((Iter 2), (Arg 5)); ((Iter 1), (Arg 7))]; T (4, f);  T (4, x)]"
71.28,6365043,4523127,"[V f; U (2, f); ULambda y; U (3, h); T (32, c); Hoist_vars [c]; T (8, x);  T (3, w); Lambda_apply y [((Iter 2), (Arg 5)); ((Iter 1), (Arg 7))];  T (2, x); T (16, y); T (4, f); T (17, x)]"
65.48,5549469,4931934,"[V f; U (2, f); ULambda y; U (3, h); T (32, c); Hoist_vars [c]; T (16, x);  T (3, w); T (8, y); T (1, x);  Lambda_apply y [((Iter 1), (Arg 6)); ((Iter 4), (Arg 7))]; T (4, f);  T (17, x)]"
75.48,5842797,5210613,"[V f; U (2, f); ULambda y; U (3, w); T (32, c); Hoist_vars [c]; T (34, x);  T (3, h); Lambda_apply y [((Iter 3), (Arg 4)); ((Iter 1), (Arg 5))];  T (8, x); T (16, y); T (4, f); T (1, x)]"
78.16,10280262,5968908,"[V f; U (2, f); ULambda y; U (3, w); T (32, c); Hoist_vars [c]; T (4, x);  T (3, h); Lambda_apply y [((Iter 3), (Arg 4)); ((Iter 1), (Arg 5))];  T (68, x); T (16, y); T (4, f); T (1, x)]"
72.60,4003909,3848275,"[V f; U (2, f); ULambda y; U (3, w); T (32, c); Hoist_vars [c]; T (34, x);  T (3, h); Lambda_apply y [((Iter 3), (Arg 4)); ((Iter 1), (Arg 5))];  T (1, x); T (16, y); T (4, f); T (8, x)]"
66.85,6179828,13005426,"[V f; U (2, f); ULambda y; U (3, w); T (32, c); Hoist_vars [c]; T (272, x);  T (3, h); Lambda_apply y [((Iter 1), (Arg 4)); ((Iter 2), (Arg 6))];  T (1, x); T (17, y); T (4, f); T (1, x)]"
68.65,4711931,7284385,"[V f; U (2, f); ULambda y; U (3, w); T (32, c); Hoist_vars [c]; T (68, x);  T (3, h); Lambda_apply y [((Iter 1), (Arg 4)); ((Iter 2), (Arg 6))];  T (4, x); T (17, y); T (4, f); T (1, x)]"
70.71,5110999,4888651,"[V f; U (2, f); ULambda y; U (3, w); T (32, c); Hoist_vars [c]; T (34, x);  T (3, h); Lambda_apply y [((Iter 1), (Arg 4)); ((Iter 2), (Arg 6))];  T (8, x); T (17, y); T (4, f); T (1, x)]"
76.93,6294570,5230980,"[V f; U (2, f); ULambda y; U (3, w); T (32, c); Hoist_vars [c]; T (17, x);  T (3, h); Lambda_apply y [((Iter 1), (Arg 4)); ((Iter 2), (Arg 6))];  T (16, x); T (17, y); T (4, f); T (1, x)]"
80.61,9081596,5461532,"[V f; U (2, f); ULambda y; U (3, w); T (32, c); Hoist_vars [c]; T (4, x);  T (3, h); Lambda_apply y [((Iter 1), (Arg 4)); ((Iter 2), (Arg 6))];  T (17, x); T (17, y); T (4, f); T (4, x)]"
80.97,12816042,4652020,"[V f; U (2, f); ULambda y; U (3, w); T (32, c); Hoist_vars [c]; T (2, x);  T (3, h); T (17, y); T (8, x);  Lambda_apply y [((Iter 1), (Arg 4)); ((Iter 2), (Arg 6))]; T (4, f);  T (17, x)]"
79.21,18063799,4568316,"[V f; U (2, f); ULambda y; U (3, w); T (32, c); Hoist_vars [c]; T (1, x);  T (3, h); Lambda_apply y [((Iter 1), (Arg 4)); ((Iter 2), (Arg 6))];  T (4, x); T (17, y); T (4, f); T (68, x)]"
81.88,12872096,4181712,"[V f; U (2, f); ULambda y; U (3, w); T (32, c); Hoist_vars [c]; T (2, x);  T (3, h); T (17, y); T (1, x);  Lambda_apply y [((Iter 1), (Arg 4)); ((Iter 2), (Arg 6))]; T (4, f);  T (136, x)]"
83.69,19190747,4033758,"[V f; U (2, f); ULambda y; U (3, w); T (32, c); Hoist_vars [c]; T (1, x);  T (3, h); Lambda_apply y [((Iter 1), (Arg 4)); ((Iter 2), (Arg 6))];  T (2, x); T (17, y); T (4, f); T (136, x)]"
71.17,7866860,5169900,"[V f; U (2, f); ULambda y; U (3, w); T (32, c); Hoist_vars [c]; T (8, x);  T (3, h); Lambda_apply y [((Iter 5), (Arg 4)); ((Iter 2), (Arg 7))];  T (34, x); T (8, y); T (4, f); T (1, x)]"
70.31,9816029,5410330,"[V f; U (2, f); ULambda y; U (3, w); T (32, c); Hoist_vars [c]; T (4, x);  T (3, h); Lambda_apply y [((Iter 5), (Arg 4)); ((Iter 2), (Arg 7))];  T (68, x); T (8, y); T (4, f); T (1, x)]"
69.50,13466984,5105059,"[V f; U (2, f); ULambda y; U (3, w); T (32, c); Hoist_vars [c]; T (2, x);  T (3, h); Lambda_apply y [((Iter 5), (Arg 4)); ((Iter 2), (Arg 7))];  T (68, x); T (8, y); T (4, f); T (2, x)]"
78.57,18812365,5455257,"[V f; U (2, f); ULambda y; U (3, w); T (32, c); Hoist_vars [c]; T (1, x);  T (3, h); T (17, y); T (68, x);  Lambda_apply y [((Iter 2), (Arg 5)); ((Iter 1), (Arg 6))]; T (4, f);  T (4, x)]"
82.70,6531341,4605820,"[V f; U (2, f); ULambda y; U (3, w); T (32, c); Hoist_vars [c]; T (17, x);  T (3, h); Lambda_apply y [((Iter 2), (Arg 5)); ((Iter 1), (Arg 6))];  T (2, x); T (17, y); T (4, f); T (8, x)]"
78.54,4783124,4215599,"[V f; U (2, f); ULambda y; U (3, w); T (32, c); Hoist_vars [c]; T (17, x);  T (3, h); T (17, y); T (2, x);  Lambda_apply y [((Iter 2), (Arg 5)); ((Iter 1), (Arg 6))]; T (4, f);  T (8, x)]"
81.58,12796725,4963862,"[V f; U (2, f); ULambda y; U (3, w); T (32, c); Hoist_vars [c]; T (2, x);  T (3, h); T (17, y); T (8, x);  Lambda_apply y [((Iter 2), (Arg 5)); ((Iter 1), (Arg 6))]; T (4, f);  T (17, x)]"
83.72,9321653,4977837,"[V f; U (2, f); ULambda y; U (3, w); T (32, c); Hoist_vars [c]; T (4, x);  T (3, h); T (17, y); T (2, x);  Lambda_apply y [((Iter 2), (Arg 5)); ((Iter 1), (Arg 6))]; T (4, f);  T (34, x)]"
60.28,4653191,10543002,"[V f; U (2, f); ULambda y; U (3, w); T (32, c); Hoist_vars [c]; T (272, x);  T (3, h); T (16, y); T (1, x);  Lambda_apply y [((Iter 2), (Arg 5)); ((Iter 1), (Arg 7))]; T (4, f);  T (1, x)]"
72.26,6383355,5242018,"[V f; U (2, f); ULambda y; U (3, w); T (32, c); Hoist_vars [c]; T (34, x);  T (3, h); T (16, y); T (1, x);  Lambda_apply y [((Iter 2), (Arg 5)); ((Iter 1), (Arg 7))]; T (4, f);  T (8, x)]"
72.37,11043525,4375865,"[V f; U (2, f); ULambda y; U (3, w); T (32, c); Hoist_vars [c]; T (2, x);  T (3, h); T (16, y); T (2, x);  Lambda_apply y [((Iter 2), (Arg 5)); ((Iter 1), (Arg 7))]; T (4, f);  T (68, x)]"
63.98,7168084,5793445,"[V f; U (2, f); ULambda y; U (3, w); T (32, c); Hoist_vars [c]; T (34, x);  T (3, h); T (8, y); T (2, x);  Lambda_apply y [((Iter 1), (Arg 6)); ((Iter 4), (Arg 7))]; T (4, f);  T (4, x)]"
64.70,11114237,4520591,"[V f; U (2, f); ULambda y; U (3, w); T (32, c); Hoist_vars [c]; T (2, x);  T (3, h); T (8, y); T (17, x);  Lambda_apply y [((Iter 1), (Arg 6)); ((Iter 4), (Arg 7))]; T (4, f);  T (8, x)]"
73.36,14744311,4103302,"[V f; U (2, f); ULambda y; U (3, w); T (32, c); Hoist_vars [c]; T (1, x);  T (3, h); T (8, y); T (17, x);  Lambda_apply y [((Iter 1), (Arg 6)); ((Iter 4), (Arg 7))]; T (4, f);  T (16, x)]"
73.89,14877656,4342047,"[V f; U (2, f); ULambda y; U (3, w); T (32, c); Hoist_vars [c]; T (1, x);  T (3, h); T (8, y); T (8, x);  Lambda_apply y [((Iter 1), (Arg 6)); ((Iter 4), (Arg 7))]; T (4, f);  T (34, x)]"
48.78,23203557,3137878,"[V f; U (4, f); ULambda y; U (3, w); T (2, c); Hoist_vars [c]; T (17, x);  T (3, h); T (16, c); T (17, y); T (16, x);  Lambda_apply y [((Iter 4), (Arg 3)); ((Iter 1), (Arg 4))]; T (2, f);  T (1, x)]"
68.21,8759481,3059564,"[V f; U (4, f); ULambda y; U (3, w); T (8, c); Hoist_vars [c]; T (8, x);  T (3, h); T (4, c); T (17, y); T (34, x);  Lambda_apply y [((Iter 4), (Arg 3)); ((Iter 1), (Arg 4))]; T (2, f);  T (1, x)]"
76.37,11186151,4615253,"[V f; U (4, f); ULambda y; U (3, w); T (32, c); Hoist_vars [c]; T (4, x);  T (3, h); T (1, c);  Lambda_apply y [((Iter 4), (Arg 3)); ((Iter 1), (Arg 4))]; T (68, x);  T (17, y); T (2, f); T (1, x)]"
39.27,19877313,2592233,"[V f; U (4, f); ULambda y; U (3, w); T (1, c); Hoist_vars [c]; T (2, x);  T (3, h); T (32, c);  Lambda_apply y [((Iter 4), (Arg 3)); ((Iter 1), (Arg 4))]; T (136, x);  T (17, y); T (2, f); T (1, x)]"
64.47,17294306,2304802,"[V f; U (4, f); ULambda y; U (3, w); T (8, c); Hoist_vars [c]; T (2, x);  T (3, h); T (4, c); T (17, y); T (136, x);  Lambda_apply y [((Iter 4), (Arg 3)); ((Iter 1), (Arg 4))]; T (2, f);  T (1, x)]"
25.69,45720254,110150655,"[V f; U (4, f); ULambda y; U (3, w); T (1, c); Hoist_vars [c]; T (136, x);  T (3, h); T (32, c); T (17, y); T (1, x);  Lambda_apply y [((Iter 4), (Arg 3)); ((Iter 1), (Arg 4))]; T (2, f);  T (2, x)]"
47.92,24712032,6499697,"[V f; U (4, f); ULambda y; U (3, w); T (2, c); Hoist_vars [c]; T (34, x);  T (3, h); T (16, c);  Lambda_apply y [((Iter 4), (Arg 3)); ((Iter 1), (Arg 4))]; T (4, x);  T (17, y); T (2, f); T (2, x)]"
67.64,7250834,2858760,"[V f; U (4, f); ULambda y; U (3, w); T (8, c); Hoist_vars [c]; T (8, x);  T (3, h); T (4, c);  Lambda_apply y [((Iter 4), (Arg 3)); ((Iter 1), (Arg 4))]; T (17, x);  T (17, y); T (2, f); T (2, x)]"
41.60,18592977,3195097,"[V f; U (4, f); ULambda y; U (3, w); T (1, c); Hoist_vars [c]; T (8, x);  T (3, h); T (32, c); T (17, y); T (17, x);  Lambda_apply y [((Iter 4), (Arg 3)); ((Iter 1), (Arg 4))]; T (2, f);  T (2, x)]"
66.88,30251581,2431160,"[V f; U (4, f); ULambda y; U (3, w); T (16, c); Hoist_vars [c]; T (1, x);  T (3, h); T (2, c);  Lambda_apply y [((Iter 4), (Arg 3)); ((Iter 1), (Arg 4))]; T (68, x);  T (17, y); T (2, f); T (4, x)]"
50.05,28291838,2161416,"[V f; U (4, f); ULambda y; U (3, w); T (2, c); Hoist_vars [c]; T (1, x);  T (3, h); T (16, c);  Lambda_apply y [((Iter 4), (Arg 3)); ((Iter 1), (Arg 4))]; T (68, x);  T (17, y); T (2, f); T (4, x)]"
75.21,4603134,3443439,"[V f; U (4, f); ULambda y; U (3, w); T (16, c); Hoist_vars [c]; T (34, x);  T (3, h); T (2, c); T (17, y); T (1, x);  Lambda_apply y [((Iter 4), (Arg 3)); ((Iter 1), (Arg 4))]; T (2, f);  T (8, x)]"
75.10,17306113,4754576,"[V f; U (4, f); ULambda y; U (3, w); T (32, c); Hoist_vars [c]; T (2, x);  T (3, h); T (1, c);  Lambda_apply y [((Iter 4), (Arg 3)); ((Iter 1), (Arg 4))]; T (17, x);  T (17, y); T (2, f); T (8, x)]"
74.43,6397791,3285119,"[V f; U (4, f); ULambda y; U (3, w); T (16, c); Hoist_vars [c]; T (8, x);  T (3, h); T (2, c);  Lambda_apply y [((Iter 4), (Arg 3)); ((Iter 1), (Arg 4))]; T (2, x);  T (17, y); T (2, f); T (17, x)]"
67.75,9598471,2521074,"[V f; U (4, f); ULambda y; U (3, w); T (8, c); Hoist_vars [c]; T (4, x);  T (3, h); T (4, c); T (17, y); T (4, x);  Lambda_apply y [((Iter 4), (Arg 3)); ((Iter 1), (Arg 4))]; T (2, f);  T (17, x)]"
75.54,9712307,2673223,"[V f; U (4, f); ULambda y; U (3, w); T (16, c); Hoist_vars [c]; T (4, x);  T (3, h); T (2, c); T (17, y); T (2, x);  Lambda_apply y [((Iter 4), (Arg 3)); ((Iter 1), (Arg 4))]; T (2, f);  T (34, x)]"
76.46,17364141,2619219,"[V f; U (4, f); ULambda y; U (3, w); T (32, c); Hoist_vars [c]; T (2, x);  T (3, h); T (1, c);  Lambda_apply y [((Iter 4), (Arg 3)); ((Iter 1), (Arg 4))]; T (4, x);  T (17, y); T (2, f); T (34, x)]"
67.11,28399816,2292534,"[V f; U (4, f); ULambda y; U (3, w); T (32, c); Hoist_vars [c]; T (1, x);  T (3, h); T (1, c);  Lambda_apply y [((Iter 4), (Arg 3)); ((Iter 1), (Arg 4))]; T (8, x);  T (17, y); T (2, f); T (34, x)]"
44.53,39657622,2079446,"[V f; U (4, f); ULambda y; U (3, w); T (1, c); Hoist_vars [c]; T (1, x);  T (3, h); T (32, c);  Lambda_apply y [((Iter 4), (Arg 3)); ((Iter 1), (Arg 4))]; T (8, x);  T (17, y); T (2, f); T (34, x)]"
61.55,11881618,2749917,"[V f; U (4, f); ULambda y; U (3, w); T (4, c); Hoist_vars [c]; T (4, x);  T (3, h); T (8, c);  Lambda_apply y [((Iter 4), (Arg 3)); ((Iter 1), (Arg 4))]; T (1, x);  T (17, y); T (2, f); T (68, x)]"
60.96,11842869,4013344,"[V f; U (4, f); ULambda y; U (3, w); T (4, c); Hoist_vars [c]; T (4, x);  T (3, h); T (8, c); T (17, y); T (1, x);  Lambda_apply y [((Iter 4), (Arg 3)); ((Iter 1), (Arg 4))]; T (2, f);  T (68, x)]"
65.85,29393918,2322062,"[V f; U (4, f); ULambda y; U (3, w); T (16, c); Hoist_vars [c]; T (1, x);  T (3, h); T (2, c);  Lambda_apply y [((Iter 4), (Arg 3)); ((Iter 1), (Arg 4))]; T (4, x);  T (17, y); T (2, f); T (68, x)]"
50.38,38101651,2330983,"[V f; U (4, f); ULambda y; U (3, w); T (2, c); Hoist_vars [c]; T (1, x);  T (3, h); T (16, c);  Lambda_apply y [((Iter 4), (Arg 3)); ((Iter 1), (Arg 4))]; T (4, x);  T (17, y); T (2, f); T (68, x)]"
70.23,30261315,2707176,"[V f; U (4, f); ULambda y; U (3, w); T (16, c); Hoist_vars [c]; T (1, x);  T (3, h); T (2, c); T (17, y); T (4, x);  Lambda_apply y [((Iter 4), (Arg 3)); ((Iter 1), (Arg 4))]; T (2, f);  T (68, x)]"
44.67,39594700,2343480,"[V f; U (4, f); ULambda y; U (3, w); T (1, c); Hoist_vars [c]; T (1, x);  T (3, h); T (32, c); T (17, y); T (2, x);  Lambda_apply y [((Iter 4), (Arg 3)); ((Iter 1), (Arg 4))]; T (2, f);  T (136, x)]"
