perf,CACHE_MISS_L1,CACHE_MISS_L2,scheme
26.42,8942270,4649681,"[V f; U (2, f); U (4, y); T (2, c); Hoist_vars [c]; T (56, x); T (3, w);  T (3, h); T (4, c); T (14, y); T (4, f); T (8, c); T (1, x)]"
24.99,8735567,5766939,"[V f; U (2, f); U (4, y); T (2, c); Hoist_vars [c]; T (56, x); T (3, w);  T (3, h); T (1, c); T (14, y); T (4, f); T (32, c); T (1, x)]"
55.31,2335600,895954,"[V f; U (2, f); U (4, y); T (4, c); Hoist_vars [c]; T (28, x); T (3, w);  T (3, h); T (4, c); T (14, y); T (4, f); T (4, c); T (2, x)]"
54.94,2340321,1314108,"[V f; U (2, f); U (4, y); T (4, c); Hoist_vars [c]; T (28, x); T (3, w);  T (3, h); T (2, c); T (14, y); T (4, f); T (8, c); T (2, x)]"
49.12,1371155,512261,"[V f; U (2, f); U (4, y); T (2, c); Hoist_vars [c]; T (14, x); T (3, w);  T (3, h); T (32, c); T (14, y); T (4, f); T (1, c); T (4, x)]"
29.48,2382425,546515,"[V f; U (2, f); U (4, y); T (1, c); Hoist_vars [c]; T (14, x); T (3, w);  T (3, h); T (32, c); T (14, y); T (4, f); T (2, c); T (4, x)]"
74.42,1038880,736576,"[V f; U (2, f); U (4, y); T (8, c); Hoist_vars [c]; T (14, x); T (3, w);  T (3, h); T (2, c); T (14, y); T (4, f); T (4, c); T (4, x)]"
47.75,1853614,1167270,"[V f; U (2, f); U (4, y); T (2, c); Hoist_vars [c]; T (14, x); T (3, w);  T (3, h); T (4, c); T (14, y); T (4, f); T (8, c); T (4, x)]"
81.30,663079,477145,"[V f; U (2, f); U (4, y); T (32, c); Hoist_vars [c]; T (8, x); T (3, w);  T (3, h); T (2, c); T (14, y); T (4, f); T (1, c); T (7, x)]"
73.37,522737,366680,"[V f; U (2, f); U (4, y); T (4, c); Hoist_vars [c]; T (8, x); T (3, w);  T (3, h); T (8, c); T (14, y); T (4, f); T (2, c); T (7, x)]"
73.64,681825,564339,"[V f; U (2, f); U (4, y); T (16, c); Hoist_vars [c]; T (7, x); T (3, w);  T (3, h); T (1, c); T (14, y); T (4, f); T (4, c); T (8, x)]"
76.42,612230,496623,"[V f; U (2, f); U (4, y); T (8, c); Hoist_vars [c]; T (7, x); T (3, w);  T (3, h); T (2, c); T (14, y); T (4, f); T (4, c); T (8, x)]"
69.16,727397,680496,"[V f; U (2, f); U (4, y); T (4, c); Hoist_vars [c]; T (7, x); T (3, w);  T (3, h); T (2, c); T (14, y); T (4, f); T (8, c); T (8, x)]"
77.06,827539,328457,"[V f; U (2, f); U (4, y); T (16, c); Hoist_vars [c]; T (4, x); T (3, w);  T (3, h); T (2, c); T (14, y); T (4, f); T (2, c); T (14, x)]"
72.54,1670031,394331,"[V f; U (2, f); U (4, y); T (8, c); Hoist_vars [c]; T (2, x); T (3, w);  T (3, h); T (8, c); T (14, y); T (4, f); T (1, c); T (28, x)]"
50.79,937221,252624,"[V f; U (2, f); U (4, y); T (2, c); Hoist_vars [c]; T (2, x); T (3, w);  T (3, h); T (8, c); T (14, y); T (4, f); T (4, c); T (28, x)]"
69.11,1208523,264747,"[V f; U (2, f); U (4, y); T (1, c); Hoist_vars [c]; T (2, x); T (3, w);  T (3, h); T (16, c); T (14, y); T (4, f); T (4, c); T (28, x)]"
75.74,2770400,337291,"[V f; U (2, f); U (4, y); T (1, c); Hoist_vars [c]; T (1, x); T (3, w);  T (3, h); T (32, c); T (14, y); T (4, f); T (2, c); T (56, x)]"
36.69,4553410,4999701,"[V f; U (1, f); U (8, y); U (3, h); T (4, c); Hoist_vars [c]; T (56, x);  T (3, w); T (16, c); T (1, x); T (7, y); T (8, f); T (1, x)]"
59.41,2493929,1231940,"[V f; U (1, f); U (8, y); U (3, h); T (8, c); Hoist_vars [c]; T (28, x);  T (3, w); T (8, c); T (2, x); T (7, y); T (8, f); T (1, x)]"
75.71,2222819,956413,"[V f; U (1, f); U (8, y); U (3, h); T (64, c); Hoist_vars [c]; T (7, x);  T (3, w); T (1, c); T (8, x); T (7, y); T (8, f); T (1, x)]"
58.09,918685,1093112,"[V f; U (1, f); U (8, y); U (3, h); T (2, c); Hoist_vars [c]; T (7, x);  T (3, w); T (32, c); T (8, x); T (7, y); T (8, f); T (1, x)]"
68.16,966915,1367518,"[V f; U (1, f); U (8, y); U (3, h); T (8, c); Hoist_vars [c]; T (4, x);  T (3, w); T (8, c); T (14, x); T (7, y); T (8, f); T (1, x)]"
73.63,2234669,1055965,"[V f; U (1, f); U (8, y); U (3, h); T (64, c); Hoist_vars [c]; T (1, x);  T (3, w); T (1, c); T (56, x); T (7, y); T (8, f); T (1, x)]"
45.51,2078833,1430917,"[V f; U (1, f); U (8, y); U (3, h); T (2, c); Hoist_vars [c]; T (1, x);  T (3, w); T (32, c); T (56, x); T (7, y); T (8, f); T (1, x)]"
57.84,2474419,1497011,"[V f; U (1, f); U (8, y); U (3, h); T (8, c); Hoist_vars [c]; T (28, x);  T (3, w); T (8, c); T (1, x); T (7, y); T (8, f); T (2, x)]"
23.65,10902145,2215556,"[V f; U (1, f); U (8, y); U (3, h); T (1, c); Hoist_vars [c]; T (28, x);  T (3, w); T (64, c); T (1, x); T (7, y); T (8, f); T (2, x)]"
36.67,5086070,1060889,"[V f; U (1, f); U (8, y); U (3, h); T (1, c); Hoist_vars [c]; T (14, x);  T (3, w); T (64, c); T (2, x); T (7, y); T (8, f); T (2, x)]"
51.21,699119,767760,"[V f; U (1, f); U (8, y); U (3, h); T (1, c); Hoist_vars [c]; T (4, x);  T (3, w); T (64, c); T (7, x); T (7, y); T (8, f); T (2, x)]"
60.28,1495510,1076032,"[V f; U (1, f); U (8, y); U (3, h); T (4, c); Hoist_vars [c]; T (2, x);  T (3, w); T (16, c); T (14, x); T (7, y); T (8, f); T (2, x)]"
76.15,2144193,809114,"[V f; U (1, f); U (8, y); U (3, h); T (64, c); Hoist_vars [c]; T (14, x);  T (3, w); T (1, c); T (1, x); T (7, y); T (8, f); T (4, x)]"
74.13,915169,791723,"[V f; U (1, f); U (8, y); U (3, h); T (16, c); Hoist_vars [c]; T (14, x);  T (3, w); T (4, c); T (1, x); T (7, y); T (8, f); T (4, x)]"
69.67,2230684,1795442,"[V f; U (1, f); U (8, y); U (3, h); T (64, c); Hoist_vars [c]; T (1, x);  T (3, w); T (1, c); T (14, x); T (7, y); T (8, f); T (4, x)]"
58.95,2324476,1988565,"[V f; U (1, f); U (8, y); U (3, h); T (8, c); Hoist_vars [c]; T (1, x);  T (3, w); T (8, c); T (14, x); T (7, y); T (8, f); T (4, x)]"
49.06,1547393,942342,"[V f; U (1, f); U (8, y); U (3, h); T (1, c); Hoist_vars [c]; T (8, x);  T (3, w); T (64, c); T (1, x); T (7, y); T (8, f); T (7, x)]"
65.17,2292458,2322227,"[V f; U (1, f); U (8, y); U (3, h); T (32, c); Hoist_vars [c]; T (1, x);  T (3, w); T (2, c); T (7, x); T (7, y); T (8, f); T (8, x)]"
42.95,1159861,770350,"[V f; U (1, f); U (8, y); U (3, h); T (2, c); Hoist_vars [c]; T (2, x);  T (3, w); T (32, c); T (2, x); T (7, y); T (8, f); T (14, x)]"
54.04,2384449,1664945,"[V f; U (1, f); U (8, y); U (3, h); T (4, c); Hoist_vars [c]; T (1, x);  T (3, w); T (16, c); T (4, x); T (7, y); T (8, f); T (14, x)]"
73.45,2192761,925912,"[V f; U (1, f); U (8, y); U (3, h); T (64, c); Hoist_vars [c]; T (2, x);  T (3, w); T (1, c); T (1, x); T (7, y); T (8, f); T (28, x)]"
75.67,1276098,762959,"[V f; U (1, f); U (8, y); U (3, h); T (32, c); Hoist_vars [c]; T (2, x);  T (3, w); T (2, c); T (1, x); T (7, y); T (8, f); T (28, x)]"
75.29,2330591,640873,"[V f; U (1, f); U (8, y); U (3, h); T (32, c); Hoist_vars [c]; T (1, x);  T (3, w); T (2, c); T (2, x); T (7, y); T (8, f); T (28, x)]"
61.60,2387890,1657586,"[V f; U (1, f); U (8, y); U (3, h); T (8, c); Hoist_vars [c]; T (1, x);  T (3, w); T (8, c); T (2, x); T (7, y); T (8, f); T (28, x)]"
72.17,2143951,892471,"[V f; U (1, f); U (8, y); U (3, h); T (32, c); Hoist_vars [c]; T (1, x);  T (3, w); T (2, c); T (1, x); T (7, y); T (8, f); T (56, x)]"
60.18,2149171,1501183,"[V f; U (1, f); U (8, y); U (3, h); T (8, c); Hoist_vars [c]; T (1, x);  T (3, w); T (8, c); T (1, x); T (7, y); T (8, f); T (56, x)]"
80.39,700536,571863,"[V f; U (2, f); U (4, y); U (3, h); T (32, c); Hoist_vars [c]; T (28, x);  T (3, w); T (2, c); T (14, y); T (4, f); T (2, x)]"
80.99,456021,465890,"[V f; U (2, f); U (4, y); U (3, h); T (32, c); Hoist_vars [c]; T (8, x);  T (3, w); T (2, c); T (14, y); T (4, f); T (7, x)]"
75.42,390919,389032,"[V f; U (2, f); U (4, y); U (3, h); T (2, c); Hoist_vars [c]; T (8, x);  T (3, w); T (32, c); T (14, y); T (4, f); T (7, x)]"
61.95,386154,515328,"[V f; U (2, f); U (4, y); U (3, h); T (1, c); Hoist_vars [c]; T (8, x);  T (3, w); T (64, c); T (14, y); T (4, f); T (7, x)]"
79.39,2001512,594670,"[V f; U (2, f); U (4, y); U (3, h); T (64, c); Hoist_vars [c]; T (7, x);  T (3, w); T (1, c); T (14, y); T (4, f); T (8, x)]"
54.21,1591864,1539153,"[V f; U (2, f); U (4, y); U (3, h); T (2, c); Hoist_vars [c]; T (2, x);  T (3, w); T (32, c); T (14, y); T (4, f); T (28, x)]"
49.70,1565619,1340261,"[V f; U (2, f); U (4, y); U (3, h); T (1, c); Hoist_vars [c]; T (2, x);  T (3, w); T (64, c); T (14, y); T (4, f); T (28, x)]"
74.58,2350746,616776,"[V f; U (2, f); U (4, y); U (3, h); T (16, c); Hoist_vars [c]; T (1, x);  T (3, w); T (4, c); T (14, y); T (4, f); T (56, x)]"
64.97,1373966,689462,"[V f; U (2, f); U (7, y); U (3, h); T (64, c); Hoist_vars [c]; T (56, x);  T (3, w); T (1, c); T (8, y); T (4, f); T (1, x)]"
64.22,543863,853719,"[V f; U (2, f); U (7, y); U (3, h); T (32, c); Hoist_vars [c]; T (56, x);  T (3, w); T (2, c); T (8, y); T (4, f); T (1, x)]"
52.88,1449167,2144552,"[V f; U (2, f); U (7, y); U (3, h); T (8, c); Hoist_vars [c]; T (56, x);  T (3, w); T (8, c); T (8, y); T (4, f); T (1, x)]"
54.28,1634178,582545,"[V f; U (2, f); U (7, y); U (3, h); T (4, c); Hoist_vars [c]; T (14, x);  T (3, w); T (16, c); T (8, y); T (4, f); T (4, x)]"
65.73,511509,495289,"[V f; U (2, f); U (7, y); U (3, h); T (16, c); Hoist_vars [c]; T (4, x);  T (3, w); T (4, c); T (8, y); T (4, f); T (14, x)]"
76.04,663725,597222,"[V f; U (2, f); U (4, y); U (3, w); T (16, c); Hoist_vars [c]; T (56, x);  T (3, h); T (4, c); T (14, y); T (4, f); T (1, x)]"
84.88,264565,341899,"[V f; U (2, f); U (4, y); U (3, w); T (32, c); Hoist_vars [c]; T (28, x);  T (3, h); T (2, c); T (14, y); T (4, f); T (2, x)]"
45.74,5043391,820704,"[V f; U (2, f); U (4, y); U (3, w); T (1, c); Hoist_vars [c]; T (28, x);  T (3, h); T (64, c); T (14, y); T (4, f); T (2, x)]"
84.33,343712,425063,"[V f; U (2, f); U (4, y); U (3, w); T (32, c); Hoist_vars [c]; T (14, x);  T (3, h); T (2, c); T (14, y); T (4, f); T (4, x)]"
73.48,463933,483916,"[V f; U (2, f); U (4, y); U (3, w); T (8, c); Hoist_vars [c]; T (8, x);  T (3, h); T (8, c); T (14, y); T (4, f); T (7, x)]"
72.56,684771,753960,"[V f; U (2, f); U (4, y); U (3, w); T (8, c); Hoist_vars [c]; T (7, x);  T (3, h); T (8, c); T (14, y); T (4, f); T (8, x)]"
62.83,456651,419669,"[V f; U (2, f); U (7, y); U (3, w); T (32, c); Hoist_vars [c]; T (28, x);  T (3, h); T (2, c); T (8, y); T (4, f); T (2, x)]"
35.59,2963356,1017028,"[V f; U (2, f); U (7, y); U (3, w); T (2, c); Hoist_vars [c]; T (28, x);  T (3, h); T (32, c); T (8, y); T (4, f); T (2, x)]"
57.36,949236,606342,"[V f; U (2, f); U (7, y); U (3, w); T (8, c); Hoist_vars [c]; T (14, x);  T (3, h); T (8, c); T (8, y); T (4, f); T (4, x)]"
39.98,2556484,723593,"[V f; U (2, f); U (7, y); U (3, w); T (1, c); Hoist_vars [c]; T (14, x);  T (3, h); T (64, c); T (8, y); T (4, f); T (4, x)]"
57.62,408874,441518,"[V f; U (2, f); U (7, y); U (3, w); T (8, c); Hoist_vars [c]; T (8, x);  T (3, h); T (8, c); T (8, y); T (4, f); T (7, x)]"
53.92,977479,517542,"[V f; U (2, f); U (7, y); U (3, w); T (4, c); Hoist_vars [c]; T (8, x);  T (3, h); T (16, c); T (8, y); T (4, f); T (7, x)]"
51.28,677166,370259,"[V f; U (2, f); U (7, y); U (3, w); T (4, c); Hoist_vars [c]; T (2, x);  T (3, h); T (16, c); T (8, y); T (4, f); T (28, x)]"
51.63,789886,802548,"[V f; U (4, f); U (4, y); U (3, w); T (8, c); Hoist_vars [c]; T (28, x);  T (3, h); T (2, f); T (2, x); T (14, y); T (8, c); T (1, x)]"
37.63,1079068,1732998,"[V f; U (4, f); U (4, y); U (3, w); T (2, c); Hoist_vars [c]; T (8, x);  T (3, h); T (2, f); T (7, x); T (14, y); T (32, c); T (1, x)]"
56.00,643247,312514,"[V f; U (4, f); U (4, y); U (3, w); T (32, c); Hoist_vars [c]; T (4, x);  T (3, h); T (2, f); T (14, x); T (14, y); T (2, c); T (1, x)]"
33.82,1732342,3004858,"[V f; U (4, f); U (4, y); U (3, w); T (1, c); Hoist_vars [c]; T (2, x);  T (3, h); T (2, f); T (28, x); T (14, y); T (64, c); T (1, x)]"
57.52,1676564,337840,"[V f; U (4, f); U (4, y); U (3, w); T (16, c); Hoist_vars [c]; T (1, x);  T (3, h); T (2, f); T (56, x); T (14, y); T (4, c); T (1, x)]"
58.15,2018084,513389,"[V f; U (4, f); U (4, y); U (3, w); T (64, c); Hoist_vars [c]; T (28, x);  T (3, h); T (2, f); T (1, x); T (14, y); T (1, c); T (2, x)]"
58.86,479978,359309,"[V f; U (4, f); U (4, y); U (3, w); T (16, c); Hoist_vars [c]; T (14, x);  T (3, h); T (2, f); T (2, x); T (14, y); T (4, c); T (2, x)]"
46.77,2017129,519370,"[V f; U (4, f); U (4, y); U (3, w); T (64, c); Hoist_vars [c]; T (7, x);  T (3, h); T (2, f); T (4, x); T (14, y); T (1, c); T (2, x)]"
46.44,1093253,920084,"[V f; U (4, f); U (4, y); U (3, w); T (4, c); Hoist_vars [c]; T (4, x);  T (3, h); T (2, f); T (7, x); T (14, y); T (16, c); T (2, x)]"
34.46,1768256,2510517,"[V f; U (4, f); U (4, y); U (3, w); T (1, c); Hoist_vars [c]; T (2, x);  T (3, h); T (2, f); T (14, x); T (14, y); T (64, c); T (2, x)]"
45.30,1819367,349123,"[V f; U (4, f); U (4, y); U (3, w); T (8, c); Hoist_vars [c]; T (1, x);  T (3, h); T (2, f); T (28, x); T (14, y); T (8, c); T (2, x)]"
57.84,2047416,298633,"[V f; U (4, f); U (4, y); U (3, w); T (64, c); Hoist_vars [c]; T (2, x);  T (3, h); T (2, f); T (7, x); T (14, y); T (1, c); T (4, x)]"
45.27,1996243,1549319,"[V f; U (4, f); U (4, y); U (3, w); T (64, c); Hoist_vars [c]; T (1, x);  T (3, h); T (2, f); T (14, x); T (14, y); T (1, c); T (4, x)]"
42.83,1521169,1544178,"[V f; U (4, f); U (4, y); U (3, w); T (1, c); Hoist_vars [c]; T (8, x);  T (3, h); T (2, f); T (1, x); T (14, y); T (64, c); T (7, x)]"
55.46,538510,209898,"[V f; U (4, f); U (4, y); U (3, w); T (16, c); Hoist_vars [c]; T (4, x);  T (3, h); T (2, f); T (2, x); T (14, y); T (4, c); T (7, x)]"
38.29,1010715,861316,"[V f; U (4, f); U (4, y); U (3, w); T (2, c); Hoist_vars [c]; T (4, x);  T (3, h); T (2, f); T (2, x); T (14, y); T (32, c); T (7, x)]"
45.32,1468541,642566,"[V f; U (4, f); U (4, y); U (3, w); T (4, c); Hoist_vars [c]; T (2, x);  T (3, h); T (2, f); T (4, x); T (14, y); T (16, c); T (7, x)]"
47.34,1788456,172421,"[V f; U (4, f); U (4, y); U (3, w); T (16, c); Hoist_vars [c]; T (1, x);  T (3, h); T (2, f); T (4, x); T (14, y); T (4, c); T (14, x)]"
36.36,2786304,514939,"[V f; U (4, f); U (4, y); U (3, w); T (1, c); Hoist_vars [c]; T (1, x);  T (3, h); T (2, f); T (4, x); T (14, y); T (64, c); T (14, x)]"
44.28,2453113,248715,"[V f; U (4, f); U (4, y); U (3, w); T (4, c); Hoist_vars [c]; T (1, x);  T (3, h); T (2, f); T (1, x); T (14, y); T (16, c); T (56, x)]"
63.78,748740,864865,"[V f; U (1, f); ULambda y; U (3, h); T (16, c); Hoist_vars [c]; T (28, x);  T (3, w); T (4, c); T (2, x);  Lambda_apply y [((Iter 5), (Arg 9)); ((Iter 1), (Arg 11))]; T (8, f);  T (1, x)]"
68.11,1101038,1055309,"[V f; U (1, f); ULambda y; U (3, h); T (32, c); Hoist_vars [c]; T (14, x);  T (3, w); T (2, c); T (4, x);  Lambda_apply y [((Iter 5), (Arg 9)); ((Iter 1), (Arg 11))]; T (8, f);  T (1, x)]"
70.53,1950524,899849,"[V f; U (1, f); ULambda y; U (3, h); T (64, c); Hoist_vars [c]; T (8, x);  T (3, w); T (1, c); T (7, x);  Lambda_apply y [((Iter 5), (Arg 9)); ((Iter 1), (Arg 11))]; T (8, f);  T (1, x)]"
64.80,1142795,990034,"[V f; U (1, f); ULambda y; U (3, h); T (8, c); Hoist_vars [c]; T (7, x);  T (3, w); T (8, c); T (8, x);  Lambda_apply y [((Iter 5), (Arg 9)); ((Iter 1), (Arg 11))]; T (8, f);  T (1, x)]"
67.15,1877859,1305579,"[V f; U (1, f); ULambda y; U (3, h); T (64, c); Hoist_vars [c]; T (4, x);  T (3, w); T (1, c); T (14, x);  Lambda_apply y [((Iter 5), (Arg 9)); ((Iter 1), (Arg 11))]; T (8, f);  T (1, x)]"
45.86,726936,1078922,"[V f; U (1, f); ULambda y; U (3, h); T (1, c); Hoist_vars [c]; T (4, x);  T (3, w); T (64, c); T (14, x);  Lambda_apply y [((Iter 5), (Arg 9)); ((Iter 1), (Arg 11))]; T (8, f);  T (1, x)]"
59.54,1045304,965108,"[V f; U (1, f); ULambda y; U (3, h); T (8, c); Hoist_vars [c]; T (2, x);  T (3, w); T (8, c); T (28, x);  Lambda_apply y [((Iter 5), (Arg 9)); ((Iter 1), (Arg 11))]; T (8, f);  T (1, x)]"
39.54,1844835,1602358,"[V f; U (1, f); ULambda y; U (3, h); T (1, c); Hoist_vars [c]; T (1, x);  T (3, w); T (64, c); T (14, x);  Lambda_apply y [((Iter 5), (Arg 9)); ((Iter 1), (Arg 11))]; T (8, f);  T (4, x)]"
46.98,1715080,904513,"[V f; U (1, f); ULambda y; U (3, h); T (2, c); Hoist_vars [c]; T (8, x);  T (3, w); T (32, c); T (1, x);  Lambda_apply y [((Iter 5), (Arg 9)); ((Iter 1), (Arg 11))]; T (8, f);  T (7, x)]"
71.42,1948996,769248,"[V f; U (1, f); ULambda y; U (3, h); T (64, c); Hoist_vars [c]; T (2, x);  T (3, w); T (1, c); T (4, x);  Lambda_apply y [((Iter 5), (Arg 9)); ((Iter 1), (Arg 11))]; T (8, f);  T (7, x)]"
62.31,2087066,1099400,"[V f; U (1, f); ULambda y; U (3, h); T (8, c); Hoist_vars [c]; T (1, x);  T (3, w); T (8, c); T (8, x);  Lambda_apply y [((Iter 5), (Arg 9)); ((Iter 1), (Arg 11))]; T (8, f);  T (7, x)]"
39.26,1832193,1898325,"[V f; U (1, f); ULambda y; U (3, h); T (1, c); Hoist_vars [c]; T (1, x);  T (3, w); T (64, c); T (8, x);  Lambda_apply y [((Iter 5), (Arg 9)); ((Iter 1), (Arg 11))]; T (8, f);  T (7, x)]"
69.97,1951656,906683,"[V f; U (1, f); ULambda y; U (3, h); T (64, c); Hoist_vars [c]; T (7, x);  T (3, w); T (1, c); T (1, x);  Lambda_apply y [((Iter 5), (Arg 9)); ((Iter 1), (Arg 11))]; T (8, f);  T (8, x)]"
69.03,869816,780701,"[V f; U (1, f); ULambda y; U (3, h); T (16, c); Hoist_vars [c]; T (7, x);  T (3, w); T (4, c); T (1, x);  Lambda_apply y [((Iter 5), (Arg 9)); ((Iter 1), (Arg 11))]; T (8, f);  T (8, x)]"
57.31,1016116,733479,"[V f; U (1, f); ULambda y; U (3, h); T (4, c); Hoist_vars [c]; T (7, x);  T (3, w); T (16, c); T (1, x);  Lambda_apply y [((Iter 5), (Arg 9)); ((Iter 1), (Arg 11))]; T (8, f);  T (8, x)]"
68.53,1164064,757159,"[V f; U (1, f); ULambda y; U (3, h); T (32, c); Hoist_vars [c]; T (4, x);  T (3, w); T (2, c); T (1, x);  Lambda_apply y [((Iter 5), (Arg 9)); ((Iter 1), (Arg 11))]; T (8, f);  T (14, x)]"
69.82,934597,711013,"[V f; U (1, f); ULambda y; U (3, h); T (16, c); Hoist_vars [c]; T (4, x);  T (3, w); T (4, c); T (1, x);  Lambda_apply y [((Iter 5), (Arg 9)); ((Iter 1), (Arg 11))]; T (8, f);  T (14, x)]"
52.28,1358270,1064646,"[V f; U (1, f); ULambda y; U (3, h); T (4, c); Hoist_vars [c]; T (2, x);  T (3, w); T (16, c); T (2, x);  Lambda_apply y [((Iter 5), (Arg 9)); ((Iter 1), (Arg 11))]; T (8, f);  T (14, x)]"
36.75,1042044,1055852,"[V f; U (1, f); ULambda y; U (3, h); T (2, c); Hoist_vars [c]; T (2, x);  T (3, w); T (32, c); T (2, x);  Lambda_apply y [((Iter 5), (Arg 9)); ((Iter 1), (Arg 11))]; T (8, f);  T (14, x)]"
40.40,1857660,1330574,"[V f; U (1, f); ULambda y; U (3, h); T (1, c); Hoist_vars [c]; T (1, x);  T (3, w); T (64, c); T (4, x);  Lambda_apply y [((Iter 5), (Arg 9)); ((Iter 1), (Arg 11))]; T (8, f);  T (14, x)]"
38.15,1080765,844287,"[V f; U (1, f); ULambda y; U (3, h); T (2, c); Hoist_vars [c]; T (2, x);  T (3, w); T (32, c); T (1, x);  Lambda_apply y [((Iter 5), (Arg 9)); ((Iter 1), (Arg 11))]; T (8, f);  T (28, x)]"
56.32,2087122,2489062,"[V f; U (1, f); ULambda y; U (3, h); T (16, c); Hoist_vars [c]; T (1, x);  T (3, w); T (4, c); T (2, x);  Lambda_apply y [((Iter 5), (Arg 9)); ((Iter 1), (Arg 11))]; T (8, f);  T (28, x)]"
62.94,1920139,1079238,"[V f; U (1, f); ULambda y; U (3, h); T (8, c); Hoist_vars [c]; T (1, x);  T (3, w); T (8, c); T (1, x);  Lambda_apply y [((Iter 5), (Arg 9)); ((Iter 1), (Arg 11))]; T (8, f);  T (56, x)]"
70.71,766474,920104,"[V f; U (1, f); ULambda y; U (3, h); T (32, c); Hoist_vars [c]; T (28, x);  T (3, w); T (2, c); T (2, x);  Lambda_apply y [((Iter 2), (Arg 10)); ((Iter 3), (Arg 12))]; T (8, f);  T (1, x)]"
72.65,1049164,939484,"[V f; U (1, f); ULambda y; U (3, h); T (32, c); Hoist_vars [c]; T (7, x);  T (3, w); T (2, c); T (8, x);  Lambda_apply y [((Iter 2), (Arg 10)); ((Iter 3), (Arg 12))]; T (8, f);  T (1, x)]"
49.80,1187625,1000256,"[V f; U (1, f); ULambda y; U (3, h); T (4, c); Hoist_vars [c]; T (7, x);  T (3, w); T (16, c); T (8, x);  Lambda_apply y [((Iter 2), (Arg 10)); ((Iter 3), (Arg 12))]; T (8, f);  T (1, x)]"
68.12,1710584,1237660,"[V f; U (1, f); ULambda y; U (3, h); T (32, c); Hoist_vars [c]; T (1, x);  T (3, w); T (2, c); T (56, x);  Lambda_apply y [((Iter 2), (Arg 10)); ((Iter 3), (Arg 12))]; T (8, f);  T (1, x)]"
72.83,1818700,925036,"[V f; U (1, f); ULambda y; U (3, h); T (64, c); Hoist_vars [c]; T (14, x);  T (3, w); T (1, c); T (2, x);  Lambda_apply y [((Iter 2), (Arg 10)); ((Iter 3), (Arg 12))]; T (8, f);  T (2, x)]"
72.18,1032632,1088688,"[V f; U (1, f); ULambda y; U (3, h); T (32, c); Hoist_vars [c]; T (7, x);  T (3, w); T (2, c); T (4, x);  Lambda_apply y [((Iter 2), (Arg 10)); ((Iter 3), (Arg 12))]; T (8, f);  T (2, x)]"
71.77,692277,777702,"[V f; U (1, f); ULambda y; U (3, h); T (16, c); Hoist_vars [c]; T (4, x);  T (3, w); T (4, c); T (7, x);  Lambda_apply y [((Iter 2), (Arg 10)); ((Iter 3), (Arg 12))]; T (8, f);  T (2, x)]"
62.68,1573217,1526375,"[V f; U (1, f); ULambda y; U (3, h); T (64, c); Hoist_vars [c]; T (1, x);  T (3, w); T (1, c); T (28, x);  Lambda_apply y [((Iter 2), (Arg 10)); ((Iter 3), (Arg 12))]; T (8, f);  T (2, x)]"
65.78,1720726,1687833,"[V f; U (1, f); ULambda y; U (3, h); T (32, c); Hoist_vars [c]; T (1, x);  T (3, w); T (2, c); T (28, x);  Lambda_apply y [((Iter 2), (Arg 10)); ((Iter 3), (Arg 12))]; T (8, f);  T (2, x)]"
46.30,1562225,1103438,"[V f; U (1, f); ULambda y; U (3, h); T (2, c); Hoist_vars [c]; T (1, x);  T (3, w); T (32, c); T (28, x);  Lambda_apply y [((Iter 2), (Arg 10)); ((Iter 3), (Arg 12))]; T (8, f);  T (2, x)]"
58.89,1317427,1033320,"[V f; U (1, f); ULambda y; U (3, h); T (8, c); Hoist_vars [c]; T (7, x);  T (3, w); T (8, c); T (2, x);  Lambda_apply y [((Iter 2), (Arg 10)); ((Iter 3), (Arg 12))]; T (8, f);  T (4, x)]"
71.20,880507,879496,"[V f; U (1, f); ULambda y; U (3, h); T (16, c); Hoist_vars [c]; T (8, x);  T (3, w); T (4, c); T (1, x);  Lambda_apply y [((Iter 2), (Arg 10)); ((Iter 3), (Arg 12))]; T (8, f);  T (7, x)]"
49.24,2375104,961328,"[V f; U (1, f); ULambda y; U (3, h); T (4, c); Hoist_vars [c]; T (8, x);  T (3, w); T (16, c); T (1, x);  Lambda_apply y [((Iter 2), (Arg 10)); ((Iter 3), (Arg 12))]; T (8, f);  T (7, x)]"
71.26,887225,804887,"[V f; U (1, f); ULambda y; U (3, h); T (32, c); Hoist_vars [c]; T (4, x);  T (3, w); T (2, c); T (2, x);  Lambda_apply y [((Iter 2), (Arg 10)); ((Iter 3), (Arg 12))]; T (8, f);  T (7, x)]"
48.91,1560447,1098271,"[V f; U (1, f); ULambda y; U (3, h); T (4, c); Hoist_vars [c]; T (1, x);  T (3, w); T (16, c); T (7, x);  Lambda_apply y [((Iter 2), (Arg 10)); ((Iter 3), (Arg 12))]; T (8, f);  T (8, x)]"
72.01,896190,882174,"[V f; U (1, f); ULambda y; U (3, h); T (16, c); Hoist_vars [c]; T (4, x);  T (3, w); T (4, c); T (1, x);  Lambda_apply y [((Iter 2), (Arg 10)); ((Iter 3), (Arg 12))]; T (8, f);  T (14, x)]"
13.95,10507606,15530592,"[V f; U (1, f); ULambda y; U (3, h); T (1, c); Hoist_vars [c]; T (56, x);  T (3, w); T (64, c); T (1, x);  Lambda_apply y [((Iter 3), (Arg 10)); ((Iter 2), (Arg 13))]; T (8, f);  T (1, x)]"
34.07,4804394,1333348,"[V f; U (1, f); ULambda y; U (3, h); T (2, c); Hoist_vars [c]; T (14, x);  T (3, w); T (32, c); T (4, x);  Lambda_apply y [((Iter 3), (Arg 10)); ((Iter 2), (Arg 13))]; T (8, f);  T (1, x)]"
70.13,780192,875868,"[V f; U (1, f); ULambda y; U (3, h); T (32, c); Hoist_vars [c]; T (7, x);  T (3, w); T (2, c); T (8, x);  Lambda_apply y [((Iter 3), (Arg 10)); ((Iter 2), (Arg 13))]; T (8, f);  T (1, x)]"
49.58,822370,1120055,"[V f; U (1, f); ULambda y; U (3, h); T (4, c); Hoist_vars [c]; T (4, x);  T (3, w); T (16, c); T (14, x);  Lambda_apply y [((Iter 3), (Arg 10)); ((Iter 2), (Arg 13))]; T (8, f);  T (1, x)]"
42.94,905268,1145601,"[V f; U (1, f); ULambda y; U (3, h); T (1, c); Hoist_vars [c]; T (4, x);  T (3, w); T (64, c); T (14, x);  Lambda_apply y [((Iter 3), (Arg 10)); ((Iter 2), (Arg 13))]; T (8, f);  T (1, x)]"
51.82,1784334,2191402,"[V f; U (1, f); ULambda y; U (3, h); T (8, c); Hoist_vars [c]; T (1, x);  T (3, w); T (8, c); T (56, x);  Lambda_apply y [((Iter 3), (Arg 10)); ((Iter 2), (Arg 13))]; T (8, f);  T (1, x)]"
28.77,5433211,2992778,"[V f; U (1, f); ULambda y; U (3, h); T (2, c); Hoist_vars [c]; T (28, x);  T (3, w); T (32, c); T (1, x);  Lambda_apply y [((Iter 3), (Arg 10)); ((Iter 2), (Arg 13))]; T (8, f);  T (2, x)]"
28.15,9027755,1372718,"[V f; U (1, f); ULambda y; U (3, h); T (1, c); Hoist_vars [c]; T (14, x);  T (3, w); T (64, c); T (2, x);  Lambda_apply y [((Iter 3), (Arg 10)); ((Iter 2), (Arg 13))]; T (8, f);  T (2, x)]"
56.01,1771850,1310032,"[V f; U (1, f); ULambda y; U (3, h); T (8, c); Hoist_vars [c]; T (1, x);  T (3, w); T (8, c); T (28, x);  Lambda_apply y [((Iter 3), (Arg 10)); ((Iter 2), (Arg 13))]; T (8, f);  T (2, x)]"
28.20,9058969,1198913,"[V f; U (1, f); ULambda y; U (3, h); T (1, c); Hoist_vars [c]; T (14, x);  T (3, w); T (64, c); T (1, x);  Lambda_apply y [((Iter 3), (Arg 10)); ((Iter 2), (Arg 13))]; T (8, f);  T (4, x)]"
70.05,876720,710144,"[V f; U (1, f); ULambda y; U (3, h); T (16, c); Hoist_vars [c]; T (8, x);  T (3, w); T (4, c); T (1, x);  Lambda_apply y [((Iter 3), (Arg 10)); ((Iter 2), (Arg 13))]; T (8, f);  T (7, x)]"
38.21,2409346,854790,"[V f; U (1, f); ULambda y; U (3, h); T (2, c); Hoist_vars [c]; T (8, x);  T (3, w); T (32, c); T (1, x);  Lambda_apply y [((Iter 3), (Arg 10)); ((Iter 2), (Arg 13))]; T (8, f);  T (7, x)]"
39.62,2008855,811724,"[V f; U (1, f); ULambda y; U (3, h); T (2, c); Hoist_vars [c]; T (7, x);  T (3, w); T (32, c); T (1, x);  Lambda_apply y [((Iter 3), (Arg 10)); ((Iter 2), (Arg 13))]; T (8, f);  T (8, x)]"
57.13,1586438,2375775,"[V f; U (1, f); ULambda y; U (3, h); T (64, c); Hoist_vars [c]; T (1, x);  T (3, w); T (1, c); T (7, x);  Lambda_apply y [((Iter 3), (Arg 10)); ((Iter 2), (Arg 13))]; T (8, f);  T (8, x)]"
71.68,1145353,848714,"[V f; U (1, f); ULambda y; U (3, h); T (32, c); Hoist_vars [c]; T (4, x);  T (3, w); T (2, c); T (1, x);  Lambda_apply y [((Iter 3), (Arg 10)); ((Iter 2), (Arg 13))]; T (8, f);  T (14, x)]"
66.21,1640054,1030542,"[V f; U (1, f); ULambda y; U (3, h); T (64, c); Hoist_vars [c]; T (1, x);  T (3, w); T (1, c); T (2, x);  Lambda_apply y [((Iter 3), (Arg 10)); ((Iter 2), (Arg 13))]; T (8, f);  T (28, x)]"
44.10,2027400,1246287,"[V f; U (1, f); ULambda y; U (3, h); T (2, c); Hoist_vars [c]; T (1, x);  T (3, w); T (32, c); T (1, x);  Lambda_apply y [((Iter 3), (Arg 10)); ((Iter 2), (Arg 13))]; T (8, f);  T (56, x)]"
21.80,10508259,3602713,"[V f; U (1, f); ULambda y; U (3, h); T (1, c); Hoist_vars [c]; T (28, x);  T (3, w); T (64, c); T (2, x);  Lambda_apply y [((Iter 4), (Arg 11)); ((Iter 1), (Arg 12))]; T (8, f);  T (1, x)]"
70.08,1008745,777980,"[V f; U (1, f); ULambda y; U (3, h); T (32, c); Hoist_vars [c]; T (2, x);  T (3, w); T (2, c); T (28, x);  Lambda_apply y [((Iter 4), (Arg 11)); ((Iter 1), (Arg 12))]; T (8, f);  T (1, x)]"
73.94,1651957,913623,"[V f; U (1, f); ULambda y; U (3, h); T (64, c); Hoist_vars [c]; T (1, x);  T (3, w); T (1, c); T (56, x);  Lambda_apply y [((Iter 4), (Arg 11)); ((Iter 1), (Arg 12))]; T (8, f);  T (1, x)]"
46.14,1557004,1576022,"[V f; U (1, f); ULambda y; U (3, h); T (2, c); Hoist_vars [c]; T (1, x);  T (3, w); T (32, c); T (56, x);  Lambda_apply y [((Iter 4), (Arg 11)); ((Iter 1), (Arg 12))]; T (8, f);  T (1, x)]"
53.55,1372658,1109538,"[V f; U (1, f); ULambda y; U (3, h); T (8, c); Hoist_vars [c]; T (28, x);  T (3, w); T (8, c); T (1, x);  Lambda_apply y [((Iter 4), (Arg 11)); ((Iter 1), (Arg 12))]; T (8, f);  T (2, x)]"
71.05,1216459,1003089,"[V f; U (1, f); ULambda y; U (3, h); T (32, c); Hoist_vars [c]; T (14, x);  T (3, w); T (2, c); T (2, x);  Lambda_apply y [((Iter 4), (Arg 11)); ((Iter 1), (Arg 12))]; T (8, f);  T (2, x)]"
61.62,1263392,958350,"[V f; U (1, f); ULambda y; U (3, h); T (8, c); Hoist_vars [c]; T (7, x);  T (3, w); T (8, c); T (4, x);  Lambda_apply y [((Iter 4), (Arg 11)); ((Iter 1), (Arg 12))]; T (8, f);  T (2, x)]"
53.88,1243961,1039127,"[V f; U (1, f); ULambda y; U (3, h); T (4, c); Hoist_vars [c]; T (4, x);  T (3, w); T (16, c); T (7, x);  Lambda_apply y [((Iter 4), (Arg 11)); ((Iter 1), (Arg 12))]; T (8, f);  T (2, x)]"
34.54,908431,1081283,"[V f; U (1, f); ULambda y; U (3, h); T (2, c); Hoist_vars [c]; T (2, x);  T (3, w); T (32, c); T (14, x);  Lambda_apply y [((Iter 4), (Arg 11)); ((Iter 1), (Arg 12))]; T (8, f);  T (2, x)]"
60.05,1569927,744104,"[V f; U (1, f); ULambda y; U (3, h); T (8, c); Hoist_vars [c]; T (1, x);  T (3, w); T (8, c); T (28, x);  Lambda_apply y [((Iter 4), (Arg 11)); ((Iter 1), (Arg 12))]; T (8, f);  T (2, x)]"
73.91,1839882,869074,"[V f; U (1, f); ULambda y; U (3, h); T (64, c); Hoist_vars [c]; T (14, x);  T (3, w); T (1, c); T (1, x);  Lambda_apply y [((Iter 4), (Arg 11)); ((Iter 1), (Arg 12))]; T (8, f);  T (4, x)]"
61.31,1266474,861723,"[V f; U (1, f); ULambda y; U (3, h); T (8, c); Hoist_vars [c]; T (7, x);  T (3, w); T (8, c); T (2, x);  Lambda_apply y [((Iter 4), (Arg 11)); ((Iter 1), (Arg 12))]; T (8, f);  T (4, x)]"
40.30,2523998,1001419,"[V f; U (1, f); ULambda y; U (3, h); T (1, c); Hoist_vars [c]; T (7, x);  T (3, w); T (64, c); T (2, x);  Lambda_apply y [((Iter 4), (Arg 11)); ((Iter 1), (Arg 12))]; T (8, f);  T (4, x)]"
70.71,915075,842313,"[V f; U (1, f); ULambda y; U (3, h); T (16, c); Hoist_vars [c]; T (4, x);  T (3, w); T (4, c); T (2, x);  Lambda_apply y [((Iter 4), (Arg 11)); ((Iter 1), (Arg 12))]; T (8, f);  T (7, x)]"
48.54,1575178,1136585,"[V f; U (1, f); ULambda y; U (3, h); T (2, c); Hoist_vars [c]; T (1, x);  T (3, w); T (32, c); T (8, x);  Lambda_apply y [((Iter 4), (Arg 11)); ((Iter 1), (Arg 12))]; T (8, f);  T (7, x)]"
40.78,940807,675215,"[V f; U (1, f); ULambda y; U (3, h); T (2, c); Hoist_vars [c]; T (4, x);  T (3, w); T (32, c); T (1, x);  Lambda_apply y [((Iter 4), (Arg 11)); ((Iter 1), (Arg 12))]; T (8, f);  T (14, x)]"
46.77,905574,771761,"[V f; U (1, f); ULambda y; U (3, h); T (1, c); Hoist_vars [c]; T (4, x);  T (3, w); T (64, c); T (1, x);  Lambda_apply y [((Iter 4), (Arg 11)); ((Iter 1), (Arg 12))]; T (8, f);  T (14, x)]"
71.05,1271283,812979,"[V f; U (1, f); ULambda y; U (3, h); T (32, c); Hoist_vars [c]; T (2, x);  T (3, w); T (2, c); T (2, x);  Lambda_apply y [((Iter 4), (Arg 11)); ((Iter 1), (Arg 12))]; T (8, f);  T (14, x)]"
63.56,1804048,1481214,"[V f; U (1, f); ULambda y; U (3, h); T (16, c); Hoist_vars [c]; T (1, x);  T (3, w); T (4, c); T (2, x);  Lambda_apply y [((Iter 4), (Arg 11)); ((Iter 1), (Arg 12))]; T (8, f);  T (28, x)]"
70.52,583686,798148,"[V f; U (2, f); ULambda y; U (3, h); T (32, c); Hoist_vars [c]; T (56, x);  T (3, w); T (2, c);  Lambda_apply y [((Iter 7), (Arg 4)); ((Iter 4), (Arg 7))]; T (4, f);  T (1, x)]"
53.62,508533,510311,"[V f; U (2, f); ULambda y; U (3, h); T (1, c); Hoist_vars [c]; T (7, x);  T (3, w); T (64, c);  Lambda_apply y [((Iter 7), (Arg 4)); ((Iter 4), (Arg 7))]; T (4, f);  T (8, x)]"
63.17,771003,626155,"[V f; U (2, f); ULambda y; U (3, h); T (4, c); Hoist_vars [c]; T (4, x);  T (3, w); T (16, c);  Lambda_apply y [((Iter 7), (Arg 4)); ((Iter 4), (Arg 7))]; T (4, f);  T (14, x)]"
57.82,482359,577767,"[V f; U (2, f); ULambda y; U (3, h); T (2, c); Hoist_vars [c]; T (4, x);  T (3, w); T (32, c);  Lambda_apply y [((Iter 7), (Arg 4)); ((Iter 4), (Arg 7))]; T (4, f);  T (14, x)]"
68.10,1791546,928998,"[V f; U (2, f); ULambda y; U (3, h); T (64, c); Hoist_vars [c]; T (1, x);  T (3, w); T (1, c);  Lambda_apply y [((Iter 7), (Arg 4)); ((Iter 4), (Arg 7))]; T (4, f);  T (56, x)]"
65.19,752373,480915,"[V f; U (2, f); ULambda y; U (3, h); T (8, c); Hoist_vars [c]; T (28, x);  T (3, w); T (8, c);  Lambda_apply y [((Iter 7), (Arg 5)); ((Iter 3), (Arg 7))]; T (4, f);  T (2, x)]"
73.93,569165,512975,"[V f; U (2, f); ULambda y; U (3, h); T (16, c); Hoist_vars [c]; T (14, x);  T (3, w); T (4, c);  Lambda_apply y [((Iter 7), (Arg 5)); ((Iter 3), (Arg 7))]; T (4, f);  T (4, x)]"
71.68,655376,571119,"[V f; U (2, f); ULambda y; U (3, h); T (8, c); Hoist_vars [c]; T (8, x);  T (3, w); T (8, c);  Lambda_apply y [((Iter 7), (Arg 5)); ((Iter 3), (Arg 7))]; T (4, f);  T (7, x)]"
71.36,434288,541600,"[V f; U (2, f); ULambda y; U (3, h); T (32, c); Hoist_vars [c]; T (7, x);  T (3, w); T (2, c);  Lambda_apply y [((Iter 7), (Arg 5)); ((Iter 3), (Arg 7))]; T (4, f);  T (8, x)]"
69.17,1485976,810553,"[V f; U (2, f); ULambda y; U (3, h); T (64, c); Hoist_vars [c]; T (4, x);  T (3, w); T (1, c);  Lambda_apply y [((Iter 7), (Arg 5)); ((Iter 3), (Arg 7))]; T (4, f);  T (14, x)]"
68.80,466689,801385,"[V f; U (2, f); ULambda y; U (3, h); T (16, c); Hoist_vars [c]; T (4, x);  T (3, w); T (4, c);  Lambda_apply y [((Iter 7), (Arg 5)); ((Iter 3), (Arg 7))]; T (4, f);  T (14, x)]"
53.91,617486,514827,"[V f; U (2, f); ULambda y; U (3, h); T (1, c); Hoist_vars [c]; T (4, x);  T (3, w); T (64, c);  Lambda_apply y [((Iter 7), (Arg 5)); ((Iter 3), (Arg 7))]; T (4, f);  T (14, x)]"
68.15,1034284,715074,"[V f; U (2, f); ULambda y; U (3, h); T (8, c); Hoist_vars [c]; T (2, x);  T (3, w); T (8, c);  Lambda_apply y [((Iter 7), (Arg 5)); ((Iter 3), (Arg 7))]; T (4, f);  T (28, x)]"
46.44,2839700,2561221,"[V f; U (2, f); ULambda y; U (3, h); T (4, c); Hoist_vars [c]; T (56, x);  T (3, w); T (16, c);  Lambda_apply y [((Iter 7), (Arg 6)); ((Iter 2), (Arg 7))]; T (4, f);  T (1, x)]"
62.07,1500508,799058,"[V f; U (2, f); ULambda y; U (3, h); T (8, c); Hoist_vars [c]; T (28, x);  T (3, w); T (8, c);  Lambda_apply y [((Iter 7), (Arg 6)); ((Iter 2), (Arg 7))]; T (4, f);  T (2, x)]"
62.60,585111,657991,"[V f; U (2, f); ULambda y; U (3, h); T (2, c); Hoist_vars [c]; T (7, x);  T (3, w); T (32, c);  Lambda_apply y [((Iter 7), (Arg 6)); ((Iter 2), (Arg 7))]; T (4, f);  T (8, x)]"
52.03,485400,485138,"[V f; U (2, f); ULambda y; U (3, h); T (1, c); Hoist_vars [c]; T (7, x);  T (3, w); T (64, c);  Lambda_apply y [((Iter 7), (Arg 6)); ((Iter 2), (Arg 7))]; T (4, f);  T (8, x)]"
58.52,595241,593628,"[V f; U (2, f); ULambda y; U (3, h); T (2, c); Hoist_vars [c]; T (4, x);  T (3, w); T (32, c);  Lambda_apply y [((Iter 7), (Arg 6)); ((Iter 2), (Arg 7))]; T (4, f);  T (14, x)]"
54.62,1016127,1084660,"[V f; U (2, f); ULambda y; U (3, h); T (4, c); Hoist_vars [c]; T (2, x);  T (3, w); T (16, c);  Lambda_apply y [((Iter 7), (Arg 6)); ((Iter 2), (Arg 7))]; T (4, f);  T (28, x)]"
50.24,974328,532774,"[V f; U (2, f); ULambda y; U (3, h); T (2, c); Hoist_vars [c]; T (2, x);  T (3, w); T (32, c);  Lambda_apply y [((Iter 7), (Arg 6)); ((Iter 2), (Arg 7))]; T (4, f);  T (28, x)]"
58.67,1764232,863599,"[V f; U (2, f); ULambda y; U (3, h); T (4, c); Hoist_vars [c]; T (1, x);  T (3, w); T (16, c);  Lambda_apply y [((Iter 7), (Arg 6)); ((Iter 2), (Arg 7))]; T (4, f);  T (56, x)]"
72.76,699552,525050,"[V f; U (2, f); ULambda y; U (3, w); T (32, c); Hoist_vars [c]; T (8, x);  T (3, h); T (2, c);  Lambda_apply y [((Iter 7), (Arg 4)); ((Iter 4), (Arg 7))]; T (4, f);  T (7, x)]"
49.84,740652,603198,"[V f; U (2, f); ULambda y; U (3, w); T (1, c); Hoist_vars [c]; T (8, x);  T (3, h); T (64, c);  Lambda_apply y [((Iter 7), (Arg 4)); ((Iter 4), (Arg 7))]; T (4, f);  T (7, x)]"
63.29,706804,998770,"[V f; U (2, f); ULambda y; U (3, w); T (8, c); Hoist_vars [c]; T (4, x);  T (3, h); T (8, c);  Lambda_apply y [((Iter 7), (Arg 4)); ((Iter 4), (Arg 7))]; T (4, f);  T (14, x)]"
44.78,1656308,455318,"[V f; U (2, f); ULambda y; U (3, w); T (1, c); Hoist_vars [c]; T (1, x);  T (3, h); T (64, c);  Lambda_apply y [((Iter 7), (Arg 4)); ((Iter 4), (Arg 7))]; T (4, f);  T (56, x)]"
73.47,1606383,837481,"[V f; U (2, f); ULambda y; U (3, w); T (64, c); Hoist_vars [c]; T (56, x);  T (3, h); T (1, c);  Lambda_apply y [((Iter 7), (Arg 5)); ((Iter 3), (Arg 7))]; T (4, f);  T (1, x)]"
68.36,674073,887201,"[V f; U (2, f); ULambda y; U (3, w); T (16, c); Hoist_vars [c]; T (56, x);  T (3, h); T (4, c);  Lambda_apply y [((Iter 7), (Arg 5)); ((Iter 3), (Arg 7))]; T (4, f);  T (1, x)]"
60.05,1283192,1349298,"[V f; U (2, f); ULambda y; U (3, w); T (8, c); Hoist_vars [c]; T (56, x);  T (3, h); T (8, c);  Lambda_apply y [((Iter 7), (Arg 5)); ((Iter 3), (Arg 7))]; T (4, f);  T (1, x)]"
71.46,1598471,612997,"[V f; U (2, f); ULambda y; U (3, w); T (64, c); Hoist_vars [c]; T (28, x);  T (3, h); T (1, c);  Lambda_apply y [((Iter 7), (Arg 5)); ((Iter 3), (Arg 7))]; T (4, f);  T (2, x)]"
59.10,469518,470694,"[V f; U (2, f); ULambda y; U (3, w); T (4, c); Hoist_vars [c]; T (8, x);  T (3, h); T (16, c);  Lambda_apply y [((Iter 7), (Arg 5)); ((Iter 3), (Arg 7))]; T (4, f);  T (7, x)]"
55.21,483653,742971,"[V f; U (2, f); ULambda y; U (3, w); T (4, c); Hoist_vars [c]; T (4, x);  T (3, h); T (16, c);  Lambda_apply y [((Iter 7), (Arg 5)); ((Iter 3), (Arg 7))]; T (4, f);  T (14, x)]"
56.51,1102805,440144,"[V f; U (2, f); ULambda y; U (3, w); T (4, c); Hoist_vars [c]; T (2, x);  T (3, h); T (16, c);  Lambda_apply y [((Iter 7), (Arg 5)); ((Iter 3), (Arg 7))]; T (4, f);  T (28, x)]"
77.19,690175,546749,"[V f; U (2, f); ULambda y; U (3, w); T (32, c); Hoist_vars [c]; T (14, x);  T (3, h); T (2, c);  Lambda_apply y [((Iter 7), (Arg 6)); ((Iter 2), (Arg 7))]; T (4, f);  T (4, x)]"
59.62,426047,474023,"[V f; U (2, f); ULambda y; U (3, w); T (4, c); Hoist_vars [c]; T (7, x);  T (3, h); T (16, c);  Lambda_apply y [((Iter 7), (Arg 6)); ((Iter 2), (Arg 7))]; T (4, f);  T (8, x)]"
72.65,1526818,874327,"[V f; U (2, f); ULambda y; U (3, w); T (16, c); Hoist_vars [c]; T (1, x);  T (3, h); T (4, c);  Lambda_apply y [((Iter 7), (Arg 6)); ((Iter 2), (Arg 7))]; T (4, f);  T (56, x)]"
