[Task Yolo9000_18] Current/Best:    0.00/   0.00 GFLOPS | Progress: (0/1320) | 0.00 s
[Task Yolo9000_18] Current/Best:   16.81/1186.52 GFLOPS | Progress: (64/1320) | 145.58 s
[Task Yolo9000_18] Current/Best:   31.67/1401.69 GFLOPS | Progress: (128/1320) | 262.24 s
[Task Yolo9000_18] Current/Best:  133.05/1417.51 GFLOPS | Progress: (192/1320) | 379.07 s
[Task Yolo9000_18] Current/Best:  201.69/1463.77 GFLOPS | Progress: (256/1320) | 502.59 s
[Task Yolo9000_18] Current/Best:  715.22/1463.77 GFLOPS | Progress: (320/1320) | 647.64 s
[Task Yolo9000_18] Current/Best:  224.62/1463.77 GFLOPS | Progress: (384/1320) | 773.35 s
[Task Yolo9000_18] Current/Best:  482.68/1463.77 GFLOPS | Progress: (448/1320) | 913.97 s
[Task Yolo9000_18] Current/Best:   56.75/1463.77 GFLOPS | Progress: (512/1320) | 1060.29 s
[Task Yolo9000_18] Current/Best:  151.47/1463.77 GFLOPS | Progress: (576/1320) | 1205.97 s
[Task Yolo9000_18] Current/Best:  433.42/1463.77 GFLOPS | Progress: (640/1320) | 1352.20 s
[Task Yolo9000_18] Current/Best:  302.29/1463.77 GFLOPS | Progress: (704/1320) | 1502.34 s
[Task Yolo9000_18] Current/Best:  171.32/1463.77 GFLOPS | Progress: (768/1320) | 1652.52 s
[Task Yolo9000_18] Current/Best:  205.84/1463.77 GFLOPS | Progress: (832/1320) | 1802.54 s
[Task Yolo9000_18] Current/Best:   90.39/1463.77 GFLOPS | Progress: (896/1320) | 1950.99 s
[Task Yolo9000_18] Current/Best:  320.60/1463.77 GFLOPS | Progress: (960/1320) | 2100.30 s
[Task Yolo9000_18] Current/Best:  279.71/1463.77 GFLOPS | Progress: (1024/1320) | 2262.29 s
[Task Yolo9000_18] Current/Best:  112.67/1463.77 GFLOPS | Progress: (1088/1320) | 2415.25 s
[Task Yolo9000_18] Current/Best:  137.01/1463.77 GFLOPS | Progress: (1152/1320) | 2568.13 s
[Task Yolo9000_18] Current/Best:   91.02/1463.77 GFLOPS | Progress: (1216/1320) | 2723.08 s
[Task Yolo9000_18] Current/Best:   48.18/1463.77 GFLOPS | Progress: (1280/1320) | 2877.84 s
[Task Yolo9000_18] Current/Best:   66.96/1463.77 GFLOPS | Progress: (1320/1320) | 2977.21 s
 Done.
[Task Yolo9000_19] Current/Best:    0.00/   0.00 GFLOPS | Progress: (0/1320) | 0.00 s
[Task Yolo9000_19] Current/Best:  323.18/ 811.44 GFLOPS | Progress: (64/1320) | 47.83 s
[Task Yolo9000_19] Current/Best:  415.29/ 978.30 GFLOPS | Progress: (128/1320) | 90.94 s
[Task Yolo9000_19] Current/Best:   61.99/1056.49 GFLOPS | Progress: (192/1320) | 133.24 s
[Task Yolo9000_19] Current/Best:  255.74/1056.49 GFLOPS | Progress: (256/1320) | 176.37 s
[Task Yolo9000_19] Current/Best:  293.15/1056.49 GFLOPS | Progress: (320/1320) | 219.77 s
[Task Yolo9000_19] Current/Best:   77.51/1056.49 GFLOPS | Progress: (384/1320) | 266.23 s
[Task Yolo9000_19] Current/Best:   39.71/1056.49 GFLOPS | Progress: (448/1320) | 313.06 s
[Task Yolo9000_19] Current/Best:  118.24/1056.49 GFLOPS | Progress: (512/1320) | 358.17 s
[Task Yolo9000_19] Current/Best:  128.25/1056.49 GFLOPS | Progress: (576/1320) | 405.47 s
[Task Yolo9000_19] Current/Best:  252.92/1056.49 GFLOPS | Progress: (640/1320) | 453.78 s
[Task Yolo9000_19] Current/Best:  155.78/1056.49 GFLOPS | Progress: (704/1320) | 502.51 s
[Task Yolo9000_19] Current/Best:  103.35/1056.49 GFLOPS | Progress: (768/1320) | 552.36 s
[Task Yolo9000_19] Current/Best:  135.80/1056.49 GFLOPS | Progress: (832/1320) | 599.54 s
[Task Yolo9000_19] Current/Best:  169.49/1056.49 GFLOPS | Progress: (896/1320) | 648.17 s
[Task Yolo9000_19] Current/Best:  172.68/1056.49 GFLOPS | Progress: (960/1320) | 696.41 s
[Task Yolo9000_19] Current/Best:   97.93/1056.49 GFLOPS | Progress: (1024/1320) | 744.11 s
[Task Yolo9000_19] Current/Best:  134.94/1056.49 GFLOPS | Progress: (1088/1320) | 789.54 s
[Task Yolo9000_19] Current/Best:   96.78/1056.49 GFLOPS | Progress: (1152/1320) | 839.85 s
[Task Yolo9000_19] Current/Best:   33.04/1056.49 GFLOPS | Progress: (1216/1320) | 888.75 s
[Task Yolo9000_19] Current/Best:   66.31/1056.49 GFLOPS | Progress: (1280/1320) | 938.77 s
[Task Yolo9000_19] Current/Best:  156.23/1056.49 GFLOPS | Progress: (1320/1320) | 968.34 s
 Done.
[Task Yolo9000_23] Current/Best:    0.00/   0.00 GFLOPS | Progress: (0/1320) | 0.00 s
[Task Yolo9000_23] Current/Best:    0.00/   0.00 GFLOPS | Progress: (64/1320) | 371.51 s
[Task Yolo9000_23] Current/Best:    0.00/   0.00 GFLOPS | Progress: (128/1320) | 814.04 s
[Task Yolo9000_23] Current/Best:    0.00/   0.00 GFLOPS | Progress: (192/1320) | 1205.30 s
[Task MobilNet_01] Current/Best:    0.00/   0.00 GFLOPS | Progress: (0/792) | 0.00 s
[Task MobilNet_01] Current/Best:   97.12/1100.88 GFLOPS | Progress: (64/792) | 41.44 s
[Task MobilNet_01] Current/Best:  145.19/1174.85 GFLOPS | Progress: (128/792) | 77.26 s
[Task MobilNet_01] Current/Best:  499.58/1174.85 GFLOPS | Progress: (192/792) | 113.31 s
[Task MobilNet_01] Current/Best:   71.50/1174.85 GFLOPS | Progress: (256/792) | 152.82 s
[Task MobilNet_01] Current/Best:  229.68/1174.85 GFLOPS | Progress: (320/792) | 191.65 s
[Task MobilNet_01] Current/Best:   71.55/1174.85 GFLOPS | Progress: (384/792) | 231.50 s
[Task MobilNet_01] Current/Best:  465.98/1174.85 GFLOPS | Progress: (448/792) | 271.84 s
[Task MobilNet_01] Current/Best:  210.27/1174.85 GFLOPS | Progress: (512/792) | 310.32 s
[Task MobilNet_01] Current/Best:  250.54/1174.85 GFLOPS | Progress: (576/792) | 350.34 s
[Task MobilNet_01] Current/Best:  296.87/1174.85 GFLOPS | Progress: (640/792) | 389.80 s
[Task MobilNet_01] Current/Best:  202.48/1174.85 GFLOPS | Progress: (704/792) | 431.46 s
[Task MobilNet_01] Current/Best:  126.27/1174.85 GFLOPS | Progress: (768/792) | 472.31 s
[Task MobilNet_01] Current/Best:  243.04/1174.85 GFLOPS | Progress: (792/792) | 488.71 s
 Done.
[Task MobilNet_02] Current/Best:    0.00/   0.00 GFLOPS | Progress: (0/980) | 0.00 s
[Task MobilNet_02] Current/Best:  303.60/1063.16 GFLOPS | Progress: (64/980) | 50.88 s
[Task MobilNet_02] Current/Best:  512.84/1111.46 GFLOPS | Progress: (128/980) | 94.29 s
[Task MobilNet_02] Current/Best:  458.40/1111.46 GFLOPS | Progress: (192/980) | 138.87 s
[Task MobilNet_02] Current/Best:  172.43/1111.46 GFLOPS | Progress: (256/980) | 185.61 s
[Task MobilNet_02] Current/Best:  337.72/1111.46 GFLOPS | Progress: (320/980) | 232.03 s
[Task MobilNet_02] Current/Best:   69.60/1111.46 GFLOPS | Progress: (384/980) | 279.85 s
[Task MobilNet_02] Current/Best:  168.70/1111.46 GFLOPS | Progress: (448/980) | 325.90 s
[Task MobilNet_02] Current/Best:   66.99/1111.46 GFLOPS | Progress: (512/980) | 374.07 s
[Task MobilNet_02] Current/Best:  120.84/1111.46 GFLOPS | Progress: (576/980) | 421.98 s
[Task MobilNet_02] Current/Best:  163.89/1111.46 GFLOPS | Progress: (640/980) | 470.75 s
[Task MobilNet_02] Current/Best:  315.62/1111.46 GFLOPS | Progress: (704/980) | 519.65 s
[Task MobilNet_02] Current/Best:   61.52/1111.46 GFLOPS | Progress: (768/980) | 569.84 s
[Task MobilNet_02] Current/Best:  267.18/1111.46 GFLOPS | Progress: (832/980) | 620.07 s
[Task MobilNet_02] Current/Best:  135.84/1111.46 GFLOPS | Progress: (896/980) | 671.83 s
[Task MobilNet_02] Current/Best:   63.14/1111.46 GFLOPS | Progress: (960/980) | 721.86 s
[Task MobilNet_02] Current/Best:   62.38/1111.46 GFLOPS | Progress: (980/980) | 737.95 s
 Done.
[Task MobilNet_03] Current/Best:    0.00/   0.00 GFLOPS | Progress: (0/1280) | 0.00 s
[Task MobilNet_03] Current/Best:  351.64/1644.82 GFLOPS | Progress: (64/1280) | 47.47 s
[Task MobilNet_03] Current/Best:  966.15/1742.92 GFLOPS | Progress: (128/1280) | 86.98 s
[Task MobilNet_03] Current/Best:  110.64/1742.92 GFLOPS | Progress: (192/1280) | 127.02 s
[Task MobilNet_03] Current/Best:  403.47/1742.92 GFLOPS | Progress: (256/1280) | 167.38 s
[Task MobilNet_03] Current/Best:  222.65/1742.92 GFLOPS | Progress: (320/1280) | 211.20 s
[Task MobilNet_03] Current/Best:  375.58/1742.92 GFLOPS | Progress: (384/1280) | 253.62 s
[Task MobilNet_03] Current/Best:  744.94/1742.92 GFLOPS | Progress: (448/1280) | 297.48 s
[Task MobilNet_03] Current/Best:   99.77/1742.92 GFLOPS | Progress: (512/1280) | 343.55 s
[Task MobilNet_03] Current/Best:  121.99/1742.92 GFLOPS | Progress: (576/1280) | 386.04 s
[Task MobilNet_03] Current/Best:  449.06/1742.92 GFLOPS | Progress: (640/1280) | 432.28 s
[Task MobilNet_03] Current/Best:  101.80/1742.92 GFLOPS | Progress: (704/1280) | 476.79 s
[Task MobilNet_03] Current/Best:  235.65/1742.92 GFLOPS | Progress: (768/1280) | 522.10 s
[Task MobilNet_03] Current/Best:  378.94/1742.92 GFLOPS | Progress: (832/1280) | 570.98 s
[Task MobilNet_03] Current/Best:  381.79/1742.92 GFLOPS | Progress: (896/1280) | 618.17 s
[Task MobilNet_03] Current/Best:  333.70/1742.92 GFLOPS | Progress: (960/1280) | 664.18 s
[Task MobilNet_03] Current/Best:  454.22/1742.92 GFLOPS | Progress: (1024/1280) | 712.73 s
[Task MobilNet_03] Current/Best:  157.42/1742.92 GFLOPS | Progress: (1088/1280) | 760.10 s
[Task MobilNet_03] Current/Best:  260.75/1742.92 GFLOPS | Progress: (1152/1280) | 808.30 s
[Task MobilNet_03] Current/Best:   17.01/1742.92 GFLOPS | Progress: (1216/1280) | 857.16 s
[Task MobilNet_03] Current/Best:  224.76/1742.92 GFLOPS | Progress: (1280/1280) | 904.14 s
 Done.
[Task MobilNet_04] Current/Best:    0.00/   0.00 GFLOPS | Progress: (0/1024) | 0.00 s
[Task MobilNet_04] Current/Best:  222.57/ 993.03 GFLOPS | Progress: (64/1024) | 43.85 s
[Task MobilNet_04] Current/Best:  375.77/1105.48 GFLOPS | Progress: (128/1024) | 81.88 s
[Task MobilNet_04] Current/Best:   93.25/1105.48 GFLOPS | Progress: (192/1024) | 120.43 s
[Task MobilNet_04] Current/Best:  121.86/1105.48 GFLOPS | Progress: (256/1024) | 160.86 s
[Task MobilNet_04] Current/Best:  135.05/1105.48 GFLOPS | Progress: (320/1024) | 202.22 s
[Task MobilNet_04] Current/Best:  291.72/1105.48 GFLOPS | Progress: (384/1024) | 242.19 s
[Task MobilNet_04] Current/Best:  130.52/1105.48 GFLOPS | Progress: (448/1024) | 282.95 s
[Task MobilNet_04] Current/Best:  154.58/1105.48 GFLOPS | Progress: (512/1024) | 324.96 s
[Task MobilNet_04] Current/Best:  163.94/1105.48 GFLOPS | Progress: (576/1024) | 366.71 s
[Task MobilNet_04] Current/Best:  390.89/1105.48 GFLOPS | Progress: (640/1024) | 406.61 s
[Task MobilNet_04] Current/Best:   66.08/1105.48 GFLOPS | Progress: (704/1024) | 447.30 s
[Task MobilNet_04] Current/Best:   80.97/1105.48 GFLOPS | Progress: (768/1024) | 490.45 s
[Task MobilNet_04] Current/Best:  179.25/1105.48 GFLOPS | Progress: (832/1024) | 533.22 s
[Task MobilNet_04] Current/Best:  166.33/1105.48 GFLOPS | Progress: (896/1024) | 576.02 s
[Task MobilNet_04] Current/Best:  312.10/1105.48 GFLOPS | Progress: (960/1024) | 618.00 s
[Task MobilNet_04] Current/Best:  301.92/1105.48 GFLOPS | Progress: (1024/1024) | 659.67 s
 Done.
[Task MobilNet_05] Current/Best:    0.00/   0.00 GFLOPS | Progress: (0/1296) | 0.00 s
[Task MobilNet_05] Current/Best: 1015.95/1486.73 GFLOPS | Progress: (64/1296) | 51.27 s
[Task MobilNet_05] Current/Best:  319.45/1634.99 GFLOPS | Progress: (128/1296) | 96.60 s
[Task MobilNet_05] Current/Best:  421.21/1642.89 GFLOPS | Progress: (192/1296) | 140.44 s
[Task MobilNet_05] Current/Best:  343.74/1642.89 GFLOPS | Progress: (256/1296) | 187.27 s
[Task MobilNet_05] Current/Best:  201.63/1642.89 GFLOPS | Progress: (320/1296) | 235.45 s
[Task MobilNet_05] Current/Best:  371.75/1642.89 GFLOPS | Progress: (384/1296) | 283.65 s
[Task MobilNet_05] Current/Best:  342.25/1642.89 GFLOPS | Progress: (448/1296) | 332.96 s
[Task MobilNet_05] Current/Best:  103.13/1642.89 GFLOPS | Progress: (512/1296) | 382.92 s
[Task MobilNet_05] Current/Best:  397.81/1642.89 GFLOPS | Progress: (576/1296) | 431.77 s
[Task MobilNet_05] Current/Best:  653.21/1642.89 GFLOPS | Progress: (640/1296) | 479.58 s
[Task MobilNet_05] Current/Best:  405.38/1642.89 GFLOPS | Progress: (704/1296) | 531.03 s
[Task MobilNet_05] Current/Best:   96.83/1642.89 GFLOPS | Progress: (768/1296) | 580.46 s
[Task MobilNet_05] Current/Best:  339.31/1642.89 GFLOPS | Progress: (832/1296) | 630.75 s
[Task MobilNet_05] Current/Best:  435.98/1642.89 GFLOPS | Progress: (896/1296) | 680.74 s
[Task MobilNet_05] Current/Best:  350.32/1642.89 GFLOPS | Progress: (960/1296) | 731.27 s
[Task MobilNet_05] Current/Best:   66.71/1642.89 GFLOPS | Progress: (1024/1296) | 782.74 s
[Task MobilNet_05] Current/Best:  497.43/1642.89 GFLOPS | Progress: (1088/1296) | 832.09 s
[Task MobilNet_05] Current/Best:  203.15/1642.89 GFLOPS | Progress: (1152/1296) | 882.26 s
[Task MobilNet_05] Current/Best:   16.85/1642.89 GFLOPS | Progress: (1216/1296) | 936.83 s
[Task MobilNet_05] Current/Best:  203.52/1642.89 GFLOPS | Progress: (1280/1296) | 988.86 s
[Task MobilNet_05] Current/Best:   67.18/1642.89 GFLOPS | Progress: (1296/1296) | 1001.14 s
 Done.
[Task MobilNet_06] Current/Best:    0.00/   0.00 GFLOPS | Progress: (0/972) | 0.00 s
[Task MobilNet_06] Current/Best:  390.07/ 813.71 GFLOPS | Progress: (64/972) | 44.31 s
[Task MobilNet_06] Current/Best:  282.67/ 935.63 GFLOPS | Progress: (128/972) | 84.74 s
[Task MobilNet_06] Current/Best:  188.56/ 935.63 GFLOPS | Progress: (192/972) | 126.36 s
[Task MobilNet_06] Current/Best:  362.95/ 989.79 GFLOPS | Progress: (256/972) | 167.86 s
[Task MobilNet_06] Current/Best:  371.39/ 989.79 GFLOPS | Progress: (320/972) | 210.77 s
[Task MobilNet_06] Current/Best:  286.65/ 989.79 GFLOPS | Progress: (384/972) | 253.53 s
[Task MobilNet_06] Current/Best:  166.09/ 989.79 GFLOPS | Progress: (448/972) | 295.18 s
[Task MobilNet_06] Current/Best:  251.16/ 989.79 GFLOPS | Progress: (512/972) | 337.87 s
[Task MobilNet_06] Current/Best:  337.27/ 989.79 GFLOPS | Progress: (576/972) | 381.00 s
[Task MobilNet_06] Current/Best:  416.18/ 989.79 GFLOPS | Progress: (640/972) | 423.44 s
[Task MobilNet_06] Current/Best:  207.60/ 989.79 GFLOPS | Progress: (704/972) | 468.27 s
[Task MobilNet_06] Current/Best:  268.79/ 989.79 GFLOPS | Progress: (768/972) | 514.08 s
[Task MobilNet_06] Current/Best:  273.09/ 989.79 GFLOPS | Progress: (832/972) | 557.11 s
[Task MobilNet_06] Current/Best:  248.57/ 989.79 GFLOPS | Progress: (896/972) | 601.29 s
[Task MobilNet_06] Current/Best:  181.48/ 989.79 GFLOPS | Progress: (960/972) | 648.34 s
[Task MobilNet_06] Current/Best:  260.02/ 989.79 GFLOPS | Progress: (972/972) | 656.42 s
 Done.
[Task MobilNet_07] Current/Best:    0.00/   0.00 GFLOPS | Progress: (0/1200) | 0.00 s
[Task MobilNet_07] Current/Best:  255.87/1303.96 GFLOPS | Progress: (64/1200) | 85.35 s
[Task MobilNet_07] Current/Best:  451.18/1525.41 GFLOPS | Progress: (128/1200) | 159.72 s
[Task MobilNet_07] Current/Best:  584.60/1532.57 GFLOPS | Progress: (192/1200) | 234.17 s
[Task MobilNet_07] Current/Best:  610.60/1532.57 GFLOPS | Progress: (256/1200) | 315.09 s
[Task MobilNet_07] Current/Best:  748.51/1532.57 GFLOPS | Progress: (320/1200) | 394.86 s
[Task MobilNet_07] Current/Best:  115.74/1532.57 GFLOPS | Progress: (384/1200) | 477.07 s
[Task MobilNet_07] Current/Best:  408.41/1532.57 GFLOPS | Progress: (448/1200) | 561.80 s
[Task MobilNet_07] Current/Best:  327.62/1532.57 GFLOPS | Progress: (512/1200) | 646.53 s
[Task MobilNet_07] Current/Best:  213.76/1532.57 GFLOPS | Progress: (576/1200) | 733.62 s
[Task MobilNet_07] Current/Best:  224.25/1532.57 GFLOPS | Progress: (640/1200) | 821.55 s
[Task MobilNet_07] Current/Best:  172.59/1532.57 GFLOPS | Progress: (704/1200) | 905.76 s
[Task MobilNet_07] Current/Best:  258.16/1532.57 GFLOPS | Progress: (768/1200) | 992.05 s
[Task MobilNet_07] Current/Best:  443.38/1532.57 GFLOPS | Progress: (832/1200) | 1080.57 s
[Task MobilNet_07] Current/Best:   90.51/1532.57 GFLOPS | Progress: (896/1200) | 1167.92 s
[Task MobilNet_07] Current/Best:  131.81/1532.57 GFLOPS | Progress: (960/1200) | 1257.05 s
[Task MobilNet_07] Current/Best:  192.08/1532.57 GFLOPS | Progress: (1024/1200) | 1343.18 s
[Task MobilNet_07] Current/Best:  258.43/1532.57 GFLOPS | Progress: (1088/1200) | 1432.07 s
[Task MobilNet_07] Current/Best:  209.56/1532.57 GFLOPS | Progress: (1152/1200) | 1522.89 s
[Task MobilNet_07] Current/Best:  251.56/1532.57 GFLOPS | Progress: (1200/1200) | 1587.54 s
 Done.
[Task MobilNet_08] Current/Best:    0.00/   0.00 GFLOPS | Progress: (0/800) | 0.00 s
[Task MobilNet_08] Current/Best:   32.90/ 753.29 GFLOPS | Progress: (64/800) | 76.70 s
[Task MobilNet_08] Current/Best:   65.72/ 813.85 GFLOPS | Progress: (128/800) | 147.72 s
[Task MobilNet_08] Current/Best:   92.56/ 830.30 GFLOPS | Progress: (192/800) | 220.70 s
[Task MobilNet_08] Current/Best:   86.83/ 830.30 GFLOPS | Progress: (256/800) | 296.40 s
[Task MobilNet_08] Current/Best:  192.51/ 830.30 GFLOPS | Progress: (320/800) | 372.34 s
[Task MobilNet_08] Current/Best:  316.96/ 830.30 GFLOPS | Progress: (384/800) | 448.87 s
[Task MobilNet_08] Current/Best:  225.64/ 830.30 GFLOPS | Progress: (448/800) | 527.48 s
[Task MobilNet_08] Current/Best:  212.93/ 830.30 GFLOPS | Progress: (512/800) | 607.06 s
[Task MobilNet_08] Current/Best:  209.30/ 830.30 GFLOPS | Progress: (576/800) | 686.09 s
[Task MobilNet_08] Current/Best:   55.85/ 830.30 GFLOPS | Progress: (640/800) | 764.12 s
[Task MobilNet_08] Current/Best:  188.59/ 830.30 GFLOPS | Progress: (704/800) | 844.10 s
[Task MobilNet_08] Current/Best:  148.02/ 830.30 GFLOPS | Progress: (768/800) | 922.55 s
[Task MobilNet_08] Current/Best:  149.05/ 830.30 GFLOPS | Progress: (800/800) | 961.63 s
 Done.
[Task MobilNet_09] Current/Best:    0.00/   0.00 GFLOPS | Progress: (0/968) | 0.00 s
[Task MobilNet_09] Current/Best:   42.54/ 771.74 GFLOPS | Progress: (64/968) | 224.94 s
[Task MobilNet_09] Current/Best:  103.82/ 879.98 GFLOPS | Progress: (128/968) | 428.86 s
[Task MobilNet_09] Current/Best:   65.88/ 879.98 GFLOPS | Progress: (192/968) | 638.04 s
[Task MobilNet_09] Current/Best:  375.92/ 879.98 GFLOPS | Progress: (256/968) | 855.45 s
[Task MobilNet_09] Current/Best:   60.54/ 879.98 GFLOPS | Progress: (320/968) | 1077.14 s
[Task MobilNet_09] Current/Best:  203.97/ 879.98 GFLOPS | Progress: (384/968) | 1293.68 s
[Task MobilNet_09] Current/Best:   41.80/ 879.98 GFLOPS | Progress: (448/968) | 1524.92 s
[Task MobilNet_09] Current/Best:  149.60/ 879.98 GFLOPS | Progress: (512/968) | 1754.37 s
[Task MobilNet_09] Current/Best:  149.85/ 879.98 GFLOPS | Progress: (576/968) | 1981.14 s
[Task MobilNet_09] Current/Best:   53.48/ 879.98 GFLOPS | Progress: (640/968) | 2207.62 s
[Task MobilNet_09] Current/Best:  122.86/ 879.98 GFLOPS | Progress: (704/968) | 2442.04 s
[Task MobilNet_09] Current/Best:  113.66/ 879.98 GFLOPS | Progress: (768/968) | 2675.85 s
[Task MobilNet_09] Current/Best:  115.30/ 879.98 GFLOPS | Progress: (832/968) | 2916.27 s
[Task MobilNet_09] Current/Best:   53.80/ 879.98 GFLOPS | Progress: (896/968) | 3153.19 s
[Task MobilNet_09] Current/Best:   78.41/ 879.98 GFLOPS | Progress: (960/968) | 3393.86 s
[Task MobilNet_09] Current/Best:   33.44/ 879.98 GFLOPS | Progress: (968/968) | 3426.31 s
 Done.
[Task ResNet18_01] Current/Best:    0.00/   0.00 GFLOPS | Progress: (0/308) | 0.00 s
[Task ResNet18_01] Current/Best: 1043.13/1114.43 GFLOPS | Progress: (64/308) | 41.47 s
[Task ResNet18_01] Current/Best:  324.07/1186.56 GFLOPS | Progress: (128/308) | 81.47 s
[Task ResNet18_01] Current/Best:  442.87/1186.56 GFLOPS | Progress: (192/308) | 128.99 s
[Task ResNet18_01] Current/Best:  193.45/1186.56 GFLOPS | Progress: (256/308) | 172.58 s
[Task ResNet18_01] Current/Best:   81.63/1186.56 GFLOPS | Progress: (308/308) | 209.63 s
 Done.
[Task ResNet18_02] Current/Best:    0.00/   0.00 GFLOPS | Progress: (0/980) | 0.00 s
[Task ResNet18_02] Current/Best:  320.50/1162.77 GFLOPS | Progress: (64/980) | 36.44 s
[Task ResNet18_02] Current/Best:  327.97/1203.89 GFLOPS | Progress: (128/980) | 68.19 s
[Task ResNet18_02] Current/Best:  260.00/1203.89 GFLOPS | Progress: (192/980) | 102.70 s
[Task ResNet18_02] Current/Best:   57.19/1203.89 GFLOPS | Progress: (256/980) | 135.94 s
[Task ResNet18_02] Current/Best:  654.26/1203.89 GFLOPS | Progress: (320/980) | 169.23 s
[Task ResNet18_02] Current/Best:  207.67/1203.89 GFLOPS | Progress: (384/980) | 202.22 s
[Task ResNet18_02] Current/Best:  259.27/1203.89 GFLOPS | Progress: (448/980) | 235.92 s
[Task ResNet18_02] Current/Best:  216.46/1203.89 GFLOPS | Progress: (512/980) | 270.50 s
[Task ResNet18_02] Current/Best:  107.96/1203.89 GFLOPS | Progress: (576/980) | 305.60 s
[Task ResNet18_02] Current/Best:  269.05/1203.89 GFLOPS | Progress: (640/980) | 340.12 s
[Task ResNet18_02] Current/Best:  269.47/1203.89 GFLOPS | Progress: (704/980) | 374.52 s
[Task ResNet18_02] Current/Best:  193.85/1203.89 GFLOPS | Progress: (768/980) | 410.51 s
[Task ResNet18_02] Current/Best:   68.86/1203.89 GFLOPS | Progress: (832/980) | 446.57 s
[Task ResNet18_02] Current/Best:   66.38/1203.89 GFLOPS | Progress: (896/980) | 481.99 s
[Task ResNet18_02] Current/Best:   35.07/1203.89 GFLOPS | Progress: (960/980) | 516.69 s
[Task ResNet18_02] Current/Best:  207.68/1203.89 GFLOPS | Progress: (980/980) | 528.18 s
 Done.
[Task ResNet18_03] Current/Best:    0.00/   0.00 GFLOPS | Progress: (0/980) | 0.00 s
[Task ResNet18_03] Current/Best:   72.43/ 308.58 GFLOPS | Progress: (64/980) | 34.45 s
[Task ResNet18_03] Current/Best:  167.27/ 318.62 GFLOPS | Progress: (128/980) | 65.01 s
[Task ResNet18_03] Current/Best:  258.86/ 318.62 GFLOPS | Progress: (192/980) | 96.13 s
[Task ResNet18_03] Current/Best:  143.19/ 318.62 GFLOPS | Progress: (256/980) | 127.86 s
[Task ResNet18_03] Current/Best:  180.86/ 318.62 GFLOPS | Progress: (320/980) | 159.63 s
[Task ResNet18_03] Current/Best:   79.06/ 318.62 GFLOPS | Progress: (384/980) | 191.39 s
[Task ResNet18_03] Current/Best:  139.51/ 318.62 GFLOPS | Progress: (448/980) | 223.24 s
[Task ResNet18_03] Current/Best:  124.24/ 318.62 GFLOPS | Progress: (512/980) | 256.15 s
[Task ResNet18_03] Current/Best:  112.47/ 318.62 GFLOPS | Progress: (576/980) | 288.79 s
[Task ResNet18_03] Current/Best:  188.66/ 318.62 GFLOPS | Progress: (640/980) | 322.43 s
[Task ResNet18_03] Current/Best:   40.92/ 318.62 GFLOPS | Progress: (704/980) | 355.20 s
[Task ResNet18_03] Current/Best:  126.46/ 318.62 GFLOPS | Progress: (768/980) | 388.04 s
[Task ResNet18_03] Current/Best:   53.19/ 318.62 GFLOPS | Progress: (832/980) | 422.21 s
[Task ResNet18_03] Current/Best:   59.89/ 318.62 GFLOPS | Progress: (896/980) | 455.07 s
[Task ResNet18_03] Current/Best:  111.51/ 318.62 GFLOPS | Progress: (960/980) | 487.37 s
[Task ResNet18_03] Current/Best:   60.74/ 318.62 GFLOPS | Progress: (980/980) | 497.66 s
 Done.
[Task ResNet18_04] Current/Best:    0.00/   0.00 GFLOPS | Progress: (0/896) | 0.00 s
[Task ResNet18_04] Current/Best:   69.26/ 824.22 GFLOPS | Progress: (64/896) | 35.25 s
[Task ResNet18_04] Current/Best:  120.02/ 824.22 GFLOPS | Progress: (128/896) | 67.25 s
[Task ResNet18_04] Current/Best:  362.03/ 824.22 GFLOPS | Progress: (192/896) | 98.98 s
[Task ResNet18_04] Current/Best:  309.34/ 824.22 GFLOPS | Progress: (256/896) | 132.05 s
[Task ResNet18_04] Current/Best:  356.14/ 824.22 GFLOPS | Progress: (320/896) | 164.61 s
[Task ResNet18_04] Current/Best:   85.30/ 824.22 GFLOPS | Progress: (384/896) | 198.16 s
[Task ResNet18_04] Current/Best:   33.65/ 824.22 GFLOPS | Progress: (448/896) | 232.12 s
[Task ResNet18_04] Current/Best:  298.15/ 824.22 GFLOPS | Progress: (512/896) | 266.32 s
[Task ResNet18_04] Current/Best:   66.88/ 824.22 GFLOPS | Progress: (576/896) | 300.87 s
[Task ResNet18_04] Current/Best:  307.02/ 824.22 GFLOPS | Progress: (640/896) | 334.67 s
[Task ResNet18_04] Current/Best:  298.56/ 824.22 GFLOPS | Progress: (704/896) | 368.08 s
[Task ResNet18_04] Current/Best:  162.19/ 824.22 GFLOPS | Progress: (768/896) | 402.20 s
[Task ResNet18_04] Current/Best:  303.81/ 824.22 GFLOPS | Progress: (832/896) | 436.14 s
[Task ResNet18_04] Current/Best:  282.15/ 824.22 GFLOPS | Progress: (896/896) | 469.24 s
 Done.
[Task ResNet18_05] Current/Best:    0.00/   0.00 GFLOPS | Progress: (0/896) | 0.00 s
[Task ResNet18_05] Current/Best:  122.28/ 190.80 GFLOPS | Progress: (64/896) | 33.25 s
[Task ResNet18_05] Current/Best:   53.97/ 217.17 GFLOPS | Progress: (128/896) | 62.47 s
[Task ResNet18_05] Current/Best:   54.92/ 217.17 GFLOPS | Progress: (192/896) | 92.10 s
[Task ResNet18_05] Current/Best:  112.18/ 217.17 GFLOPS | Progress: (256/896) | 124.24 s
[Task ResNet18_05] Current/Best:  114.71/ 217.17 GFLOPS | Progress: (320/896) | 156.00 s
[Task ResNet18_05] Current/Best:   63.60/ 217.17 GFLOPS | Progress: (384/896) | 187.12 s
[Task ResNet18_05] Current/Best:  108.74/ 217.17 GFLOPS | Progress: (448/896) | 219.20 s
[Task ResNet18_05] Current/Best:   96.64/ 217.17 GFLOPS | Progress: (512/896) | 251.69 s
[Task ResNet18_05] Current/Best:   74.24/ 217.17 GFLOPS | Progress: (576/896) | 283.41 s
[Task ResNet18_05] Current/Best:   54.05/ 217.17 GFLOPS | Progress: (640/896) | 315.22 s
[Task ResNet18_05] Current/Best:   24.50/ 217.17 GFLOPS | Progress: (704/896) | 346.74 s
[Task ResNet18_05] Current/Best:  127.51/ 217.17 GFLOPS | Progress: (768/896) | 377.63 s
[Task ResNet18_05] Current/Best:   66.13/ 217.17 GFLOPS | Progress: (832/896) | 408.74 s
[Task ResNet18_05] Current/Best:   57.58/ 217.17 GFLOPS | Progress: (896/896) | 438.72 s
 Done.
[Task ResNet18_06] Current/Best:    0.00/   0.00 GFLOPS | Progress: (0/1024) | 0.00 s
[Task ResNet18_06] Current/Best:  579.92/1087.49 GFLOPS | Progress: (64/1024) | 35.63 s
[Task ResNet18_06] Current/Best:  134.54/1196.50 GFLOPS | Progress: (128/1024) | 67.24 s
[Task ResNet18_06] Current/Best:  363.64/1196.50 GFLOPS | Progress: (192/1024) | 99.25 s
[Task ResNet18_06] Current/Best:  607.75/1196.50 GFLOPS | Progress: (256/1024) | 131.51 s
[Task ResNet18_06] Current/Best:  101.54/1196.50 GFLOPS | Progress: (320/1024) | 164.99 s
[Task ResNet18_06] Current/Best:  134.00/1196.50 GFLOPS | Progress: (384/1024) | 198.90 s
[Task ResNet18_06] Current/Best:  448.86/1196.50 GFLOPS | Progress: (448/1024) | 231.72 s
[Task ResNet18_06] Current/Best:  461.00/1196.50 GFLOPS | Progress: (512/1024) | 265.69 s
[Task ResNet18_06] Current/Best:  188.03/1196.50 GFLOPS | Progress: (576/1024) | 299.97 s
[Task ResNet18_06] Current/Best:   17.08/1196.50 GFLOPS | Progress: (640/1024) | 333.50 s
[Task ResNet18_06] Current/Best:  258.30/1196.50 GFLOPS | Progress: (704/1024) | 367.62 s
[Task ResNet18_06] Current/Best:  241.85/1196.50 GFLOPS | Progress: (768/1024) | 402.08 s
[Task ResNet18_06] Current/Best:  293.42/1196.50 GFLOPS | Progress: (832/1024) | 436.35 s
[Task ResNet18_06] Current/Best:  250.79/1196.50 GFLOPS | Progress: (896/1024) | 470.34 s
[Task ResNet18_06] Current/Best:   98.34/1196.50 GFLOPS | Progress: (960/1024) | 504.77 s
[Task ResNet18_06] Current/Best:  201.07/1196.50 GFLOPS | Progress: (1024/1024) | 539.46 s
 Done.
[Task ResNet18_07] Current/Best:    0.00/   0.00 GFLOPS | Progress: (0/864) | 0.00 s
[Task ResNet18_07] Current/Best:  319.13/ 733.49 GFLOPS | Progress: (64/864) | 35.00 s
[Task ResNet18_07] Current/Best:  250.34/ 790.40 GFLOPS | Progress: (128/864) | 65.96 s
[Task ResNet18_07] Current/Best:  291.18/ 790.40 GFLOPS | Progress: (192/864) | 97.56 s
[Task ResNet18_07] Current/Best:  201.02/ 790.40 GFLOPS | Progress: (256/864) | 130.86 s
[Task ResNet18_07] Current/Best:   56.52/ 790.40 GFLOPS | Progress: (320/864) | 163.56 s
[Task ResNet18_07] Current/Best:  305.39/ 790.40 GFLOPS | Progress: (384/864) | 195.41 s
[Task ResNet18_07] Current/Best:   16.28/ 790.40 GFLOPS | Progress: (448/864) | 228.49 s
[Task ResNet18_07] Current/Best:  302.66/ 790.40 GFLOPS | Progress: (512/864) | 261.81 s
[Task ResNet18_07] Current/Best:  349.58/ 790.40 GFLOPS | Progress: (576/864) | 298.95 s
[Task ResNet18_07] Current/Best:  290.65/ 790.40 GFLOPS | Progress: (640/864) | 332.32 s
[Task ResNet18_07] Current/Best:  272.88/ 790.40 GFLOPS | Progress: (704/864) | 365.51 s
[Task ResNet18_07] Current/Best:   93.86/ 790.40 GFLOPS | Progress: (768/864) | 398.95 s
[Task ResNet18_07] Current/Best:   65.68/ 790.40 GFLOPS | Progress: (832/864) | 432.26 s
[Task ResNet18_07] Current/Best:  132.02/ 790.40 GFLOPS | Progress: (864/864) | 448.17 s
 Done.
[Task ResNet18_08] Current/Best:    0.00/   0.00 GFLOPS | Progress: (0/1152) | 0.00 s
[Task ResNet18_08] Current/Best:  541.53/1249.02 GFLOPS | Progress: (64/1152) | 41.36 s
[Task ResNet18_08] Current/Best:  134.68/1462.93 GFLOPS | Progress: (128/1152) | 76.38 s
[Task ResNet18_08] Current/Best:  610.78/1479.54 GFLOPS | Progress: (192/1152) | 111.15 s
[Task ResNet18_08] Current/Best:  259.40/1479.54 GFLOPS | Progress: (256/1152) | 146.86 s
[Task ResNet18_08] Current/Best:  386.73/1479.54 GFLOPS | Progress: (320/1152) | 183.19 s
[Task ResNet18_08] Current/Best:  634.51/1479.54 GFLOPS | Progress: (384/1152) | 223.43 s
[Task ResNet18_08] Current/Best:  480.45/1479.54 GFLOPS | Progress: (448/1152) | 262.80 s
[Task ResNet18_08] Current/Best:  205.85/1479.54 GFLOPS | Progress: (512/1152) | 300.66 s
[Task ResNet18_08] Current/Best:  312.48/1479.54 GFLOPS | Progress: (576/1152) | 338.29 s
[Task ResNet18_08] Current/Best:  294.38/1479.54 GFLOPS | Progress: (640/1152) | 377.15 s
[Task ResNet18_08] Current/Best:  135.69/1479.54 GFLOPS | Progress: (704/1152) | 415.70 s
[Task ResNet18_08] Current/Best:  208.41/1479.54 GFLOPS | Progress: (768/1152) | 454.19 s
[Task ResNet18_08] Current/Best:  201.89/1479.54 GFLOPS | Progress: (832/1152) | 494.40 s
[Task ResNet18_08] Current/Best:  444.94/1479.54 GFLOPS | Progress: (896/1152) | 533.44 s
[Task ResNet18_08] Current/Best:   34.22/1479.54 GFLOPS | Progress: (960/1152) | 572.84 s
[Task ResNet18_08] Current/Best:  235.50/1479.54 GFLOPS | Progress: (1024/1152) | 614.01 s
[Task ResNet18_08] Current/Best:   34.11/1479.54 GFLOPS | Progress: (1088/1152) | 654.23 s
[Task ResNet18_08] Current/Best:  230.65/1479.54 GFLOPS | Progress: (1152/1152) | 693.23 s
 Done.
[Task ResNet18_09] Current/Best:    0.00/   0.00 GFLOPS | Progress: (0/972) | 0.00 s
[Task ResNet18_09] Current/Best:  451.05/1130.50 GFLOPS | Progress: (64/972) | 41.18 s
[Task ResNet18_09] Current/Best:  426.69/1130.50 GFLOPS | Progress: (128/972) | 77.40 s
[Task ResNet18_09] Current/Best:  265.56/1175.56 GFLOPS | Progress: (192/972) | 113.01 s
[Task ResNet18_09] Current/Best:  597.02/1175.56 GFLOPS | Progress: (256/972) | 150.74 s
