perf, CACHE_MISS_L1, CACHE_MISS_L2
37.01,16115815,13780116
37.60,16223608,13982428
36.58,27682892,9376359
26.59,52901600,23492329
10.07,119477964,67687574
38.37,16263817,11705522
40.53,18161946,8966318
40.49,18170912,9024087
47.06,25183108,4167120
48.33,20889979,3945666
17.70,60530395,17090372
37.85,12533101,11654745
38.34,12414832,10980158
26.90,30657256,13037515
38.78,11812191,11002787
39.03,16193338,7726192
22.05,25583804,16005856
16.01,48438756,26293069
47.87,20944747,4129665
40.01,27822446,6121133
27.53,55106298,10699037
25.88,49902319,11848967
17.68,61140563,16522799
10.57,121361707,31897311
39.49,11757350,10747065
38.50,13874969,11780618
35.60,19660521,10438438
35.93,18964168,9696249
36.03,21688903,10305597
20.76,30178882,12149561
37.74,12616060,11004714
39.01,13224261,9559095
39.42,13714826,9678319
43.86,14997935,5820793
37.10,24432114,5411642
39.44,11581320,10702256
39.37,12857188,10855271
36.73,16943062,10652619
35.67,17582898,8752692
22.94,25848923,9834521
21.70,29125089,14233728
39.21,11997732,10730811
38.41,13787670,11018749
36.83,16422291,10668622
21.93,35689125,20017506
42.45,18889796,7825536
8.83,122406948,80372674
4.63,254202057,161067435
35.14,13644346,9031603
36.85,15497899,9052791
49.35,15723449,3980472
46.09,22823361,4905630
45.88,22739690,4933237
35.75,31096998,7711986
25.72,50932261,13476325
36.03,11387777,8832121
36.39,12793845,8360347
33.77,20998266,4717371
5.96,165742029,101701868
37.11,11453528,8223331
34.59,13251094,9327581
35.69,13377556,9377670
34.21,15925700,8652325
33.11,16419133,6867281
33.11,19429723,8406232
24.75,34751259,20817311
35.66,13608420,9466800
9.69,115266180,47022619
5.34,254946572,90096400
34.77,13168978,8303559
28.03,25702140,11130318
23.58,30914057,20104873
17.54,45343355,21027439
17.60,44744126,20036127
14.17,73659769,47035802
42.11,14744544,4575032
39.36,16966337,4332701
25.00,35648396,5798080
24.53,32131421,5476655
13.24,73159092,8331402
13.04,75305924,11092157
33.11,19382950,7077143
33.43,16389348,6479430
19.33,47049043,9207626
14.74,75657064,16337511
14.39,75690933,27886067
30.51,11809884,8516951
34.43,15960264,7981532
32.93,16924302,7063340
23.65,27736258,17263705
15.46,74912701,13076564
34.69,14530160,12667177
47.99,17867695,10843179
48.19,17849189,10530454
35.48,30574075,14579362
35.44,30578922,14754853
9.14,115910240,83091634
36.69,24211100,6583290
25.35,39241877,12879815
9.83,114508354,45938611
38.66,18107636,5824987
16.42,54968631,23128541
11.61,76419682,58915985
6.16,161520533,72416127
30.89,18501676,8842452
27.05,28734934,16299494
35.56,15569801,8362203
45.05,22647527,4479318
36.42,31037131,7219957
36.49,31087147,7381064
25.22,49131747,13971260
11.78,80979704,13710550
33.35,13066745,8132070
33.08,13287658,7820184
32.02,20163328,7016608
29.77,23181351,7872485
27.37,27191714,8561795
14.31,64401328,21430839
34.17,10522853,8189553
34.05,11209657,8276079
33.76,10965436,8274580
34.06,12469504,8109191
34.48,14092362,8356104
33.65,14008136,8628195
31.83,18693441,7425980
30.29,29535882,6083821
23.95,31730841,18483200
24.75,29610236,16594603
15.69,63218268,6910121
36.55,15439445,13097555
43.73,22531714,11266046
23.99,51543332,28118343
15.26,64194395,40564947
9.08,120860052,80775962
8.99,122268540,80622413
8.99,122145013,80787105
8.97,123234336,80763283
35.31,13759701,8992058
44.47,18830443,4327318
35.59,12018947,7909236
42.38,14277766,4969960
11.10,82138014,39026212
10.92,81101427,60604430
5.59,142719150,115525434
34.46,10775956,8800622
25.05,30301914,19790184
11.95,66430993,45590323
36.65,15456923,9024187
34.61,10961149,8177058
34.54,13551166,7784745
35.47,11443504,9025511
35.92,12529770,8288763
41.39,14619897,4775626
39.74,18170063,4412148
39.76,18347580,4844491
33.78,18581815,6704615
33.34,20727567,7049862
35.27,11052471,8249173
35.42,12021009,8463637
33.17,19643394,7483901
33.24,21816424,7346843
33.25,20044670,7320545
30.71,23737776,7107080
24.25,31106477,15005497
25.60,31947857,10360780
19.81,42905316,15136899
14.62,85564282,52424292
8.23,121623721,83465193
34.66,13740180,8809861
24.85,53186373,16356543
15.54,91987385,25169927
15.69,90145638,32175880
34.06,11611301,8606431
5.93,151284427,42959815
29.78,18904830,9346409
14.94,61431973,24206732
14.11,61743978,33135447
12.98,60505954,41272022
36.16,15683754,8284607
35.84,15295159,8933225
5.11,254808593,89981283
32.73,12865604,9332688
13.43,60549626,38250144
34.50,11586310,8503733
35.09,12666710,8257002
34.56,12353480,8063009
24.15,39677588,6872959
16.75,53203659,9692284
10.74,84648356,11481907
5.92,154164083,14637074
32.45,15911496,7947874
30.71,24729517,7917468
33.86,10916072,8249650
34.38,11584320,8457990
34.81,11688171,8362893
34.25,12944941,8074589
30.13,20459651,7485750
13.80,68495830,30346718
26.75,42232807,15870962
14.09,66237513,49949684
8.30,143186843,99125534
34.86,19788082,10387707
39.18,24861015,7614319
20.12,57238851,16085370
33.14,14663280,11573042
33.57,17505625,13032776
33.23,17639836,13361081
34.86,21900889,9482407
32.17,16440452,16115878
31.63,21756107,11340942
17.70,31150609,31954381
17.01,34015671,22251892
39.24,24928456,7330558
8.42,153251293,50441270
29.94,17859028,11388193
25.89,31733282,10733644
19.88,33073386,17614563
14.23,46506414,10344481
31.03,17959627,14425090
31.15,20326215,11302402
25.58,25955729,13359721
18.12,33056247,21847909
18.63,37583324,20354281
30.56,20531770,9936327
34.90,16280016,14506114
27.27,42796292,16068141
13.40,65512083,50145271
38.35,16562907,9799066
48.50,19062313,5210958
44.65,22703129,6828897
37.76,30034154,8093658
27.86,43422487,11843987
19.97,63048286,16084327
9.22,145187323,41916991
9.34,146081377,36820094
38.95,18813196,6789089
27.50,26772357,16407185
35.04,15179423,13491657
33.78,19833558,11222852
27.20,20724785,20769387
38.89,17514081,9935555
44.49,22686923,7120716
27.37,45103056,12265171
20.32,60388763,17218170
34.23,15349080,13764441
33.05,19350834,11150078
39.00,19454934,6880342
35.22,25006090,7468131
14.67,43974807,15533171
34.85,13999511,13340288
35.27,14227572,13219403
33.57,16783201,12992018
32.47,19307395,11211733
29.74,23000473,12719940
34.63,16271336,14612355
38.88,17472012,10620540
44.21,22788532,7136301
36.62,28291754,9165874
27.91,35167258,13539260
38.57,17463422,10116712
37.56,29281572,8444146
28.06,44437071,13349667
21.74,53302137,13290806
21.64,52229473,16164047
9.35,147491942,43299705
9.30,146012877,50257873
39.95,15872835,7009533
34.89,23449911,8437631
29.06,30638875,11002630
21.18,26832724,13894170
35.23,13786169,13397526
34.14,14566381,13121739
32.54,19587624,12601634
32.63,18618755,11499571
34.66,16175470,13642925
38.71,17479015,10053433
44.37,22807167,6960909
21.82,53409801,12896675
15.58,67782151,25561598
15.86,68194170,23132932
34.15,15002127,13325852
34.71,15063537,13410613
33.40,19886309,11847864
34.96,16403421,7737521
29.67,18090267,14253990
21.44,27356807,9284826
34.73,13906960,13431104
34.39,15113606,13276512
30.34,16474877,13383483
34.41,15743097,10371026
23.21,27954496,22663134
40.61,17800043,16433505
38.85,19560490,17542562
53.21,20997183,4505741
51.98,21131153,3665767
50.86,24860569,5706986
31.27,35247809,23776607
51.48,19293418,4670714
53.61,20978894,4003843
53.45,21096049,4160718
44.34,27081432,7153960
32.71,39132346,14295946
15.21,85742603,28350437
38.91,16705923,16631880
39.43,16905231,16710213
39.15,17250291,17154919
44.50,18155451,10354453
45.91,19564225,6609298
42.26,24307791,13479206
38.52,23123831,15420078
39.39,16340435,16283952
40.40,16169088,15989372
39.88,16177193,16005356
39.29,17296786,16376610
39.24,19431685,16479326
51.64,21623986,4558543
36.26,48634593,8345214
36.16,48569123,8188121
32.94,40077132,13081949
39.97,15710904,15570028
39.05,16747571,16161436
36.26,19519710,8793093
39.16,17615096,15757783
44.48,20921443,9096445
25.35,48274258,13495408
39.13,17277068,15786543
41.39,17870422,10884207
37.27,21204105,19776828
50.36,23869956,6682791
50.15,23821986,4480467
42.17,37231019,9368337
34.55,32737938,11950322
29.62,36172656,23349936
15.44,86857887,41372056
38.66,20437731,17942621
36.96,22121925,19510044
43.42,37805560,7628428
42.53,37558830,9136681
32.05,38388677,14665705
31.45,38437509,14979688
32.15,38518177,14491848
14.60,92020566,28166738
15.63,89215547,20863015
37.60,18353933,18120768
38.10,18262080,17962938
42.91,20387593,10889257
33.83,20463356,17688081
23.35,38909006,24675067
37.64,19138275,19034501
37.95,19017652,18689101
37.31,19159473,18042891
37.78,33054521,14817554
27.62,35004990,26732990
37.70,20320133,18067344
38.04,21213503,18987829
37.02,22174716,18639253
40.83,29893005,6619004
42.52,37382353,10694632
38.50,21794641,13052484
32.89,25444812,17198591
37.20,18500397,18211152
37.81,18659293,18234079
33.44,32100391,16733784
33.74,22043791,14529407
38.44,18455699,18098466
37.44,19278782,18070144
39.11,21060233,12218461
34.97,31477632,21256850
30.71,29102623,17946971
38.77,18978575,17937157
39.24,31655255,9214485
40.44,41540286,14165214
28.68,32062951,16591154
27.33,51605311,25484255
43.69,15631605,6173802
26.76,41837830,21588496
32.04,12588594,10804035
30.97,12246726,11987766
37.02,16263273,5179470
25.94,30666015,15345442
16.75,43460551,24335859
16.77,43456413,24702054
31.15,12066506,10904307
31.43,12881479,10638469
31.39,13362858,8721613
31.38,18345460,9397713
30.83,26889441,12369168
32.47,12597304,11077196
44.75,14357265,2923729
28.28,33367290,9800201
27.93,40286595,11490590
18.79,49801482,19349356
32.13,11649719,10518967
32.59,15081834,8378869
28.30,27318543,22811457
36.86,13310286,6064500
34.59,23256683,4514845
18.95,40923138,15269456
17.85,54000416,10742223
31.51,11989838,10610970
30.85,12344247,10901529
31.03,12553408,10876555
32.11,15843187,8624597
31.86,15939284,8728220
27.45,22570675,16102662
32.42,11446911,10375388
31.68,11834706,10600816
31.45,13156461,10763775
32.15,15115542,9377444
29.71,30683747,14365725
25.68,31208822,20795681
34.10,15220735,14461669
36.73,29587511,10459925
28.23,40975239,18035713
20.92,46049041,26232908
33.56,15857558,14070890
44.99,22050573,4487792
28.81,39821769,14050153
33.20,14956069,13857820
33.80,14595174,13454484
33.06,15315843,14491569
27.37,27875314,17827065
22.01,39781947,19106815
21.09,37281119,27263124
34.22,15108383,13181995
33.25,15419006,13307428
33.93,15908651,14014882
14.36,77550439,34677281
34.29,13841133,13197684
33.12,14644398,13813670
33.96,14854585,13455508
33.57,15644610,13916856
37.88,15852292,7919843
38.91,19186756,6084389
28.36,34476973,9804872
20.44,49298358,8342974
17.02,55521180,15630465
17.30,56015073,13451046
34.37,13926543,12904756
33.73,14297218,12902571
33.55,15371131,13625726
33.31,15264744,13179574
34.09,17572473,9691823
34.09,14345236,13147822
33.86,14720949,13129097
34.29,16394268,10144059
34.87,23355442,9964714
29.48,28277673,21203166
44.95,21449436,4401606
44.97,23392853,5466719
31.16,31342910,12247922
22.43,44433592,24498520
12.79,94352175,43327267
37.01,17801124,16239151
36.79,18590945,16280141
36.42,19555020,16482894
35.99,17509460,16989247
37.10,16248198,16093984
36.54,16747686,16162417
38.68,22030515,11342772
24.15,33069748,12686556
38.76,34905830,8152432
35.99,17274386,15558495
37.23,19885459,10809544
35.35,22067907,11448992
31.60,30620299,22706295
37.15,16153752,15558145
40.77,19104023,9131008
32.70,35894174,7397315
36.26,22083327,9893978
19.65,51822273,11363503
36.34,20061519,15813541
36.90,15116063,14287941
36.85,15115621,14283344
36.29,15790706,14958782
26.02,39422136,25960884
37.76,15173438,13644273
30.06,44459734,14487625
27.60,42317469,12220246
36.58,13965297,13253360
26.81,28057232,8358956
37.15,13683023,13576212
37.82,15616813,8479127
38.78,19223262,7269341
38.54,21491464,6778380
49.97,18804290,3897906
41.70,24497321,6331171
38.00,15779788,8986685
38.41,18697745,8899242
32.49,27314180,11460784
37.28,14933524,13185461
32.33,29830771,9726791
37.42,19174587,9870780
36.81,21301420,10657729
36.58,15761287,13352572
29.41,44438732,6941532
33.76,45121425,17694020
39.65,19572251,16183304
54.72,24690020,4706091
45.09,33602329,8929689
14.81,89720224,18490183
14.16,89661133,29659605
40.66,15895140,15494554
21.44,34369538,25377014
43.85,22353238,14227503
40.02,30079176,12964832
39.69,17724983,15721853
40.02,17969200,15784934
39.97,17967747,15946492
39.87,17961901,16261563
57.90,19339699,3004159
37.37,34305096,6242972
31.72,38779726,14371287
39.73,16667396,16412376
39.50,16887825,15704588
39.77,17075149,15797002
39.47,16992386,15602296
41.17,18428097,10733621
40.38,17324280,15545567
39.59,16603084,15699902
37.90,32166765,19467352
32.75,26956524,12310481
26.97,31703144,16204951
27.72,44499822,8098306
36.13,15838893,14600396
46.76,18840962,4043599
22.70,43328144,24685550
22.67,43328612,25112496
41.86,15278847,7618389
32.12,29158003,15050411
18.88,45903877,32617256
37.22,13854430,13348655
36.86,14823682,13236165
33.22,22703857,12422162
26.12,28860892,16721093
19.99,41247913,28057857
40.74,24946650,5805190
32.66,32780992,7934879
23.53,45737723,16315962
37.78,13707996,13166944
37.40,13814699,12993348
37.59,14184130,13437228
37.77,13818886,13175346
41.98,17322063,5716353
39.29,21862885,6768044
39.85,22197763,6436017
25.23,31767791,10595200
37.76,14146047,13117550
36.67,14178268,13310821
39.01,23683143,8431935
28.44,30500668,5739698
24.55,31040996,17941659
37.45,13891405,13042450
38.00,16185062,9504972
38.12,19958985,8828158
21.31,43743564,8483399
18.03,62229768,22295140
37.35,15093115,14227641
36.79,15332648,14360687
37.07,15760692,14882270
49.45,18657224,6135887
47.50,18466477,3772845
16.02,75134085,49320768
37.61,15311745,13490124
37.56,15289954,13851404
36.98,15283234,13848767
48.71,21394649,3982949
40.53,24309563,6325774
37.32,13661050,13630772
37.32,14125658,13620139
41.93,15287265,8305648
42.67,16785376,5484025
42.30,16871270,5701708
42.15,17001940,6043762
37.42,13452582,13215183
36.64,14046753,13964271
37.80,15663458,8857713
36.40,18383630,10118287
36.11,18752132,9673732
37.65,15092218,13221250
37.35,15344380,13300025
14.41,83879141,21479391
37.24,14375161,13093163
38.73,18779404,7826332
37.84,23396029,7525170
26.73,27078576,15038279
36.58,14489184,13623873
37.15,14931704,14193142
42.34,16816152,5930557
38.96,22594520,5204122
37.61,13277151,12890433
38.26,13735079,12945880
37.31,13904253,13112945
38.76,20281708,6671089
39.29,20274684,6563193
38.42,20906254,11664442
38.09,22041168,10290187
37.84,16190546,9930857
40.08,19064961,9298590
40.03,27854875,8352826
38.11,15086098,14316884
40.73,24403962,7005515
27.24,38103918,26054010
37.16,15288329,13846536
37.50,15726249,14237204
51.29,16636708,3571315
49.78,16633071,4095233
30.80,34483181,10318570
29.00,41190124,10868054
28.46,40643594,12837195
28.92,40929852,12408072
16.10,79308881,19257694
15.97,79036003,20954041
37.17,14351355,14240848
36.76,14377296,14102563
44.20,16724296,5410267
38.88,20800534,7958786
39.98,20978692,10080617
26.27,26770046,14739706
38.56,13445683,13035715
37.97,14089465,13616828
37.67,14296018,13079716
36.81,18550328,10750707
37.20,29880124,14510036
32.49,23079984,17387003
22.97,40075526,23935144
49.98,18559739,3292425
31.45,34700861,9873808
29.08,41795056,9397264
15.21,80315901,27444254
35.80,22387191,8978325
30.56,24091248,13696144
22.91,40269505,23180512
38.15,13679552,13180680
28.64,26555284,6064306
27.13,26718443,12547884
37.54,14300446,13273507
27.89,34329050,9939970
37.66,15145851,13298292
37.47,14668978,13121428
38.94,15920383,9989095
26.72,37397529,25207709
36.84,15779072,14808967
47.96,19473727,4531671
40.66,24511361,7329762
30.86,34157813,13861711
25.59,40729190,26784501
25.51,40663323,25998450
25.49,40596719,26653148
37.81,15303552,13848305
37.51,15772818,13432841
36.80,15763548,13691811
26.25,43644174,15797234
14.36,85113958,19542932
14.34,84596456,20705547
38.10,13911293,13865492
37.10,13792665,13503253
42.03,15163490,8315262
43.05,15178369,7707555
43.70,16786160,5343198
32.00,24648116,19935065
38.28,13312541,13022930
38.50,15890765,9373074
36.86,18573424,10600368
38.87,21084750,14458746
24.01,32422120,21794872
37.98,15347852,13437579
37.49,15794444,13593477
37.48,15773088,14146895
49.40,16696266,3628692
49.05,18594245,3222190
32.21,47058668,8500441
27.20,42763951,12065965
26.41,43419476,15385871
14.03,85663758,28754412
37.23,13623764,13318591
39.44,15469239,8692781
38.20,20359660,14027004
23.24,34928515,17792694
37.36,14391507,13729501
43.02,17544215,5927504
38.96,22556773,5311188
39.55,21316147,7470949
32.86,35954515,8072635
28.86,25566674,11240821
28.03,30695631,9584241
27.30,30707757,13918001
20.97,39537454,9638878
37.70,14519867,13091772
38.95,16368016,9421743
23.28,32842815,17559401
38.51,13743854,13118118
38.30,14811854,13276101
38.07,13760243,13319407
37.96,15120729,13332800
37.47,15715500,13610748
39.28,17092973,10211965
41.48,21314525,5683914
35.76,20112265,13710035
33.82,9895428,9654071
33.39,10157763,9858687
33.42,19020753,7834598
26.30,29934293,15210607
17.22,48848091,30007627
12.97,69356139,57667039
33.20,10564208,9112841
39.90,13339552,3569434
33.89,18998786,5798614
17.94,49596535,17957827
13.51,70562831,38617578
34.37,8829329,8548673
36.30,14193201,4243457
36.27,14190723,4343026
36.08,12240597,4315146
30.65,16639008,5713598
18.24,40708790,21280959
16.06,54397140,17802792
14.49,48858701,24146274
14.56,49180226,23981615
33.83,9080523,8149523
32.45,11495600,6490485
19.53,32312401,31572669
33.03,10151305,8696867
38.85,12748197,4496281
33.85,23241647,6195822
26.70,38374452,14360380
13.61,71170351,36987640
33.57,9193033,8175900
33.25,9794505,8201403
32.37,12638656,8379421
32.56,12710782,6715520
16.32,48477731,25934633
33.31,9504053,8218132
36.28,11999571,5326191
18.97,41584936,9501965
16.18,56095653,14062764
33.94,9448576,7882738
33.88,9883201,8007836
33.27,10186400,8362021
32.28,11645012,6931178
27.36,28728625,13501531
20.28,34030349,17748677
20.09,53494144,8010320
19.98,52816895,8536504
33.78,9954375,8122322
32.83,10738855,8489836
32.87,11971944,8370583
18.92,53609882,12631456
33.92,13307319,12809480
45.49,14094469,4288016
45.27,19288606,6728967
37.33,27115487,11502192
22.01,43713602,29598151
34.65,12574041,10787162
43.91,15833010,3866361
44.85,19109275,3202494
45.40,19353238,3715931
29.96,44488022,9152424
23.90,45000530,13021171
23.76,45330897,13600878
33.02,12637593,11005105
34.50,21399739,7489664
35.18,18852878,6104137
22.38,34319903,13391602
34.16,11153334,11034994
28.08,26110891,19437162
34.76,12591524,11070860
33.47,13287507,11482734
33.62,14123130,11261509
29.94,43529900,11395704
30.26,43010302,8993683
15.78,71572298,25985358
34.73,11298797,10687642
34.50,14616830,8056055
35.06,17880968,9586826
34.49,11833911,10985687
33.36,13226782,11148002
29.83,32659904,14392970
21.04,37667998,11453684
21.55,37447635,11828723
34.04,12408093,10900403
33.52,13368825,10723297
33.89,15151866,8496795
33.81,14552789,8650461
33.29,18505886,8831294
27.14,33410292,15109778
22.18,51499655,9484614
34.40,12293262,10351011
33.88,12205357,10948325
33.80,12417633,10984255
32.03,27755904,14164996
35.20,12611667,12021571
34.34,13265310,12623993
33.69,14118671,13151976
44.42,15501982,5303574
43.17,15991942,6224198
42.81,15961884,6896696
42.46,19383833,6196573
35.16,28810191,12195159
27.15,43118412,21196178
22.06,42943287,28130585
35.12,12581268,10654157
35.05,12493253,10631432
42.61,16022442,4443923
28.22,46797147,10969278
34.49,11770159,11092681
38.50,15831632,4872205
35.01,11357567,10506371
35.36,11333378,10414389
34.34,14863564,9891334
32.54,22431180,6955744
43.40,19097612,3554317
35.75,11316496,10998093
34.49,11669258,11329259
34.30,12083934,10904893
34.24,12957228,12186203
35.12,19952280,11199452
26.48,28118076,19822016
18.43,40343823,31678813
35.24,11399043,10429337
35.08,11610178,10429589
34.78,11564147,10675788
33.58,11975073,10662966
29.25,31591951,10240403
23.67,35927963,9195338
16.57,58987601,8754749
16.25,58842201,14239070
35.75,11461143,10402249
35.21,11514780,10391435
35.03,12344077,10792610
34.53,13125562,10762439
34.64,15646078,8322857
35.67,12328406,10401470
34.95,12969548,11073190
34.19,12846599,10630653
28.23,29873714,6431704
26.78,30641708,12075431
43.55,15784902,7154220
44.98,19227877,6584177
27.80,42528132,21549596
33.27,13266042,11099709
32.97,13156050,11369674
45.07,17968942,4395148
45.63,15940431,2936338
22.16,46819688,18103530
34.18,11222566,11091376
33.00,11505272,10963540
38.87,15613464,6612502
39.09,16394596,5933039
33.91,11272001,10690485
33.67,11885485,11012892
33.50,11654504,10930406
33.63,12988710,11091778
32.87,19440665,11060570
29.40,25920429,12744390
23.91,35956153,32995458
33.82,12560698,10535283
34.40,12592854,10502486
34.36,12597640,10552820
33.06,11595275,11346891
33.29,12040893,11826893
33.96,14513745,9429391
32.58,24385370,18046387
28.93,24266477,13171695
24.10,37397900,17229242
33.47,12003225,10687646
22.42,34357187,12026930
33.70,11790506,10676687
33.25,11878991,10607888
32.92,12781426,10713755
31.13,27097699,13487466
33.77,11654583,10610940
33.12,11691790,10579199
33.43,12963951,10548273
33.10,15281643,10753686
33.81,17833201,9004768
35.28,18903446,5709725
33.67,20229737,9204081
32.80,9888687,9723752
32.11,10186111,9953867
31.35,10604584,10343133
39.37,13373860,4391910
25.90,30311429,15562880
32.96,9879907,8260714
39.26,11522754,3426793
18.50,49357293,20094941
13.91,68972191,36671179
18.63,40106906,35766212
18.46,38810159,12645416
33.52,9365038,7914973
33.27,9300467,7985290
32.77,9058012,8725963
32.44,13437904,6643507
30.10,19061645,7517822
26.89,26924003,15361598
18.30,45145378,23373883
38.60,11539717,3809731
39.83,16394262,4225986
26.69,30342425,9487532
26.65,30360042,10140007
18.71,49739802,18926031
18.92,49764694,17785761
13.98,69776998,34620733
13.51,70013930,39533959
29.33,22028189,16894317
32.09,9826897,8601295
34.92,10846057,5794067
34.91,12584299,4420623
26.13,26485377,8909364
25.66,33446679,11428849
16.25,57782457,14190436
32.98,9357837,7914059
32.87,9250430,8382981
32.33,9484502,8037020
20.55,50648925,9123465
33.11,9744290,8087945
31.98,9627743,8120041
32.40,10058929,8324910
32.92,10458124,8430517
32.45,10086138,8344567
22.06,32729140,14303964
21.59,33974418,15138169
31.46,9850234,8548260
31.35,10579386,8849586
39.14,11535021,3882268
40.08,13326940,2971870
18.08,52240606,19237778
32.24,8978632,8218604
35.56,13139092,4318835
35.42,13478483,6086627
25.38,24816587,8664936
32.59,8657845,8451719
32.21,9189510,8288610
31.88,11397563,6479092
17.16,42930892,25112932
31.87,9896035,8221019
31.62,10133029,8803853
31.33,10604694,9194220
40.31,11544272,3365418
18.10,52327556,19139778
12.93,70210915,40106178
31.70,9397042,7987205
32.22,9139920,8838962
19.56,44750559,38391300
35.30,12657816,4298189
31.91,17632969,4369936
32.19,20059998,4624430
26.93,27030405,10674352
31.89,9289348,7871311
31.62,9408070,7979892
31.61,9479537,8023578
31.27,11563358,6864373
29.01,22638238,5631530
32.39,9377606,7872884
31.33,10429654,8115374
30.79,12189382,7619412
15.95,61718016,6375785
38.61,13549351,4605737
32.59,22255664,10266342
11.48,76977729,62187886
38.11,12953722,4947137
31.49,20785609,5225134
31.73,11355201,6708215
24.37,29926925,18282709
31.71,9905632,8575559
38.86,11610333,3537067
39.14,13594315,3111433
33.00,19383323,5825179
25.59,35004303,10393555
17.12,52639749,17437122
30.89,9530847,9217155
30.99,10136404,8395849
31.09,10172669,8428033
31.01,14586376,6034960
24.01,28244160,14803894
18.41,50903031,23080130
30.55,9931129,8534689
31.14,9932766,8545789
35.27,10901240,4935930
31.19,17901863,4630298
24.82,27678464,11384908
17.86,42751316,15930460
31.50,9471162,8066125
19.93,32656836,19019055
30.54,15935530,6723639
26.66,23153155,13114819
19.35,52322571,8759858
31.76,9906628,9836634
31.47,10150402,10064226
39.03,11559925,5107233
40.09,13443252,4629310
17.34,52668407,31526839
31.22,10110806,8767071
33.64,19217156,5129488
12.51,74046620,36386347
31.62,8908183,8767809
32.91,20726624,4392385
14.63,63050848,25175246
31.70,9433508,8026115
31.88,9200972,8287505
31.56,9532390,9292149
30.72,14367937,6985657
28.10,25708162,11485258
28.13,25742433,20806519
17.07,42635929,23467858
31.29,10149669,8436592
31.34,10600575,8862159
37.93,13116560,5476476
12.28,74792074,40359046
32.04,9106872,8177770
32.62,8817699,8510850
32.34,9604882,8185686
32.33,9243192,8312892
31.44,10308892,8218572
31.19,9760406,8776358
31.78,11277721,6837327
31.98,16426055,7137972
30.80,21946355,6750059
23.36,26316707,11554891
19.23,43004606,18420130
31.72,9224103,7919880
32.20,9460595,8213597
31.39,9461114,8413802
31.06,10404116,8582213
25.85,27650106,10302224
31.23,9365475,8020420
31.48,10422096,8099985
29.15,15471683,7523475
21.77,30151148,16259519
23.98,29772127,11530663
31.87,10144453,8124642
31.21,9790030,8297612
30.95,11733637,7529105
26.82,11808099,7438387
30.58,20970765,6564428
33.18,17959245,17004203
32.74,16707767,16172199
33.05,17147110,16375549
32.47,17144359,16300022
33.08,16463956,15555039
33.18,16701017,15693106
32.77,17140433,15856863
44.04,19842684,7481920
39.55,24536680,7345712
33.43,15640143,15573723
30.37,29788501,16458473
23.88,28380515,20385937
33.40,15428694,15359315
33.44,16629437,16422660
32.96,16130265,16100804
36.41,20300687,10911456
27.28,28602550,21729178
24.67,33906565,19468918
31.84,17149938,15979685
45.23,19892013,6600608
44.99,21887242,5676716
32.53,15860423,15758668
33.11,16577586,15602064
28.61,22925085,15377554
35.04,28829936,11558059
33.73,16179037,15406511
33.44,15662180,15553558
32.13,16771301,15966252
33.16,16570157,15537999
33.09,17206394,15502249
33.25,21979215,12953176
27.75,31288149,13573279
40.14,25149114,9679754
41.37,20618487,5353359
40.61,22416910,4062150
37.26,27258967,6230773
37.09,30739193,9032822
30.63,33535326,10673094
29.27,20402597,18950696
29.81,18152499,17953053
36.29,24680078,7685358
33.52,25510270,10026441
31.96,28574375,11440645
29.76,19173039,18206915
34.94,25639563,12930467
34.56,24268365,10173445
23.25,35519865,23320322
24.97,36313727,18244234
28.91,19718525,18296741
40.54,24898208,6696904
29.79,19137490,18120420
32.38,20555055,12230721
33.56,24842301,11716921
29.26,22629748,21718612
27.82,28427515,11498666
28.94,18244957,17952345
31.37,27062997,13348586
29.88,18076479,17937723
29.52,18244754,18066110
29.06,19758391,18080631
31.66,20486716,13435383
33.20,31808499,10435381
29.84,14603149,14133190
39.73,17524317,5627671
40.58,16433009,4317404
39.03,17293730,3545954
27.57,30743727,10971494
17.88,48190718,40994724
31.17,15540985,13768128
38.62,17713002,5849199
37.73,15511584,5955630
28.54,36415254,10047226
20.50,49127288,19545219
21.52,33350639,24631003
21.66,33756205,25555211
30.69,13663732,13422662
31.54,15442991,10163510
36.46,18165024,6082469
23.21,32671135,17983561
31.19,15555933,14478425
30.61,15987835,14435876
30.62,16405447,14113552
38.69,19681865,5335487
34.55,22057258,6990155
35.90,18985150,6953683
25.52,22212730,20204015
28.11,22793159,10334685
26.05,30558676,19064110
34.38,14940690,7650429
24.52,33178329,10390786
31.21,15201867,14627355
30.37,15964943,14978690
28.28,33880661,9082758
30.69,13631831,13120186
30.24,13798204,13351038
34.61,13923048,13481255
33.38,14592247,14077597
17.94,48015961,40188388
17.80,48092628,40364430
43.14,19390125,4743100
42.95,17231509,4392006
36.91,21967810,6135519
34.98,13233253,13214196
33.84,14337878,13887007
34.64,21644100,10969230
35.12,13433638,13214896
36.57,20091322,11083807
31.72,23988811,20890902
34.16,13928637,13031277
34.36,14712011,13433216
34.52,14586499,13677498
28.97,34614587,11178600
33.83,14100362,13739983
25.76,21548320,23622050
38.36,16876906,6374161
35.76,22315260,9042705
33.43,14831088,13377978
34.18,14205919,13808890
33.30,14599780,14173470
41.51,16336984,6411527
37.13,24600537,7992323
17.91,48189145,40102516
37.73,24665421,6634594
37.10,25234203,8581435
29.66,31343066,8563952
29.12,37385261,11406296
29.04,37041602,13641876
37.66,17450982,7421661
28.30,28575459,15208201
34.78,13430087,13223847
34.48,13467892,13356785
34.91,16191916,10218348
35.21,19653507,11582706
26.51,29552920,18498514
21.88,32746119,22635374
43.53,18681762,4546882
34.31,13743427,13551349
34.63,13601722,13263580
33.85,23417212,12935442
28.11,23669600,22808908
37.90,18209658,6596382
35.46,19600399,10709290
28.06,33266209,6398223
34.26,15986613,10899259
32.12,20406265,11243791
30.95,25754944,16164741
28.50,32741934,12936109
37.42,15507385,14136805
48.74,18895431,4752584
47.50,18658065,3207578
47.13,22168662,3742620
43.98,18649580,3734524
46.77,22131871,4422564
32.42,43866056,7931342
30.35,44929911,14867357
41.87,16288536,7535688
29.65,32371580,16334004
23.26,32285493,28916928
37.99,13952313,13018046
37.75,14135813,13311523
37.13,14899076,14078239
37.45,15085752,13975789
36.95,18616345,11400545
32.11,24577380,15552378
37.65,15630290,13925134
37.84,16368535,13738066
37.69,15635858,13928804
37.66,15951994,13635352
39.16,14002405,13261450
37.25,14792995,13177549
36.89,14986679,13375742
31.82,22804538,11425749
33.62,23656423,11361835
28.63,28939459,11859026
20.09,40145296,14043210
35.05,26752163,7977957
33.28,37980663,8405903
30.66,25019032,9598265
38.77,15259506,13234088
37.33,15282018,13519179
35.88,15593316,13547134
35.63,22292744,10236721
29.69,37431720,19531509
40.82,15390978,14068615
48.85,21880872,5753545
42.00,24197007,6210385
39.47,15264709,13678259
39.86,15556583,13964277
39.76,17322698,14318230
49.13,18639492,3263576
24.50,46186101,12379218
24.44,46809673,12784858
18.58,65445782,24221753
40.68,14115768,13271147
40.59,14161728,13323577
39.29,15203732,14395216
42.71,19123036,6548546
38.72,21758207,7342205
31.39,28438141,7718801
23.96,29929312,30391840
21.25,33887368,22271573
20.52,34906130,34065428
39.14,15859127,9202720
27.38,31735669,18468269
49.74,16865424,3590540
34.48,34585761,6956179
40.57,14643021,13985894
40.18,15094038,13843764
43.77,15409683,8234234
40.36,21940808,7390442
31.41,30214403,11079306
42.25,13725007,12978231
39.44,19186431,9245593
40.55,14725450,13427392
34.61,21317584,13719100
38.56,15199982,14026638
39.58,15209976,13981159
38.53,15202783,14031253
39.76,15270348,14245645
39.29,15605916,14260806
38.36,15880000,14403980
52.79,16796924,3405725
51.07,18570099,3629886
41.37,24245557,6794026
32.76,33020710,12350352
24.57,41561682,23426356
24.34,41782005,23326048
37.96,15289030,13351618
38.66,15276187,13688055
50.09,18647065,3580339
18.11,64913046,19998630
40.34,14125805,13164459
39.38,13957596,13072994
38.56,14935136,13887661
42.29,16470061,8830114
44.09,17738614,9160063
29.77,35732066,32048290
18.59,43230586,23931791
39.03,14731486,13097870
38.56,14894703,13420673
37.71,21298106,13435272
33.40,29361611,20382182
25.21,46456133,10482281
23.82,47102256,15753211
18.00,64903750,20538991
38.56,14341861,13655190
36.85,14792090,14061998
38.68,16574502,14603351
36.06,24090007,6745889
38.31,15612975,14163484
20.08,49143362,14315617
33.40,26087785,9370289
32.11,24026071,7549489
38.91,15999744,13325604
39.35,15465233,13254287
34.04,32354148,13035475
33.12,16918880,16221007
46.83,18180029,4959436
44.25,18174976,6318051
45.60,19900519,3737545
33.58,16680749,15811362
33.24,16953404,15745308
30.33,33688028,8795680
39.51,19191259,9376680
39.36,20478105,6742470
38.70,19363443,6942991
33.03,23789356,11060871
33.66,15739104,15465729
33.14,16082939,15790549
32.84,16937433,15613784
33.17,28196181,18319306
32.39,17358024,16142865
43.43,20231869,7591138
30.24,41615430,10416012
22.14,46302406,16486710
34.67,17849833,10960192
30.67,23338118,15927966
30.27,26528459,19234850
29.62,24007681,10138912
32.95,17439076,16621913
33.12,16190148,15586421
33.62,15999767,15521795
32.84,16468056,15621468
33.08,18135278,16349144
34.24,18163223,11437668
33.13,16734227,15691630
32.40,16170461,15851395
29.30,19730281,18936665
39.86,24525668,8365592
40.06,22358894,3858597
28.73,33515081,9715705
24.00,34351137,15192649
29.30,19119113,18296849
29.23,19317551,18544734
38.32,20702194,7686500
23.86,35298719,11556831
34.10,25974422,9035445
25.60,26623505,16883965
22.59,28552143,18274343
23.73,32746773,16974328
28.99,18353967,18109459
29.49,18988360,18735356
25.68,25722026,17773018
29.56,19338349,18263326
29.16,19785948,18580759
39.24,22445199,5104671
38.91,22438089,5157427
39.04,22458726,5321556
25.07,36935032,10548865
29.14,18221095,17955857
29.45,18705854,18385424
29.19,19343440,17990609
31.69,25566078,13742440
30.89,23861611,12018447
29.64,23881229,12963045
24.65,38129615,16483411
29.23,18420607,18029549
29.17,18490501,18050937
34.07,28169716,9122126
29.19,25070296,7481393
30.77,26430577,15136482
30.83,26394877,13080829
35.64,22257313,5903740
28.49,31124172,10314994
28.34,34125954,12212631
32.48,14132864,13311126
32.16,14307413,13413621
31.76,14423554,13027423
38.95,15975375,5987601
31.84,17145606,15107390
29.27,23299061,17455692
25.32,32018518,16816475
31.59,14914260,13762621
35.15,17857912,9367408
34.59,17365448,6270931
33.03,24738560,8803527
24.23,34628521,7902332
23.45,36601027,9890327
30.25,28514754,13071921
32.08,15787105,14575727
32.02,14320992,13481132
19.85,45107142,34136368
27.36,18636581,15944228
37.19,19684165,5278158
22.96,40501161,11393382
27.23,17894062,15841261
30.73,23465143,11871153
23.22,32195381,29398940
27.22,22470752,20250148
26.96,22303970,18291771
29.08,19407452,11074162
35.97,19348260,6438023
27.75,34355452,9240705
27.74,17905503,15790288
28.25,22058781,12885918
27.37,17982376,15833330
27.61,19950215,17163244
31.29,19269886,9288352
30.73,25374951,12828977
27.38,18249207,15953470
27.40,21974819,11688142
29.99,25056276,11024119
27.32,18730394,15560096
27.15,23263361,18749603
26.71,24080917,18448354
27.79,23849884,11585191
35.59,14524018,13743283
47.19,17067556,5775702
29.40,31431159,10239677
21.09,43137162,19147188
18.15,44990234,39393306
35.15,14578523,13408683
37.96,22286790,6045096
38.47,22312771,5932527
35.79,14185971,13273676
35.91,13883094,13152971
38.47,15410961,8711764
39.56,16277399,8311733
37.01,23255169,9799206
35.56,17481307,11073508
35.41,17214103,10934976
36.78,20156244,13877183
30.13,22864048,16523512
32.68,24123295,13730969
25.93,22121214,21616741
24.28,35309203,18254478
34.02,14615093,13547236
34.92,15914236,14212457
45.74,17132207,5028833
38.54,22392029,5378032
34.31,14228815,13488517
30.88,26873409,17233781
34.07,14663686,13679133
28.90,29435992,15228201
23.77,38083724,15315965
35.16,14132966,13222433
36.10,14780983,13589984
34.12,13891189,13331593
29.56,29598994,16510644
22.90,42337349,18467508
30.20,29351235,7371146
27.34,29956249,5427210
19.76,47120769,24816687
35.16,14392841,13070978
35.30,14394383,13150777
45.92,15904053,4368217
30.18,31794678,8705137
22.37,43508043,11950257
21.91,44454421,11875693
21.98,43154757,13218665
19.09,46157049,19754121
35.06,13929821,13153913
34.67,15457858,14344273
34.74,23922439,11278887
29.07,24281274,15463765
29.40,22111761,13817389
42.26,15916758,6105177
38.86,26169424,6559373
35.05,13771301,13192827
35.42,14769582,13829747
34.19,15326915,13447620
35.33,18583611,12485737
27.25,25830485,12263161
38.26,15515601,8328168
38.23,17238621,6266893
35.61,13636972,12987469
35.53,16479627,10262285
35.53,16455212,10322557
35.16,16188769,9939333
24.44,32685026,18322342
35.56,13741620,13135765
35.59,14463724,13157937
32.54,16858706,11629450
40.77,17490633,6566557
19.84,47184289,20924782
33.01,16572323,10736896
32.84,17845381,11275346
20.36,47776419,15768229
33.17,17620219,11021928
32.35,17266010,10991773
34.87,17901214,7313961
33.05,25862080,13191485
33.05,26729324,14989560
31.71,21747416,9557855
25.71,25132422,25534134
19.57,38058018,19407559
36.85,23246621,5661410
36.69,23172022,6100911
18.75,47159199,24817580
33.28,16654041,10866012
32.49,16504481,10811588
33.20,21848448,9425041
32.64,16767563,10594502
32.72,17870615,10778811
35.42,19908178,5583426
26.70,32796701,14860439
20.86,44370086,13215990
31.51,17521607,10682472
27.76,26320352,6967652
22.89,41170908,9949241
33.20,16502579,10653487
32.91,16422743,10596461
31.79,18966542,11122755
31.86,20336341,9773006
22.37,38637036,23237655
