perf, CACHE_MISS_L1, CACHE_MISS_L2
59.30,1645830,831361
56.90,1719175,1141817
53.90,2147173,1815137
49.74,1079119,869364
45.24,1297472,1088855
30.97,2431129,2097091
19.59,6444652,5687172
13.95,9512141,8241387
7.97,19019915,16610118
55.42,1647016,1071631
56.47,1721967,1143819
54.58,2165376,1684571
51.19,1143471,758919
45.51,2062104,1224039
33.84,3881689,2014048
22.58,5588933,2876551
17.16,9536391,4194788
10.78,19068297,8204373
60.95,1821492,988284
58.53,1981520,1195617
55.65,2180236,1218443
50.88,1174948,722395
48.43,2082090,781521
37.90,3886507,972685
26.82,6445644,1332508
21.02,9591167,1364134
11.87,19078899,1740085
47.72,1646898,1917404
58.95,1946917,1078697
55.84,2126262,1128753
54.08,1613846,1098117
51.30,1564744,1088575
40.89,2144836,1066628
30.69,2186020,1026263
24.66,3821088,1096535
19.11,6825687,1156026
58.95,1645792,873802
56.46,1722277,995456
52.41,1851696,1149613
52.82,1232052,990784
51.74,1160711,877651
34.67,1176932,1051123
32.21,1220553,860686
23.91,1290436,939695
21.17,1383452,1364885
59.24,1646345,857457
48.49,1684647,1561271
57.04,1751781,901330
51.74,1633397,1039436
52.52,1807135,1148863
47.45,1595561,872762
37.65,1594827,980104
37.29,1592921,839472
27.64,1587291,1008969
59.64,1648526,831948
58.22,1969685,1379692
53.94,2162373,1679193
51.37,1135752,743308
46.62,2061081,1210873
33.58,2448120,1307995
22.73,6625098,3380346
17.29,9540655,4182981
10.34,19048039,8383441
56.98,1758983,1229737
56.18,1725078,1084805
55.33,2165266,1234216
50.54,1196733,733840
46.83,1396332,702372
37.44,3893766,1022839
26.61,4811578,1164299
20.04,9566563,1664905
11.59,19054248,2508024
56.91,1646515,991773
57.21,1721771,934402
54.29,1850014,1040801
53.77,1431296,1212262
52.72,1336698,1026664
42.34,1311072,1024557
32.32,1335121,1100843
23.89,1289173,935358
22.50,1439106,1409385
56.77,1646769,981686
56.80,1685238,938956
59.08,1901805,1006939
55.22,1634113,818290
53.10,1613870,825333
48.44,1619368,828299
41.24,1702714,896741
38.67,1677501,894838
28.63,1651805,929892
61.55,1826095,955327
56.41,1725092,1049837
55.67,2167605,1194061
50.64,1176099,728618
46.77,1398319,703275
37.36,3907144,1032734
26.69,5667000,1213095
20.68,9564021,1269568
11.85,19132252,1626476
55.00,1648644,1067199
56.16,1853954,1213473
52.74,1753574,1103145
54.41,1635033,872808
52.18,1806807,1150036
45.66,1597051,971488
41.27,1705838,890628
37.04,1595171,868629
28.19,1589150,809429
49.68,1650109,1479609
55.61,1729978,1024176
51.65,1877534,1246839
50.78,1339490,1065927
50.71,1550676,1090491
40.31,1442033,923667
30.88,3144194,1008370
24.52,3862560,1041475
19.17,6841360,1009648
57.97,1648198,866562
56.65,1722845,927589
49.41,1853207,1526427
55.08,1427161,981353
50.92,1162823,870387
39.88,1179566,948603
31.63,1223203,880942
23.72,1291925,889437
22.41,1379530,830095
58.70,1648825,852858
56.91,1687930,910147
52.69,1756896,1108544
44.48,1637214,1707505
51.71,1617777,865607
46.97,1604824,876836
37.08,1602970,1007171
36.18,1601014,971570
27.36,1592970,1010930
55.50,1648098,741746
55.85,1721653,743824
54.05,1856913,726023
54.47,1234595,587918
52.38,1160628,560975
43.31,1301437,586366
32.45,1218401,575322
24.13,1294190,558092
20.98,1390144,656564
55.05,1647896,736444
59.81,1864370,641274
54.38,1916800,920453
56.77,1790878,596071
53.02,1620966,535543
45.07,1598692,741659
38.41,1595923,607506
37.57,1599469,466633
28.04,1594927,613558
60.09,1644310,384354
51.41,1681740,972393
59.19,1750810,273476
56.22,1634234,390282
55.64,1610048,283517
47.68,1595086,548737
42.72,1596322,356718
34.83,1593245,316987
24.13,1593533,340618
49.25,1627626,1785990
58.19,1781987,1307371
53.74,1962826,1752325
50.56,1558159,1606410
43.10,1910344,1753533
29.83,3473944,3284201
19.49,6520637,5998824
12.06,9506299,9129671
7.60,19021861,18133300
57.30,1507275,863318
54.59,1584481,1113695
53.95,1978222,1701984
50.82,1152999,759941
44.01,1313311,745977
32.70,3610994,2161357
20.78,7401991,4498715
13.79,9513478,5729454
9.50,19066597,11055585
57.20,1507691,833765
54.03,1583232,1069124
51.00,1733224,1110127
50.10,1173019,739042
48.22,2086980,810432
35.23,2488086,779704
25.61,4844474,1115982
18.23,9543973,2089010
11.16,19152710,3805689
57.49,1507722,830275
54.64,1589592,965216
49.26,1749256,1242601
49.97,1312034,1010181
48.40,1153414,949552
38.78,1629410,1014986
29.99,2693286,1060675
24.13,4914608,1081521
18.03,9459158,1124468
57.17,1507376,853493
54.57,1591265,979045
51.91,1719666,1062767
46.59,1177799,1456808
49.97,1101678,933263
40.58,1143925,897216
31.14,1215863,1003367
23.70,1359913,896157
19.80,1558255,956965
57.91,1506806,809493
55.69,1544606,905119
55.48,1614345,899187
54.63,1499647,824328
54.88,1620646,909058
48.86,1570059,892311
40.02,1616637,887146
35.15,1469777,789013
23.53,1465574,844575
46.73,1507618,1673627
55.05,1580907,1104390
51.60,1730689,1326615
50.32,1139442,786246
46.12,1314698,832837
32.46,2464760,1550277
21.83,4871128,2545749
14.45,9514915,5212756
10.14,19085851,9672979
50.66,1511794,1132289
53.82,1585519,1071368
51.28,1730533,1083007
49.97,1185953,734140
46.30,1351727,705033
37.08,3519524,919915
25.42,4846701,1157447
18.35,9537424,1761599
11.33,19050855,3269732
46.78,1508234,1671086
48.62,1586574,1405220
50.95,1719573,1086687
50.45,1168415,1064270
48.99,1100612,1000406
39.48,1143989,983923
31.82,1208410,869813
23.50,1360063,941507
20.24,1560278,916213
57.07,1508397,867407
47.68,1545104,1456206
55.71,1614202,885610
50.53,1632929,1468538
54.49,1610560,913468
46.60,1470383,792172
40.04,1614620,891333
35.05,1470405,799695
25.39,1467824,1080394
52.83,1509405,1037677
53.71,1585533,1077074
54.44,1981611,1307137
53.69,1661940,885913
45.99,1353625,712919
35.00,2483153,829806
25.65,4846539,1100582
18.76,9538957,1627836
11.25,19055820,3650416
59.83,1613307,980144
55.94,1545567,897280
55.49,1615133,907187
54.37,1501053,841296
51.82,1483165,818361
43.14,1471193,1057446
38.00,1471602,791797
34.99,1473153,830117
26.20,1466997,847097
54.50,1513897,943034
53.47,1595615,1029961
50.02,1757314,1167015
49.43,1300642,1112408
50.94,1608668,1033005
38.94,1644449,1012308
30.03,2671498,1065003
23.97,4939579,1030969
18.12,9455029,1015516
40.98,1514154,2081963
54.43,1587705,943900
52.13,1719753,998750
51.37,1183643,962316
46.40,1102569,1218993
39.35,1146436,969443
31.62,1211320,938322
23.49,1359287,890455
20.18,1554073,857561
51.26,1515001,1094771
47.28,1547657,1421961
58.19,1732535,964126
51.94,1503024,928498
47.19,1487478,1058347
44.89,1473676,879815
35.43,1474993,992879
34.87,1478452,813396
25.49,1474374,956990
56.31,1518047,652146
51.34,1599611,950388
49.98,1718301,910971
54.54,1175570,558907
48.66,1100375,701553
40.58,1144705,612159
33.33,1435912,517643
24.27,1404937,703060
19.90,1558361,625921
55.74,1514899,654424
56.96,1546577,573352
55.71,1613227,593290
53.51,1498528,562506
44.60,1485972,1103645
46.71,1470142,499073
35.81,1471303,706994
34.88,1474856,577596
26.85,1556189,567624
58.11,1505299,370884
59.41,1542024,243902
57.31,1608755,313769
55.31,1498012,403245
50.50,1481048,508164
47.92,1471054,411863
39.55,1476284,397905
32.07,1470573,539065
23.39,1492105,269965
58.89,1646214,818995
56.20,1723026,1140883
51.98,1865719,1364709
49.88,1074889,862224
44.43,1306522,1074079
31.28,2437751,2063593
20.36,4800220,4050569
13.65,9523266,7792883
8.05,19034800,16039731
58.09,1647078,866871
55.76,1722541,1127210
50.92,1862736,1271964
48.51,1179282,757335
44.72,1386822,759248
33.60,2460278,1339686
23.52,4836751,2383126
15.87,9534334,4738688
9.96,19073874,8455207
56.28,1647122,1004897
55.56,1724829,1081882
54.85,2172231,1297212
50.42,1218067,739496
46.89,1412278,712104
35.44,2491456,883687
26.84,5899054,1414369
18.65,9564166,1792419
11.16,19093975,2728206
46.76,1648642,1755609
55.28,1732322,1045936
52.04,1889009,1120236
50.63,1313658,1040326
49.24,1161571,994190
40.96,1974982,1041504
31.29,2205398,1036395
24.01,3682430,1090239
19.07,6236710,1068145
58.99,1648135,812149
54.40,1726692,1086943
53.67,1856755,1010544
52.57,1236884,984700
50.89,1166626,914461
40.64,1208511,935471
32.28,1291472,1027001
23.68,1482810,950180
22.23,1711455,920256
48.66,1646442,1881324
55.76,1684705,992464
58.76,1917366,992826
55.35,1636449,836006
51.94,1613456,925228
48.79,1594215,806150
38.72,1593571,912451
36.57,1594961,811032
25.09,1585079,794425
57.92,1647138,886516
55.91,1722746,1105534
52.43,1862537,1271725
50.88,1179745,756394
46.70,1383770,790536
34.32,2456004,1296168
23.85,4813670,2320910
16.03,9532484,4592020
9.93,19074215,8473438
57.88,1648973,884876
55.33,1725045,1086237
52.43,1874174,1087126
50.46,1226517,739648
44.09,1406441,702722
35.63,2490523,881464
26.36,4825429,1339764
18.38,9576073,1875275
11.21,19094343,2575399
56.42,1648672,991351
55.13,1726912,1026982
53.16,1851456,1041622
52.39,1457596,1315079
47.88,1168878,923329
39.89,1262031,1286827
32.45,1289662,1016573
23.65,1500804,894134
22.82,1767678,924661
59.79,1842795,997514
57.80,1685514,873551
48.72,1753558,1514893
56.07,1803538,1036330
51.94,1811842,1192494
48.20,1594766,879349
41.31,1640274,884346
38.31,1668551,900828
26.36,1662486,969599
59.74,1839589,1005971
58.37,1998601,1177671
52.91,1874228,1060774
52.80,1669602,893256
46.94,1415875,704164
35.58,2477898,870078
26.80,4818088,1199424
18.54,9563840,1873186
11.13,19091736,2816475
56.56,1649525,986477
59.25,1866632,1013838
54.03,1753856,1038526
57.47,1807629,947515
53.14,1615199,832781
46.20,1595884,992291
39.69,1645565,1032176
38.21,1667493,927248
24.04,1587471,1049293
57.73,1654915,848787
55.99,1739957,973828
53.15,1885899,1044201
51.51,1310007,986128
50.63,1540652,1045289
41.16,2034830,1036708
31.42,2222276,978569
24.22,3645403,1086724
19.02,6205651,1048225
57.01,1652814,870686
52.07,1734618,1203846
52.83,1858034,1039987
52.60,1259217,948788
47.86,1361241,1082910
40.39,1210283,956979
32.55,1291032,933280
23.43,1504218,899388
22.68,1771017,946704
59.24,1877848,975317
56.09,1688244,943680
54.58,1756046,992901
53.60,1814343,1132919
49.43,1619793,1041419
50.17,1745352,895180
40.98,1643524,840294
38.02,1676534,915071
26.75,1660936,845344
60.95,1780518,563482
59.58,1922033,643601
57.10,2004851,676778
54.13,1476560,720601
53.38,1342074,575391
41.49,1207630,560428
34.02,1382799,619156
24.18,1505406,699431
21.74,1760813,578100
57.51,1784654,778606
56.48,1688002,668877
55.28,1753969,669531
55.75,1635470,516446
53.47,1615258,513363
47.93,1756715,724111
39.52,1596577,491753
36.97,1603324,510088
27.15,1595945,580829
60.40,1648246,291658
53.74,1685527,719264
58.65,1752427,310112
55.72,1637652,455883
51.57,1614234,586336
51.44,1603829,245351
41.84,1601140,498550
34.73,1601757,353024
24.21,1601595,348536
53.06,1649200,1155252
55.75,1721767,1175689
51.62,1869893,1170960
47.21,1053066,870283
44.67,1261283,1087211
30.89,2427051,2111024
20.56,4786017,4233979
14.93,9520514,8205183
7.96,19024259,16659593
56.88,1648969,945850
55.89,1723542,1143626
52.40,1870460,1084811
51.85,1085534,744988
44.88,2119378,1332178
33.02,3967790,2297702
23.79,4789548,2303923
17.96,9556634,4224198
10.34,19045320,8389743
55.81,1648239,1024383
57.67,1978177,1211242
55.18,2148596,1189017
51.68,1124517,722676
49.25,2111686,800687
34.46,2470888,775761
29.00,4799275,935394
21.04,9564434,1331103
11.80,19074973,2410788
61.43,1798353,945635
55.49,1726874,1030713
55.63,2081341,1168050
52.68,1250051,989010
49.03,1162192,972703
39.36,1410665,981912
34.71,2191827,1103508
25.12,3856885,1147053
18.82,6880023,1191484
61.19,1804650,950865
53.71,1722646,1137415
53.71,1859406,1050904
52.23,1228983,1066819
51.46,1159351,887240
40.84,1173001,885447
34.08,1219608,1387632
24.30,1251563,852080
20.65,1354569,960122
57.84,1648088,904949
59.39,1834383,1016089
54.98,1911804,1217793
53.56,1634264,923367
53.09,1611987,872408
42.35,1590095,1327284
35.65,1595363,1661155
37.13,1593937,819159
26.49,1585553,877052
57.26,1648696,939762
57.83,1971425,1355590
53.94,2140494,1655794
51.83,1095317,740181
47.32,2041651,1239765
33.61,3919067,2191263
23.82,4789390,2295475
17.37,9561217,4581381
10.51,19051698,8022606
50.62,1649664,1335473
55.84,1724214,1083632
55.25,2151572,1206294
51.45,1125663,717767
48.97,2125167,795876
35.77,2468629,750901
28.85,4794694,935138
20.97,9579775,1626911
11.59,19067748,2583796
58.58,1648710,846298
54.38,1723938,1100555
52.48,1857118,1149813
50.86,1220946,1254810
49.20,1160815,1079281
41.14,1174817,861400
36.32,1218369,873926
23.55,1250564,1064707
20.29,1318707,869588
57.08,1648087,937313
48.71,1686638,1492736
55.32,1755903,944285
53.63,1635655,911850
53.47,1613594,842752
47.19,1590646,891836
33.73,1595790,2055487
36.80,1595479,887651
28.88,1586644,851728
56.60,1649534,967649
55.74,1723730,1074535
52.84,1870101,977361
51.69,1145882,717013
47.54,1347191,702522
35.56,2475210,781658
28.52,4797605,1005661
20.99,9566789,1370518
11.66,19064171,2121383
55.93,1649811,999334
57.85,1836076,1070190
55.66,1755051,907462
46.64,1636000,1519850
48.88,1807653,1568434
47.09,1592684,867872
36.13,1597380,1452909
37.00,1595712,831409
28.65,1585108,870177
47.74,1650886,1770363
55.24,1726503,981541
55.61,2080100,1081543
52.50,1236912,946435
49.32,1168303,955145
40.71,1419828,945879
35.18,2246086,996690
25.86,3874720,1101544
19.58,6876448,1105434
60.93,1769289,890102
57.15,1887744,1073095
52.93,2021970,1413711
54.49,1411561,1066313
51.48,1350547,1063777
43.12,1324770,898910
36.54,1241022,846723
24.50,1276558,890876
20.60,1355150,898679
57.23,1804764,1088485
56.36,1689141,895403
54.52,1893817,1159059
55.77,1801572,926068
54.56,1794198,913630
48.78,1786576,898739
39.61,1597772,806311
38.52,1711292,906382
29.52,1647522,911277
53.50,1803848,1217113
59.15,1890231,678504
56.88,2004513,703841
56.97,1410506,623459
53.46,1330884,603363
44.35,1318700,531840
36.64,1240867,576348
25.39,1276223,533867
20.14,1320968,558776
57.51,1649393,601144
57.10,1686226,573065
56.19,1755295,573711
51.63,1635339,725078
52.93,1620281,553469
41.30,1595203,1385915
39.61,1598379,550901
37.39,1603828,538372
29.13,1592729,480592
57.90,1645160,349479
52.87,1683674,712148
53.31,1753412,642645
55.25,1633389,448864
55.38,1610342,274244
49.13,1590393,382868
44.88,1602066,331705
34.73,1652172,392158
22.38,1594109,1052870
58.94,1647057,859432
56.75,1720858,1144884
54.03,2145280,1851372
50.94,1040113,869325
44.97,1272932,1077497
33.63,2439533,2087172
20.59,5557581,4767584
14.35,9523624,8232313
8.12,19034139,16192250
50.56,1647317,1548980
56.19,1723074,1142228
52.43,1872431,1056052
52.03,1119248,737567
45.84,1310694,759382
34.17,2463629,1341065
23.70,4799916,2486951
17.30,9539086,4255591
10.20,19078999,8839570
58.07,1647534,922486
56.27,1724412,1078167
53.03,1874376,972692
53.69,1656328,852413
48.08,1352102,701815
37.50,3899611,969014
28.55,4803103,963337
20.23,9581095,1529565
11.66,19078822,2210140
58.56,1648575,895771
56.88,1730929,982548
53.05,1876850,1122153
52.47,1255226,984765
49.98,1168112,960518
41.64,1444344,958874
34.66,2233181,1096796
26.43,3875538,1088645
20.67,6644129,1215921
62.31,1767594,927772
55.43,1724152,1069666
53.17,1862441,1127023
54.55,1232297,943028
52.16,1163201,917740
41.40,1183080,1040707
36.11,1249306,912060
25.46,1376457,1014345
19.75,1481866,1318420
56.64,1647379,1005905
53.84,1684903,1152187
53.06,1757663,1129802
55.92,1633280,814113
53.39,1615216,884524
45.42,1764255,1284150
40.41,1600316,849596
35.79,1597908,842533
27.99,1587878,782239
50.66,1647030,1487582
58.95,1950119,1341861
52.22,1867820,1057864
51.98,1109079,734812
48.16,1330723,751505
37.21,2468651,1281448
23.83,4804730,2432628
17.07,9545967,4523533
10.24,19059369,8553465
48.25,1793204,2296416
56.44,1724705,1075627
55.64,2168837,1219826
51.71,1148948,718395
49.63,2001169,779734
39.19,2493471,803125
28.20,4800749,1037320
20.34,9587789,1641584
11.60,19078377,2572504
62.32,1768857,932739
56.56,1724338,985003
52.79,1858768,1164913
53.96,1236443,983435
50.68,1333932,1452106
42.51,1184788,917917
36.70,1230943,886222
25.86,1329619,933045
20.92,1489377,926636
59.89,1784755,1098435
56.94,1686672,959197
48.24,1756032,1569349
55.04,1633424,885555
53.84,1615310,818132
44.96,1591663,1068722
41.06,1641620,944395
36.92,1680596,923508
27.87,1588618,854995
50.11,1648612,1547499
56.29,1724442,1059739
52.63,1885792,981706
51.29,1142629,722751
47.76,1367942,706665
39.15,2493982,804459
28.61,4809722,997596
20.18,9596325,1762671
11.67,19093485,2099698
57.69,1649255,949386
61.44,1821029,950522
52.82,1757441,1127516
58.35,1784761,927507
52.98,1615998,896015
47.91,1594451,805746
40.03,1602837,806198
34.73,1601146,1032391
27.76,1588820,874933
57.98,1773419,1091155
55.78,1730808,1014931
52.90,1878232,1144978
52.92,1256303,952912
49.87,1172713,933089
45.61,2194254,1018090
34.84,2183521,948613
26.08,3803604,980887
20.15,6646249,1017756
57.36,1651747,876421
55.92,1724508,973948
53.48,1859465,1044303
53.73,1239180,923523
51.35,1164653,883842
43.78,1239194,1155507
36.05,1236958,854134
24.78,1325453,1170506
20.89,1432813,820398
61.46,1767124,881528
58.42,1816253,1022738
57.42,1890942,1013527
54.85,1640783,829162
53.11,1625814,830842
49.10,1764240,872227
39.52,1607792,806718
36.54,1694678,934359
27.65,1673800,1106752
58.14,1647991,624339
58.87,1850512,720632
54.89,1858809,644989
55.53,1233285,562992
51.81,1163671,565123
48.68,1332139,519718
35.92,1246517,622599
26.39,1355303,569551
20.98,1486335,526062
55.79,1650726,733596
58.25,1686140,564773
58.08,1882173,669595
55.66,1636309,512871
55.48,1770096,576819
47.53,1596034,531481
41.01,1639678,518647
35.91,1605055,542781
27.21,1596662,694534
58.55,1647664,456282
60.98,1815048,426731
61.23,1877134,301004
56.55,1633418,403088
56.46,1754741,362477
49.34,1594823,333022
38.41,1615900,1319757
36.40,1660675,398609
23.86,1596791,385836
54.19,1507636,1030775
55.63,1582504,1126025
50.93,1730464,1264273
48.85,1084129,894865
44.23,1279477,1168003
29.86,2445013,2265356
19.28,4823609,4550010
12.41,9507974,9068200
7.62,19019230,18054548
57.98,1508205,853963
55.52,1581992,1150248
53.41,1987723,1722996
50.18,1122521,766465
44.66,1283762,766808
32.47,3065235,1883020
21.54,4857679,2741347
15.44,9537458,5149061
9.60,19051070,10937921
58.31,1508582,854348
54.82,1584775,1087019
51.70,1733332,1010612
49.93,1163718,719960
46.46,1354086,706342
36.31,3826138,1033165
25.18,4835686,1031022
18.60,9555149,2055187
11.49,19068858,2769848
56.52,1508263,938255
54.67,1585077,1038480
51.98,1734223,1078368
50.60,1245529,976225
48.67,1211769,935020
39.56,2513620,1179684
28.70,2650742,1138319
24.22,4902513,1197585
18.11,9435905,1128744
58.25,1507799,850511
55.83,1582795,946286
53.25,1719216,1025459
54.92,1381257,1075594
49.71,1103011,948195
40.62,1141713,901495
30.90,1212729,935591
24.15,1358230,931552
20.56,1619142,1044516
53.16,1622018,1398615
58.95,1656226,1034672
55.46,1618711,910961
57.34,1635568,932355
53.59,1610566,984859
45.54,1471771,853099
39.00,1586381,1001093
36.04,1541884,886920
25.47,1515222,1049609
53.56,1509616,1065875
58.36,1781866,1337730
53.51,1982574,1695361
50.24,1136204,742813
46.12,1307781,821946
32.81,2468955,1436757
21.52,4867568,2728060
15.17,9533224,5267838
9.78,19052565,11114135
48.12,1509182,1598960
54.60,1586510,1103238
51.82,1735993,1030914
50.14,1174718,727319
46.19,1359278,699944
34.78,2495094,824567
24.97,7173295,1443454
19.41,9572327,1724909
11.42,19056178,3197756
57.89,1508803,867425
58.44,1710247,1083863
51.53,1722561,1105647
55.13,1370751,1043532
53.71,1267607,955134
40.40,1143438,918690
31.23,1220748,893255
23.93,1336734,1014747
20.58,1572223,1033282
52.45,1509070,1093904
56.01,1547053,906856
51.49,1616936,1110408
54.52,1630586,1120744
50.20,1481794,908386
35.54,1471004,1902115
35.32,1472792,1077115
35.99,1542063,899617
25.06,1528336,1356791
57.92,1512054,877972
54.99,1586513,1076604
51.62,1737185,1019180
49.84,1148776,727972
46.00,1364760,703550
35.08,2495837,795958
24.98,4838712,1113214
19.16,9564696,1862229
11.59,19061284,2120164
56.65,1510725,925781
56.45,1548050,885620
54.12,1617377,960804
54.07,1501192,813437
43.56,1483665,1438839
47.09,1585374,1007205
37.39,1473870,871333
35.66,1546204,956906
25.31,1467266,896924
57.48,1510498,843101
54.45,1592631,1005555
51.19,1740397,1080126
49.91,1244377,1022383
47.90,1216075,954644
39.07,1639423,959609
29.60,2658506,998818
24.37,4906632,997151
18.13,9364314,1032786
59.06,1586708,938976
53.48,1584187,1004812
51.09,1720588,1082225
53.36,1378811,1072598
48.45,1103246,942631
39.93,1143806,878403
30.47,1213011,879342
23.46,1339138,1201831
19.69,1531349,1013085
56.76,1509896,871590
54.08,1550242,949622
53.43,1619045,971820
53.24,1499265,843175
49.70,1487950,857252
44.64,1477982,844546
33.69,1478725,1193201
34.64,1478165,808849
24.73,1473683,977410
61.49,1612154,546528
50.77,1584067,1032893
55.83,1832957,721004
55.25,1377124,643974
53.47,1263121,551982
40.62,1140114,581964
31.36,1219341,590735
23.85,1363644,586018
19.83,1566933,683578
56.19,1509649,615181
55.28,1546303,611539
55.39,1616928,557059
53.86,1502303,512864
50.32,1485337,572321
42.87,1478875,727485
37.51,1474879,513770
34.94,1479201,549253
24.04,1480831,1054970
59.15,1506880,323402
57.91,1543215,329844
57.26,1609793,288161
54.50,1491940,390871
45.50,1476564,1081580
42.37,1467112,920492
36.33,1467232,884857
31.75,1466613,549634
21.38,1470802,1301670
50.71,1370364,1089287
53.43,1446504,1110120
49.12,1589433,1424025
48.31,1102786,913336
42.14,1296655,1181042
28.33,3511511,3347230
18.28,4848922,4730912
11.11,9524954,9345825
7.32,19030830,18542920
50.86,1370173,1075299
56.25,1596320,1332481
51.82,1814461,1730414
49.37,1635176,1375695
40.46,1305726,899069
31.00,3543787,2408486
19.85,6778922,4402913
12.56,9536956,6674745
9.16,19132501,11290776
55.85,1370936,847179
52.27,1446435,1106726
49.36,1593323,1121178
48.38,1209496,734871
46.66,2001817,858143
34.15,3529468,1065358
22.78,6859334,1715082
15.45,9551016,2500168
10.34,19117834,4976387
54.10,1372469,927587
51.54,1452779,1048219
53.10,1811735,1094739
48.10,1303515,1009202
47.73,1742776,1170526
36.89,1836191,1002477
28.06,3177137,1069032
21.97,5901752,1151608
15.82,10990402,1130398
60.31,1435520,900777
50.80,1451335,1095933
49.94,1583931,1040925
50.30,1179175,998443
48.26,1050924,917174
38.00,1156011,975836
29.71,1312589,963664
22.36,1819115,1136283
17.14,2249262,1035373
55.75,1370007,837661
55.65,1473044,1121143
51.38,1475967,1014873
52.14,1366990,894822
52.04,1434511,981286
32.44,1343153,1490170
34.85,1346460,980790
30.19,1345294,1351978
21.49,1372715,769811
58.25,1434085,986932
51.36,1444432,1236749
52.59,1814867,1716539
48.53,1140079,814126
44.25,1306688,912124
30.73,2484785,1687234
20.52,4867036,3047619
13.04,9530867,6186095
8.49,19065826,13511595
53.81,1371380,942786
52.23,1446691,1109381
49.38,1593712,1116223
48.03,1187868,739705
40.86,1331416,717508
32.63,2510388,965391
22.44,4903017,1503516
15.24,9551923,2672613
10.53,19102767,4240707
38.81,1370074,1314389
52.40,1451498,1003717
48.71,1584729,1118318
52.10,1142891,917442
43.89,1054734,902391
38.55,1158577,946055
29.12,1314740,1065366
22.20,1781282,1088253
17.30,2256249,975149
55.44,1370833,861016
49.94,1407298,1102027
52.33,1477381,980077
52.16,1371443,879023
49.85,1351798,816642
39.68,1347064,1268568
34.77,1347477,1009984
30.18,1346008,1368065
20.14,1337279,772088
47.13,1372428,1363299
52.59,1446519,1090453
49.92,1591776,1124006
48.82,1198525,732674
44.95,1335615,706821
32.79,2510627,939640
22.42,4890831,1477128
15.58,9539729,2623768
10.41,19107387,4668908
51.56,1371677,1031456
50.31,1407371,1085477
56.60,1542632,1018489
55.24,1458832,972659
52.26,1437339,976742
42.89,1434411,1306757
36.87,1421976,1089871
33.30,1393924,957227
19.76,1337028,858269
50.13,1376733,1049269
56.26,1601819,997168
48.64,1615630,1122623
47.74,1314219,1037133
45.12,1254637,995132
36.68,1825540,1000189
28.19,3149452,1068795
22.22,5910952,1100149
15.94,11032756,1041916
53.34,1377395,909335
50.13,1461928,1056523
49.72,1586945,982299
49.09,1156467,1023487
43.25,1058024,873568
38.14,1158882,888871
29.48,1315431,911756
22.07,1820540,930489
17.09,2243083,999166
49.32,1377241,1099608
48.73,1410324,1114159
52.71,1478663,897065
51.69,1372736,838386
48.18,1356456,872282
43.66,1350380,822291
35.94,1350379,815105
31.88,1348600,833436
19.76,1340666,777903
53.84,1378573,617443
51.49,1461420,713488
50.83,1583347,625529
49.90,1243112,671348
46.52,1048024,686706
36.97,1153852,824108
30.40,1302538,570757
22.64,1793421,577810
17.72,2294182,656550
54.40,1379488,602219
50.93,1408653,723406
53.35,1475186,580196
52.29,1369133,547300
43.16,1355893,1035562
43.44,1349534,570195
36.72,1352661,510752
31.31,1346760,718026
21.62,1378632,526462
60.53,1422961,329288
53.19,1403069,476273
50.58,1546262,1072203
54.26,1449649,514748
54.56,1420690,308122
48.79,1415977,318539
38.31,1344936,383903
31.76,1341671,281859
22.44,1360503,348892
58.13,1438895,1014833
57.11,1596252,1313812
49.51,1591198,1338545
48.07,1139904,914163
42.30,1285791,1193680
28.11,3553715,3384566
17.80,6688059,6469167
10.87,9516254,9292769
7.30,19048796,18878903
54.09,1370410,922199
56.35,1594429,1329996
51.79,1810866,1735356
50.04,1599081,1317723
39.31,1968302,1447030
29.94,3593208,2519023
19.10,6913724,4722269
12.58,9531022,6611545
8.80,19095005,12985537
56.41,1434896,1116977
52.41,1447718,1095906
52.36,1826913,1447947
51.17,1661865,924161
46.39,1992588,847652
33.24,3616994,1102162
22.32,7033647,1675883
15.54,9569475,2360400
10.59,19140393,4435418
46.07,1371257,1368668
55.26,1599706,1133862
52.83,1826379,1129220
49.55,1725713,1208347
45.33,1248828,1026998
36.57,2529587,1099784
26.84,4665375,1218830
21.74,5918621,1109335
15.33,10987751,1193415
58.39,1428207,992860
56.55,1530683,1065197
53.94,1679091,1093761
53.45,1362406,1034723
50.10,1215927,1029050
38.92,1377120,1041058
29.87,1558032,960323
21.55,1734126,1050905
16.88,2269149,966089
54.16,1369771,934416
49.81,1407312,1114570
54.14,1547472,1180096
56.23,1452266,944217
45.85,1351769,1029576
46.84,1424259,925969
37.81,1432854,954988
33.75,1393651,837315
21.69,1373493,855784
58.49,1425534,993697
57.08,1591106,1313714
52.51,1813870,1731369
49.96,1599890,1325468
44.02,1927420,1409393
30.33,2487522,1640350
20.44,4872282,2954090
12.78,9533801,6132524
8.72,19090816,12790027
54.28,1373187,890577
52.51,1447076,1098892
49.24,1596608,1076976
51.44,1655328,946888
41.63,1339085,723586
32.07,2510284,957939
21.95,4871542,1483580
15.11,9553292,2516049
10.53,19124185,4305564
55.74,1374381,864726
51.25,1454090,1093868
50.42,1584293,1035907
49.01,1160587,1047907
44.23,1053778,942447
36.22,1158474,1069000
28.64,1319485,919442
21.29,1727835,962337
16.43,2223633,975291
47.72,1371129,1362461
53.94,1406903,932539
52.64,1476278,966041
52.81,1370825,846647
52.54,1437806,935116
46.82,1425647,910399
36.31,1426258,1117797
31.31,1347037,1002018
20.99,1405497,1331898
55.18,1372216,896302
56.46,1597331,1242327
49.81,1597263,1085873
51.40,1648052,939242
44.97,1341999,701868
33.34,3640962,1152383
22.18,4871674,1384538
14.90,9557715,2502733
10.51,19121156,4350798
45.93,1371916,1521241
53.34,1408050,954233
53.05,1477003,943673
48.65,1371918,1045853
52.74,1439202,935421
37.98,1347281,1547875
38.38,1421502,895825
31.98,1348851,835710
19.76,1336469,926216
49.37,1377795,1111195
50.32,1460651,1117037
49.37,1617730,1049032
50.69,1736237,1072240
45.30,1226048,969183
37.30,2583382,1042292
26.99,4695777,1098263
21.39,5824405,1078143
15.80,11184143,1138055
56.06,1439118,965609
54.68,1530135,1042966
50.18,1585693,965827
48.46,1164481,1015389
44.21,1056589,838139
37.56,1158819,837689
28.46,1320653,877336
20.92,1739651,1000561
16.71,2278757,1030290
56.43,1442859,1017497
52.67,1409017,926583
52.74,1479471,885889
51.87,1371980,842162
47.54,1355734,889618
43.91,1352684,807960
35.86,1351479,793606
31.80,1351267,829737
20.07,1338420,792363
57.66,1441885,663802
50.95,1467763,778710
50.66,1583212,673374
51.98,1373558,716379
48.64,1047450,556595
36.63,1152582,612919
29.87,1580338,598696
21.45,1731218,585649
16.45,2222740,599457
53.23,1450880,1059730
53.50,1409133,610450
51.91,1477734,631455
51.92,1370160,569303
48.00,1355536,582158
43.37,1349139,561567
32.28,1348398,1143352
32.06,1349694,547902
20.85,1343575,702330
58.31,1366991,247200
53.02,1402424,487349
55.24,1475268,328986
52.58,1367370,433615
48.00,1350145,511437
43.92,1346479,534386
39.16,1348264,277808
31.76,1348866,291186
22.72,1354606,263388
47.49,1617790,288211
49.64,1691168,229524
48.29,1824536,236177
46.48,973919,221651
43.54,1027029,212553
38.24,1721890,212758
31.03,3000196,214665
25.35,5851505,225212
18.70,10569930,231118
49.77,1693036,220818
48.36,1824199,209144
46.51,954584,203116
44.00,1225633,222104
38.39,1737488,208027
30.93,3034682,220102
25.46,5816910,222833
18.51,10696708,215843
48.13,1826471,224659
47.17,1089031,221021
43.67,1040635,216097
38.27,1734631,217040
30.79,4092648,229544
25.40,5830410,220659
18.41,10781941,219729
46.77,887964,229183
43.56,1041361,209641
38.36,1708612,217573
30.79,4100658,231117
25.38,5824784,241212
18.67,10560854,215994
43.70,1045048,221192
38.33,1750116,214044
30.91,3063982,214877
25.55,5751612,219945
18.62,10656223,218801
37.23,1740024,210339
30.83,4079780,232282
25.39,5809583,218794
18.52,10698568,227534
31.09,3029084,223585
25.56,5754469,223423
18.36,10795458,221743
25.42,5841340,219147
18.53,10651632,225275
18.63,10662022,219066
