perf, CACHE_MISS_L1, CACHE_MISS_L2
34.37,1343439,1245843
34.84,1342119,1228221
35.59,1373686,1259158
35.08,1362182,1261251
34.47,1332954,1242347
34.81,1342019,1225083
34.97,1335625,1238338
35.27,1384181,1268412
34.67,1371275,1273985
35.36,1370538,1272280
35.17,1382891,1271132
34.89,1370184,1257031
35.38,1373981,1273015
34.93,1373668,1262417
34.78,1343861,1247304
34.66,1414159,1313185
34.86,1415736,1316858
34.75,1418266,1294455
34.61,1427601,1299267
34.85,1413234,1302436
34.64,1419850,1295797
34.31,1408896,1302099
34.71,1410650,1291593
33.73,1368484,1269410
33.77,1364286,1273299
34.16,1365731,1278880
34.30,1410280,1305327
34.72,1417480,1306659
34.63,1421525,1324781
34.24,1364369,1274498
35.78,1500288,1140607
35.95,1426540,984227
36.72,1498332,1018816
36.18,1502472,1052908
37.27,1497881,981690
36.63,1509446,1036006
36.38,1450298,1026243
35.78,1431137,999197
36.48,1507157,1072889
36.22,1503825,1055026
37.60,1489531,976120
36.61,1495735,1011807
36.31,1456705,989712
35.93,1422950,1001212
35.86,1495435,1095169
43.43,1543734,468940
44.85,1536972,451418
45.08,1645765,541051
44.57,1645429,556473
44.40,1667006,570071
44.45,1536748,465514
43.56,1535498,477444
43.01,1576463,527166
44.91,1649853,539694
44.79,1654055,574161
44.61,1647924,563505
44.08,1536269,469293
43.32,1540831,446697
43.48,1541896,483885
42.68,1538585,506199
41.51,1768802,536621
41.86,1967216,640391
42.63,1957613,652216
41.31,1768075,514964
42.17,1760495,503685
41.96,1761900,510946
41.49,1768330,511101
41.55,1769011,517166
41.92,1963770,662951
41.63,1760740,523975
42.16,1762373,497066
42.06,1956220,659411
42.36,1948179,652381
41.85,1950646,634918
41.05,1769341,557171
36.36,2206818,512012
36.64,2200298,490125
36.62,2456133,684056
36.36,2240602,536157
36.86,2483622,699589
36.80,2483772,697518
36.40,2479208,680069
36.91,2502694,748361
36.67,2469012,700748
36.48,2467276,720764
36.84,2202051,562071
36.18,2203698,597880
36.50,2501076,814830
36.42,2209297,607989
36.66,2203871,642588
26.99,3229642,635619
26.91,3693230,870744
26.53,3247899,675022
27.05,3244627,625628
26.92,3229675,654061
27.00,3248110,657494
26.44,3180087,841286
26.55,3257737,688767
26.83,3227979,680177
26.92,3227013,730468
26.91,3217437,718673
26.76,3848038,1146024
26.28,3921473,1268206
26.91,3694385,1003256
26.45,3715086,1092026
19.25,4584452,957655
18.94,5445249,1291547
19.12,4585629,868566
19.19,4578759,929633
19.25,4596377,905125
18.99,4605210,940386
18.61,5648924,1493949
18.99,4611322,915508
18.75,5310407,1333661
19.07,4585290,927729
18.80,4710393,905502
19.10,4641176,999039
19.00,5450479,1269753
18.63,5788830,1672722
18.78,5419466,1300948
16.11,6082881,1694974
16.25,6086855,1549312
16.20,6074809,1630220
16.19,6091662,1632270
16.20,6079605,1600568
16.26,6105804,1527206
16.37,6085066,1593647
16.19,6080550,1608172
16.25,6090226,1521964
15.06,6039224,2147434
16.39,6120802,1641005
16.25,6068951,1498790
16.47,6119783,1585888
16.30,6073139,1541327
16.02,6109349,1619855
9.80,12389401,2966409
9.65,12323332,3317106
9.79,12414900,3068680
9.37,12378821,3021672
9.70,12325647,2931680
9.72,12314870,2872318
9.49,12376721,3208142
9.96,12382129,2907142
9.89,12375052,2871451
9.87,12399099,2750586
9.65,12339683,3171428
9.79,12284653,3017984
9.74,12298895,2961967
9.74,12287235,3135193
9.69,12332335,3082602
34.94,1561670,1312244
34.63,1532781,1335083
34.05,1587149,1374366
33.47,1552674,1366044
43.61,1623818,561161
44.02,1773309,494518
38.63,2496687,800253
29.05,5033922,1929770
20.63,5745662,2275381
14.60,9762597,4246407
35.56,1545041,1331494
35.69,1581270,1366259
35.34,1666660,1407303
43.60,1817968,712083
42.94,2195637,773921
38.14,2488051,785224
30.30,3758524,1343803
20.83,5746672,2208402
14.72,9786992,4153476
35.02,1515792,1347467
34.74,1554096,1363739
43.28,1621844,620599
43.23,2147837,757805
38.03,3122327,1084390
29.99,3717244,1288926
20.61,5747349,2263992
14.40,9757668,4075857
34.94,1687635,1424305
43.29,1641802,574082
43.11,2183456,739722
37.59,3100595,1053790
29.60,4872513,1713669
20.62,5726344,2300037
14.79,9710442,4329611
44.16,1866836,684081
42.63,2186625,764243
37.45,3119231,1045337
29.90,4814718,1899029
21.26,5778761,2283412
15.04,9746543,4146623
43.48,2133717,697403
38.19,3118110,1170696
29.75,4900798,1691802
21.09,5768378,2237695
15.01,9752664,4048313
37.76,3220801,1217038
29.71,4929597,1721218
21.26,5760214,2275000
14.73,9739202,4230805
30.22,3732743,1303296
20.73,5733243,2359108
14.68,9734646,4421631
21.23,5742337,2099723
14.85,9644161,4181945
15.12,9613449,4116529
34.29,1294160,1175609
34.09,1390870,1172876
33.97,1395510,1173344
33.76,1396811,1180305
33.91,1400188,1169794
34.11,1326619,1176288
34.29,1293538,1177382
33.92,1333885,1183079
33.04,1290093,1175032
34.06,1307697,1183099
34.08,1330901,1168147
34.44,1334754,1190463
34.60,1373159,1189502
33.38,1291873,1182354
34.34,1413479,1197787
34.02,1300795,1185603
33.03,1310861,1177998
33.97,1304970,1182265
32.84,1410158,1183023
34.47,1348988,1206416
34.19,1345016,1218277
34.16,1344943,1210594
34.51,1349735,1208448
34.01,1399271,1180546
34.25,1449975,1213962
34.46,1347512,1214536
34.44,1343467,1210846
33.97,1308241,1184912
33.96,1301603,1183573
34.06,1390235,1214009
33.40,1411042,1209554
33.47,1327801,1199596
33.66,1321702,1202488
33.77,1489924,1243919
33.63,1493407,1250388
33.73,1478286,1250378
33.83,1440315,1241473
33.89,1382303,1243963
33.44,1427383,1203762
33.27,1323633,1209488
33.87,1461610,1246088
33.97,1371304,1236302
33.84,1423141,1242946
33.99,1370163,1235555
33.65,1413932,1253685
33.12,1556107,1300425
32.83,1371191,1235346
32.81,1437636,1240740
32.74,1371625,1243732
33.25,1447206,1305956
32.67,1358911,1223788
32.71,1389382,1242015
32.68,1399297,1239205
32.90,1358858,1243071
32.72,1363380,1248560
32.61,1454400,1246539
32.78,1359624,1238825
32.71,1456161,1236678
32.83,1359072,1240920
32.55,1395574,1236928
39.37,1433853,515537
38.50,1517340,546387
40.11,1516505,470594
39.59,1476140,488300
39.81,1513763,484264
40.79,1636764,512716
40.01,1519603,507109
38.59,1514161,536005
39.01,1511829,527873
40.50,1467829,452941
40.56,1514088,450177
39.96,1436286,482353
39.96,1514024,470813
40.18,1436267,473987
38.31,1497632,546498
39.52,1829762,556713
39.88,1798130,512217
40.08,1640784,389572
39.95,1789926,493542
39.76,1623391,396675
39.70,1842672,508474
39.79,1661543,400905
39.88,1845332,525991
39.78,1859403,491240
39.70,1643531,408059
39.94,1597795,391696
40.19,1589008,393525
39.78,1660204,396105
39.98,1822446,516189
38.90,1663107,431488
34.73,2439443,647541
34.27,2119641,524417
34.30,2118933,522633
34.68,2079452,503370
34.32,2137150,513787
34.44,2132891,557888
34.06,2132587,542980
34.67,2084610,539456
34.85,2397077,632044
34.49,2100845,539385
34.73,2384715,661561
34.50,2438927,698390
33.63,2441887,759643
34.57,2075298,557164
34.15,2098836,596439
28.38,3034175,795277
28.07,3771091,1226889
28.31,3666676,1031834
27.88,3682604,1123235
28.28,3071087,789963
28.29,3026860,828157
28.15,3058841,817112
28.02,3043391,819039
27.76,3032141,835515
28.31,3061484,855141
28.25,3038978,872753
28.14,3069508,829961
28.38,3033715,862180
28.00,3658340,1126409
28.00,3037936,877529
19.94,4616315,1337613
20.14,4611849,1288844
19.99,4604982,1375237
20.51,4651868,1223527
20.48,4646856,1306579
20.19,4627598,1281046
20.04,4591374,1358499
20.18,4624417,1208404
20.26,4609071,1258077
20.15,4610066,1304730
20.18,4613789,1300574
20.14,4627756,1296200
19.94,4629516,1340735
19.81,4617191,1530750
19.82,4693983,1365424
19.61,5264171,2250477
19.37,5262033,2362966
19.52,5251758,2280916
19.70,5252159,2163940
19.85,5258327,2263509
19.48,5255409,2314598
19.50,5288291,2242324
19.73,5258135,2152814
19.47,5252800,2308072
19.33,5287124,2277254
19.65,5261114,2203779
19.29,5281601,2336684
20.18,5296568,2351193
19.55,5253148,2172726
19.40,5277926,2233928
33.61,5668799,1365227
31.63,5948894,1371382
31.54,5926432,1424046
31.08,5944622,1419009
33.83,5516175,1775178
33.61,5653674,677339
30.00,6352032,1063258
23.85,7528455,1760353
18.00,6553383,2751805
12.65,10173627,5308635
31.94,5908583,1361620
31.57,5929572,1385338
30.91,5964192,1427508
33.46,5571388,1757092
33.91,5617647,649257
30.25,5953367,876607
24.48,6741847,1444667
18.18,6635979,2717442
13.09,10192036,4817683
31.82,5854108,1413178
31.23,6120618,1565618
33.79,5738259,2130771
33.53,5644175,661988
29.71,6405962,1057428
24.54,6689324,1510741
17.94,6626703,2669520
12.93,10178507,5132185
31.31,5886413,1438638
34.08,5491267,1868109
33.94,5618530,690771
30.26,5941957,832248
24.89,6670790,1392221
18.10,6500055,2657016
12.80,10211616,5179542
33.86,5728439,1988806
33.51,5652830,617687
30.52,5973992,805518
24.67,6749840,1404485
18.12,6493459,2579812
12.80,10215909,5345164
33.70,5631407,623608
30.30,5962744,848363
24.14,7471699,1680561
18.44,6638451,2793022
13.01,10215449,4962385
30.11,5924128,866335
24.80,6681829,1393242
18.20,6542407,2622824
12.84,10173795,5177271
23.84,7509346,1742427
18.35,6648956,2415001
13.08,10141127,5197163
18.36,6505892,2590707
13.23,10089459,4861636
13.14,9977353,4916446
32.91,4611432,1373861
33.31,4608171,1411409
32.88,4608726,1402241
33.09,4617551,1403847
32.96,4611170,1399344
32.78,4616573,1394893
33.33,4610532,1398559
33.53,4710494,1345372
32.93,4610355,1408055
33.62,4766550,1306138
33.31,4610945,1396150
33.08,4618378,1407717
33.04,4619455,1403605
33.37,4761318,1313652
33.07,4614775,1384561
32.97,4621212,1430577
33.08,4620500,1430772
32.67,4621587,1416546
32.85,4631414,1411445
32.82,4631205,1431401
32.89,4627178,1416582
32.83,4627853,1430778
32.89,4625127,1432789
32.84,4628404,1410463
32.79,4628381,1404954
32.71,4621043,1404211
32.82,4634002,1398161
32.60,4773236,1423464
33.27,4767183,1379091
33.13,4781827,1376755
32.35,4815229,1556328
31.75,4645311,1392370
32.38,4654499,1421846
32.50,4647017,1414831
32.49,4647565,1414104
32.67,4641938,1402039
32.57,4645242,1414635
32.52,4646591,1423045
32.10,4654130,1413018
32.46,4649497,1407023
32.64,4642567,1383157
32.35,4639952,1404265
32.52,4649516,1415172
32.48,4641146,1400332
24.69,4647869,1408652
31.51,4687708,1367292
31.56,4681673,1399134
31.87,4677823,1373192
31.94,4676075,1373796
32.03,4675016,1377907
31.92,4674287,1367359
31.92,4676626,1369696
31.89,4676946,1369570
31.97,4674205,1360295
31.88,4675512,1371454
31.79,4685145,1376819
30.97,4682091,1362152
31.64,4688781,1374076
31.68,4688002,1372866
31.76,4686956,1367966
35.21,4730976,1420347
35.14,4734475,1356713
34.36,4749980,1441996
34.86,4740223,1408249
35.19,4741455,1441879
34.66,4739237,1435932
34.87,4886971,1572654
35.10,4731758,1440387
35.21,4732951,1550995
35.17,4739016,1401764
34.31,4746378,1674679
34.43,4743780,1597081
35.23,4733373,1527453
34.46,4743665,1406861
34.78,4742798,1401165
35.12,4894558,670584
35.38,4996506,1445624
34.58,4900331,692375
35.56,4881445,672220
35.27,4992274,1337595
35.33,4893798,671959
35.15,4899790,681946
34.68,4892876,703507
35.44,4882741,714206
34.88,4902306,708567
35.06,5010195,1430578
35.03,5012871,1555375
34.58,5012226,1577780
35.24,4882568,734783
34.72,5020515,1452480
30.61,5144719,596117
31.38,5120885,525672
30.81,5142778,532896
31.40,5126353,536223
31.31,5120752,565407
30.88,5123729,562598
31.25,5126296,526112
31.19,5344968,828037
31.08,5114572,594174
31.61,5357789,870843
31.30,5124442,555363
30.81,5142352,558651
31.27,5122593,550956
31.15,5274809,779001
31.56,5120344,518777
25.14,5636727,811243
25.07,6023794,955225
24.27,5646747,920548
26.02,5624358,867038
25.09,5639513,841880
24.85,5635588,853251
25.47,5648470,870345
24.96,5640845,839593
24.75,5641387,904738
25.28,5646665,843031
25.33,5620749,786311
25.12,5626336,855270
25.08,5625899,818751
25.61,5613343,879812
24.98,5643680,825003
18.24,6248629,1459607
18.45,6209294,1441100
18.39,6225459,1451294
18.06,6285630,1488307
18.39,6209467,1508433
18.15,6233134,1554614
18.31,6215350,1454550
18.41,6215496,1445390
18.23,6268443,1426883
17.81,6256074,1726831
18.18,6256141,1456086
18.32,6280259,1451750
18.39,6207705,1479533
18.32,6303554,1453738
18.17,6423451,1535092
18.67,5883202,2582612
18.27,5959233,2781157
18.69,5938013,2621395
18.57,5944986,2778572
18.46,5975707,2779049
18.56,5917301,2622584
18.27,5907643,2730432
18.69,5919778,2485425
18.39,5883362,2721289
18.67,5925061,2504754
18.50,5915819,2626050
18.57,5884617,2570084
18.67,5920235,2527514
18.38,5893348,2715527
18.69,5872354,2574304
27.92,2264422,2132681
27.91,2264447,2148058
27.73,2264512,2210271
27.48,2264328,2164348
27.91,2768046,2702523
27.86,2263814,2145605
27.73,2264788,2209784
27.80,2264766,2205605
27.86,2263826,2201690
27.42,2785942,2719441
27.80,2264857,2169573
27.80,2264383,2191836
27.81,2264101,2168538
27.84,2263496,2203068
27.79,2263826,2200002
27.35,2273682,2149405
27.76,2273867,2158442
27.77,2273979,2155612
27.48,2642109,2541061
27.72,2273503,2209755
27.69,2274352,2212428
27.75,2274488,2163866
27.79,2766321,2663392
27.68,2273256,2206233
27.78,2273181,2171597
27.37,2273984,2180088
26.95,2275302,2208588
27.85,2764607,2669745
27.30,2273776,2202938
27.72,2274101,2204712
27.32,2292444,2163409
27.29,2292817,2167821
27.27,2292603,2178616
27.66,2292036,2204850
27.23,2985986,2818648
26.93,2294736,2177086
27.68,2297296,2183686
27.50,2292184,2247487
27.51,2292797,2247274
27.32,2292600,2193670
27.24,2292513,2193642
27.66,2293089,2226263
27.71,2293143,2196646
27.22,2982842,2817656
27.64,2293158,2225456
26.45,2327482,2241470
26.65,2327084,2189669
26.62,2328058,2248335
25.95,2328916,2219379
26.47,2328668,2266113
26.63,2327814,2232564
26.65,2881957,2422175
26.62,2884732,2439800
26.63,2327931,2245998
26.38,3083252,2668601
26.66,2326784,2219651
26.60,2326934,2254305
26.63,2326738,2226745
26.61,2328647,2264166
26.51,2327564,2261966
37.25,2999645,872737
35.62,2404886,811936
36.71,2404132,697299
36.88,2403816,681854
36.48,2404523,674506
36.90,2403415,722066
36.67,2404909,722018
37.09,2403313,690609
35.55,2404778,769280
36.93,2404060,728283
35.29,2406073,830033
36.59,2404022,696593
36.85,2403299,731483
36.78,2403734,697359
36.78,2404481,707224
37.09,2566556,625696
37.01,2561301,698481
37.04,2561637,654216
36.63,2563349,705532
36.47,2562337,673669
37.06,2561595,751247
36.66,2566650,691535
36.49,2562421,752934
36.43,3116952,968447
36.49,2564938,763586
36.47,2563768,814792
36.31,2566864,736661
36.27,2563951,948839
36.07,2562912,830106
35.84,2562302,950131
34.21,3046338,847473
34.07,3046577,866519
34.19,3403008,1077450
33.90,3406040,1096508
33.75,3401174,1048457
34.10,3045865,896514
34.08,3047070,852057
33.69,3048396,939551
33.63,3048165,924460
33.84,3405847,1270031
33.67,3407738,1289059
33.54,3394443,1224147
33.42,3414935,1509170
33.38,3048063,1138427
32.84,3050943,1508117
33.32,3324440,657369
33.25,3313210,859353
33.34,3304283,767105
33.07,3874746,1258934
33.16,3294578,780736
33.45,3855567,807593
33.04,3308747,761908
33.00,3847733,954213
32.95,3297227,829624
32.80,3320102,1023072
33.09,3304125,912462
28.84,3268511,1033633
32.79,3297509,956092
32.54,3300635,1051314
32.76,3307984,1161154
29.78,3339685,810840
29.55,3312700,789068
29.10,3347535,923289
28.99,3366281,1034635
28.75,3356662,1274566
29.72,3329854,996949
29.75,3343824,794548
29.34,3304471,975676
28.57,3347388,1213127
29.94,3307749,825229
29.46,3331029,959517
28.38,3327695,1268852
29.31,3309812,950277
28.10,3312596,1275164
28.21,3308755,1417309
23.99,5458879,2291373
24.79,5468036,1326791
24.33,5471412,1488859
24.13,5466442,1647174
23.31,5462957,2257761
25.08,5497172,1265053
24.55,5465679,1469082
24.29,5465716,2193713
23.59,5496382,2290231
24.54,5466830,1471643
24.02,5468881,1626184
23.61,5494737,2227910
23.82,5465172,1959741
23.59,5499901,2319788
23.55,5466514,2123928
