perf, CACHE_MISS_L1, CACHE_MISS_L2
54.89,64761,102312
56.03,64874,91738
56.88,65324,77914
59.35,66006,46291
58.87,65973,42862
59.74,70781,30810
60.35,56767,26609
61.55,48264,26480
54.27,71023,95879
56.40,75677,91725
56.92,76508,75980
57.39,73632,47736
59.04,76209,44103
58.68,75775,30327
59.49,62299,27159
59.98,59264,26356
47.87,42577,62978
48.12,41720,63690
48.24,44737,62669
48.46,44290,52882
49.15,42735,53100
49.29,44872,54644
48.93,45365,43242
49.13,46788,36891
49.41,43548,50128
49.42,46006,39390
49.54,46520,33030
49.32,48553,36104
49.74,44983,37055
49.48,45782,31510
49.57,48535,33827
49.87,50155,40527
50.23,43369,33989
49.78,46357,30949
49.38,48179,33779
49.35,49707,37753
49.76,48012,28144
50.22,54053,31404
49.58,44238,33919
49.47,40555,37510
50.12,52131,26610
49.74,49531,30517
49.54,41596,33955
50.00,32352,38102
50.76,49081,26570
49.99,39829,30161
49.90,35594,33184
49.63,32320,36689
45.01,45759,61290
45.53,44595,52845
45.84,46727,54536
46.79,47637,40802
45.67,45809,50827
45.97,49046,34858
46.14,46190,37486
46.37,55301,35591
45.86,45871,35343
46.14,52088,35125
46.84,53883,28708
46.33,39455,35855
46.66,54926,26176
46.10,36174,34868
46.49,50078,26129
45.87,36435,34049
56.32,65232,98254
57.08,66026,88691
47.63,66907,77205
60.27,68442,45827
60.39,69040,40294
61.41,70220,27981
62.38,55870,26832
62.69,50241,26286
55.99,67413,95717
56.12,67577,89091
57.09,69211,73604
59.70,70546,44214
60.09,70433,38482
61.13,73117,29610
62.31,57061,27199
63.62,53505,26487
55.95,66535,98057
56.11,67459,88691
56.38,68656,75561
59.12,69741,47447
59.60,70492,40251
60.79,72133,29521
61.64,58550,26905
63.06,53692,26432
56.57,66848,95447
56.01,67063,87059
56.21,69096,74732
58.78,71188,44750
59.88,71029,41037
60.57,71803,29258
62.77,64330,26894
63.81,58929,26293
52.02,40365,53905
53.99,44057,56220
52.41,42134,47499
53.72,41614,36894
54.12,41560,39204
54.41,44039,34564
55.82,46051,32017
54.43,46154,35244
54.34,43353,31013
54.18,44364,35708
54.28,47810,29996
54.54,38904,35575
54.67,44470,30718
55.34,35967,36107
55.34,35105,29367
56.42,31743,36476
49.11,40775,53539
50.04,41704,42271
49.90,40266,47345
50.57,44382,33473
50.48,41547,49826
50.88,46731,35704
51.93,41976,35142
50.37,47442,37455
52.14,40376,33933
50.44,46225,37568
51.75,44916,28922
51.22,33931,37241
51.97,46501,26407
51.77,28981,35205
52.49,42058,26389
51.81,28112,36089
48.04,41786,53534
48.39,42363,49204
48.94,40749,47641
49.24,42547,36916
50.05,41180,37967
49.89,46027,33530
50.61,44350,31118
51.53,47699,35972
51.94,45026,31480
51.29,48081,36242
50.48,46934,29480
50.33,41028,34485
50.61,42285,29654
50.67,37043,35012
51.21,36977,29684
50.43,33280,35196
52.54,42775,56956
52.92,44312,46973
53.11,41821,50240
53.47,43978,35342
53.40,41858,51340
53.96,47483,36633
54.59,43533,37382
54.35,48773,41150
54.21,43134,32350
54.34,48554,38931
54.36,45524,28415
54.20,34715,38779
54.73,49699,26388
54.07,34248,37179
54.72,46261,26243
54.65,31665,39547
48.65,41239,60601
50.01,44393,61599
49.76,46340,42626
49.34,43782,51865
49.73,45688,33502
50.01,45094,39034
50.48,50993,35238
51.05,48811,32143
50.05,45635,33680
51.46,48771,31173
50.13,48569,34593
51.48,53207,30720
50.68,40508,34795
51.08,51047,30462
50.57,35204,33454
51.39,37608,29792
