perf, CACHE_MISS_L1, CACHE_MISS_L2
50.65,8950154,11412809
30.26,28880952,28861460
15.17,89766591,77056628
30.35,29293406,30169039
8.37,171133556,138901606
50.50,8910722,11354016
50.59,8923644,11422838
30.26,29481020,30113626
23.69,51123833,33769900
16.38,92232259,56690210
9.19,171230318,105533643
9.23,171338701,105514047
55.26,8477972,4485199
49.27,10743586,6756001
10.08,171817135,73290267
26.65,50225439,20060421
18.52,93017703,34265414
57.34,9037886,2356260
22.99,68562394,14553031
44.04,23406890,3015212
57.74,6211576,2412459
25.65,58713859,3332975
13.82,109718811,1500540
59.51,6247807,2259735
54.02,8743104,3686115
12.79,108653315,43508951
12.83,109231294,43507535
43.70,17713099,7315215
59.55,6194527,1051435
55.55,7978773,1291500
34.97,29353237,3563846
58.74,6515558,2353139
55.93,7792234,4085777
18.07,59190221,46076633
35.44,20475654,12821043
34.98,18855735,12570801
37.83,17399073,1058729
22.18,42398150,2096451
25.76,14871551,19148736
60.52,5991546,2212055
27.25,15070753,6288234
27.14,15107873,6735436
59.82,6278219,2617079
56.82,5257756,1381313
25.37,5335057,772500
28.86,3897153,1549849
59.33,7114558,2122625
56.09,8331090,3060176
59.45,7138753,1538230
24.24,33772921,2239922
46.48,7715903,658802
27.24,6710638,803220
55.34,18498940,1663378
33.34,28468639,2093479
37.28,46350885,2550267
32.65,28980392,1288153
32.69,28984652,1604408
49.47,11909061,736584
49.44,11828809,682632
62.34,12977675,833403
61.97,13323096,1641541
19.44,38273635,67710213
8.05,135424744,170853039
42.28,5646075,10341195
19.41,38679103,68798967
37.40,9369613,13080705
37.40,9384123,13042770
37.39,9409187,13182590
20.36,37970118,55178388
21.63,37545127,41948478
46.45,5761989,1922019
43.51,8018530,1156192
13.49,104491976,28767477
23.55,51923486,1616502
37.39,13395395,4196702
46.85,5379264,1419025
20.85,57634100,1781936
38.14,12332706,1852165
28.17,31376821,2096120
31.12,7335221,8325858
20.94,20083412,28915813
32.34,6940325,799121
26.46,5686257,1508083
34.84,19785888,1462763
47.74,12425317,862850
30.23,42133212,29905011
22.29,76213363,42976732
66.05,4439491,1848304
56.54,9078209,4609519
46.74,22126628,6835191
36.28,49183361,2713537
54.75,18557548,2206843
38.27,34218455,1053013
69.29,5975556,2204498
38.35,34877304,1430879
69.04,5603871,1481010
70.08,5831198,922502
47.11,13300947,1491718
53.44,12295921,886317
67.05,23573586,628504
19.24,68885035,39824052
58.29,5662991,4207903
39.12,21917494,8628899
57.52,6331254,1996453
26.71,69878858,3311352
46.15,11396266,1831640
45.94,12320238,2242155
46.05,12188583,2164672
45.69,5195500,2312350
59.73,8903753,2174479
31.88,7124449,1996818
52.51,3186751,2338134
55.23,3994140,3509492
33.44,26244653,20432416
42.72,12537197,9053931
22.80,53583011,43565509
32.73,27545006,22867270
23.19,53601470,40988417
51.68,8599441,5334670
42.60,12634593,8997840
52.22,7795394,4600859
52.22,6386489,4386069
24.10,54126719,35159733
52.05,6583141,3897814
51.89,6590996,3885301
35.76,25187907,14323796
53.93,3688139,1509121
53.84,5968324,2746551
41.54,20001421,10325187
54.35,3879704,1216897
47.08,10890970,7350698
55.81,4729357,1185224
55.36,6657563,993973
46.60,18031596,1085972
37.09,32649859,1412421
43.21,19294240,14798664
31.22,39379095,27684995
31.34,39355132,26315852
36.67,36663330,1579508
55.06,9145426,4291418
48.44,13798864,4008459
46.37,16480105,5115992
49.58,12212179,965892
55.54,7922408,1344884
46.86,14154716,1314280
55.22,13554386,1250035
55.01,13623847,698563
47.00,15600535,908218
45.22,29784434,1462988
42.25,22591219,861796
35.36,6010801,7868971
39.49,3186719,4058664
35.92,6029559,7678143
30.45,13759496,22082423
38.20,3054727,3921444
33.55,12160705,6280150
30.01,23493573,3370454
42.10,3447060,1180293
28.67,20320795,14321331
28.57,39043220,1641639
42.17,3448498,1090052
41.98,3476860,1743912
39.01,5776510,4068611
36.11,7882503,8317253
43.38,6504476,2326026
30.94,14798155,7525088
44.49,8541923,906954
43.63,6596480,836686
38.17,10785224,8748959
24.30,42830606,34566542
46.56,5421763,4125734
56.84,3747634,1524633
56.82,3781691,1521969
55.20,2836248,2184783
54.33,2913755,2012326
28.95,20954130,13847404
26.63,41542684,26441881
28.70,20986024,13888923
31.41,21143019,10893418
32.11,21161418,10256594
49.57,6940196,2627123
59.09,5626841,1254543
30.64,19274029,7328054
30.23,40568156,15419231
30.29,40279176,15175055
50.55,7123268,2036119
34.75,38127012,2433186
31.00,38008926,26979015
59.38,6151936,1387159
33.09,20061896,13705120
30.71,38091431,25637246
44.64,10003874,1297556
57.60,4514488,1584137
59.31,6304961,1420870
34.40,19695280,14695285
57.68,4761044,1150134
50.67,6939210,1570936
35.25,33517086,1704634
59.38,7736754,1120651
57.24,5689107,2141478
57.95,7626576,2261826
54.85,4706784,2148356
43.13,9334829,7959628
43.63,9407131,2899576
31.07,20870529,33143068
49.28,8836746,907046
56.49,14934868,1238232
54.62,11484830,883246
33.63,19559640,947216
56.30,14793763,923921
53.74,21050486,1509269
38.75,23277523,1205496
32.25,22465180,814096
37.19,21982573,839726
37.59,22130936,1639639
46.95,5668171,4050027
18.73,45942763,54543983
46.86,6384650,4218355
47.33,6755812,3757466
33.93,11199531,9321351
21.21,43143552,31873548
45.54,3225096,1275369
31.26,21809039,3519872
24.56,39274204,27017453
24.39,39149900,27340149
29.71,20097743,14148738
29.53,19969783,14043015
42.18,7637656,4116486
37.50,13352670,7900464
43.00,7223484,849965
46.38,5748069,674601
40.13,6333844,894549
48.82,9378032,1262968
47.11,6502892,2375193
43.77,7627351,1094769
47.02,6520071,1205910
43.60,7036506,866210
44.27,6337537,807739
39.70,7545907,839227
20.79,52737030,51767002
36.66,21401276,13314660
23.32,51077801,35254672
53.80,12516749,2763616
59.38,9082699,2378598
56.32,8941263,1884878
46.43,17281304,1505323
46.04,17339075,2311028
24.98,63722273,1887123
13.78,108319112,3114571
32.98,34925709,12458009
33.04,28092189,11389655
23.02,63744365,23368955
12.65,108608269,43470565
56.74,7488879,2358077
46.96,14580730,1303827
57.94,5087314,1367576
24.83,6055910,2526108
21.59,27276130,9660149
38.55,6797624,2403877
25.57,18719656,2050005
33.03,11438270,736150
38.42,44616673,806116
50.10,8852243,12089574
51.37,8066390,10811889
29.86,29009358,31763480
50.24,8836205,12154523
54.22,8929831,6943921
54.11,8917042,7049008
54.48,8929342,6763789
21.46,89611782,18008970
54.31,9664247,2420715
30.84,43874084,11548280
21.14,89667622,21110184
11.79,145464246,34515120
24.48,63313635,8302169
33.15,35227501,11628089
59.72,6206825,1992332
59.98,6139135,2193763
23.52,60745366,19693143
23.46,60561963,19825454
59.59,6451636,1203026
59.27,5908018,2308002
56.53,7416305,2206864
23.68,14387595,780081
21.98,27162768,2602601
59.88,6588271,1262052
25.69,15494675,891565
36.50,11172996,1197712
31.78,21347259,19665302
33.77,21400760,13691948
22.08,42763481,27282082
52.69,8114295,8054155
22.12,42757168,27131488
15.43,86075225,55565244
16.82,93121103,42715441
53.15,10334430,2723652
52.95,10311408,2720679
59.13,7953061,2392201
52.93,11606654,3172662
27.44,40232910,9659106
27.44,40226653,9194248
30.96,36040117,7261846
13.18,117520548,18318219
55.06,9490592,2687695
32.87,19972871,1321739
25.08,39755955,2051029
25.02,39730811,3367444
17.99,66958134,1026125
60.87,4978356,1550504
34.31,8863892,1578167
27.14,11131665,2524686
44.49,7226088,1563968
33.83,10323608,1087913
34.02,7553043,2275886
58.33,9529617,640629
53.73,13813185,707997
26.98,21807639,2526227
58.40,11434855,2307226
18.51,51332402,70951990
29.33,27960471,42838198
18.18,53523010,78726526
53.25,8646443,11288046
19.45,52262105,59119525
13.63,85553003,59504527
12.83,93526484,84687762
14.88,85491745,44101478
26.32,48293020,13114931
18.48,91421539,23586810
18.39,91741597,23533893
38.85,25940279,7155058
12.85,123676986,23798158
12.37,116892645,39038319
42.17,15356820,3672597
13.00,116664835,17975940
61.68,5603245,1758270
55.23,7790728,2137530
25.85,14711712,1224419
20.05,27284270,1853363
62.16,5203829,587832
20.09,16242687,1316262
28.68,10819935,1204189
24.03,13249150,2436570
11.82,85355522,88834653
7.54,170657391,177603081
20.93,42726172,32010340
46.85,10743521,7867451
31.19,26655732,25720755
13.28,85449966,63357147
54.73,8166840,6233157
21.99,42783773,22827078
57.89,8016853,2450416
37.90,20708083,4814326
60.43,5688782,1728716
41.26,15713543,2878557
41.27,15744732,3157032
41.61,15482457,2532879
20.96,71623255,7098160
13.19,117379869,7347850
12.14,117506680,42163277
55.66,7549909,1702648
45.54,4843541,714579
33.78,6817370,797309
57.56,3867825,1319496
34.05,6371327,1349723
20.29,9523502,690631
33.01,14338039,941900
18.63,28885871,1437172
52.48,8780658,1170236
24.14,9215122,597856
57.33,8653258,2067591
52.00,10945506,767860
43.61,12398564,13484685
46.40,8056185,11440305
47.36,10756510,7958279
7.97,174633618,142385543
24.13,42897345,22290274
35.25,21471782,11273056
52.47,9968332,2626538
39.37,19465130,4751267
19.80,76555288,17405617
11.22,155528605,32424172
52.95,9523648,3754525
12.09,125038604,40723644
54.79,7960952,2090623
31.49,29883203,5563663
12.56,116896932,16931093
58.42,5693572,2037268
12.72,114584383,15146453
55.55,7508599,2422505
24.11,39224475,5580752
59.56,5411750,1380835
57.52,4028722,860967
59.61,6169659,790080
23.60,15571331,1135290
54.08,10607188,620225
34.60,16114921,622882
30.10,21389330,756612
58.78,11289608,663762
31.21,14391615,2554478
43.72,13907468,16179541
20.05,53087821,58884256
52.78,8761599,9263584
52.69,8750255,9190716
9.19,172436978,109373190
48.96,13372464,7052347
9.90,173377417,78928117
24.25,50074427,24049334
53.69,12701741,3432627
53.93,12788714,3526472
29.75,42067527,10780411
29.68,42050398,9765801
60.59,5372133,2112405
42.06,14805231,5323595
42.32,14673596,3056211
33.79,29131813,5230560
32.80,28615196,10367567
12.66,111260130,37472787
42.42,14618760,3231481
13.39,111036253,12704192
35.72,19647377,3375527
35.84,19604625,4178396
25.45,37000154,5317210
44.51,11121436,974567
44.24,11177279,1292244
47.22,8093952,1161014
47.02,5680721,1317643
46.29,4803347,1677525
26.19,10057438,1233769
45.36,7195519,1490327
56.36,5402423,853364
54.02,10212965,651111
59.63,10749869,692804
34.52,10695651,564088
20.16,42697602,40369059
51.22,8043289,11580083
20.02,42706599,40335832
14.01,85391486,80552959
34.97,21405756,13661957
22.54,42765992,26981124
9.25,171972134,109204327
49.27,12920276,7009476
9.72,170848018,79320608
24.44,42796971,19193875
17.30,85542703,36442986
17.25,89682482,38237683
28.52,41011175,10170241
59.21,7973694,1989365
54.75,10466319,1927583
54.13,10489707,2244485
21.36,82015575,8787018
13.57,112024491,2514882
45.75,14784970,1984101
44.98,11070638,6685062
23.43,37681950,23008867
56.29,7591839,2358719
47.86,5683754,3441551
57.55,7749352,1227351
59.54,9869627,855313
59.21,9739850,1363868
54.95,11263816,643849
33.49,10200358,1178319
51.20,8060583,11854220
29.59,21351325,22310577
19.31,42669055,44551555
7.54,170616393,177065910
52.41,8099066,9385595
32.74,21402265,15228306
32.76,21400230,15469333
48.34,10804013,5881586
34.29,21480368,11491881
54.97,8160545,5925077
18.03,92935814,22833327
17.96,93420467,23047625
52.93,12915073,3211628
18.61,92354343,16127649
41.82,18452527,6921714
42.96,15592395,2244003
13.17,125151954,4408410
28.95,35517488,13610120
55.65,9673983,1702951
30.79,30055300,3346476
21.88,60896195,2538707
30.20,20972934,13135182
61.15,5349106,1185788
55.71,8058332,1674777
55.49,7447095,1595059
23.96,37110275,2899216
26.70,7362128,861519
61.02,5710760,980271
44.14,7062451,1281324
22.28,17697215,1387363
17.72,32085160,2375479
44.85,6447113,2286825
34.36,5397409,1317261
51.41,11179386,1579450
30.37,21359036,20822592
30.98,21355941,20771601
34.92,21417696,14577011
47.98,10729446,7265784
49.03,10813996,5605094
36.97,21529580,10850334
37.31,21503098,10743976
29.08,40470009,10199510
60.21,5488707,2144014
44.32,15152704,5466664
21.89,58817065,19745112
45.67,15152633,3119452
60.42,5671660,2150286
17.09,69362376,6208464
25.99,14938016,1476695
61.87,4674089,786538
49.80,5338413,740605
46.40,12445283,1214468
54.32,10207417,708831
19.62,42694232,42497694
9.12,172327727,112421682
53.74,8155620,6420654
48.45,13575474,7553241
37.56,21585729,5519354
53.29,10912717,2049746
11.59,170689882,19633346
60.30,5355496,1934549
23.01,71053790,3346103
13.53,114046885,3052334
55.07,7851722,3257406
30.48,30682116,12201122
32.10,35115559,2621254
23.34,65671036,2957057
54.75,7761315,3937127
42.38,14294431,955417
41.96,14521446,2882851
34.02,18702361,945485
45.30,4120479,683177
36.22,5101771,904150
36.28,5202036,1429341
34.14,13196261,1789776
33.84,10895388,2128231
18.67,32374494,1232461
18.65,32419909,1318954
61.52,5267689,605989
56.87,5178856,1231531
35.95,5459520,626018
35.38,5796905,2128604
24.46,5596090,1248663
53.17,9279181,589387
18.40,53405097,76238827
19.75,52479485,54769955
14.07,85458552,58820039
8.77,170687585,119529126
32.08,21395484,15003223
8.78,170726725,119539417
48.53,13111422,8086601
22.43,42799693,22042806
48.60,10794888,5740716
18.74,90259767,20027296
18.42,85589694,21227466
55.57,9597362,2248302
13.18,116982469,11231400
28.62,30423611,12058268
41.99,15137682,2609068
60.94,5453332,2114998
40.72,15214042,6251584
61.39,6063240,2430234
26.31,10069091,708487
62.62,6313653,1179152
56.46,5327325,1403639
33.38,12390732,888710
18.14,32154198,1017699
61.02,9611239,1140843
58.24,8667615,637030
51.25,10812968,1443314
50.31,8046628,13021024
20.00,42716112,43405310
46.98,13588568,9689556
9.09,172560366,113458064
52.22,8711733,10871525
46.97,13639859,10046184
33.42,27233108,15570259
16.56,93514437,44907841
58.30,8341378,2396627
20.19,85832446,10771599
55.08,8023158,3210213
21.16,63339404,23467232
60.51,5409329,1782514
41.33,18178733,1878110
41.38,11272718,6790752
15.53,72561114,43186668
25.30,34903680,2839011
60.85,4585839,2056642
60.97,7690198,1067141
36.40,11547094,1071361
18.30,32507420,3315530
37.14,5557321,1638514
24.22,5500991,639584
20.90,5646325,640025
58.08,9281226,794398
23.31,9890864,2201617
29.04,27370716,36312352
43.75,10692085,11447930
29.55,21339821,23085095
19.12,52238092,65000669
46.26,10728281,7978989
47.90,10789828,5901768
9.00,172189785,88775819
22.69,42836562,22993588
58.62,8995690,2624054
37.58,26417395,6864699
36.73,21592264,5792655
10.59,170797378,40646705
59.92,5596075,1660492
21.58,61758955,7545420
20.23,61829018,21987532
11.82,120501145,43384480
31.03,30155156,3965741
39.06,15395359,5908668
11.90,117454484,43545367
32.88,20915779,1812824
23.62,39856636,2770804
40.18,16224963,5849428
31.43,21038517,8157552
15.02,75646767,22832997
15.20,76872942,22687504
36.12,6821615,830319
35.06,10712797,2280496
60.55,5782818,942964
60.47,7114867,1461183
55.31,5323547,1681908
34.11,10724106,1008217
51.95,8858735,2000892
60.62,11874765,1429314
57.89,8955810,669784
43.58,15340512,1432915
7.56,170624349,173941759
50.26,8052588,12557539
18.31,50262856,67092243
8.96,170673108,112295616
8.87,170686192,115314834
52.68,8087531,10256597
31.86,21377646,14238701
48.18,10804561,5710450
9.58,170784431,83287889
18.55,85611043,21133630
61.02,5604296,1706606
13.19,116982173,11627899
60.81,5747001,1920744
30.00,29629722,4545612
12.28,116283511,44077402
55.51,7969730,1126517
54.88,7937857,1722640
28.72,30580442,10475213
22.63,39975062,13776981
26.55,10087348,2789641
31.59,8673613,2548647
57.12,4825135,577872
56.77,4832815,620807
32.46,6380596,2803091
20.10,9526198,809513
58.80,8155066,581943
44.11,9085967,1144124
44.37,10702780,10948114
12.30,85363818,86604174
30.02,21338727,21730312
18.83,42649577,43223033
53.09,8089136,10159866
14.50,85475079,56322941
21.40,53780849,34535815
48.12,10801407,5669611
21.87,42808838,21853076
18.40,94197246,23575651
37.19,21571650,5474680
18.38,93774350,22340474
41.14,15522668,3831056
21.62,60866006,12047997
40.82,15397508,5821774
41.13,18675214,7028780
20.83,60212407,19042277
29.67,28525364,5358698
30.49,22277308,1673939
30.44,16079730,650878
52.30,9199560,1334674
23.11,11745514,577066
29.29,23035049,28232794
11.63,85321773,94676042
51.04,8086627,11630026
45.70,10733292,8287407
7.99,170684639,129457724
46.09,10722649,8442871
31.36,21378826,16524470
25.67,50318066,9683909
18.29,85402187,13039336
60.13,6283907,2202780
40.44,15981138,2225546
28.29,31340771,2370483
39.28,15670020,6347342
19.17,72534387,24459937
59.31,5539743,2305585
41.11,11163348,1632847
59.73,4769442,2287406
24.16,14878647,7508329
17.80,28319132,9458773
43.89,4239989,668952
21.23,17528181,2212224
22.70,5598148,1282868
22.77,5606540,1354965
18.97,5798226,1321789
60.30,9213412,665632
59.64,9255134,1260558
56.57,8282514,1498513
40.91,15217867,1978664
51.49,8105380,598551
22.70,8419685,1321292
44.52,10702720,11530172
7.42,170774897,185375646
8.77,172727047,128179226
54.29,8153580,7474898
33.74,21431604,11286589
9.65,171977482,84961150
24.78,42935342,11169711
17.53,85576496,21440541
37.26,21550823,4163768
21.63,61899600,2461087
61.11,5524500,2136193
19.73,61463957,24559469
29.90,30239030,1504630
29.92,30255488,1824895
54.42,7706677,3989571
53.61,7777323,4188789
28.21,21125233,13257926
14.72,78714385,41915252
42.61,11049383,1589261
43.66,5430751,3559017
63.05,4864950,639007
45.26,4323658,662058
20.58,11891020,2553070
17.51,31926296,2137060
43.74,10255323,2149979
18.37,42648450,50578076
6.38,170566063,198444261
6.36,178683671,218678511
28.89,21343832,25240178
20.59,42781485,25261696
13.61,85401370,50503873
8.30,170702416,99050346
56.78,8299335,2677295
16.90,85406681,21025659
18.53,65731468,20945332
11.81,122416346,28367113
21.56,42899295,4861314
59.84,5567208,2270348
17.15,25568247,872309
31.20,7771945,869055
59.59,8051366,1126660
41.22,9940667,647407
33.90,14247011,707158
18.45,42644376,49942116
43.07,10699696,12365068
51.98,8529172,12185273
54.24,8607134,7627673
54.45,8600160,7601072
35.80,21539781,5703076
24.27,42921088,11098896
38.77,16402263,5863557
18.40,66071258,20614153
38.72,15927601,5681584
14.45,82142619,8141777
40.27,11771995,2295113
21.70,43484345,2722844
30.88,8896337,2825181
60.03,5526868,945185
56.28,5966581,1378665
41.79,8211066,1063958
30.40,9365885,1537442
31.21,7747558,1303325
44.58,8631477,6579310
34.41,16033580,12741642
15.99,64085163,48565749
10.57,130643147,99072685
37.37,18256369,10060773
36.96,16897402,9725158
42.00,13407786,3948769
53.25,4893550,853394
25.51,49246555,1810301
29.76,26095376,1746566
52.17,5503404,1209098
41.54,7293539,717458
47.05,8698682,622325
36.88,16992995,1151852
44.18,15553500,672817
33.50,16030118,13452256
46.74,5392153,5943220
24.03,37166740,30710386
47.59,5446686,4471244
50.94,4811120,1393948
33.28,25352363,7697124
33.05,25367365,7657267
40.32,13502713,3937213
38.21,7879297,810637
50.40,5355381,989199
42.49,6039907,1550518
41.28,15597826,644171
14.09,66377524,69543738
44.72,5458523,5567294
16.38,64145611,41488891
23.30,50732749,6628214
13.66,103501058,23756710
44.68,7122297,1859020
44.98,7041369,1335674
25.75,14722192,1602963
34.15,7570649,971881
30.72,11257211,1253954
30.48,9720158,634105
29.99,12234609,852396
25.62,16043454,1380198
40.67,8025277,7253121
46.45,5441573,6698064
9.93,128018891,109649295
11.23,134458288,74751747
39.21,14152978,3276784
47.27,7153284,2002369
13.71,99688520,23144891
35.71,6781234,1411513
42.49,7527751,1195173
30.46,12932619,757583
23.79,19813890,613534
9.44,127959181,122324474
47.68,5528580,5836129
25.16,32159456,21013743
13.74,100117380,21633220
20.50,56642128,3481007
43.01,5525746,949367
45.34,13598406,648842
40.68,14686133,626351
43.72,5455391,7885716
43.65,5449571,7927496
13.90,64057228,62844976
43.69,5444639,8356245
13.81,64054576,65445672
9.14,132284431,132126864
9.18,128002714,128454127
37.19,14723531,3732267
37.03,17264219,4591474
28.31,28911866,6857506
48.29,5041847,1197917
30.15,29002791,2880627
31.86,17597338,891566
39.84,6874367,1199076
70.66,4958870,1686295
46.96,13845873,1691549
50.41,11569329,628178
59.60,6752525,1162362
60.01,6803893,2117480
63.01,4568920,1213101
37.26,33779850,977663
37.13,33969107,1987645
63.21,5299748,738517
61.96,9844467,825644
61.71,4621441,1237459
58.08,7428794,1663300
36.00,35367199,1890186
53.38,10675549,1962580
59.75,5242781,5643647
42.50,17072195,8765055
62.04,4620567,1131202
52.95,17938374,615101
60.04,4781300,1998062
60.19,7133278,710159
35.54,5462620,1169560
35.88,26805263,2391758
36.83,20148246,1953501
51.70,5474459,996434
54.81,9014968,593492
53.84,14292720,604973
45.81,4299458,2546726
49.52,6008746,2162550
41.42,6871514,633249
40.61,7487994,1315407
33.01,22823541,2199696
38.46,5034504,1203117
42.49,6546052,656253
44.45,13480355,805348
52.72,5177985,3593330
49.60,6652380,1004073
43.98,9699136,809988
69.23,4691297,2443836
63.73,7407559,1752009
56.23,17796738,1048565
36.42,34553720,2080621
67.93,16464391,641679
21.33,65409813,33138289
62.66,4755000,1662204
57.77,7761789,610491
71.04,5049151,2249345
70.21,6298551,949152
35.10,16098586,14718285
27.93,47755977,2204020
33.41,16024758,15263462
41.51,9118210,8761120
40.43,14892048,2108286
33.70,28779357,2432208
47.23,24742479,2165876
47.94,19023464,1471066
67.19,6490964,1241413
18.00,65281535,57394808
18.79,65359367,48294664
50.23,7581187,1814601
28.97,51523959,3825481
53.17,6184091,1552856
52.99,7844454,758198
48.34,4923824,837662
37.59,16445240,14041245
30.53,57095549,2332119
48.26,18793353,1712424
33.20,35838939,1691925
48.92,11915955,890713
55.54,6008727,1539246
59.64,14067616,563589
42.62,15416636,1941012
45.04,12028766,1083928
33.09,6520222,650576
15.60,63591275,60396660
49.20,5610278,4889056
35.12,29468504,2464652
51.25,5138830,1192298
43.55,10854970,1160069
50.80,12151032,1679038
47.14,10377208,2300177
41.12,20340702,2151497
51.61,5172113,1796467
47.67,6124878,1819318
34.24,21397746,1832484
49.86,12759805,648939
43.27,6344696,5230533
25.65,31228448,16450444
42.90,3953885,1482424
35.14,12598514,1776783
30.90,24287694,1826449
24.49,54945479,2392280
43.11,3951713,1894449
44.93,4989046,599630
34.72,9796808,661370
35.04,16204953,15379411
34.80,16203219,15401387
22.43,64526849,23737373
28.37,61923647,2301386
44.90,5185802,1231487
38.15,21362687,11371699
52.78,4400803,2217604
33.22,32195620,12487058
54.50,4211687,1019943
50.40,5480131,742056
45.80,12572843,612084
41.85,20345854,2693868
51.80,4167490,1055796
52.89,11248666,620701
47.87,5796713,4827720
42.69,10780090,8286916
43.95,10758805,5305535
37.80,21109174,9792755
49.24,4712061,1659386
47.55,6362221,1118205
49.12,13184975,643923
52.03,5973883,5585098
52.96,5162792,2184753
37.01,21755991,1100221
46.45,8711103,620366
39.69,22819286,625359
39.07,11114646,13385063
44.61,11077406,2463659
48.96,5662487,2031074
33.37,23764808,1749124
48.22,7480798,868099
50.08,6056693,1241275
31.79,6199873,672970
53.34,5095265,6088305
55.37,5528010,2302806
56.57,7409900,705444
50.89,6818644,601035
48.50,5501716,5567785
47.94,4646985,1657751
48.17,4712041,1871327
30.57,5985778,705080
41.56,7099391,946281
16.65,61913191,42597025
25.97,31271042,14489269
31.36,23657958,2056917
46.01,5555428,2152019
46.48,5884015,1831550
32.37,14409598,1287348
32.63,4925062,869349
23.27,65285375,4557198
44.47,5646098,2160100
36.45,8551298,1190228
44.54,8853989,590003
38.40,7929125,8836404
50.48,6264333,2910189
37.69,16261463,2542237
26.66,43660997,1897801
40.17,13356292,2402749
44.61,4605696,740566
50.67,10154175,637760
28.74,31699877,13330658
51.21,5739659,1401607
51.89,6546610,930271
30.07,5697172,642347
46.96,4004916,4070780
50.98,5266323,1278006
41.70,12451255,1362958
48.52,11031751,732607
38.66,11194650,752331
23.65,61947450,3159813
37.16,13769954,1704818
45.63,6483615,941068
38.21,16095691,2409842
49.38,4042526,1700037
40.66,8379680,1119605
51.27,6596079,798417
50.73,4594480,742588
27.37,31475116,13601833
43.67,9893027,2380055
38.05,15969312,2469515
42.94,8141021,1676870
31.88,21641274,1488881
32.01,21551261,2392978
22.43,31065404,32892531
44.95,5962831,5783590
38.14,7881416,5862201
23.19,61915718,3383693
45.17,4186657,1042700
27.63,25546759,1106736
49.58,8726411,577857
46.09,4982278,3266694
27.03,31501525,13589703
37.59,15964952,2495295
26.23,42551454,1376497
33.08,13892201,2211133
47.95,4272447,651813
15.74,61921885,50924723
37.33,12010810,1860882
41.17,6601051,2255749
45.11,4216869,2207650
46.82,6487693,761498
25.50,43846927,2159282
41.74,4426526,1360000
37.08,9758478,631691
37.01,7838579,8387640
42.84,4110452,2661049
42.55,4363129,1702496
44.17,4199678,1815235
31.88,14193149,1862641
44.99,4276964,778231
38.47,4597579,853880
30.68,4042273,975762
24.16,46596133,1418961
36.31,4725568,1863021
44.65,7295611,1566884
45.19,6924408,647249
29.58,15464491,17461253
30.29,15562595,12906133
14.25,63390109,74638984
35.26,7927832,5056493
31.99,15688360,2760620
34.05,8842304,1938930
44.25,6653965,795530
21.65,63228560,5190731
30.19,4449271,835489
33.90,8029029,648773
68.05,3394652,2325220
38.44,28689344,12651440
72.69,4530383,1600178
33.94,37199892,20583398
34.25,38951175,21916534
67.60,9325276,728150
50.83,17885422,1428794
64.16,13379443,810666
45.97,20264507,640865
59.05,4131181,3672289
56.99,4438204,3539499
52.25,8091619,6073664
59.69,4136333,2863161
60.10,4451670,2655294
26.63,53221648,22484671
47.60,12684448,2040817
37.71,22515499,10467691
59.32,5225639,1878958
42.73,19020241,1269593
61.50,5239694,1206334
59.50,5188046,2184478
59.42,6373909,2393841
33.72,28414775,28136767
55.28,8562394,857497
46.17,10001606,4443599
36.26,21132734,13583029
46.45,15982327,1015524
40.87,10587045,837826
50.27,11473661,1176693
39.67,23018628,1464199
38.07,28419610,1494803
39.55,12571459,10487146
30.80,25040772,18915521
54.62,3305918,2600711
49.42,6438878,4291833
58.03,4205046,1515858
44.32,11232841,5023871
52.18,6363864,1049572
46.37,10850960,1723075
34.86,40556998,1747525
52.62,8018598,1854313
57.29,6439597,732240
46.93,13125127,859528
43.26,14011098,1762341
46.12,13514532,4692257
55.56,8238824,1791317
52.35,10435884,1222691
45.71,14900596,679900
42.01,10324174,1693379
52.05,23545116,1302050
55.21,4344003,3202397
46.61,6281949,6014223
29.33,26493831,24908816
53.49,4032238,3581040
47.03,6449243,5689925
29.91,24867278,21149019
51.66,4705817,3774386
52.91,3436788,2757397
27.97,42600359,19507945
54.04,5307851,1778760
56.09,5654657,1073656
55.77,5222781,1187814
55.71,5195705,1179332
54.50,5032814,1629831
49.09,12781838,697732
40.50,16847425,665181
40.88,21310724,686135
53.02,3164709,2428726
32.17,24764953,18712462
50.16,6252555,4757872
50.68,6332414,4562722
40.79,12516753,8943752
23.31,49434716,35409716
52.98,3236198,2337704
23.29,49474063,35684398
32.91,46823869,7286900
46.43,11072807,1289264
56.38,5243452,978692
47.28,8990740,816370
47.18,8996785,1662658
47.19,11609159,869940
40.38,9998692,1456691
52.42,13459523,787112
48.73,11223700,789002
41.20,15839602,1548567
42.23,21511314,3189735
50.01,22436891,590229
42.41,26085874,613612
39.32,30376787,1273227
49.43,4073525,3752862
46.98,3083780,2741340
27.24,24109122,21510195
49.55,4381333,3860840
37.22,12186600,9716021
42.99,11252765,2454856
36.50,21426923,3310000
33.50,21179332,11106861
34.65,19571685,14507742
47.33,6277356,832052
36.16,23492575,792750
46.77,6662473,703395
51.29,8000863,924382
48.98,16779987,1475490
49.63,4056501,3138585
47.80,3202969,2602594
49.95,4221074,2513874
48.23,3369231,2294040
50.05,4493972,1703654
49.05,4194220,1847608
35.76,21199853,9696785
50.62,4892054,1168510
38.64,19665621,4915091
47.87,6335860,2275201
31.55,40033462,12618861
50.32,6052568,1286918
43.65,9741740,1129493
39.06,15871131,935689
47.50,7277825,791170
47.76,7212600,791054
38.78,17581392,908035
38.55,17702198,1833992
49.75,10456841,646455
37.47,13365434,702857
50.97,19273422,1282865
50.46,19343898,1286968
19.46,50974999,58070464
35.81,12159790,10370365
22.13,51026990,38257941
47.28,3547160,1424897
34.48,20857325,14154916
45.11,6298578,3852412
34.54,19932356,14496812
47.82,6035292,1243844
30.46,29585943,18689901
47.45,7981457,1030209
37.83,12882365,3705142
41.45,9593849,637653
34.45,23858687,987580
45.14,17920210,662670
43.28,16320916,1511054
49.61,4086251,3637931
44.96,6158915,4697136
45.34,8068911,6577783
32.27,21764193,10919079
50.88,4791966,1003501
50.41,6107993,1578021
50.60,6931634,1414230
50.98,9824307,844181
45.36,17271588,637564
41.71,17434652,618033
50.54,16370687,1455860
33.85,14445395,16937670
48.41,4300104,3448265
48.04,4378373,2671489
46.59,3251122,2291401
36.43,12273397,7143333
43.70,7844309,5953960
48.95,4580249,1661519
26.65,42771959,21356854
46.81,6029811,1787337
40.44,10691846,1150743
45.53,5948536,3582613
27.68,38969400,27322224
35.73,24581487,832697
47.99,4583190,2049533
48.19,7661114,709399
44.40,17152018,739190
42.33,3087991,3377361
38.50,6006999,6621624
44.53,4638257,3782790
43.49,3233131,2832648
32.45,14403049,16143020
24.72,44946868,19834644
43.53,3531329,1517784
45.61,5175192,1253360
28.46,38908846,7011886
44.84,6165463,1362573
32.06,31077526,1179029
44.35,6633394,923875
45.07,7460497,981384
33.84,12423903,997446
33.90,19321642,1827156
33.38,14609878,830684
44.38,13674451,1076212
43.49,14353386,662433
32.81,11938123,10256818
44.45,4799441,3380585
33.93,12053240,8351137
25.20,44594136,22400921
45.66,5421330,1270266
32.41,20035281,5077161
45.62,5393524,1411634
36.82,10650528,6161051
41.15,5870388,3090343
38.31,9263326,1037698
46.19,7561569,1231371
39.23,9034015,628259
36.68,19455905,646738
45.00,4625607,3961451
42.91,3405002,3045485
39.31,6146372,4976162
44.60,4865650,3398156
41.82,7146891,3611342
37.83,10728046,5590493
41.77,7074693,3637931
26.70,39491506,19405897
46.59,6161981,1214601
39.78,9350470,1767034
34.61,13139647,1777455
47.04,7404668,1243794
49.25,13322430,569265
35.72,14918751,634336
35.57,20057895,585245
42.82,4915929,3924970
18.42,46485291,49676507
40.42,3245435,3070501
40.17,4413518,2271134
29.72,20437767,14280189
35.63,12627570,2558325
40.15,5691327,2096786
42.71,4856965,1536330
41.37,7874263,1415998
38.42,9847047,1345616
36.10,17796438,1270607
44.37,12678752,1234281
36.76,13544422,956416
81.87,6086894,2187782
79.29,7063986,655446
60.95,7230754,997955
59.07,15278532,622511
63.15,5172791,2325125
65.68,5705917,1425732
53.87,6692226,2589966
55.63,12759332,596670
54.82,3839222,1719960
37.29,10794383,8897575
55.00,3918152,1742264
26.77,42134121,22423382
55.06,4241993,1112889
36.10,19517006,1954758
53.84,3474434,1922904
31.58,19243866,12678603
55.01,3703562,2025978
41.34,10551527,7163051
33.02,19359163,14006278
47.90,5962713,775644
43.33,8620070,771147
42.52,9431224,2682866
51.54,8424734,663701
52.61,6897878,1059055
45.77,7422608,1654181
35.39,21113388,2428596
34.42,11824463,1361446
41.99,26276743,725419
54.23,22105490,672516
27.28,21541645,18820473
37.21,10925849,9479176
56.06,4706725,2272137
22.82,42883431,29016488
31.24,19462875,7581087
57.27,5317267,1130988
49.33,5792755,1383354
34.59,24876548,919719
35.28,15763164,10686080
37.85,7478129,693772
55.69,8199161,1186604
42.27,12148343,1523408
35.05,16895083,931935
36.89,17294248,1152662
37.27,33174725,725499
53.82,4391070,2419908
51.49,4262391,3423440
41.31,13785215,4815533
55.77,6186473,1474193
53.57,4561744,1898764
42.20,13446134,5135660
30.14,38895764,13251926
53.05,7287904,841683
34.43,17305039,665253
51.96,5808719,3162641
35.64,14950635,15001935
26.41,22127499,19565886
49.17,3006993,3015054
23.75,42545448,26931282
32.93,20534558,3085917
52.04,5224367,1442366
41.08,10573522,1697553
52.26,5557107,1195432
41.13,13615657,1765939
52.08,5666099,1164327
50.65,3491637,1957062
51.34,5135202,884071
34.58,16593855,981383
52.32,9409511,796278
50.73,17102575,1295055
47.60,18463800,719784
49.77,4903293,2916633
49.83,5031453,2870982
19.68,45813771,52940764
49.67,4955990,2994660
34.04,10893163,11291174
34.67,14695676,17068987
25.67,21684431,21949193
50.29,6252247,2963188
26.73,21603079,16921135
28.40,43683170,6678505
48.45,3530559,1003828
34.00,14191607,859928
46.94,5549054,712037
31.58,21155511,8175515
52.33,2769325,2378473
36.79,10876112,9235293
53.18,4598311,2707130
51.89,2859040,2359358
53.95,4816575,1117501
34.53,19942706,2869865
38.91,10197607,3817788
48.27,5660593,1080523
53.96,5383261,811792
53.80,3445464,865797
42.82,10332050,1147940
41.62,7044321,1349317
40.64,9145202,2053917
49.64,10907391,894544
47.14,8801254,1226322
41.26,13012984,1405456
31.98,25122276,919323
31.80,25101735,1608311
42.64,16850511,1156767
34.58,32080615,1591677
20.16,45987792,44123757
27.08,21539163,19212694
51.23,4899593,2768049
49.23,3020673,2255164
22.93,43248626,26404791
46.85,5712825,1244763
49.52,5804482,1134571
49.39,5614548,1196238
41.36,13207988,2045313
48.87,5478148,795574
39.36,9157309,687415
35.59,8592356,1391647
48.75,10835145,1245198
45.21,15499909,1202631
25.38,21683533,22486653
19.77,42931840,42236447
48.41,5296156,3431837
40.53,5732880,5948606
33.69,11043947,10461137
48.76,6283932,3607195
34.34,11186281,8242572
26.94,21931068,16096828
48.56,5533927,3034154
43.44,7397034,3885555
38.90,13399678,3519180
39.59,9437961,1573545
46.12,7335535,708895
46.28,15294638,628796
26.34,21543688,20238894
19.46,45065779,45844097
48.70,4036785,3510128
35.35,14870292,13248039
27.35,22275203,15553121
44.85,7330481,2787338
33.61,16616605,2328946
32.63,18116429,1716686
50.12,17004851,635858
41.63,7450680,11272935
19.79,45348553,48219776
52.02,6402375,3395574
52.07,6693667,1237489
51.92,5919821,1218573
50.01,3427626,1406060
41.32,10490717,2792775
33.91,19691364,4250098
32.02,19450120,10726667
31.11,31340501,953130
53.31,6668743,1194343
42.24,7492022,858348
42.25,8936108,650552
47.29,8385601,803923
34.85,15173341,1270754
53.25,12817996,1213670
37.54,16925718,603584
51.39,5953448,4335081
18.71,45260877,50205962
48.68,4198422,4062986
20.83,45837918,34984258
45.51,7361747,2940914
39.27,14204465,6241111
33.18,19893427,5992671
52.61,5983320,1211871
35.01,10756472,687194
41.40,10158706,686065
51.82,13059257,577193
24.73,21697179,23090914
42.59,5840447,2258871
23.91,43717819,16790831
25.01,42016755,12495025
47.30,4178258,2227282
37.76,10589022,7003033
49.45,6135943,1251370
47.20,3431369,2006634
43.92,5805324,1549663
43.88,5927791,1061287
40.04,9855415,799562
47.60,14482877,636452
36.10,18445929,652786
24.69,21728401,22607697
34.41,11135366,8118265
48.17,6052112,1664799
42.62,6006234,1199771
26.71,42102705,4793977
41.70,5910719,2308726
36.38,11172944,4340509
32.13,19924688,1255697
42.36,7408361,3990949
24.30,39162137,28154276
48.81,9554989,1443453
29.58,23632214,2134992
47.53,12541482,1367800
45.88,5888440,4074113
32.31,11055055,11791335
33.49,11206279,8938858
42.86,3099673,3012911
39.25,5878774,5453404
44.25,3318626,1078315
46.43,6846382,2013381
43.88,3327370,1365527
35.84,10731810,6959251
46.91,6415118,1182952
35.85,10724299,7077901
47.02,7052419,1445612
29.45,29096411,1023028
