perf, CACHE_MISS_L1, CACHE_MISS_L2
23.76,3550433,2637990
28.51,3129523,605850
31.74,2889822,262146
35.32,2804058,335996
35.39,2842335,370572
39.97,1249992,396177
35.44,728609,324514
40.86,552687,101113
37.85,986849,99006
33.58,1878659,100797
28.50,2923402,696382
31.89,2899947,237022
35.25,2769487,277221
40.31,1287359,336049
35.46,734986,281372
40.87,556668,94919
37.92,987800,95436
33.59,1870630,97377
31.75,2730094,198413
35.47,2765669,223465
35.62,744280,211119
41.42,535662,100092
38.03,984042,88076
33.70,1875521,89234
35.58,2742458,210277
40.56,1140401,223006
41.10,554999,123382
38.03,988981,110615
33.72,1871608,124129
35.67,2751467,210557
35.64,744532,213392
38.15,988191,149287
33.61,1875981,166556
40.78,1145001,156990
41.31,561282,121018
38.82,845959,131656
34.88,1531988,146207
35.33,741925,135632
34.92,1540035,128830
41.60,548076,78379
38.39,1006595,77308
33.06,1902294,97766
38.58,996779,67097
33.36,1903116,66572
40.46,1595785,67401
18.69,3766826,3164150
22.56,3397288,1281519
28.31,3100570,375587
29.30,2964038,364234
29.37,2820036,339804
33.17,1603192,380992
34.37,1227626,389291
35.14,396263,240154
34.63,558449,158880
34.77,1014371,333706
24.17,3396013,787683
27.49,2894283,375580
29.05,2827158,325732
33.16,1594621,368589
34.52,1023232,346074
35.39,396069,209043
34.04,605768,127397
34.37,1081750,139356
29.09,2885036,283317
29.25,2959349,300799
34.63,1017710,280775
35.22,399006,147293
34.06,607896,109272
33.99,1083568,117654
29.46,2822856,245820
33.41,1593784,254772
35.28,400079,130346
34.76,587880,105678
34.40,1085276,98206
29.55,2822108,237734
34.65,1038773,227638
34.10,612186,95157
35.05,1005902,172770
33.43,1599009,176306
35.28,406918,134747
34.68,589856,134991
34.58,1101898,125332
34.77,1087864,147447
35.02,1074348,118930
35.94,405562,75135
35.01,557834,78070
35.10,1044113,81074
34.34,637758,70685
34.71,1115214,75620
35.12,1131937,64246
21.07,3199750,3227301
20.48,3089283,3077976
20.77,3118256,3194594
28.72,2752869,630146
28.52,2753043,671865
28.39,2875650,702918
32.66,2670571,167806
32.73,2789217,186697
32.60,2669761,215123
33.38,2674200,152870
33.54,2754317,159819
33.40,2673995,148076
33.45,2740464,153997
33.37,2685657,144332
33.31,2682825,152610
37.38,1386938,120364
37.48,1378872,118260
37.41,1480999,139770
37.61,870540,110419
37.65,882210,112231
37.72,873300,136036
39.33,467695,79988
39.31,465122,81099
39.36,465988,130566
32.15,712274,67543
31.73,809771,66489
31.66,802773,126328
38.21,1524811,65882
38.19,1528375,62703
38.20,1412865,115861
18.51,3075329,3675415
18.63,3185826,3778566
18.41,3139613,3613966
24.34,2802796,783507
22.91,3002382,1252298
22.30,2896418,1447398
27.52,2798890,247271
27.57,2801435,216916
27.69,2683785,171112
28.72,2680189,143649
28.60,2731775,153004
28.74,2678969,145539
28.71,2743088,153095
28.49,2778932,152381
28.74,2749208,159387
32.18,1418526,122325
32.51,1506428,127139
32.20,1464472,141810
30.79,907049,114658
30.73,1071292,108689
30.58,946140,135059
31.54,430718,82251
31.68,433348,79884
31.64,445498,128613
30.14,723476,68045
30.15,722938,67141
30.15,720166,123446
37.64,1342817,63292
37.47,1349540,66681
37.34,1339030,119269
22.97,3886390,2684992
27.04,3557184,744331
29.66,2901756,390712
34.86,2756442,311736
34.68,2769469,342348
39.51,1265744,405405
34.22,821475,374467
40.56,524620,101182
37.54,921958,100675
36.28,1731089,103928
27.30,3016821,633488
30.90,2753570,213810
34.97,2766403,282103
39.68,1188780,324524
34.40,759080,305703
40.61,526985,103759
37.55,921704,96710
36.18,1736168,98312
31.17,2748158,213887
35.04,2761787,237196
34.47,753817,239796
40.99,510339,96171
37.73,922296,88576
36.20,1734437,88967
35.32,2850515,217292
39.96,1197510,221317
40.93,541879,93696
37.82,919806,93606
37.41,1470366,123063
35.14,2754671,227939
34.48,766687,220712
37.88,922469,126419
37.35,1505407,142311
40.13,1192919,159854
40.97,532404,130595
37.99,928391,125639
35.83,1745851,129128
34.75,754128,138907
35.87,1745213,118836
41.29,521922,75696
38.06,939314,80956
35.80,1764161,84908
38.30,935626,66953
35.78,1763639,70234
42.93,1760396,62762
19.85,3547229,2669121
25.30,3158119,750114
29.67,2791505,281265
32.22,2844400,350475
32.14,2778706,345580
36.44,1442748,432700
33.96,856699,373479
38.35,466863,143001
36.13,798333,111607
35.62,1464797,103828
25.53,3151119,708461
28.49,2791033,343371
32.33,2859520,334562
36.60,1308295,355793
34.06,854306,320123
38.45,470377,114091
36.29,794241,99741
35.63,1461933,99350
30.07,2782352,224031
32.42,2772845,247998
34.02,866528,253977
38.51,470857,97133
36.33,797606,91329
36.36,1306638,183276
32.28,2761192,225456
36.85,1314167,233277
38.59,469954,91045
36.38,797048,89803
35.89,1458846,85379
32.49,2765909,224086
34.11,857043,213984
36.44,793993,115802
35.82,1460477,122364
37.06,1302746,159888
38.86,480337,131517
36.63,810733,133962
35.73,1468778,133701
34.46,848318,145307
35.69,1470793,117041
39.11,471066,76533
37.09,690086,74757
35.82,1482342,85297
36.93,813909,65889
35.91,1486353,67987
40.14,1501700,62836
19.23,3539437,2903647
23.20,3312169,1160592
29.03,2847316,293512
30.66,2794793,321536
30.70,2802114,347581
34.71,1466365,400644
34.07,974621,371811
36.49,414593,199684
34.14,657705,137532
36.04,1185612,140382
24.79,3311217,794317
28.08,2850803,350223
30.68,2797516,319581
34.64,1487734,378487
34.02,973627,362181
36.56,417034,147711
34.23,663798,126267
35.99,1188727,126543
29.80,2839836,222530
30.83,2799002,261407
34.08,1082314,287534
36.92,485671,185024
34.17,664777,105874
36.03,1186155,105251
30.77,2985502,227882
35.01,1476932,241695
36.68,417486,104366
34.26,667129,93392
35.32,1190672,90509
30.87,2796687,232162
34.19,992147,225051
34.27,666312,94730
36.09,1195223,95556
35.10,1653890,173948
36.73,423870,138293
34.31,674760,133158
35.68,1198515,129677
35.33,966479,141206
35.89,1198180,113637
37.15,419487,76660
34.45,685121,75076
36.27,1214378,80886
35.17,625498,68758
36.38,1219029,65520
34.70,1249660,63651
20.97,3550352,2816616
26.48,3169770,641985
29.86,2820492,288260
31.92,2789330,308560
31.89,2796994,329406
36.10,1409622,363211
34.90,880780,353308
37.75,476812,176333
35.55,794424,115811
33.64,1466668,120254
25.80,3166243,838244
30.07,2820614,258653
31.09,2804962,289799
36.37,1403268,329204
34.95,891216,305976
37.99,477664,150237
35.78,794375,105929
34.05,1470938,117122
30.15,2811107,215119
31.97,2795041,243062
35.08,912074,247142
37.98,477844,124025
35.70,794828,95631
34.20,1465811,98703
32.16,2790344,220968
36.58,1409856,226747
38.09,517912,135654
35.83,792488,111044
33.75,1468334,108314
32.10,2790493,222414
35.12,913728,215342
35.87,795332,150155
34.09,1472575,152414
36.51,1392223,172094
38.02,483823,131104
35.99,804475,131331
34.05,1475098,132805
34.95,911641,142655
33.55,1478851,118285
38.02,477460,88150
36.04,814716,96607
33.87,1498861,82635
36.20,813141,70825
34.07,1498899,66059
28.87,1512486,63196
21.85,3546393,2660894
26.03,3103963,748070
30.54,2774145,280968
34.02,2769090,314459
34.00,2776032,345411
38.71,1263375,391769
34.01,812658,375995
40.23,496055,115622
35.62,855159,109351
37.85,1590908,123791
26.04,3100618,698502
30.10,2944639,276283
34.08,2775359,312766
38.85,1259096,342561
34.14,808268,323295
40.25,498641,109044
37.64,859662,100288
38.26,1591871,105591
29.40,2760893,291350
34.28,2885025,270046
34.19,821193,256136
40.44,496464,95212
37.77,859373,91203
38.02,1594564,94436
34.32,2754951,226418
38.96,1278890,226934
40.57,497151,87596
37.79,859952,87268
38.35,1590335,85855
34.28,2765699,237824
34.27,817786,223862
37.89,858913,120748
38.00,1593499,110356
39.18,1259462,175254
40.65,504202,131767
38.03,866690,128825
38.03,1597089,129805
34.80,817636,144496
38.11,1601200,117543
41.02,496514,76011
38.12,877789,81839
38.01,1618702,79008
38.33,872516,67453
38.17,1625229,66029
44.11,1643068,62605
19.35,3549443,2667135
24.51,3577313,810496
29.04,2993017,345777
32.23,2835981,356429
32.11,2899053,411035
36.45,1413561,427571
33.53,1031502,397760
38.86,473909,201463
37.05,715183,123251
37.13,1382988,281438
23.29,3628682,1078977
29.12,3052665,293316
32.37,2891365,339546
36.48,1453237,388231
33.55,1010181,361807
38.94,505190,202589
37.33,650257,110266
37.78,1332142,254407
28.03,3028541,389255
32.56,2848182,262557
33.76,868090,250576
39.03,484180,132829
37.28,707788,92310
37.46,1358187,164979
32.51,2900796,228179
36.73,1296278,236280
39.11,516688,126479
37.15,756122,86167
37.61,1402334,114204
32.71,2836473,231357
33.82,869393,225188
36.91,799237,122464
37.23,1470224,124318
36.87,1411133,174243
39.12,477417,128726
37.05,808090,129589
37.33,1473844,127310
33.93,852982,141806
36.93,1483378,120578
39.40,470520,81485
37.10,815417,84457
37.31,1492689,80595
37.41,813323,65931
37.25,1494677,66576
42.54,1500444,62949
18.98,3543482,2833767
24.35,3236731,820673
28.87,2820219,326024
31.21,2789532,313436
31.17,2796064,349765
34.86,1432064,394991
33.67,943618,369051
37.13,444717,164192
35.68,731351,117725
36.48,1270373,274463
23.05,3240565,1158308
29.11,2828020,252940
30.97,2800833,322605
34.93,1443492,360710
33.58,1124824,370199
37.17,448197,142630
35.71,732230,109336
35.76,1329354,116496
29.36,2817547,244707
31.18,2794852,259540
33.75,938159,263301
37.32,453477,118597
35.43,764280,99594
36.25,1333945,103420
31.43,2786359,227338
35.10,1446529,232497
37.46,448869,101478
35.63,752981,91495
36.40,1298694,127129
31.42,2790584,242782
33.77,917122,221922
35.85,733490,108882
35.89,1330732,104219
35.47,1437589,172993
37.58,455177,139383
35.66,776225,137479
35.81,1342402,123990
34.20,924740,140644
36.37,1342790,119106
38.29,515421,88237
36.36,712721,93803
36.38,1357074,78165
36.30,752339,67666
35.84,1369313,65441
39.33,1388799,63968
19.24,3544803,2716132
24.81,3236578,696168
29.31,2813382,275466
31.19,2859325,360890
31.18,2916599,393152
35.55,1392097,410408
33.72,925517,375030
38.00,513037,278942
36.19,730403,124632
36.41,1100943,300481
23.22,3637032,1053787
28.88,3060076,292228
31.44,2882352,346447
34.20,1394856,369178
33.76,911901,357664
37.92,486759,226709
36.20,731499,105105
36.04,1333548,111566
29.49,2807259,213170
31.61,2875079,287159
33.83,924883,270197
38.10,443977,111403
36.35,735796,97796
36.10,1335765,96284
31.50,2855426,233451
35.87,1394603,244723
38.15,443383,95342
36.31,733278,89506
36.12,1335236,88982
31.62,2780749,240180
33.90,932324,224287
36.15,736205,159009
36.19,1158941,132939
36.09,1377594,175427
38.27,453171,138214
36.87,619565,137465
35.96,1344356,128383
34.09,922448,143019
36.14,1349219,116244
38.82,476375,84206
36.87,709448,79431
36.08,1358905,85198
36.74,760663,70677
36.63,1272210,66404
39.66,1376610,63321
18.85,3544497,2884387
24.50,3305586,790075
28.64,3124269,364166
30.41,2790458,342956
30.40,2794941,363771
34.72,1481682,395619
33.94,964458,375503
36.86,427157,232817
34.84,666724,146098
35.92,1207786,146519
24.49,3302852,732801
29.28,2844734,269312
30.50,2797382,330121
34.87,1474311,373095
34.04,1162390,390139
37.00,418560,170473
35.39,559500,151584
35.93,1205957,120765
28.68,3124335,345491
30.60,2798502,263044
34.23,965770,259623
37.08,419583,139144
34.91,672314,107450
35.26,1211866,107758
30.67,2787691,233693
35.04,1479101,238687
37.05,419622,115332
34.84,676507,94970
35.94,1210910,89115
30.66,2793634,239622
34.28,976295,221130
34.85,674298,99216
35.80,1216147,92781
35.10,1481224,180362
37.18,426301,131882
35.07,682993,132835
36.55,1172939,121282
34.33,972246,139567
35.83,1222852,118722
37.44,423703,79250
35.20,693175,79670
36.11,1230164,77072
35.27,652049,67726
36.48,1205703,66087
37.91,1247640,63128
19.03,3834260,3036608
23.07,3310744,1133123
28.98,2848034,318847
30.32,2797796,323626
30.38,2804908,352476
34.33,1527020,395701
34.02,968692,396049
36.76,417683,203215
35.18,666976,153832
34.97,1198791,147764
24.80,3302784,641429
28.77,3116218,336869
30.16,2806762,329197
34.38,1506841,382267
34.06,966574,360413
37.00,463010,256656
35.58,583913,162289
35.63,1201380,132747
29.62,2841947,225796
30.28,2802980,266950
34.34,973323,276443
37.02,421203,137777
35.68,609068,126274
35.81,1176488,218784
30.59,2869062,233762
34.49,1692751,245586
37.01,459994,139527
35.88,564521,104976
35.22,1145591,154194
30.53,2900927,246330
34.27,1201658,227807
35.70,605387,108007
35.70,1208845,142278
34.85,1672302,174122
37.24,476465,141696
35.72,627336,137658
35.72,1233031,127859
34.43,1154275,147325
35.90,1203281,123339
37.75,487825,85605
35.90,663301,86384
36.06,1119710,80241
35.53,663583,67304
35.94,1231161,68727
37.99,1257566,63190
19.77,3193260,3495639
19.77,3204276,3482864
19.76,3211121,3496440
26.26,3039578,823268
25.91,2977512,901938
26.20,2780373,769478
30.03,2805423,198848
29.89,2774922,213107
29.39,2765887,241876
30.88,2744038,154717
30.77,2772006,150283
30.93,2739027,150466
30.96,2682012,150679
30.85,2685979,146960
30.99,2684810,152503
34.66,1408287,121524
34.61,1405381,119195
34.74,1401059,137226
33.98,1022471,115914
33.84,1043410,109217
33.75,1039904,137604
35.10,444822,84735
34.81,444240,80641
34.73,440830,128777
31.00,763788,68032
30.98,764863,69043
30.89,763935,127270
37.77,1428142,64163
37.77,1438225,63363
37.59,1430848,114024
