perf,CACHE_MISS_L1,CACHE_MISS_L2,scheme
70.22,564990,48219,"[V f; U (2, f); U (14, y); T (16, c); Hoist_vars [c]; T (3, h); T (28, x);  T (3, w); T (4, c); T (4, f); T (1, x); T (2, y); T (1, f)]"
67.20,565827,69487,"[V f; U (2, f); U (14, y); T (16, c); Hoist_vars [c]; T (3, h); T (28, x);  T (3, w); T (4, c); T (2, f); T (1, x); T (2, y); T (2, f)]"
65.52,558127,92435,"[V f; U (2, f); U (14, y); T (16, c); Hoist_vars [c]; T (3, h); T (28, x);  T (3, w); T (4, c); T (1, f); T (1, x); T (2, y); T (4, f)]"
76.05,389403,69178,"[V f; U (2, f); U (14, y); T (64, c); Hoist_vars [c]; T (3, h); T (7, x);  T (3, w); T (1, c); T (1, f); T (4, x); T (2, y); T (4, f)]"
72.09,478628,72469,"[V f; U (2, f); U (14, y); T (32, c); Hoist_vars [c]; T (3, h); T (7, x);  T (3, w); T (2, c); T (1, f); T (4, x); T (2, y); T (4, f)]"
66.72,565161,75482,"[V f; U (2, f); U (14, y); T (16, c); Hoist_vars [c]; T (3, h); T (7, x);  T (3, w); T (4, c); T (1, f); T (4, x); T (2, y); T (4, f)]"
73.53,386885,72934,"[V f; U (2, f); U (14, y); T (64, c); Hoist_vars [c]; T (3, h); T (4, x);  T (3, w); T (1, c); T (1, f); T (7, x); T (2, y); T (4, f)]"
71.27,467380,76819,"[V f; U (2, f); U (14, y); T (32, c); Hoist_vars [c]; T (3, h); T (4, x);  T (3, w); T (2, c); T (1, f); T (7, x); T (2, y); T (4, f)]"
66.67,551993,79704,"[V f; U (2, f); U (14, y); T (16, c); Hoist_vars [c]; T (3, h); T (4, x);  T (3, w); T (4, c); T (1, f); T (7, x); T (2, y); T (4, f)]"
74.99,372020,71461,"[V f; U (2, f); U (14, y); T (64, c); Hoist_vars [c]; T (3, h); T (2, x);  T (3, w); T (1, c); T (1, f); T (14, x); T (2, y); T (4, f)]"
68.19,430932,74808,"[V f; U (2, f); U (14, y); T (32, c); Hoist_vars [c]; T (3, h); T (2, x);  T (3, w); T (2, c); T (1, f); T (14, x); T (2, y); T (4, f)]"
67.66,492369,74226,"[V f; U (2, f); U (14, y); T (16, c); Hoist_vars [c]; T (3, h); T (2, x);  T (3, w); T (4, c); T (1, f); T (14, x); T (2, y); T (4, f)]"
78.82,356474,71848,"[V f; U (2, f); U (14, y); T (64, c); Hoist_vars [c]; T (3, h); T (1, x);  T (3, w); T (1, c); T (1, f); T (28, x); T (2, y); T (4, f)]"
72.96,385492,71063,"[V f; U (2, f); U (14, y); T (32, c); Hoist_vars [c]; T (3, h); T (1, x);  T (3, w); T (2, c); T (1, f); T (28, x); T (2, y); T (4, f)]"
69.87,408865,72899,"[V f; U (2, f); U (14, y); T (16, c); Hoist_vars [c]; T (3, h); T (1, x);  T (3, w); T (4, c); T (1, f); T (28, x); T (2, y); T (4, f)]"
72.54,502060,34622,"[V f; U (4, f); U (7, y); T (16, c); Hoist_vars [c]; T (3, h); T (28, x);  T (3, w); T (4, c); T (2, f); T (1, x); T (4, y); T (1, f)]"
72.80,504339,55221,"[V f; U (4, f); U (7, y); T (16, c); Hoist_vars [c]; T (3, h); T (28, x);  T (3, w); T (4, c); T (1, f); T (1, x); T (4, y); T (2, f)]"
65.39,468495,32715,"[V f; U (4, f); U (7, y); U (3, h); T (16, c); Hoist_vars [c]; T (28, x);  T (3, w); T (4, c); T (2, f); T (1, x); T (4, y); T (1, f)]"
62.30,473208,54088,"[V f; U (4, f); U (7, y); U (3, h); T (16, c); Hoist_vars [c]; T (28, x);  T (3, w); T (4, c); T (1, f); T (1, x); T (4, y); T (2, f)]"
73.33,629932,32411,"[V f; U (4, f); U (7, y); U (3, w); T (64, c); Hoist_vars [c]; T (28, x);  T (3, h); T (1, c); T (2, f); T (1, x); T (4, y); T (1, f)]"
76.41,628966,51912,"[V f; U (4, f); U (7, y); U (3, w); T (64, c); Hoist_vars [c]; T (28, x);  T (3, h); T (1, c); T (1, f); T (1, x); T (4, y); T (2, f)]"
72.41,443111,33783,"[V f; U (4, f); U (7, y); U (3, w); T (16, c); Hoist_vars [c]; T (28, x);  T (3, h); T (4, c); T (2, f); T (1, x); T (4, y); T (1, f)]"
68.75,437085,56470,"[V f; U (4, f); U (7, y); U (3, w); T (16, c); Hoist_vars [c]; T (28, x);  T (3, h); T (4, c); T (1, f); T (1, x); T (4, y); T (2, f)]"
43.68,594014,189074,"[V f; U (1, f); U (14, y); U (3, h); T (16, c); Hoist_vars [c]; T (3, w);  T (28, x); T (2, y); T (1, f); T (4, c); T (8, f)]"
77.09,476733,32539,"[V f; U (2, f); U (14, y); T (32, c); Hoist_vars [c]; T (3, h); T (14, x);  T (3, w); T (2, c); T (4, f); T (2, x); T (2, y); T (1, f)]"
73.96,476173,58891,"[V f; U (2, f); U (14, y); T (32, c); Hoist_vars [c]; T (3, h); T (14, x);  T (3, w); T (2, c); T (2, f); T (2, x); T (2, y); T (2, f)]"
70.81,475873,76424,"[V f; U (2, f); U (14, y); T (32, c); Hoist_vars [c]; T (3, h); T (14, x);  T (3, w); T (2, c); T (1, f); T (2, x); T (2, y); T (4, f)]"
71.05,567166,36369,"[V f; U (2, f); U (14, y); T (16, c); Hoist_vars [c]; T (3, h); T (14, x);  T (3, w); T (4, c); T (4, f); T (2, x); T (2, y); T (1, f)]"
70.12,564408,55672,"[V f; U (2, f); U (14, y); T (16, c); Hoist_vars [c]; T (3, h); T (14, x);  T (3, w); T (4, c); T (2, f); T (2, x); T (2, y); T (2, f)]"
66.74,565876,84438,"[V f; U (2, f); U (14, y); T (16, c); Hoist_vars [c]; T (3, h); T (14, x);  T (3, w); T (4, c); T (1, f); T (2, x); T (2, y); T (4, f)]"
77.22,678143,34787,"[V f; U (4, f); U (7, y); U (3, w); T (32, c); Hoist_vars [c]; T (28, x);  T (3, h); T (2, c); T (2, f); T (1, x); T (4, y); T (1, f)]"
71.21,685702,57097,"[V f; U (4, f); U (7, y); U (3, w); T (32, c); Hoist_vars [c]; T (28, x);  T (3, h); T (2, c); T (1, f); T (1, x); T (4, y); T (2, f)]"
53.91,397465,83459,"[V f; U (1, f); U (14, y); U (3, h); T (64, c); Hoist_vars [c]; T (3, w);  T (28, x); T (2, y); T (8, f); T (1, c); T (1, f)]"
54.93,398057,79255,"[V f; U (1, f); U (14, y); U (3, h); T (64, c); Hoist_vars [c]; T (3, w);  T (28, x); T (2, y); T (4, f); T (1, c); T (2, f)]"
53.94,397867,78595,"[V f; U (1, f); U (14, y); U (3, h); T (64, c); Hoist_vars [c]; T (3, w);  T (28, x); T (2, y); T (2, f); T (1, c); T (4, f)]"
54.37,396502,83919,"[V f; U (1, f); U (14, y); U (3, h); T (64, c); Hoist_vars [c]; T (3, w);  T (28, x); T (2, y); T (1, f); T (1, c); T (8, f)]"
82.69,391242,28147,"[V f; U (2, f); U (14, y); T (64, c); Hoist_vars [c]; T (3, h); T (7, x);  T (3, w); T (1, c); T (4, f); T (4, x); T (2, y); T (1, f)]"
76.18,480245,28414,"[V f; U (2, f); U (14, y); T (32, c); Hoist_vars [c]; T (3, h); T (7, x);  T (3, w); T (2, c); T (4, f); T (4, x); T (2, y); T (1, f)]"
72.49,569634,28957,"[V f; U (2, f); U (14, y); T (16, c); Hoist_vars [c]; T (3, h); T (7, x);  T (3, w); T (4, c); T (4, f); T (4, x); T (2, y); T (1, f)]"
78.41,1009336,31001,"[V f; U (4, f); U (4, y); U (3, w); T (64, c); Hoist_vars [c]; T (28, x);  T (3, h); T (1, c); T (2, f); T (1, x); T (7, y); T (1, f)]"
74.81,1011666,47544,"[V f; U (4, f); U (4, y); U (3, w); T (64, c); Hoist_vars [c]; T (28, x);  T (3, h); T (1, c); T (1, f); T (1, x); T (7, y); T (2, f)]"
75.17,1052753,29166,"[V f; U (4, f); U (4, y); U (3, w); T (32, c); Hoist_vars [c]; T (28, x);  T (3, h); T (2, c); T (2, f); T (1, x); T (7, y); T (1, f)]"
74.86,1052025,44616,"[V f; U (4, f); U (4, y); U (3, w); T (32, c); Hoist_vars [c]; T (28, x);  T (3, h); T (2, c); T (1, f); T (1, x); T (7, y); T (2, f)]"
76.19,414587,29290,"[V f; U (4, f); U (4, y); U (3, w); T (16, c); Hoist_vars [c]; T (28, x);  T (3, h); T (4, c); T (2, f); T (1, x); T (7, y); T (1, f)]"
72.17,427793,44226,"[V f; U (4, f); U (4, y); U (3, w); T (16, c); Hoist_vars [c]; T (28, x);  T (3, h); T (4, c); T (1, f); T (1, x); T (7, y); T (2, f)]"
42.71,600262,184592,"[V f; U (1, f); U (14, y); U (3, h); T (16, c); Hoist_vars [c]; T (3, w);  T (28, x); T (2, y); T (8, f); T (4, c); T (1, f)]"
48.91,488789,108377,"[V f; U (1, f); U (14, y); U (3, h); T (32, c); Hoist_vars [c]; T (3, w);  T (28, x); T (2, y); T (8, f); T (2, c); T (1, f)]"
48.32,488838,118680,"[V f; U (1, f); U (14, y); U (3, h); T (32, c); Hoist_vars [c]; T (3, w);  T (28, x); T (2, y); T (4, f); T (2, c); T (2, f)]"
47.16,488730,123946,"[V f; U (1, f); U (14, y); U (3, h); T (32, c); Hoist_vars [c]; T (3, w);  T (28, x); T (2, y); T (2, f); T (2, c); T (4, f)]"
49.04,485599,113524,"[V f; U (1, f); U (14, y); U (3, h); T (32, c); Hoist_vars [c]; T (3, w);  T (28, x); T (2, y); T (1, f); T (2, c); T (8, f)]"
79.26,390530,48488,"[V f; U (2, f); U (14, y); T (64, c); Hoist_vars [c]; T (3, h); T (7, x);  T (3, w); T (1, c); T (2, f); T (4, x); T (2, y); T (2, f)]"
75.04,475905,49305,"[V f; U (2, f); U (14, y); T (32, c); Hoist_vars [c]; T (3, h); T (7, x);  T (3, w); T (2, c); T (2, f); T (4, x); T (2, y); T (2, f)]"
67.59,563909,49704,"[V f; U (2, f); U (14, y); T (16, c); Hoist_vars [c]; T (3, h); T (7, x);  T (3, w); T (4, c); T (2, f); T (4, x); T (2, y); T (2, f)]"
79.66,684701,29518,"[V f; U (4, f); U (7, y); T (32, c); Hoist_vars [c]; T (3, h); T (14, x);  T (3, w); T (2, c); T (2, f); T (2, x); T (4, y); T (1, f)]"
76.17,684361,48723,"[V f; U (4, f); U (7, y); T (32, c); Hoist_vars [c]; T (3, h); T (14, x);  T (3, w); T (2, c); T (1, f); T (2, x); T (4, y); T (2, f)]"
73.14,514299,31742,"[V f; U (4, f); U (7, y); T (16, c); Hoist_vars [c]; T (3, h); T (14, x);  T (3, w); T (4, c); T (2, f); T (2, x); T (4, y); T (1, f)]"
67.85,514352,50738,"[V f; U (4, f); U (7, y); T (16, c); Hoist_vars [c]; T (3, h); T (14, x);  T (3, w); T (4, c); T (1, f); T (2, x); T (4, y); T (2, f)]"
68.86,656982,29243,"[V f; U (4, f); U (7, y); U (3, h); T (32, c); Hoist_vars [c]; T (14, x);  T (3, w); T (2, c); T (2, f); T (2, x); T (4, y); T (1, f)]"
68.64,658073,45344,"[V f; U (4, f); U (7, y); U (3, h); T (32, c); Hoist_vars [c]; T (14, x);  T (3, w); T (2, c); T (1, f); T (2, x); T (4, y); T (2, f)]"
68.84,472966,30263,"[V f; U (4, f); U (7, y); U (3, h); T (16, c); Hoist_vars [c]; T (14, x);  T (3, w); T (4, c); T (2, f); T (2, x); T (4, y); T (1, f)]"
67.78,478520,47543,"[V f; U (4, f); U (7, y); U (3, h); T (16, c); Hoist_vars [c]; T (14, x);  T (3, w); T (4, c); T (1, f); T (2, x); T (4, y); T (2, f)]"
79.61,633217,29563,"[V f; U (4, f); U (7, y); U (3, w); T (64, c); Hoist_vars [c]; T (14, x);  T (3, h); T (1, c); T (2, f); T (2, x); T (4, y); T (1, f)]"
78.59,632651,46620,"[V f; U (4, f); U (7, y); U (3, w); T (64, c); Hoist_vars [c]; T (14, x);  T (3, h); T (1, c); T (1, f); T (2, x); T (4, y); T (2, f)]"
77.41,680332,29075,"[V f; U (4, f); U (7, y); U (3, w); T (32, c); Hoist_vars [c]; T (14, x);  T (3, h); T (2, c); T (2, f); T (2, x); T (4, y); T (1, f)]"
75.74,679414,45911,"[V f; U (4, f); U (7, y); U (3, w); T (32, c); Hoist_vars [c]; T (14, x);  T (3, h); T (2, c); T (1, f); T (2, x); T (4, y); T (2, f)]"
71.52,450515,29606,"[V f; U (4, f); U (7, y); U (3, w); T (16, c); Hoist_vars [c]; T (14, x);  T (3, h); T (4, c); T (2, f); T (2, x); T (4, y); T (1, f)]"
67.87,451380,47703,"[V f; U (4, f); U (7, y); U (3, w); T (16, c); Hoist_vars [c]; T (14, x);  T (3, h); T (4, c); T (1, f); T (2, x); T (4, y); T (2, f)]"
41.88,600242,181282,"[V f; U (1, f); U (14, y); U (3, h); T (16, c); Hoist_vars [c]; T (3, w);  T (28, x); T (2, y); T (4, f); T (4, c); T (2, f)]"
69.27,536712,50837,"[V f; U (2, f); ULambda y; T (16, c); Hoist_vars [c]; T (3, h); T (28, x);  T (3, w); T (4, c); T (4, f); T (1, x);  Lambda_apply y [((Iter 1), (Arg 13)); ((Iter 1), (Arg 15))]; T (1, f)]"
66.66,533457,68347,"[V f; U (2, f); ULambda y; T (16, c); Hoist_vars [c]; T (3, h); T (28, x);  T (3, w); T (4, c); T (2, f); T (1, x);  Lambda_apply y [((Iter 1), (Arg 13)); ((Iter 1), (Arg 15))]; T (2, f)]"
65.73,533934,87594,"[V f; U (2, f); ULambda y; T (16, c); Hoist_vars [c]; T (3, h); T (28, x);  T (3, w); T (4, c); T (1, f); T (1, x);  Lambda_apply y [((Iter 1), (Arg 13)); ((Iter 1), (Arg 15))]; T (4, f)]"
75.44,402770,71600,"[V f; U (2, f); ULambda y; T (64, c); Hoist_vars [c]; T (3, h); T (7, x);  T (3, w); T (1, c); T (1, f); T (4, x);  Lambda_apply y [((Iter 1), (Arg 13)); ((Iter 1), (Arg 15))]; T (4, f)]"
68.78,467065,70814,"[V f; U (2, f); ULambda y; T (32, c); Hoist_vars [c]; T (3, h); T (7, x);  T (3, w); T (2, c); T (1, f); T (4, x);  Lambda_apply y [((Iter 1), (Arg 13)); ((Iter 1), (Arg 15))]; T (4, f)]"
65.77,540318,71045,"[V f; U (2, f); ULambda y; T (16, c); Hoist_vars [c]; T (3, h); T (7, x);  T (3, w); T (4, c); T (1, f); T (4, x);  Lambda_apply y [((Iter 1), (Arg 13)); ((Iter 1), (Arg 15))]; T (4, f)]"
75.72,400851,72016,"[V f; U (2, f); ULambda y; T (64, c); Hoist_vars [c]; T (3, h); T (4, x);  T (3, w); T (1, c); T (1, f); T (7, x);  Lambda_apply y [((Iter 1), (Arg 13)); ((Iter 1), (Arg 15))]; T (4, f)]"
67.95,460561,76248,"[V f; U (2, f); ULambda y; T (32, c); Hoist_vars [c]; T (3, h); T (4, x);  T (3, w); T (2, c); T (1, f); T (7, x);  Lambda_apply y [((Iter 1), (Arg 13)); ((Iter 1), (Arg 15))]; T (4, f)]"
64.71,530998,79744,"[V f; U (2, f); ULambda y; T (16, c); Hoist_vars [c]; T (3, h); T (4, x);  T (3, w); T (4, c); T (1, f); T (7, x);  Lambda_apply y [((Iter 1), (Arg 13)); ((Iter 1), (Arg 15))]; T (4, f)]"
73.84,385083,72064,"[V f; U (2, f); ULambda y; T (64, c); Hoist_vars [c]; T (3, h); T (2, x);  T (3, w); T (1, c); T (1, f); T (14, x);  Lambda_apply y [((Iter 1), (Arg 13)); ((Iter 1), (Arg 15))]; T (4, f)]"
72.17,419675,73616,"[V f; U (2, f); ULambda y; T (32, c); Hoist_vars [c]; T (3, h); T (2, x);  T (3, w); T (2, c); T (1, f); T (14, x);  Lambda_apply y [((Iter 1), (Arg 13)); ((Iter 1), (Arg 15))]; T (4, f)]"
67.50,466716,74795,"[V f; U (2, f); ULambda y; T (16, c); Hoist_vars [c]; T (3, h); T (2, x);  T (3, w); T (4, c); T (1, f); T (14, x);  Lambda_apply y [((Iter 1), (Arg 13)); ((Iter 1), (Arg 15))]; T (4, f)]"
74.42,371289,69932,"[V f; U (2, f); ULambda y; T (64, c); Hoist_vars [c]; T (3, h); T (1, x);  T (3, w); T (1, c); T (1, f); T (28, x);  Lambda_apply y [((Iter 1), (Arg 13)); ((Iter 1), (Arg 15))]; T (4, f)]"
72.70,376496,68417,"[V f; U (2, f); ULambda y; T (32, c); Hoist_vars [c]; T (3, h); T (1, x);  T (3, w); T (2, c); T (1, f); T (28, x);  Lambda_apply y [((Iter 1), (Arg 13)); ((Iter 1), (Arg 15))]; T (4, f)]"
65.32,390234,69132,"[V f; U (2, f); ULambda y; T (16, c); Hoist_vars [c]; T (3, h); T (1, x);  T (3, w); T (4, c); T (1, f); T (28, x);  Lambda_apply y [((Iter 1), (Arg 13)); ((Iter 1), (Arg 15))]; T (4, f)]"
58.60,691864,162853,"[V f; U (1, f); ULambda y; U (3, h); T (16, c); Hoist_vars [c]; T (3, w);  T (28, x); Lambda_apply y [((Iter 2), (Arg 9)); ((Iter 1), (Arg 10))];  T (2, f); T (4, c); T (4, f)]"
63.89,601087,129732,"[V f; U (1, f); ULambda y; U (3, h); T (32, c); Hoist_vars [c]; T (3, w);  T (28, x); Lambda_apply y [((Iter 2), (Arg 9)); ((Iter 1), (Arg 10))];  T (8, f); T (2, c); T (1, f)]"
43.43,596127,189965,"[V f; U (1, f); U (14, y); U (3, h); T (16, c); Hoist_vars [c]; T (3, w);  T (28, x); T (2, y); T (2, f); T (4, c); T (4, f)]"
64.73,602136,109067,"[V f; U (1, f); ULambda y; U (3, h); T (32, c); Hoist_vars [c]; T (3, w);  T (28, x); Lambda_apply y [((Iter 2), (Arg 9)); ((Iter 1), (Arg 10))];  T (4, f); T (2, c); T (2, f)]"
74.64,612955,37016,"[V f; U (2, f); ULambda y; T (32, c); Hoist_vars [c]; T (3, h); T (28, x);  T (3, w); T (2, c); T (4, f); T (1, x);  Lambda_apply y [((Iter 1), (Arg 8)); ((Iter 2), (Arg 10))]; T (1, f)]"
70.96,611054,67851,"[V f; U (2, f); ULambda y; T (32, c); Hoist_vars [c]; T (3, h); T (28, x);  T (3, w); T (2, c); T (2, f); T (1, x);  Lambda_apply y [((Iter 1), (Arg 8)); ((Iter 2), (Arg 10))]; T (2, f)]"
70.47,610559,83967,"[V f; U (2, f); ULambda y; T (32, c); Hoist_vars [c]; T (3, h); T (28, x);  T (3, w); T (2, c); T (1, f); T (1, x);  Lambda_apply y [((Iter 1), (Arg 8)); ((Iter 2), (Arg 10))]; T (4, f)]"
73.04,583843,37070,"[V f; U (2, f); ULambda y; T (16, c); Hoist_vars [c]; T (3, h); T (28, x);  T (3, w); T (4, c); T (4, f); T (1, x);  Lambda_apply y [((Iter 1), (Arg 8)); ((Iter 2), (Arg 10))]; T (1, f)]"
68.65,579263,66646,"[V f; U (2, f); ULambda y; T (16, c); Hoist_vars [c]; T (3, h); T (28, x);  T (3, w); T (4, c); T (2, f); T (1, x);  Lambda_apply y [((Iter 1), (Arg 8)); ((Iter 2), (Arg 10))]; T (2, f)]"
67.46,572343,87258,"[V f; U (2, f); ULambda y; T (16, c); Hoist_vars [c]; T (3, h); T (28, x);  T (3, w); T (4, c); T (1, f); T (1, x);  Lambda_apply y [((Iter 1), (Arg 8)); ((Iter 2), (Arg 10))]; T (4, f)]"
75.82,521069,73972,"[V f; U (2, f); ULambda y; T (64, c); Hoist_vars [c]; T (3, h); T (7, x);  T (3, w); T (1, c); T (1, f); T (4, x);  Lambda_apply y [((Iter 1), (Arg 8)); ((Iter 2), (Arg 10))]; T (4, f)]"
69.25,605282,75560,"[V f; U (2, f); ULambda y; T (32, c); Hoist_vars [c]; T (3, h); T (7, x);  T (3, w); T (2, c); T (1, f); T (4, x);  Lambda_apply y [((Iter 1), (Arg 8)); ((Iter 2), (Arg 10))]; T (4, f)]"
66.97,588144,76042,"[V f; U (2, f); ULambda y; T (16, c); Hoist_vars [c]; T (3, h); T (7, x);  T (3, w); T (4, c); T (1, f); T (4, x);  Lambda_apply y [((Iter 1), (Arg 8)); ((Iter 2), (Arg 10))]; T (4, f)]"
66.49,513216,87866,"[V f; U (2, f); ULambda y; T (64, c); Hoist_vars [c]; T (3, h); T (4, x);  T (3, w); T (1, c); T (1, f); T (7, x);  Lambda_apply y [((Iter 1), (Arg 8)); ((Iter 2), (Arg 10))]; T (4, f)]"
68.43,582238,80542,"[V f; U (2, f); ULambda y; T (32, c); Hoist_vars [c]; T (3, h); T (4, x);  T (3, w); T (2, c); T (1, f); T (7, x);  Lambda_apply y [((Iter 1), (Arg 8)); ((Iter 2), (Arg 10))]; T (4, f)]"
66.82,562441,77891,"[V f; U (2, f); ULambda y; T (16, c); Hoist_vars [c]; T (3, h); T (4, x);  T (3, w); T (4, c); T (1, f); T (7, x);  Lambda_apply y [((Iter 1), (Arg 8)); ((Iter 2), (Arg 10))]; T (4, f)]"
69.27,503361,71528,"[V f; U (2, f); ULambda y; T (64, c); Hoist_vars [c]; T (3, h); T (2, x);  T (3, w); T (1, c); T (1, f); T (14, x);  Lambda_apply y [((Iter 1), (Arg 8)); ((Iter 2), (Arg 10))]; T (4, f)]"
