perf,CACHE_MISS_L1,CACHE_MISS_L2,scheme
46.88,1491992,322964,"[V f; U (4, f); U (7, y); T (32, c); Hoist_vars [c]; T (3, w); T (3, h);  T (7, x); T (16, c); T (1, y); T (8, f); T (1, c)]"
45.08,1774503,319800,"[V f; U (4, f); U (7, y); T (16, c); Hoist_vars [c]; T (3, w); T (3, h);  T (7, x); T (32, c); T (1, y); T (8, f); T (1, c)]"
38.75,1807085,408275,"[V f; U (4, f); U (7, y); T (8, c); Hoist_vars [c]; T (3, w); T (3, h);  T (7, x); T (64, c); T (1, y); T (8, f); T (1, c)]"
42.13,1306223,312364,"[V f; U (4, f); U (7, y); U (3, h); T (32, c); Hoist_vars [c]; T (3, w);  T (7, x); T (16, c); T (1, y); T (8, f); T (1, c)]"
44.17,1438404,313235,"[V f; U (4, f); U (7, y); U (3, h); T (16, c); Hoist_vars [c]; T (3, w);  T (7, x); T (32, c); T (1, y); T (8, f); T (1, c)]"
39.79,2591650,374687,"[V f; U (4, f); U (7, y); U (3, w); T (32, c); Hoist_vars [c]; T (3, h);  T (7, x); T (16, c); T (1, y); T (8, f); T (1, c)]"
39.97,2681868,403173,"[V f; U (4, f); U (7, y); U (3, w); T (16, c); Hoist_vars [c]; T (3, h);  T (7, x); T (32, c); T (1, y); T (8, f); T (1, c)]"
47.69,1496551,323392,"[V f; U (4, f); U (7, y); T (32, c); Hoist_vars [c]; T (3, w); T (3, h);  T (7, x); T (8, c); T (1, y); T (8, f); T (2, c)]"
46.31,1761994,340975,"[V f; U (4, f); U (7, y); T (16, c); Hoist_vars [c]; T (3, w); T (3, h);  T (7, x); T (16, c); T (1, y); T (8, f); T (2, c)]"
40.18,1809155,442653,"[V f; U (4, f); U (7, y); T (8, c); Hoist_vars [c]; T (3, w); T (3, h);  T (7, x); T (32, c); T (1, y); T (8, f); T (2, c)]"
48.66,1492767,314209,"[V f; U (4, f); U (7, y); T (32, c); Hoist_vars [c]; T (3, w); T (3, h);  T (7, x); T (4, c); T (1, y); T (8, f); T (4, c)]"
45.45,1758066,331491,"[V f; U (4, f); U (7, y); T (16, c); Hoist_vars [c]; T (3, w); T (3, h);  T (7, x); T (8, c); T (1, y); T (8, f); T (4, c)]"
40.80,1803369,425821,"[V f; U (4, f); U (7, y); T (8, c); Hoist_vars [c]; T (3, w); T (3, h);  T (7, x); T (16, c); T (1, y); T (8, f); T (4, c)]"
46.52,1333397,314024,"[V f; U (4, f); U (7, y); U (3, h); T (32, c); Hoist_vars [c]; T (3, w);  T (7, x); T (8, c); T (1, y); T (8, f); T (2, c)]"
45.18,1433216,329515,"[V f; U (4, f); U (7, y); U (3, h); T (16, c); Hoist_vars [c]; T (3, w);  T (7, x); T (16, c); T (1, y); T (8, f); T (2, c)]"
43.85,1335781,309755,"[V f; U (4, f); U (7, y); U (3, h); T (32, c); Hoist_vars [c]; T (3, w);  T (7, x); T (4, c); T (1, y); T (8, f); T (4, c)]"
46.67,1456701,325241,"[V f; U (4, f); U (7, y); U (3, h); T (16, c); Hoist_vars [c]; T (3, w);  T (7, x); T (8, c); T (1, y); T (8, f); T (4, c)]"
41.30,2600151,383680,"[V f; U (4, f); U (7, y); U (3, w); T (32, c); Hoist_vars [c]; T (3, h);  T (7, x); T (8, c); T (1, y); T (8, f); T (2, c)]"
38.93,2650090,397387,"[V f; U (4, f); U (7, y); U (3, w); T (16, c); Hoist_vars [c]; T (3, h);  T (7, x); T (16, c); T (1, y); T (8, f); T (2, c)]"
41.32,2551134,345144,"[V f; U (4, f); U (7, y); U (3, w); T (32, c); Hoist_vars [c]; T (3, h);  T (7, x); T (4, c); T (1, y); T (8, f); T (4, c)]"
41.83,2647127,386804,"[V f; U (4, f); U (7, y); U (3, w); T (16, c); Hoist_vars [c]; T (3, h);  T (7, x); T (8, c); T (1, y); T (8, f); T (4, c)]"
47.54,1491999,278327,"[V f; U (4, f); U (7, y); T (32, c); Hoist_vars [c]; T (3, w); T (3, h);  T (7, x); T (2, c); T (1, y); T (8, f); T (8, c)]"
47.61,1772434,281322,"[V f; U (4, f); U (7, y); T (16, c); Hoist_vars [c]; T (3, w); T (3, h);  T (7, x); T (4, c); T (1, y); T (8, f); T (8, c)]"
44.75,1306808,268296,"[V f; U (4, f); U (7, y); U (3, h); T (32, c); Hoist_vars [c]; T (3, w);  T (7, x); T (2, c); T (1, y); T (8, f); T (8, c)]"
43.96,1435644,277018,"[V f; U (4, f); U (7, y); U (3, h); T (16, c); Hoist_vars [c]; T (3, w);  T (7, x); T (4, c); T (1, y); T (8, f); T (8, c)]"
