NameConv,PerPP,Time(ms),nbthreads,std
0,Yolo9000_00,0.0,13.17,1,0.25
1,Yolo9000_02,0.0,28.13,1,0.35
2,Yolo9000_04,0.0,25.15,1,0.36
3,Yolo9000_05,0.0,4.26,1,0.26
4,Yolo9000_08,0.0,24.58,1,0.11
5,Yolo9000_09,0.0,3.47,1,0.2
6,Yolo9000_12,0.0,24.98,1,0.16
7,Yolo9000_13,0.0,3.06,1,0.29
8,Yolo9000_18,0.0,29.06,1,0.04
9,Yolo9000_19,0.0,3.24,1,2.22
10,Yolo9000_23,0.0,192.3,1,0.06
11,MobilNet_01,0.0,2.48,1,0.14
12,MobilNet_02,0.0,3.16,1,0.21
13,MobilNet_03,0.0,8.85,1,0.26
14,MobilNet_04,0.0,2.96,1,0.2
15,MobilNet_05,0.0,9.05,1,0.25
16,MobilNet_06,0.0,2.87,1,0.7
17,MobilNet_07,0.0,10.07,1,0.14
18,MobilNet_08,0.0,4.19,1,0.21
19,MobilNet_09,0.0,19.45,1,0.1
20,ResNet18_01,0.0,2.52,1,0.16
21,ResNet18_02,0.0,2.29,1,0.21
22,ResNet18_03,0.0,0.42,1,0.52
23,ResNet18_04,0.0,1.39,1,1.36
24,ResNet18_05,0.0,0.28,1,0.7
25,ResNet18_06,0.0,2.25,1,0.12
26,ResNet18_07,0.0,1.39,1,0.13
27,ResNet18_08,0.0,4.46,1,0.09
28,ResNet18_09,0.0,2.54,1,0.12
29,ResNet18_10,0.0,4.19,1,0.23
30,ResNet18_11,0.0,0.22,1,0.7
31,ResNet18_12,0.0,4.04,1,0.34
0 ,Yolo9000_00,18.47,13.17,32,0.25
1 ,Yolo9000_02,51.27,28.13,32,0.35
2 ,Yolo9000_04,60.88,25.15,32,0.36
3 ,Yolo9000_05,14.27,4.26,32,0.26
4 ,Yolo9000_08,64.09,24.58,32,0.11
5 ,Yolo9000_09,21.21,3.47,32,0.2
6 ,Yolo9000_12,55.71,24.98,32,0.16
7 ,Yolo9000_13,20.32,3.06,32,0.29
8 ,Yolo9000_18,62.98,29.06,32,0.04
9 ,Yolo9000_19,15.03,3.24,32,2.22
10,Yolo9000_23,0.0,192.3,32,0.06
11,MobilNet_01,21.47,2.48,32,0.14
12,MobilNet_02,33.54,3.16,32,0.21
13,MobilNet_03,44.93,8.85,32,0.26
14,MobilNet_04,38.80,2.96,32,0.2
15,MobilNet_05,49.76,9.05,32,0.25
16,MobilNet_06,38.37,2.87,32,0.7
17,MobilNet_07,53.27,10.07,32,0.14
18,MobilNet_08,35.14,4.19,32,0.21
19,MobilNet_09,28.84,19.45,32,0.1
20,ResNet18_01,41.74,2.52,32,0.16
21,ResNet18_02,30.68,2.29,32,0.21
22,ResNet18_03,5.769,0.42,32,0.52
23,ResNet18_04,31.30,1.39,32,1.36
24,ResNet18_05,8.476,0.28,32,0.7
25,ResNet18_06,30.30,2.25,32,0.12
26,ResNet18_07,31.69,1.39,32,0.13
27,ResNet18_08,41.80,4.46,32,0.09
28,ResNet18_09,22.68,2.54,32,0.12
29,ResNet18_10,35.19,4.19,32,0.23
30,ResNet18_11,11.79,0.22,32,0.7
31,ResNet18_12,28.25,4.04,32,0.34
