name,min(ms),avg(ms)
Yolo9000_00,14.787400,14.816600
Yolo9000_02,78.671100,78.760800
Yolo9000_04,78.470200,78.532500
Yolo9000_05,8.730710,8.742140
Yolo9000_08,77.523900,77.627800
Yolo9000_09,8.696780,8.700810
Yolo9000_12,76.054000,76.068000
Yolo9000_13,8.829590,8.837980
Yolo9000_18,73.837200,73.876500
Yolo9000_19,8.824950,8.833940
Yolo9000_23,498.117000,498.359000
MobilNet_01,6.655520,6.662300
MobilNet_02,6.761720,6.772500
MobilNet_03,26.717300,26.744300
MobilNet_04,7.101320,7.110330
MobilNet_05,25.952100,25.967000
MobilNet_06,6.692870,6.701800
MobilNet_07,24.676800,24.689000
MobilNet_08,6.324950,6.332690
MobilNet_09,24.599400,24.637900
ResNet18_01,6.871340,6.880210
ResNet18_02,6.705810,6.718140
ResNet18_03,0.768555,0.773208
ResNet18_04,3.377930,3.386370
ResNet18_05,0.405762,0.413318
ResNet18_06,6.455080,6.463100
ResNet18_07,3.317630,3.325370
ResNet18_08,12.919200,12.927700
ResNet18_09,6.173100,6.176770
ResNet18_10,6.276120,6.282980
ResNet18_11,0.374268,0.376182
ResNet18_12,5.634280,5.644560
