49.4,39953,49521,630784,606208,"[V f; U (2, f); U (8, y); T (64, c); Hoist_vars [c]; T (56, x); T (1, x);   T (7, y); T (2, f); T (1, x)]"
52.3,39998,49033,659456,606208,"[V f; U (2, f); U (8, y); T (64, c); Hoist_vars [c]; T (28, x); T (2, x);   T (7, y); T (2, f); T (1, x)]"
50.1,39988,49205,716800,606208,"[V f; U (2, f); U (8, y); T (64, c); Hoist_vars [c]; T (14, x); T (4, x);   T (7, y); T (2, f); T (1, x)]"
53.0,40075,48732,802816,606208,"[V f; U (2, f); U (8, y); T (64, c); Hoist_vars [c]; T (8, x); T (7, x);   T (7, y); T (2, f); T (1, x)]"
50.4,40009,48907,630784,606208,"[V f; U (2, f); U (8, y); T (64, c); Hoist_vars [c]; T (7, x); T (8, x);   T (7, y); T (2, f); T (1, x)]"
49.7,40177,49366,630784,606208,"[V f; U (2, f); U (8, y); T (64, c); Hoist_vars [c]; T (4, x); T (14, x);   T (7, y); T (2, f); T (1, x)]"
52.3,40070,48772,630784,606208,"[V f; U (2, f); U (8, y); T (64, c); Hoist_vars [c]; T (2, x); T (28, x);   T (7, y); T (2, f); T (1, x)]"
49.7,39951,49022,630784,606208,"[V f; U (2, f); U (8, y); T (64, c); Hoist_vars [c]; T (1, x); T (56, x);   T (7, y); T (2, f); T (1, x)]"
51.3,40143,31672,659456,405504,"[V f; U (2, f); U (8, y); T (64, c); Hoist_vars [c]; T (28, x); T (1, x);   T (7, y); T (2, f); T (2, x)]"
58.9,40399,32490,716800,405504,"[V f; U (2, f); U (8, y); T (64, c); Hoist_vars [c]; T (14, x); T (2, x);   T (7, y); T (2, f); T (2, x)]"
53.5,40631,31989,659456,405504,"[V f; U (2, f); U (8, y); T (64, c); Hoist_vars [c]; T (7, x); T (4, x);   T (7, y); T (2, f); T (2, x)]"
55.7,40517,33448,659456,405504,"[V f; U (2, f); U (8, y); T (64, c); Hoist_vars [c]; T (4, x); T (7, x);   T (7, y); T (2, f); T (2, x)]"
57.0,40361,32437,659456,405504,"[V f; U (2, f); U (8, y); T (64, c); Hoist_vars [c]; T (2, x); T (14, x);   T (7, y); T (2, f); T (2, x)]"
52.7,40106,32147,659456,405504,"[V f; U (2, f); U (8, y); T (64, c); Hoist_vars [c]; T (1, x); T (28, x);   T (7, y); T (2, f); T (2, x)]"
58.4,41316,27335,716800,405504,"[V f; U (2, f); U (8, y); T (64, c); Hoist_vars [c]; T (14, x); T (1, x);   T (7, y); T (2, f); T (4, x)]"
56.9,41407,27357,716800,405504,"[V f; U (2, f); U (8, y); T (64, c); Hoist_vars [c]; T (7, x); T (2, x);   T (7, y); T (2, f); T (4, x)]"
60.5,41416,27052,716800,405504,"[V f; U (2, f); U (8, y); T (64, c); Hoist_vars [c]; T (2, x); T (7, x);   T (7, y); T (2, f); T (4, x)]"
54.7,41291,27072,716800,405504,"[V f; U (2, f); U (8, y); T (64, c); Hoist_vars [c]; T (1, x); T (14, x);   T (7, y); T (2, f); T (4, x)]"
58.5,41968,26163,802816,405504,"[V f; U (2, f); U (8, y); T (64, c); Hoist_vars [c]; T (8, x); T (1, x);   T (7, y); T (2, f); T (7, x)]"
55.7,42229,26235,802816,405504,"[V f; U (2, f); U (8, y); T (64, c); Hoist_vars [c]; T (4, x); T (2, x);   T (7, y); T (2, f); T (7, x)]"
54.1,41875,26265,802816,405504,"[V f; U (2, f); U (8, y); T (64, c); Hoist_vars [c]; T (2, x); T (4, x);   T (7, y); T (2, f); T (7, x)]"
59.6,41955,26139,802816,405504,"[V f; U (2, f); U (8, y); T (64, c); Hoist_vars [c]; T (1, x); T (8, x);   T (7, y); T (2, f); T (7, x)]"
59.4,41711,26203,634880,405504,"[V f; U (2, f); U (8, y); T (64, c); Hoist_vars [c]; T (7, x); T (1, x);   T (7, y); T (2, f); T (8, x)]"
55.2,41365,26033,634880,405504,"[V f; U (2, f); U (8, y); T (64, c); Hoist_vars [c]; T (1, x); T (7, x);   T (7, y); T (2, f); T (8, x)]"
55.5,45816,25854,659456,405504,"[V f; U (2, f); U (8, y); T (64, c); Hoist_vars [c]; T (4, x); T (1, x);   T (7, y); T (2, f); T (14, x)]"
54.5,44876,25660,659456,405504,"[V f; U (2, f); U (8, y); T (64, c); Hoist_vars [c]; T (2, x); T (2, x);   T (7, y); T (2, f); T (14, x)]"
59.3,45973,25850,659456,405504,"[V f; U (2, f); U (8, y); T (64, c); Hoist_vars [c]; T (1, x); T (4, x);   T (7, y); T (2, f); T (14, x)]"
60.8,51151,25636,716800,405504,"[V f; U (2, f); U (8, y); T (64, c); Hoist_vars [c]; T (2, x); T (1, x);   T (7, y); T (2, f); T (28, x)]"
60.5,50831,25611,716800,405504,"[V f; U (2, f); U (8, y); T (64, c); Hoist_vars [c]; T (1, x); T (2, x);   T (7, y); T (2, f); T (28, x)]"
58.8,42398,25616,630784,405504,"[V f; U (2, f); U (8, y); T (64, c); Hoist_vars [c]; T (1, x); T (1, x);   T (7, y); T (2, f); T (56, x)]"
48.9,43354,45156,618496,606208,"[V f; U (2, f); U (14, y); T (64, c); Hoist_vars [c]; T (56, x); T (1, x);   T (4, y); T (2, f); T (1, x)]"
50.3,43788,45451,634880,606208,"[V f; U (2, f); U (14, y); T (64, c); Hoist_vars [c]; T (28, x); T (2, x);   T (4, y); T (2, f); T (1, x)]"
49.2,43841,45032,667648,606208,"[V f; U (2, f); U (14, y); T (64, c); Hoist_vars [c]; T (14, x); T (4, x);   T (4, y); T (2, f); T (1, x)]"
49.1,44013,45209,716800,606208,"[V f; U (2, f); U (14, y); T (64, c); Hoist_vars [c]; T (8, x); T (7, x);   T (4, y); T (2, f); T (1, x)]"
49.1,43655,45501,733184,606208,"[V f; U (2, f); U (14, y); T (64, c); Hoist_vars [c]; T (7, x); T (8, x);   T (4, y); T (2, f); T (1, x)]"
52.0,43768,45388,618496,606208,"[V f; U (2, f); U (14, y); T (64, c); Hoist_vars [c]; T (4, x); T (14, x);   T (4, y); T (2, f); T (1, x)]"
47.6,43399,45312,618496,606208,"[V f; U (2, f); U (14, y); T (64, c); Hoist_vars [c]; T (2, x); T (28, x);   T (4, y); T (2, f); T (1, x)]"
51.6,43765,45148,618496,606208,"[V f; U (2, f); U (14, y); T (64, c); Hoist_vars [c]; T (1, x); T (56, x);   T (4, y); T (2, f); T (1, x)]"
56.1,44473,31207,634880,405504,"[V f; U (2, f); U (14, y); T (64, c); Hoist_vars [c]; T (28, x); T (1, x);   T (4, y); T (2, f); T (2, x)]"
53.0,44624,30761,667648,405504,"[V f; U (2, f); U (14, y); T (64, c); Hoist_vars [c]; T (14, x); T (2, x);   T (4, y); T (2, f); T (2, x)]"
51.6,44981,32869,733184,405504,"[V f; U (2, f); U (14, y); T (64, c); Hoist_vars [c]; T (7, x); T (4, x);   T (4, y); T (2, f); T (2, x)]"
55.9,45077,32780,634880,405504,"[V f; U (2, f); U (14, y); T (64, c); Hoist_vars [c]; T (4, x); T (7, x);   T (4, y); T (2, f); T (2, x)]"
55.0,44865,31938,634880,405504,"[V f; U (2, f); U (14, y); T (64, c); Hoist_vars [c]; T (2, x); T (14, x);   T (4, y); T (2, f); T (2, x)]"
55.5,44224,32200,634880,405504,"[V f; U (2, f); U (14, y); T (64, c); Hoist_vars [c]; T (1, x); T (28, x);   T (4, y); T (2, f); T (2, x)]"
58.2,46209,26969,667648,405504,"[V f; U (2, f); U (14, y); T (64, c); Hoist_vars [c]; T (14, x); T (1, x);   T (4, y); T (2, f); T (4, x)]"
57.2,46250,27251,733184,405504,"[V f; U (2, f); U (14, y); T (64, c); Hoist_vars [c]; T (7, x); T (2, x);   T (4, y); T (2, f); T (4, x)]"
56.1,45742,27018,667648,405504,"[V f; U (2, f); U (14, y); T (64, c); Hoist_vars [c]; T (2, x); T (7, x);   T (4, y); T (2, f); T (4, x)]"
56.3,46008,26980,667648,405504,"[V f; U (2, f); U (14, y); T (64, c); Hoist_vars [c]; T (1, x); T (14, x);   T (4, y); T (2, f); T (4, x)]"
54.3,47311,26080,716800,405504,"[V f; U (2, f); U (14, y); T (64, c); Hoist_vars [c]; T (8, x); T (1, x);   T (4, y); T (2, f); T (7, x)]"
54.2,47805,26219,716800,405504,"[V f; U (2, f); U (14, y); T (64, c); Hoist_vars [c]; T (4, x); T (2, x);   T (4, y); T (2, f); T (7, x)]"
57.2,46833,26041,716800,405504,"[V f; U (2, f); U (14, y); T (64, c); Hoist_vars [c]; T (2, x); T (4, x);   T (4, y); T (2, f); T (7, x)]"
56.3,47220,26104,716800,405504,"[V f; U (2, f); U (14, y); T (64, c); Hoist_vars [c]; T (1, x); T (8, x);   T (4, y); T (2, f); T (7, x)]"
55.3,47557,26116,733184,405504,"[V f; U (2, f); U (14, y); T (64, c); Hoist_vars [c]; T (7, x); T (1, x);   T (4, y); T (2, f); T (8, x)]"
59.1,47753,25891,733184,405504,"[V f; U (2, f); U (14, y); T (64, c); Hoist_vars [c]; T (1, x); T (7, x);   T (4, y); T (2, f); T (8, x)]"
57.1,50769,25847,659456,405504,"[V f; U (2, f); U (14, y); T (64, c); Hoist_vars [c]; T (4, x); T (1, x);   T (4, y); T (2, f); T (14, x)]"
56.3,49174,25686,659456,405504,"[V f; U (2, f); U (14, y); T (64, c); Hoist_vars [c]; T (2, x); T (2, x);   T (4, y); T (2, f); T (14, x)]"
57.1,50950,25833,659456,405504,"[V f; U (2, f); U (14, y); T (64, c); Hoist_vars [c]; T (1, x); T (4, x);   T (4, y); T (2, f); T (14, x)]"
57.0,53264,25611,716800,405504,"[V f; U (2, f); U (14, y); T (64, c); Hoist_vars [c]; T (2, x); T (1, x);   T (4, y); T (2, f); T (28, x)]"
53.3,53203,25601,716800,405504,"[V f; U (2, f); U (14, y); T (64, c); Hoist_vars [c]; T (1, x); T (2, x);   T (4, y); T (2, f); T (28, x)]"
58.4,51763,25579,630784,405504,"[V f; U (2, f); U (14, y); T (64, c); Hoist_vars [c]; T (1, x); T (1, x);   T (4, y); T (2, f); T (56, x)]"
59.1,27411,27544,434176,405504,"[V f; U (4, f); U (7, y); T (64, c); Hoist_vars [c]; T (56, x); T (1, x);   T (8, y); T (1, x)]"
58.0,27526,27664,466944,405504,"[V f; U (4, f); U (7, y); T (64, c); Hoist_vars [c]; T (28, x); T (2, x);   T (8, y); T (1, x)]"
58.0,27575,27677,532480,405504,"[V f; U (4, f); U (7, y); T (64, c); Hoist_vars [c]; T (14, x); T (4, x);   T (8, y); T (1, x)]"
59.0,27198,27781,630784,405504,"[V f; U (4, f); U (7, y); T (64, c); Hoist_vars [c]; T (8, x); T (7, x);   T (8, y); T (1, x)]"
58.2,27276,28431,663552,405504,"[V f; U (4, f); U (7, y); T (64, c); Hoist_vars [c]; T (7, x); T (8, x);   T (8, y); T (1, x)]"
56.5,27583,28515,434176,405504,"[V f; U (4, f); U (7, y); T (64, c); Hoist_vars [c]; T (4, x); T (14, x);   T (8, y); T (1, x)]"
56.7,27620,27954,434176,405504,"[V f; U (4, f); U (7, y); T (64, c); Hoist_vars [c]; T (2, x); T (28, x);   T (8, y); T (1, x)]"
59.6,26938,27466,434176,405504,"[V f; U (4, f); U (7, y); T (64, c); Hoist_vars [c]; T (1, x); T (56, x);   T (8, y); T (1, x)]"
59.8,27524,26434,466944,405504,"[V f; U (4, f); U (7, y); T (64, c); Hoist_vars [c]; T (28, x); T (1, x);   T (8, y); T (2, x)]"
54.8,27283,26422,532480,405504,"[V f; U (4, f); U (7, y); T (64, c); Hoist_vars [c]; T (14, x); T (2, x);   T (8, y); T (2, x)]"
57.2,27582,26460,663552,405504,"[V f; U (4, f); U (7, y); T (64, c); Hoist_vars [c]; T (7, x); T (4, x);   T (8, y); T (2, x)]"
57.0,27067,26339,466944,405504,"[V f; U (4, f); U (7, y); T (64, c); Hoist_vars [c]; T (4, x); T (7, x);   T (8, y); T (2, x)]"
57.3,27587,26483,466944,405504,"[V f; U (4, f); U (7, y); T (64, c); Hoist_vars [c]; T (2, x); T (14, x);   T (8, y); T (2, x)]"
58.5,27559,26303,466944,405504,"[V f; U (4, f); U (7, y); T (64, c); Hoist_vars [c]; T (1, x); T (28, x);   T (8, y); T (2, x)]"
57.6,27860,25946,532480,405504,"[V f; U (4, f); U (7, y); T (64, c); Hoist_vars [c]; T (14, x); T (1, x);   T (8, y); T (4, x)]"
59.7,27285,25973,663552,405504,"[V f; U (4, f); U (7, y); T (64, c); Hoist_vars [c]; T (7, x); T (2, x);   T (8, y); T (4, x)]"
60.3,27862,25870,532480,405504,"[V f; U (4, f); U (7, y); T (64, c); Hoist_vars [c]; T (2, x); T (7, x);   T (8, y); T (4, x)]"
58.2,28117,26094,532480,405504,"[V f; U (4, f); U (7, y); T (64, c); Hoist_vars [c]; T (1, x); T (14, x);   T (8, y); T (4, x)]"
57.5,28844,25937,630784,405504,"[V f; U (4, f); U (7, y); T (64, c); Hoist_vars [c]; T (8, x); T (1, x);   T (8, y); T (7, x)]"
57.9,28134,25827,630784,405504,"[V f; U (4, f); U (7, y); T (64, c); Hoist_vars [c]; T (4, x); T (2, x);   T (8, y); T (7, x)]"
57.6,27964,25671,630784,405504,"[V f; U (4, f); U (7, y); T (64, c); Hoist_vars [c]; T (2, x); T (4, x);   T (8, y); T (7, x)]"
58.4,27958,25805,630784,405504,"[V f; U (4, f); U (7, y); T (64, c); Hoist_vars [c]; T (1, x); T (8, x);   T (8, y); T (7, x)]"
49.8,27487,25736,663552,405504,"[V f; U (4, f); U (7, y); T (64, c); Hoist_vars [c]; T (7, x); T (1, x);   T (8, y); T (8, x)]"
60.7,27299,25707,663552,405504,"[V f; U (4, f); U (7, y); T (64, c); Hoist_vars [c]; T (1, x); T (7, x);   T (8, y); T (8, x)]"
53.3,28230,25721,458752,405504,"[V f; U (4, f); U (7, y); T (64, c); Hoist_vars [c]; T (4, x); T (1, x);   T (8, y); T (14, x)]"
58.1,28194,25724,458752,405504,"[V f; U (4, f); U (7, y); T (64, c); Hoist_vars [c]; T (2, x); T (2, x);   T (8, y); T (14, x)]"
51.2,27943,25766,458752,405504,"[V f; U (4, f); U (7, y); T (64, c); Hoist_vars [c]; T (1, x); T (4, x);   T (8, y); T (14, x)]"
60.3,29971,25706,516096,405504,"[V f; U (4, f); U (7, y); T (64, c); Hoist_vars [c]; T (2, x); T (1, x);   T (8, y); T (28, x)]"
61.0,29951,25612,516096,405504,"[V f; U (4, f); U (7, y); T (64, c); Hoist_vars [c]; T (1, x); T (2, x);   T (8, y); T (28, x)]"
57.9,26514,25571,630784,405504,"[V f; U (4, f); U (7, y); T (64, c); Hoist_vars [c]; T (1, x); T (1, x);   T (8, y); T (56, x)]"
53.5,40887,47405,734208,606208,"[V f; U (2, f); ULambda y; T (64, c); Hoist_vars [c]; T (56, x); T (1, x);   Lambda_apply y [((Iter 5), (Arg 9)); ((Iter 1), (Arg 11))]; T (2, f);   T (1, x)]"
45.5,41234,48374,758784,606208,"[V f; U (2, f); ULambda y; T (64, c); Hoist_vars [c]; T (28, x); T (2, x);   Lambda_apply y [((Iter 5), (Arg 9)); ((Iter 1), (Arg 11))]; T (2, f);   T (1, x)]"
47.1,41993,47724,807936,606208,"[V f; U (2, f); ULambda y; T (64, c); Hoist_vars [c]; T (14, x); T (4, x);   Lambda_apply y [((Iter 5), (Arg 9)); ((Iter 1), (Arg 11))]; T (2, f);   T (1, x)]"
49.5,41339,47650,881664,606208,"[V f; U (2, f); ULambda y; T (64, c); Hoist_vars [c]; T (8, x); T (7, x);   Lambda_apply y [((Iter 5), (Arg 9)); ((Iter 1), (Arg 11))]; T (2, f);   T (1, x)]"
53.6,41203,48075,906240,606208,"[V f; U (2, f); ULambda y; T (64, c); Hoist_vars [c]; T (7, x); T (8, x);   Lambda_apply y [((Iter 5), (Arg 9)); ((Iter 1), (Arg 11))]; T (2, f);   T (1, x)]"
51.6,41290,47943,734208,606208,"[V f; U (2, f); ULambda y; T (64, c); Hoist_vars [c]; T (4, x); T (14, x);   Lambda_apply y [((Iter 5), (Arg 9)); ((Iter 1), (Arg 11))]; T (2, f);   T (1, x)]"
46.8,41522,48679,734208,606208,"[V f; U (2, f); ULambda y; T (64, c); Hoist_vars [c]; T (2, x); T (28, x);   Lambda_apply y [((Iter 5), (Arg 9)); ((Iter 1), (Arg 11))]; T (2, f);   T (1, x)]"
51.0,41270,48167,734208,606208,"[V f; U (2, f); ULambda y; T (64, c); Hoist_vars [c]; T (1, x); T (56, x);   Lambda_apply y [((Iter 5), (Arg 9)); ((Iter 1), (Arg 11))]; T (2, f);   T (1, x)]"
52.5,41950,32940,758784,405504,"[V f; U (2, f); ULambda y; T (64, c); Hoist_vars [c]; T (28, x); T (1, x);   Lambda_apply y [((Iter 5), (Arg 9)); ((Iter 1), (Arg 11))]; T (2, f);   T (2, x)]"
55.0,42174,32845,807936,405504,"[V f; U (2, f); ULambda y; T (64, c); Hoist_vars [c]; T (14, x); T (2, x);   Lambda_apply y [((Iter 5), (Arg 9)); ((Iter 1), (Arg 11))]; T (2, f);   T (2, x)]"
54.8,42018,31348,906240,405504,"[V f; U (2, f); ULambda y; T (64, c); Hoist_vars [c]; T (7, x); T (4, x);   Lambda_apply y [((Iter 5), (Arg 9)); ((Iter 1), (Arg 11))]; T (2, f);   T (2, x)]"
58.6,42077,31922,758784,405504,"[V f; U (2, f); ULambda y; T (64, c); Hoist_vars [c]; T (4, x); T (7, x);   Lambda_apply y [((Iter 5), (Arg 9)); ((Iter 1), (Arg 11))]; T (2, f);   T (2, x)]"
56.1,42125,32989,758784,405504,"[V f; U (2, f); ULambda y; T (64, c); Hoist_vars [c]; T (2, x); T (14, x);   Lambda_apply y [((Iter 5), (Arg 9)); ((Iter 1), (Arg 11))]; T (2, f);   T (2, x)]"
56.4,41967,33342,758784,405504,"[V f; U (2, f); ULambda y; T (64, c); Hoist_vars [c]; T (1, x); T (28, x);   Lambda_apply y [((Iter 5), (Arg 9)); ((Iter 1), (Arg 11))]; T (2, f);   T (2, x)]"
54.9,42826,27508,807936,405504,"[V f; U (2, f); ULambda y; T (64, c); Hoist_vars [c]; T (14, x); T (1, x);   Lambda_apply y [((Iter 5), (Arg 9)); ((Iter 1), (Arg 11))]; T (2, f);   T (4, x)]"
58.3,43470,27890,906240,405504,"[V f; U (2, f); ULambda y; T (64, c); Hoist_vars [c]; T (7, x); T (2, x);   Lambda_apply y [((Iter 5), (Arg 9)); ((Iter 1), (Arg 11))]; T (2, f);   T (4, x)]"
58.3,42880,27232,807936,405504,"[V f; U (2, f); ULambda y; T (64, c); Hoist_vars [c]; T (2, x); T (7, x);   Lambda_apply y [((Iter 5), (Arg 9)); ((Iter 1), (Arg 11))]; T (2, f);   T (4, x)]"
59.4,42796,27220,807936,405504,"[V f; U (2, f); ULambda y; T (64, c); Hoist_vars [c]; T (1, x); T (14, x);   Lambda_apply y [((Iter 5), (Arg 9)); ((Iter 1), (Arg 11))]; T (2, f);   T (4, x)]"
58.5,43614,26062,881664,405504,"[V f; U (2, f); ULambda y; T (64, c); Hoist_vars [c]; T (8, x); T (1, x);   Lambda_apply y [((Iter 5), (Arg 9)); ((Iter 1), (Arg 11))]; T (2, f);   T (7, x)]"
57.5,44768,26191,881664,405504,"[V f; U (2, f); ULambda y; T (64, c); Hoist_vars [c]; T (4, x); T (2, x);   Lambda_apply y [((Iter 5), (Arg 9)); ((Iter 1), (Arg 11))]; T (2, f);   T (7, x)]"
57.2,43619,25941,881664,405504,"[V f; U (2, f); ULambda y; T (64, c); Hoist_vars [c]; T (2, x); T (4, x);   Lambda_apply y [((Iter 5), (Arg 9)); ((Iter 1), (Arg 11))]; T (2, f);   T (7, x)]"
61.3,44207,26270,881664,405504,"[V f; U (2, f); ULambda y; T (64, c); Hoist_vars [c]; T (1, x); T (8, x);   Lambda_apply y [((Iter 5), (Arg 9)); ((Iter 1), (Arg 11))]; T (2, f);   T (7, x)]"
58.1,43251,25876,906240,405504,"[V f; U (2, f); ULambda y; T (64, c); Hoist_vars [c]; T (7, x); T (1, x);   Lambda_apply y [((Iter 5), (Arg 9)); ((Iter 1), (Arg 11))]; T (2, f);   T (8, x)]"
61.5,43670,26199,906240,405504,"[V f; U (2, f); ULambda y; T (64, c); Hoist_vars [c]; T (1, x); T (7, x);   Lambda_apply y [((Iter 5), (Arg 9)); ((Iter 1), (Arg 11))]; T (2, f);   T (8, x)]"
58.5,47010,25792,659456,405504,"[V f; U (2, f); ULambda y; T (64, c); Hoist_vars [c]; T (4, x); T (1, x);   Lambda_apply y [((Iter 5), (Arg 9)); ((Iter 1), (Arg 11))]; T (2, f);   T (14, x)]"
55.8,47480,25686,659456,405504,"[V f; U (2, f); ULambda y; T (64, c); Hoist_vars [c]; T (2, x); T (2, x);   Lambda_apply y [((Iter 5), (Arg 9)); ((Iter 1), (Arg 11))]; T (2, f);   T (14, x)]"
59.0,47908,25855,659456,405504,"[V f; U (2, f); ULambda y; T (64, c); Hoist_vars [c]; T (1, x); T (4, x);   Lambda_apply y [((Iter 5), (Arg 9)); ((Iter 1), (Arg 11))]; T (2, f);   T (14, x)]"
58.2,51221,25599,716800,405504,"[V f; U (2, f); ULambda y; T (64, c); Hoist_vars [c]; T (2, x); T (1, x);   Lambda_apply y [((Iter 5), (Arg 9)); ((Iter 1), (Arg 11))]; T (2, f);   T (28, x)]"
61.0,51335,25592,716800,405504,"[V f; U (2, f); ULambda y; T (64, c); Hoist_vars [c]; T (1, x); T (2, x);   Lambda_apply y [((Iter 5), (Arg 9)); ((Iter 1), (Arg 11))]; T (2, f);   T (28, x)]"
57.8,45435,25626,630784,405504,"[V f; U (2, f); ULambda y; T (64, c); Hoist_vars [c]; T (1, x); T (1, x);   Lambda_apply y [((Iter 5), (Arg 9)); ((Iter 1), (Arg 11))]; T (2, f);   T (56, x)]"
50.6,42255,46719,665600,606208,"[V f; U (2, f); ULambda y; T (64, c); Hoist_vars [c]; T (56, x); T (1, x);   Lambda_apply y [((Iter 2), (Arg 10)); ((Iter 3), (Arg 12))]; T (2, f);   T (1, x)]"
50.0,43884,46730,686080,606208,"[V f; U (2, f); ULambda y; T (64, c); Hoist_vars [c]; T (28, x); T (2, x);   Lambda_apply y [((Iter 2), (Arg 10)); ((Iter 3), (Arg 12))]; T (2, f);   T (1, x)]"
46.4,43015,46593,727040,606208,"[V f; U (2, f); ULambda y; T (64, c); Hoist_vars [c]; T (14, x); T (4, x);   Lambda_apply y [((Iter 2), (Arg 10)); ((Iter 3), (Arg 12))]; T (2, f);   T (1, x)]"
47.1,42161,46517,788480,606208,"[V f; U (2, f); ULambda y; T (64, c); Hoist_vars [c]; T (8, x); T (7, x);   Lambda_apply y [((Iter 2), (Arg 10)); ((Iter 3), (Arg 12))]; T (2, f);   T (1, x)]"
40.2,42260,46464,808960,606208,"[V f; U (2, f); ULambda y; T (64, c); Hoist_vars [c]; T (7, x); T (8, x);   Lambda_apply y [((Iter 2), (Arg 10)); ((Iter 3), (Arg 12))]; T (2, f);   T (1, x)]"
48.7,43357,47243,665600,606208,"[V f; U (2, f); ULambda y; T (64, c); Hoist_vars [c]; T (4, x); T (14, x);   Lambda_apply y [((Iter 2), (Arg 10)); ((Iter 3), (Arg 12))]; T (2, f);   T (1, x)]"
50.5,43286,46576,665600,606208,"[V f; U (2, f); ULambda y; T (64, c); Hoist_vars [c]; T (2, x); T (28, x);   Lambda_apply y [((Iter 2), (Arg 10)); ((Iter 3), (Arg 12))]; T (2, f);   T (1, x)]"
48.0,42005,46559,665600,606208,"[V f; U (2, f); ULambda y; T (64, c); Hoist_vars [c]; T (1, x); T (56, x);   Lambda_apply y [((Iter 2), (Arg 10)); ((Iter 3), (Arg 12))]; T (2, f);   T (1, x)]"
52.3,42591,31721,686080,405504,"[V f; U (2, f); ULambda y; T (64, c); Hoist_vars [c]; T (28, x); T (1, x);   Lambda_apply y [((Iter 2), (Arg 10)); ((Iter 3), (Arg 12))]; T (2, f);   T (2, x)]"
51.6,43975,32753,727040,405504,"[V f; U (2, f); ULambda y; T (64, c); Hoist_vars [c]; T (14, x); T (2, x);   Lambda_apply y [((Iter 2), (Arg 10)); ((Iter 3), (Arg 12))]; T (2, f);   T (2, x)]"
55.5,43982,33120,808960,405504,"[V f; U (2, f); ULambda y; T (64, c); Hoist_vars [c]; T (7, x); T (4, x);   Lambda_apply y [((Iter 2), (Arg 10)); ((Iter 3), (Arg 12))]; T (2, f);   T (2, x)]"
50.1,43935,31719,686080,405504,"[V f; U (2, f); ULambda y; T (64, c); Hoist_vars [c]; T (4, x); T (7, x);   Lambda_apply y [((Iter 2), (Arg 10)); ((Iter 3), (Arg 12))]; T (2, f);   T (2, x)]"
51.1,44019,32287,686080,405504,"[V f; U (2, f); ULambda y; T (64, c); Hoist_vars [c]; T (2, x); T (14, x);   Lambda_apply y [((Iter 2), (Arg 10)); ((Iter 3), (Arg 12))]; T (2, f);   T (2, x)]"
51.7,42354,32016,686080,405504,"[V f; U (2, f); ULambda y; T (64, c); Hoist_vars [c]; T (1, x); T (28, x);   Lambda_apply y [((Iter 2), (Arg 10)); ((Iter 3), (Arg 12))]; T (2, f);   T (2, x)]"
54.5,43975,27168,727040,405504,"[V f; U (2, f); ULambda y; T (64, c); Hoist_vars [c]; T (14, x); T (1, x);   Lambda_apply y [((Iter 2), (Arg 10)); ((Iter 3), (Arg 12))]; T (2, f);   T (4, x)]"
55.4,44897,27435,808960,405504,"[V f; U (2, f); ULambda y; T (64, c); Hoist_vars [c]; T (7, x); T (2, x);   Lambda_apply y [((Iter 2), (Arg 10)); ((Iter 3), (Arg 12))]; T (2, f);   T (4, x)]"
56.9,45026,26869,727040,405504,"[V f; U (2, f); ULambda y; T (64, c); Hoist_vars [c]; T (2, x); T (7, x);   Lambda_apply y [((Iter 2), (Arg 10)); ((Iter 3), (Arg 12))]; T (2, f);   T (4, x)]"
58.7,44369,27224,727040,405504,"[V f; U (2, f); ULambda y; T (64, c); Hoist_vars [c]; T (1, x); T (14, x);   Lambda_apply y [((Iter 2), (Arg 10)); ((Iter 3), (Arg 12))]; T (2, f);   T (4, x)]"
50.4,44950,26167,788480,405504,"[V f; U (2, f); ULambda y; T (64, c); Hoist_vars [c]; T (8, x); T (1, x);   Lambda_apply y [((Iter 2), (Arg 10)); ((Iter 3), (Arg 12))]; T (2, f);   T (7, x)]"
56.4,45953,25932,788480,405504,"[V f; U (2, f); ULambda y; T (64, c); Hoist_vars [c]; T (4, x); T (2, x);   Lambda_apply y [((Iter 2), (Arg 10)); ((Iter 3), (Arg 12))]; T (2, f);   T (7, x)]"
57.6,45679,26032,788480,405504,"[V f; U (2, f); ULambda y; T (64, c); Hoist_vars [c]; T (2, x); T (4, x);   Lambda_apply y [((Iter 2), (Arg 10)); ((Iter 3), (Arg 12))]; T (2, f);   T (7, x)]"
52.5,46225,26151,788480,405504,"[V f; U (2, f); ULambda y; T (64, c); Hoist_vars [c]; T (1, x); T (8, x);   Lambda_apply y [((Iter 2), (Arg 10)); ((Iter 3), (Arg 12))]; T (2, f);   T (7, x)]"
55.7,44761,25977,808960,405504,"[V f; U (2, f); ULambda y; T (64, c); Hoist_vars [c]; T (7, x); T (1, x);   Lambda_apply y [((Iter 2), (Arg 10)); ((Iter 3), (Arg 12))]; T (2, f);   T (8, x)]"
55.9,45322,26039,808960,405504,"[V f; U (2, f); ULambda y; T (64, c); Hoist_vars [c]; T (1, x); T (7, x);   Lambda_apply y [((Iter 2), (Arg 10)); ((Iter 3), (Arg 12))]; T (2, f);   T (8, x)]"
59.6,47604,25691,659456,405504,"[V f; U (2, f); ULambda y; T (64, c); Hoist_vars [c]; T (4, x); T (1, x);   Lambda_apply y [((Iter 2), (Arg 10)); ((Iter 3), (Arg 12))]; T (2, f);   T (14, x)]"
57.2,48045,25687,659456,405504,"[V f; U (2, f); ULambda y; T (64, c); Hoist_vars [c]; T (2, x); T (2, x);   Lambda_apply y [((Iter 2), (Arg 10)); ((Iter 3), (Arg 12))]; T (2, f);   T (14, x)]"
57.3,48230,25843,659456,405504,"[V f; U (2, f); ULambda y; T (64, c); Hoist_vars [c]; T (1, x); T (4, x);   Lambda_apply y [((Iter 2), (Arg 10)); ((Iter 3), (Arg 12))]; T (2, f);   T (14, x)]"
56.2,51094,25663,716800,405504,"[V f; U (2, f); ULambda y; T (64, c); Hoist_vars [c]; T (2, x); T (1, x);   Lambda_apply y [((Iter 2), (Arg 10)); ((Iter 3), (Arg 12))]; T (2, f);   T (28, x)]"
58.0,51810,25598,716800,405504,"[V f; U (2, f); ULambda y; T (64, c); Hoist_vars [c]; T (1, x); T (2, x);   Lambda_apply y [((Iter 2), (Arg 10)); ((Iter 3), (Arg 12))]; T (2, f);   T (28, x)]"
50.8,48962,25607,630784,405504,"[V f; U (2, f); ULambda y; T (64, c); Hoist_vars [c]; T (1, x); T (1, x);   Lambda_apply y [((Iter 2), (Arg 10)); ((Iter 3), (Arg 12))]; T (2, f);   T (56, x)]"
53.5,42620,47015,719360,606208,"[V f; U (2, f); ULambda y; T (64, c); Hoist_vars [c]; T (56, x); T (1, x);   Lambda_apply y [((Iter 3), (Arg 10)); ((Iter 2), (Arg 13))]; T (2, f);   T (1, x)]"
52.9,42491,46420,739840,606208,"[V f; U (2, f); ULambda y; T (64, c); Hoist_vars [c]; T (28, x); T (2, x);   Lambda_apply y [((Iter 3), (Arg 10)); ((Iter 2), (Arg 13))]; T (2, f);   T (1, x)]"
48.7,42763,47489,780800,606208,"[V f; U (2, f); ULambda y; T (64, c); Hoist_vars [c]; T (14, x); T (4, x);   Lambda_apply y [((Iter 3), (Arg 10)); ((Iter 2), (Arg 13))]; T (2, f);   T (1, x)]"
47.6,43240,46293,842240,606208,"[V f; U (2, f); ULambda y; T (64, c); Hoist_vars [c]; T (8, x); T (7, x);   Lambda_apply y [((Iter 3), (Arg 10)); ((Iter 2), (Arg 13))]; T (2, f);   T (1, x)]"
50.8,42653,47003,862720,606208,"[V f; U (2, f); ULambda y; T (64, c); Hoist_vars [c]; T (7, x); T (8, x);   Lambda_apply y [((Iter 3), (Arg 10)); ((Iter 2), (Arg 13))]; T (2, f);   T (1, x)]"
52.6,42833,46695,719360,606208,"[V f; U (2, f); ULambda y; T (64, c); Hoist_vars [c]; T (4, x); T (14, x);   Lambda_apply y [((Iter 3), (Arg 10)); ((Iter 2), (Arg 13))]; T (2, f);   T (1, x)]"
47.9,42718,46312,719360,606208,"[V f; U (2, f); ULambda y; T (64, c); Hoist_vars [c]; T (2, x); T (28, x);   Lambda_apply y [((Iter 3), (Arg 10)); ((Iter 2), (Arg 13))]; T (2, f);   T (1, x)]"
48.1,42434,47247,719360,606208,"[V f; U (2, f); ULambda y; T (64, c); Hoist_vars [c]; T (1, x); T (56, x);   Lambda_apply y [((Iter 3), (Arg 10)); ((Iter 2), (Arg 13))]; T (2, f);   T (1, x)]"
50.8,43356,31857,739840,405504,"[V f; U (2, f); ULambda y; T (64, c); Hoist_vars [c]; T (28, x); T (1, x);   Lambda_apply y [((Iter 3), (Arg 10)); ((Iter 2), (Arg 13))]; T (2, f);   T (2, x)]"
54.4,43515,32738,780800,405504,"[V f; U (2, f); ULambda y; T (64, c); Hoist_vars [c]; T (14, x); T (2, x);   Lambda_apply y [((Iter 3), (Arg 10)); ((Iter 2), (Arg 13))]; T (2, f);   T (2, x)]"
55.9,44322,31406,862720,405504,"[V f; U (2, f); ULambda y; T (64, c); Hoist_vars [c]; T (7, x); T (4, x);   Lambda_apply y [((Iter 3), (Arg 10)); ((Iter 2), (Arg 13))]; T (2, f);   T (2, x)]"
52.0,43862,31834,739840,405504,"[V f; U (2, f); ULambda y; T (64, c); Hoist_vars [c]; T (4, x); T (7, x);   Lambda_apply y [((Iter 3), (Arg 10)); ((Iter 2), (Arg 13))]; T (2, f);   T (2, x)]"
54.1,44119,31859,739840,405504,"[V f; U (2, f); ULambda y; T (64, c); Hoist_vars [c]; T (2, x); T (14, x);   Lambda_apply y [((Iter 3), (Arg 10)); ((Iter 2), (Arg 13))]; T (2, f);   T (2, x)]"
53.5,43365,31151,739840,405504,"[V f; U (2, f); ULambda y; T (64, c); Hoist_vars [c]; T (1, x); T (28, x);   Lambda_apply y [((Iter 3), (Arg 10)); ((Iter 2), (Arg 13))]; T (2, f);   T (2, x)]"
52.5,44671,27650,780800,405504,"[V f; U (2, f); ULambda y; T (64, c); Hoist_vars [c]; T (14, x); T (1, x);   Lambda_apply y [((Iter 3), (Arg 10)); ((Iter 2), (Arg 13))]; T (2, f);   T (4, x)]"
56.5,44835,27259,862720,405504,"[V f; U (2, f); ULambda y; T (64, c); Hoist_vars [c]; T (7, x); T (2, x);   Lambda_apply y [((Iter 3), (Arg 10)); ((Iter 2), (Arg 13))]; T (2, f);   T (4, x)]"
57.3,44176,26960,780800,405504,"[V f; U (2, f); ULambda y; T (64, c); Hoist_vars [c]; T (2, x); T (7, x);   Lambda_apply y [((Iter 3), (Arg 10)); ((Iter 2), (Arg 13))]; T (2, f);   T (4, x)]"
58.4,45200,27210,780800,405504,"[V f; U (2, f); ULambda y; T (64, c); Hoist_vars [c]; T (1, x); T (14, x);   Lambda_apply y [((Iter 3), (Arg 10)); ((Iter 2), (Arg 13))]; T (2, f);   T (4, x)]"
60.8,45672,26063,842240,405504,"[V f; U (2, f); ULambda y; T (64, c); Hoist_vars [c]; T (8, x); T (1, x);   Lambda_apply y [((Iter 3), (Arg 10)); ((Iter 2), (Arg 13))]; T (2, f);   T (7, x)]"
56.2,45710,26296,842240,405504,"[V f; U (2, f); ULambda y; T (64, c); Hoist_vars [c]; T (4, x); T (2, x);   Lambda_apply y [((Iter 3), (Arg 10)); ((Iter 2), (Arg 13))]; T (2, f);   T (7, x)]"
55.1,45071,26370,842240,405504,"[V f; U (2, f); ULambda y; T (64, c); Hoist_vars [c]; T (2, x); T (4, x);   Lambda_apply y [((Iter 3), (Arg 10)); ((Iter 2), (Arg 13))]; T (2, f);   T (7, x)]"
56.4,45598,26489,842240,405504,"[V f; U (2, f); ULambda y; T (64, c); Hoist_vars [c]; T (1, x); T (8, x);   Lambda_apply y [((Iter 3), (Arg 10)); ((Iter 2), (Arg 13))]; T (2, f);   T (7, x)]"
58.6,45657,26011,862720,405504,"[V f; U (2, f); ULambda y; T (64, c); Hoist_vars [c]; T (7, x); T (1, x);   Lambda_apply y [((Iter 3), (Arg 10)); ((Iter 2), (Arg 13))]; T (2, f);   T (8, x)]"
57.7,45831,26019,862720,405504,"[V f; U (2, f); ULambda y; T (64, c); Hoist_vars [c]; T (1, x); T (7, x);   Lambda_apply y [((Iter 3), (Arg 10)); ((Iter 2), (Arg 13))]; T (2, f);   T (8, x)]"
53.9,48955,25792,659456,405504,"[V f; U (2, f); ULambda y; T (64, c); Hoist_vars [c]; T (4, x); T (1, x);   Lambda_apply y [((Iter 3), (Arg 10)); ((Iter 2), (Arg 13))]; T (2, f);   T (14, x)]"
56.2,47547,25694,659456,405504,"[V f; U (2, f); ULambda y; T (64, c); Hoist_vars [c]; T (2, x); T (2, x);   Lambda_apply y [((Iter 3), (Arg 10)); ((Iter 2), (Arg 13))]; T (2, f);   T (14, x)]"
57.3,49734,25889,659456,405504,"[V f; U (2, f); ULambda y; T (64, c); Hoist_vars [c]; T (1, x); T (4, x);   Lambda_apply y [((Iter 3), (Arg 10)); ((Iter 2), (Arg 13))]; T (2, f);   T (14, x)]"
59.2,52920,25632,716800,405504,"[V f; U (2, f); ULambda y; T (64, c); Hoist_vars [c]; T (2, x); T (1, x);   Lambda_apply y [((Iter 3), (Arg 10)); ((Iter 2), (Arg 13))]; T (2, f);   T (28, x)]"
55.8,52551,25599,716800,405504,"[V f; U (2, f); ULambda y; T (64, c); Hoist_vars [c]; T (1, x); T (2, x);   Lambda_apply y [((Iter 3), (Arg 10)); ((Iter 2), (Arg 13))]; T (2, f);   T (28, x)]"
61.2,48679,25626,630784,405504,"[V f; U (2, f); ULambda y; T (64, c); Hoist_vars [c]; T (1, x); T (1, x);   Lambda_apply y [((Iter 3), (Arg 10)); ((Iter 2), (Arg 13))]; T (2, f);   T (56, x)]"
49.5,42418,46996,665600,606208,"[V f; U (2, f); ULambda y; T (64, c); Hoist_vars [c]; T (56, x); T (1, x);   Lambda_apply y [((Iter 4), (Arg 11)); ((Iter 1), (Arg 12))]; T (2, f);   T (1, x)]"
50.5,42825,47151,686080,606208,"[V f; U (2, f); ULambda y; T (64, c); Hoist_vars [c]; T (28, x); T (2, x);   Lambda_apply y [((Iter 4), (Arg 11)); ((Iter 1), (Arg 12))]; T (2, f);   T (1, x)]"
49.9,43229,47332,727040,606208,"[V f; U (2, f); ULambda y; T (64, c); Hoist_vars [c]; T (14, x); T (4, x);   Lambda_apply y [((Iter 4), (Arg 11)); ((Iter 1), (Arg 12))]; T (2, f);   T (1, x)]"
50.9,42911,47391,788480,606208,"[V f; U (2, f); ULambda y; T (64, c); Hoist_vars [c]; T (8, x); T (7, x);   Lambda_apply y [((Iter 4), (Arg 11)); ((Iter 1), (Arg 12))]; T (2, f);   T (1, x)]"
54.1,42912,46633,808960,606208,"[V f; U (2, f); ULambda y; T (64, c); Hoist_vars [c]; T (7, x); T (8, x);   Lambda_apply y [((Iter 4), (Arg 11)); ((Iter 1), (Arg 12))]; T (2, f);   T (1, x)]"
49.3,43072,46815,665600,606208,"[V f; U (2, f); ULambda y; T (64, c); Hoist_vars [c]; T (4, x); T (14, x);   Lambda_apply y [((Iter 4), (Arg 11)); ((Iter 1), (Arg 12))]; T (2, f);   T (1, x)]"
51.6,43050,46878,665600,606208,"[V f; U (2, f); ULambda y; T (64, c); Hoist_vars [c]; T (2, x); T (28, x);   Lambda_apply y [((Iter 4), (Arg 11)); ((Iter 1), (Arg 12))]; T (2, f);   T (1, x)]"
53.7,42913,47021,665600,606208,"[V f; U (2, f); ULambda y; T (64, c); Hoist_vars [c]; T (1, x); T (56, x);   Lambda_apply y [((Iter 4), (Arg 11)); ((Iter 1), (Arg 12))]; T (2, f);   T (1, x)]"
55.5,43340,31642,686080,405504,"[V f; U (2, f); ULambda y; T (64, c); Hoist_vars [c]; T (28, x); T (1, x);   Lambda_apply y [((Iter 4), (Arg 11)); ((Iter 1), (Arg 12))]; T (2, f);   T (2, x)]"
58.0,43737,31599,727040,405504,"[V f; U (2, f); ULambda y; T (64, c); Hoist_vars [c]; T (14, x); T (2, x);   Lambda_apply y [((Iter 4), (Arg 11)); ((Iter 1), (Arg 12))]; T (2, f);   T (2, x)]"
52.8,43968,33045,808960,405504,"[V f; U (2, f); ULambda y; T (64, c); Hoist_vars [c]; T (7, x); T (4, x);   Lambda_apply y [((Iter 4), (Arg 11)); ((Iter 1), (Arg 12))]; T (2, f);   T (2, x)]"
56.0,43685,31978,686080,405504,"[V f; U (2, f); ULambda y; T (64, c); Hoist_vars [c]; T (4, x); T (7, x);   Lambda_apply y [((Iter 4), (Arg 11)); ((Iter 1), (Arg 12))]; T (2, f);   T (2, x)]"
55.8,43502,32856,686080,405504,"[V f; U (2, f); ULambda y; T (64, c); Hoist_vars [c]; T (2, x); T (14, x);   Lambda_apply y [((Iter 4), (Arg 11)); ((Iter 1), (Arg 12))]; T (2, f);   T (2, x)]"
56.7,43346,31900,686080,405504,"[V f; U (2, f); ULambda y; T (64, c); Hoist_vars [c]; T (1, x); T (28, x);   Lambda_apply y [((Iter 4), (Arg 11)); ((Iter 1), (Arg 12))]; T (2, f);   T (2, x)]"
58.1,44607,27607,727040,405504,"[V f; U (2, f); ULambda y; T (64, c); Hoist_vars [c]; T (14, x); T (1, x);   Lambda_apply y [((Iter 4), (Arg 11)); ((Iter 1), (Arg 12))]; T (2, f);   T (4, x)]"
54.2,45071,27131,808960,405504,"[V f; U (2, f); ULambda y; T (64, c); Hoist_vars [c]; T (7, x); T (2, x);   Lambda_apply y [((Iter 4), (Arg 11)); ((Iter 1), (Arg 12))]; T (2, f);   T (4, x)]"
58.3,44438,27131,727040,405504,"[V f; U (2, f); ULambda y; T (64, c); Hoist_vars [c]; T (2, x); T (7, x);   Lambda_apply y [((Iter 4), (Arg 11)); ((Iter 1), (Arg 12))]; T (2, f);   T (4, x)]"
55.5,44737,27402,727040,405504,"[V f; U (2, f); ULambda y; T (64, c); Hoist_vars [c]; T (1, x); T (14, x);   Lambda_apply y [((Iter 4), (Arg 11)); ((Iter 1), (Arg 12))]; T (2, f);   T (4, x)]"
56.8,45878,26080,788480,405504,"[V f; U (2, f); ULambda y; T (64, c); Hoist_vars [c]; T (8, x); T (1, x);   Lambda_apply y [((Iter 4), (Arg 11)); ((Iter 1), (Arg 12))]; T (2, f);   T (7, x)]"
57.9,47107,26072,788480,405504,"[V f; U (2, f); ULambda y; T (64, c); Hoist_vars [c]; T (4, x); T (2, x);   Lambda_apply y [((Iter 4), (Arg 11)); ((Iter 1), (Arg 12))]; T (2, f);   T (7, x)]"
56.7,45711,25969,788480,405504,"[V f; U (2, f); ULambda y; T (64, c); Hoist_vars [c]; T (2, x); T (4, x);   Lambda_apply y [((Iter 4), (Arg 11)); ((Iter 1), (Arg 12))]; T (2, f);   T (7, x)]"
57.7,44893,26498,788480,405504,"[V f; U (2, f); ULambda y; T (64, c); Hoist_vars [c]; T (1, x); T (8, x);   Lambda_apply y [((Iter 4), (Arg 11)); ((Iter 1), (Arg 12))]; T (2, f);   T (7, x)]"
56.2,45184,26568,808960,405504,"[V f; U (2, f); ULambda y; T (64, c); Hoist_vars [c]; T (7, x); T (1, x);   Lambda_apply y [((Iter 4), (Arg 11)); ((Iter 1), (Arg 12))]; T (2, f);   T (8, x)]"
57.7,45888,26076,808960,405504,"[V f; U (2, f); ULambda y; T (64, c); Hoist_vars [c]; T (1, x); T (7, x);   Lambda_apply y [((Iter 4), (Arg 11)); ((Iter 1), (Arg 12))]; T (2, f);   T (8, x)]"
56.5,48693,25719,659456,405504,"[V f; U (2, f); ULambda y; T (64, c); Hoist_vars [c]; T (4, x); T (1, x);   Lambda_apply y [((Iter 4), (Arg 11)); ((Iter 1), (Arg 12))]; T (2, f);   T (14, x)]"
57.2,48436,25689,659456,405504,"[V f; U (2, f); ULambda y; T (64, c); Hoist_vars [c]; T (2, x); T (2, x);   Lambda_apply y [((Iter 4), (Arg 11)); ((Iter 1), (Arg 12))]; T (2, f);   T (14, x)]"
58.5,49351,25813,659456,405504,"[V f; U (2, f); ULambda y; T (64, c); Hoist_vars [c]; T (1, x); T (4, x);   Lambda_apply y [((Iter 4), (Arg 11)); ((Iter 1), (Arg 12))]; T (2, f);   T (14, x)]"
60.6,51523,25638,716800,405504,"[V f; U (2, f); ULambda y; T (64, c); Hoist_vars [c]; T (2, x); T (1, x);   Lambda_apply y [((Iter 4), (Arg 11)); ((Iter 1), (Arg 12))]; T (2, f);   T (28, x)]"
52.2,51756,25637,716800,405504,"[V f; U (2, f); ULambda y; T (64, c); Hoist_vars [c]; T (1, x); T (2, x);   Lambda_apply y [((Iter 4), (Arg 11)); ((Iter 1), (Arg 12))]; T (2, f);   T (28, x)]"
49.2,48589,25585,630784,405504,"[V f; U (2, f); ULambda y; T (64, c); Hoist_vars [c]; T (1, x); T (1, x);   Lambda_apply y [((Iter 4), (Arg 11)); ((Iter 1), (Arg 12))]; T (2, f);   T (56, x)]"
49.2,43836,45520,826880,606208,"[V f; U (2, f); ULambda y; T (64, c); Hoist_vars [c]; T (56, x); T (1, x);   Lambda_apply y [((Iter 1), (Arg 11)); ((Iter 3), (Arg 15))]; T (2, f);   T (1, x)]"
51.6,43441,45536,847360,606208,"[V f; U (2, f); ULambda y; T (64, c); Hoist_vars [c]; T (28, x); T (2, x);   Lambda_apply y [((Iter 1), (Arg 11)); ((Iter 3), (Arg 15))]; T (2, f);   T (1, x)]"
44.5,44421,45754,888320,606208,"[V f; U (2, f); ULambda y; T (64, c); Hoist_vars [c]; T (14, x); T (4, x);   Lambda_apply y [((Iter 1), (Arg 11)); ((Iter 3), (Arg 15))]; T (2, f);   T (1, x)]"
50.5,44596,45783,949760,606208,"[V f; U (2, f); ULambda y; T (64, c); Hoist_vars [c]; T (8, x); T (7, x);   Lambda_apply y [((Iter 1), (Arg 11)); ((Iter 3), (Arg 15))]; T (2, f);   T (1, x)]"
51.4,43593,45932,970240,606208,"[V f; U (2, f); ULambda y; T (64, c); Hoist_vars [c]; T (7, x); T (8, x);   Lambda_apply y [((Iter 1), (Arg 11)); ((Iter 3), (Arg 15))]; T (2, f);   T (1, x)]"
49.0,43979,46068,826880,606208,"[V f; U (2, f); ULambda y; T (64, c); Hoist_vars [c]; T (4, x); T (14, x);   Lambda_apply y [((Iter 1), (Arg 11)); ((Iter 3), (Arg 15))]; T (2, f);   T (1, x)]"
51.3,43952,45785,826880,606208,"[V f; U (2, f); ULambda y; T (64, c); Hoist_vars [c]; T (2, x); T (28, x);   Lambda_apply y [((Iter 1), (Arg 11)); ((Iter 3), (Arg 15))]; T (2, f);   T (1, x)]"
45.8,43437,45357,826880,606208,"[V f; U (2, f); ULambda y; T (64, c); Hoist_vars [c]; T (1, x); T (56, x);   Lambda_apply y [((Iter 1), (Arg 11)); ((Iter 3), (Arg 15))]; T (2, f);   T (1, x)]"
57.3,45113,31844,847360,405504,"[V f; U (2, f); ULambda y; T (64, c); Hoist_vars [c]; T (28, x); T (1, x);   Lambda_apply y [((Iter 1), (Arg 11)); ((Iter 3), (Arg 15))]; T (2, f);   T (2, x)]"
51.4,44945,33135,888320,405504,"[V f; U (2, f); ULambda y; T (64, c); Hoist_vars [c]; T (14, x); T (2, x);   Lambda_apply y [((Iter 1), (Arg 11)); ((Iter 3), (Arg 15))]; T (2, f);   T (2, x)]"
52.2,45482,32351,970240,405504,"[V f; U (2, f); ULambda y; T (64, c); Hoist_vars [c]; T (7, x); T (4, x);   Lambda_apply y [((Iter 1), (Arg 11)); ((Iter 3), (Arg 15))]; T (2, f);   T (2, x)]"
56.5,45244,31471,847360,405504,"[V f; U (2, f); ULambda y; T (64, c); Hoist_vars [c]; T (4, x); T (7, x);   Lambda_apply y [((Iter 1), (Arg 11)); ((Iter 3), (Arg 15))]; T (2, f);   T (2, x)]"
49.1,45178,30977,847360,405504,"[V f; U (2, f); ULambda y; T (64, c); Hoist_vars [c]; T (2, x); T (14, x);   Lambda_apply y [((Iter 1), (Arg 11)); ((Iter 3), (Arg 15))]; T (2, f);   T (2, x)]"
51.8,45132,31359,847360,405504,"[V f; U (2, f); ULambda y; T (64, c); Hoist_vars [c]; T (1, x); T (28, x);   Lambda_apply y [((Iter 1), (Arg 11)); ((Iter 3), (Arg 15))]; T (2, f);   T (2, x)]"
56.3,46277,26835,888320,405504,"[V f; U (2, f); ULambda y; T (64, c); Hoist_vars [c]; T (14, x); T (1, x);   Lambda_apply y [((Iter 1), (Arg 11)); ((Iter 3), (Arg 15))]; T (2, f);   T (4, x)]"
55.4,46298,26966,970240,405504,"[V f; U (2, f); ULambda y; T (64, c); Hoist_vars [c]; T (7, x); T (2, x);   Lambda_apply y [((Iter 1), (Arg 11)); ((Iter 3), (Arg 15))]; T (2, f);   T (4, x)]"
56.1,45777,27018,888320,405504,"[V f; U (2, f); ULambda y; T (64, c); Hoist_vars [c]; T (2, x); T (7, x);   Lambda_apply y [((Iter 1), (Arg 11)); ((Iter 3), (Arg 15))]; T (2, f);   T (4, x)]"
56.0,46377,26979,888320,405504,"[V f; U (2, f); ULambda y; T (64, c); Hoist_vars [c]; T (1, x); T (14, x);   Lambda_apply y [((Iter 1), (Arg 11)); ((Iter 3), (Arg 15))]; T (2, f);   T (4, x)]"
53.6,47866,26125,949760,405504,"[V f; U (2, f); ULambda y; T (64, c); Hoist_vars [c]; T (8, x); T (1, x);   Lambda_apply y [((Iter 1), (Arg 11)); ((Iter 3), (Arg 15))]; T (2, f);   T (7, x)]"
57.6,47803,26056,949760,405504,"[V f; U (2, f); ULambda y; T (64, c); Hoist_vars [c]; T (4, x); T (2, x);   Lambda_apply y [((Iter 1), (Arg 11)); ((Iter 3), (Arg 15))]; T (2, f);   T (7, x)]"
53.9,46759,26100,949760,405504,"[V f; U (2, f); ULambda y; T (64, c); Hoist_vars [c]; T (2, x); T (4, x);   Lambda_apply y [((Iter 1), (Arg 11)); ((Iter 3), (Arg 15))]; T (2, f);   T (7, x)]"
51.2,47859,26345,949760,405504,"[V f; U (2, f); ULambda y; T (64, c); Hoist_vars [c]; T (1, x); T (8, x);   Lambda_apply y [((Iter 1), (Arg 11)); ((Iter 3), (Arg 15))]; T (2, f);   T (7, x)]"
51.9,48349,25932,970240,405504,"[V f; U (2, f); ULambda y; T (64, c); Hoist_vars [c]; T (7, x); T (1, x);   Lambda_apply y [((Iter 1), (Arg 11)); ((Iter 3), (Arg 15))]; T (2, f);   T (8, x)]"
56.8,47936,26057,970240,405504,"[V f; U (2, f); ULambda y; T (64, c); Hoist_vars [c]; T (1, x); T (7, x);   Lambda_apply y [((Iter 1), (Arg 11)); ((Iter 3), (Arg 15))]; T (2, f);   T (8, x)]"
55.3,51727,25859,659456,405504,"[V f; U (2, f); ULambda y; T (64, c); Hoist_vars [c]; T (4, x); T (1, x);   Lambda_apply y [((Iter 1), (Arg 11)); ((Iter 3), (Arg 15))]; T (2, f);   T (14, x)]"
54.1,49024,25651,659456,405504,"[V f; U (2, f); ULambda y; T (64, c); Hoist_vars [c]; T (2, x); T (2, x);   Lambda_apply y [((Iter 1), (Arg 11)); ((Iter 3), (Arg 15))]; T (2, f);   T (14, x)]"
52.8,51133,25814,659456,405504,"[V f; U (2, f); ULambda y; T (64, c); Hoist_vars [c]; T (1, x); T (4, x);   Lambda_apply y [((Iter 1), (Arg 11)); ((Iter 3), (Arg 15))]; T (2, f);   T (14, x)]"
56.9,52888,25591,716800,405504,"[V f; U (2, f); ULambda y; T (64, c); Hoist_vars [c]; T (2, x); T (1, x);   Lambda_apply y [((Iter 1), (Arg 11)); ((Iter 3), (Arg 15))]; T (2, f);   T (28, x)]"
55.2,52900,25642,716800,405504,"[V f; U (2, f); ULambda y; T (64, c); Hoist_vars [c]; T (1, x); T (2, x);   Lambda_apply y [((Iter 1), (Arg 11)); ((Iter 3), (Arg 15))]; T (2, f);   T (28, x)]"
59.0,52110,25567,630784,405504,"[V f; U (2, f); ULambda y; T (64, c); Hoist_vars [c]; T (1, x); T (1, x);   Lambda_apply y [((Iter 1), (Arg 11)); ((Iter 3), (Arg 15))]; T (2, f);   T (56, x)]"
61.6,27116,27954,488448,405504,"[V f; U (4, f); ULambda y; T (64, c); Hoist_vars [c]; T (56, x); T (1, x);   Lambda_apply y [((Iter 7), (Arg 6)); ((Iter 2), (Arg 7))]; T (1, x)]"
62.5,26851,27864,525312,405504,"[V f; U (4, f); ULambda y; T (64, c); Hoist_vars [c]; T (28, x); T (2, x);   Lambda_apply y [((Iter 7), (Arg 6)); ((Iter 2), (Arg 7))]; T (1, x)]"
60.0,26946,27870,599040,405504,"[V f; U (4, f); ULambda y; T (64, c); Hoist_vars [c]; T (14, x); T (4, x);   Lambda_apply y [((Iter 7), (Arg 6)); ((Iter 2), (Arg 7))]; T (1, x)]"
59.7,26813,28073,709632,405504,"[V f; U (4, f); ULambda y; T (64, c); Hoist_vars [c]; T (8, x); T (7, x);   Lambda_apply y [((Iter 7), (Arg 6)); ((Iter 2), (Arg 7))]; T (1, x)]"
58.4,26780,28066,746496,405504,"[V f; U (4, f); ULambda y; T (64, c); Hoist_vars [c]; T (7, x); T (8, x);   Lambda_apply y [((Iter 7), (Arg 6)); ((Iter 2), (Arg 7))]; T (1, x)]"
58.2,26829,28098,488448,405504,"[V f; U (4, f); ULambda y; T (64, c); Hoist_vars [c]; T (4, x); T (14, x);   Lambda_apply y [((Iter 7), (Arg 6)); ((Iter 2), (Arg 7))]; T (1, x)]"
57.2,26818,28039,488448,405504,"[V f; U (4, f); ULambda y; T (64, c); Hoist_vars [c]; T (2, x); T (28, x);   Lambda_apply y [((Iter 7), (Arg 6)); ((Iter 2), (Arg 7))]; T (1, x)]"
53.0,27130,27845,488448,405504,"[V f; U (4, f); ULambda y; T (64, c); Hoist_vars [c]; T (1, x); T (56, x);   Lambda_apply y [((Iter 7), (Arg 6)); ((Iter 2), (Arg 7))]; T (1, x)]"
62.1,26938,26354,525312,405504,"[V f; U (4, f); ULambda y; T (64, c); Hoist_vars [c]; T (28, x); T (1, x);   Lambda_apply y [((Iter 7), (Arg 6)); ((Iter 2), (Arg 7))]; T (2, x)]"
61.0,27201,26531,599040,405504,"[V f; U (4, f); ULambda y; T (64, c); Hoist_vars [c]; T (14, x); T (2, x);   Lambda_apply y [((Iter 7), (Arg 6)); ((Iter 2), (Arg 7))]; T (2, x)]"
59.2,27019,26624,746496,405504,"[V f; U (4, f); ULambda y; T (64, c); Hoist_vars [c]; T (7, x); T (4, x);   Lambda_apply y [((Iter 7), (Arg 6)); ((Iter 2), (Arg 7))]; T (2, x)]"
59.4,27163,26457,525312,405504,"[V f; U (4, f); ULambda y; T (64, c); Hoist_vars [c]; T (4, x); T (7, x);   Lambda_apply y [((Iter 7), (Arg 6)); ((Iter 2), (Arg 7))]; T (2, x)]"
55.7,26975,27643,525312,405504,"[V f; U (4, f); ULambda y; T (64, c); Hoist_vars [c]; T (2, x); T (14, x);   Lambda_apply y [((Iter 7), (Arg 6)); ((Iter 2), (Arg 7))]; T (2, x)]"
47.3,26948,26337,525312,405504,"[V f; U (4, f); ULambda y; T (64, c); Hoist_vars [c]; T (1, x); T (28, x);   Lambda_apply y [((Iter 7), (Arg 6)); ((Iter 2), (Arg 7))]; T (2, x)]"
56.8,27224,26017,599040,405504,"[V f; U (4, f); ULambda y; T (64, c); Hoist_vars [c]; T (14, x); T (1, x);   Lambda_apply y [((Iter 7), (Arg 6)); ((Iter 2), (Arg 7))]; T (4, x)]"
59.6,27274,26006,746496,405504,"[V f; U (4, f); ULambda y; T (64, c); Hoist_vars [c]; T (7, x); T (2, x);   Lambda_apply y [((Iter 7), (Arg 6)); ((Iter 2), (Arg 7))]; T (4, x)]"
49.4,27185,25830,599040,405504,"[V f; U (4, f); ULambda y; T (64, c); Hoist_vars [c]; T (2, x); T (7, x);   Lambda_apply y [((Iter 7), (Arg 6)); ((Iter 2), (Arg 7))]; T (4, x)]"
58.8,27085,26062,599040,405504,"[V f; U (4, f); ULambda y; T (64, c); Hoist_vars [c]; T (1, x); T (14, x);   Lambda_apply y [((Iter 7), (Arg 6)); ((Iter 2), (Arg 7))]; T (4, x)]"
53.3,27522,25822,709632,405504,"[V f; U (4, f); ULambda y; T (64, c); Hoist_vars [c]; T (8, x); T (1, x);   Lambda_apply y [((Iter 7), (Arg 6)); ((Iter 2), (Arg 7))]; T (7, x)]"
62.2,27484,25827,709632,405504,"[V f; U (4, f); ULambda y; T (64, c); Hoist_vars [c]; T (4, x); T (2, x);   Lambda_apply y [((Iter 7), (Arg 6)); ((Iter 2), (Arg 7))]; T (7, x)]"
61.2,27236,25781,709632,405504,"[V f; U (4, f); ULambda y; T (64, c); Hoist_vars [c]; T (2, x); T (4, x);   Lambda_apply y [((Iter 7), (Arg 6)); ((Iter 2), (Arg 7))]; T (7, x)]"
60.8,27477,25862,709632,405504,"[V f; U (4, f); ULambda y; T (64, c); Hoist_vars [c]; T (1, x); T (8, x);   Lambda_apply y [((Iter 7), (Arg 6)); ((Iter 2), (Arg 7))]; T (7, x)]"
51.0,27153,25764,746496,405504,"[V f; U (4, f); ULambda y; T (64, c); Hoist_vars [c]; T (7, x); T (1, x);   Lambda_apply y [((Iter 7), (Arg 6)); ((Iter 2), (Arg 7))]; T (8, x)]"
57.3,26858,25804,746496,405504,"[V f; U (4, f); ULambda y; T (64, c); Hoist_vars [c]; T (1, x); T (7, x);   Lambda_apply y [((Iter 7), (Arg 6)); ((Iter 2), (Arg 7))]; T (8, x)]"
61.7,28224,25876,458752,405504,"[V f; U (4, f); ULambda y; T (64, c); Hoist_vars [c]; T (4, x); T (1, x);   Lambda_apply y [((Iter 7), (Arg 6)); ((Iter 2), (Arg 7))]; T (14, x)]"
60.0,27372,25746,458752,405504,"[V f; U (4, f); ULambda y; T (64, c); Hoist_vars [c]; T (2, x); T (2, x);   Lambda_apply y [((Iter 7), (Arg 6)); ((Iter 2), (Arg 7))]; T (14, x)]"
55.2,27631,25700,458752,405504,"[V f; U (4, f); ULambda y; T (64, c); Hoist_vars [c]; T (1, x); T (4, x);   Lambda_apply y [((Iter 7), (Arg 6)); ((Iter 2), (Arg 7))]; T (14, x)]"
53.9,28341,25688,516096,405504,"[V f; U (4, f); ULambda y; T (64, c); Hoist_vars [c]; T (2, x); T (1, x);   Lambda_apply y [((Iter 7), (Arg 6)); ((Iter 2), (Arg 7))]; T (28, x)]"
62.4,28119,25663,516096,405504,"[V f; U (4, f); ULambda y; T (64, c); Hoist_vars [c]; T (1, x); T (2, x);   Lambda_apply y [((Iter 7), (Arg 6)); ((Iter 2), (Arg 7))]; T (28, x)]"
55.8,25745,25628,630784,405504,"[V f; U (4, f); ULambda y; T (64, c); Hoist_vars [c]; T (1, x); T (1, x);   Lambda_apply y [((Iter 7), (Arg 6)); ((Iter 2), (Arg 7))]; T (56, x)]"
