72.0,453540,88255,2552832,377856,"[V f; U (2, f); U (14, y); T (128, c); Hoist_vars [c]; T (14, x); T (3, w);   T (3, h); T (8, f); T (1, c); T (1, x); T (1, y); T (1, f)]"
75.2,453134,86015,2552832,377856,"[V f; U (2, f); U (14, y); T (128, c); Hoist_vars [c]; T (14, x); T (3, w);   T (3, h); T (4, f); T (1, c); T (1, x); T (1, y); T (2, f)]"
74.9,453274,85220,2552832,377856,"[V f; U (2, f); U (14, y); T (128, c); Hoist_vars [c]; T (14, x); T (3, w);   T (3, h); T (2, f); T (1, c); T (1, x); T (1, y); T (4, f)]"
73.6,453727,86571,2552832,377856,"[V f; U (2, f); U (14, y); T (128, c); Hoist_vars [c]; T (14, x); T (3, w);   T (3, h); T (1, f); T (1, c); T (1, x); T (1, y); T (8, f)]"
70.2,453771,126039,2847744,676864,"[V f; U (2, f); U (14, y); T (128, c); Hoist_vars [c]; T (7, x); T (3, w);   T (3, h); T (8, f); T (1, c); T (2, x); T (1, y); T (1, f)]"
69.4,453506,133766,2847744,377856,"[V f; U (2, f); U (14, y); T (128, c); Hoist_vars [c]; T (7, x); T (3, w);   T (3, h); T (4, f); T (1, c); T (2, x); T (1, y); T (2, f)]"
67.4,453304,139606,2847744,377856,"[V f; U (2, f); U (14, y); T (128, c); Hoist_vars [c]; T (7, x); T (3, w);   T (3, h); T (2, f); T (1, c); T (2, x); T (1, y); T (4, f)]"
66.1,452849,145085,2847744,377856,"[V f; U (2, f); U (14, y); T (128, c); Hoist_vars [c]; T (7, x); T (3, w);   T (3, h); T (1, f); T (1, c); T (2, x); T (1, y); T (8, f)]"
53.6,443660,252777,4322304,2171904,"[V f; U (2, f); U (14, y); T (128, c); Hoist_vars [c]; T (2, x); T (3, w);   T (3, h); T (8, f); T (1, c); T (7, x); T (1, y); T (1, f)]"
53.9,444273,274473,4322304,377856,"[V f; U (2, f); U (14, y); T (128, c); Hoist_vars [c]; T (2, x); T (3, w);   T (3, h); T (4, f); T (1, c); T (7, x); T (1, y); T (2, f)]"
50.8,442182,290488,4322304,377856,"[V f; U (2, f); U (14, y); T (128, c); Hoist_vars [c]; T (2, x); T (3, w);   T (3, h); T (2, f); T (1, c); T (7, x); T (1, y); T (4, f)]"
52.2,438551,320183,4322304,377856,"[V f; U (2, f); U (14, y); T (128, c); Hoist_vars [c]; T (2, x); T (3, w);   T (3, h); T (1, f); T (1, c); T (7, x); T (1, y); T (8, f)]"
43.8,407709,197755,6085632,4264960,"[V f; U (2, f); U (14, y); T (128, c); Hoist_vars [c]; T (1, x); T (3, w);   T (3, h); T (8, f); T (1, c); T (14, x); T (1, y); T (1, f)]"
43.0,407183,205234,6085632,377856,"[V f; U (2, f); U (14, y); T (128, c); Hoist_vars [c]; T (1, x); T (3, w);   T (3, h); T (4, f); T (1, c); T (14, x); T (1, y); T (2, f)]"
43.5,405570,194650,6085632,377856,"[V f; U (2, f); U (14, y); T (128, c); Hoist_vars [c]; T (1, x); T (3, w);   T (3, h); T (2, f); T (1, c); T (14, x); T (1, y); T (4, f)]"
44.1,398419,196338,6085632,377856,"[V f; U (2, f); U (14, y); T (128, c); Hoist_vars [c]; T (1, x); T (3, w);   T (3, h); T (1, f); T (1, c); T (14, x); T (1, y); T (8, f)]"
70.3,650357,110524,9612288,676864,"[V f; U (4, f); U (7, y); T (128, c); Hoist_vars [c]; T (14, x); T (3, w);   T (3, h); T (4, f); T (1, c); T (1, x); T (2, y); T (1, f)]"
71.4,650346,119372,9612288,377856,"[V f; U (4, f); U (7, y); T (128, c); Hoist_vars [c]; T (14, x); T (3, w);   T (3, h); T (2, f); T (1, c); T (1, x); T (2, y); T (2, f)]"
71.9,650535,123593,9612288,377856,"[V f; U (4, f); U (7, y); T (128, c); Hoist_vars [c]; T (14, x); T (3, w);   T (3, h); T (1, f); T (1, c); T (1, x); T (2, y); T (4, f)]"
68.4,650216,165410,9612288,1271296,"[V f; U (4, f); U (7, y); T (128, c); Hoist_vars [c]; T (7, x); T (3, w);   T (3, h); T (4, f); T (1, c); T (2, x); T (2, y); T (1, f)]"
64.3,649011,183092,9612288,377856,"[V f; U (4, f); U (7, y); T (128, c); Hoist_vars [c]; T (7, x); T (3, w);   T (3, h); T (2, f); T (1, c); T (2, x); T (2, y); T (2, f)]"
63.8,649769,202687,9612288,377856,"[V f; U (4, f); U (7, y); T (128, c); Hoist_vars [c]; T (7, x); T (3, w);   T (3, h); T (1, f); T (1, c); T (2, x); T (2, y); T (4, f)]"
48.2,623340,345408,9612288,4243456,"[V f; U (4, f); U (7, y); T (128, c); Hoist_vars [c]; T (2, x); T (3, w);   T (3, h); T (4, f); T (1, c); T (7, x); T (2, y); T (1, f)]"
52.9,622227,342202,9612288,377856,"[V f; U (4, f); U (7, y); T (128, c); Hoist_vars [c]; T (2, x); T (3, w);   T (3, h); T (2, f); T (1, c); T (7, x); T (2, y); T (2, f)]"
50.0,625152,383597,9612288,377856,"[V f; U (4, f); U (7, y); T (128, c); Hoist_vars [c]; T (2, x); T (3, w);   T (3, h); T (1, f); T (1, c); T (7, x); T (2, y); T (4, f)]"
38.6,586533,496056,9612288,8404480,"[V f; U (4, f); U (7, y); T (128, c); Hoist_vars [c]; T (1, x); T (3, w);   T (3, h); T (4, f); T (1, c); T (14, x); T (2, y); T (1, f)]"
39.0,587437,494188,9612288,377856,"[V f; U (4, f); U (7, y); T (128, c); Hoist_vars [c]; T (1, x); T (3, w);   T (3, h); T (2, f); T (1, c); T (14, x); T (2, y); T (2, f)]"
38.6,593997,537230,9612288,377856,"[V f; U (4, f); U (7, y); T (128, c); Hoist_vars [c]; T (1, x); T (3, w);   T (3, h); T (1, f); T (1, c); T (14, x); T (2, y); T (4, f)]"
71.2,445251,60037,5655552,377856,"[V f; U (1, f); U (14, y); U (3, h); T (128, c); Hoist_vars [c]; T (14, x);   T (3, w); T (16, f); T (1, c); T (1, x); T (1, y); T (1, f)]"
68.5,445417,62315,5655552,377856,"[V f; U (1, f); U (14, y); U (3, h); T (128, c); Hoist_vars [c]; T (14, x);   T (3, w); T (8, f); T (1, c); T (1, x); T (1, y); T (2, f)]"
70.8,444960,60093,5655552,377856,"[V f; U (1, f); U (14, y); U (3, h); T (128, c); Hoist_vars [c]; T (14, x);   T (3, w); T (4, f); T (1, c); T (1, x); T (1, y); T (4, f)]"
70.2,445389,61862,5655552,377856,"[V f; U (1, f); U (14, y); U (3, h); T (128, c); Hoist_vars [c]; T (14, x);   T (3, w); T (2, f); T (1, c); T (1, x); T (1, y); T (8, f)]"
70.7,445008,59976,5655552,377856,"[V f; U (1, f); U (14, y); U (3, h); T (128, c); Hoist_vars [c]; T (14, x);   T (3, w); T (1, f); T (1, c); T (1, x); T (1, y); T (16, f)]"
66.1,444439,73989,5655552,676864,"[V f; U (1, f); U (14, y); U (3, h); T (128, c); Hoist_vars [c]; T (7, x);   T (3, w); T (16, f); T (1, c); T (2, x); T (1, y); T (1, f)]"
66.4,445138,81839,5655552,377856,"[V f; U (1, f); U (14, y); U (3, h); T (128, c); Hoist_vars [c]; T (7, x);   T (3, w); T (8, f); T (1, c); T (2, x); T (1, y); T (2, f)]"
65.4,444892,85422,5655552,377856,"[V f; U (1, f); U (14, y); U (3, h); T (128, c); Hoist_vars [c]; T (7, x);   T (3, w); T (4, f); T (1, c); T (2, x); T (1, y); T (4, f)]"
64.9,443787,87634,5655552,377856,"[V f; U (1, f); U (14, y); U (3, h); T (128, c); Hoist_vars [c]; T (7, x);   T (3, w); T (2, f); T (1, c); T (2, x); T (1, y); T (8, f)]"
63.1,442018,89612,5655552,377856,"[V f; U (1, f); U (14, y); U (3, h); T (128, c); Hoist_vars [c]; T (7, x);   T (3, w); T (1, f); T (1, c); T (2, x); T (1, y); T (16, f)]"
49.7,436609,126577,5655552,2171904,"[V f; U (1, f); U (14, y); U (3, h); T (128, c); Hoist_vars [c]; T (2, x);   T (3, w); T (16, f); T (1, c); T (7, x); T (1, y); T (1, f)]"
50.4,435423,135309,5655552,377856,"[V f; U (1, f); U (14, y); U (3, h); T (128, c); Hoist_vars [c]; T (2, x);   T (3, w); T (8, f); T (1, c); T (7, x); T (1, y); T (2, f)]"
49.0,433098,140456,5655552,377856,"[V f; U (1, f); U (14, y); U (3, h); T (128, c); Hoist_vars [c]; T (2, x);   T (3, w); T (4, f); T (1, c); T (7, x); T (1, y); T (4, f)]"
48.5,429771,135113,5655552,377856,"[V f; U (1, f); U (14, y); U (3, h); T (128, c); Hoist_vars [c]; T (2, x);   T (3, w); T (2, f); T (1, c); T (7, x); T (1, y); T (8, f)]"
50.2,421130,135155,5655552,377856,"[V f; U (1, f); U (14, y); U (3, h); T (128, c); Hoist_vars [c]; T (2, x);   T (3, w); T (1, f); T (1, c); T (7, x); T (1, y); T (16, f)]"
41.0,413464,185501,5655552,4264960,"[V f; U (1, f); U (14, y); U (3, h); T (128, c); Hoist_vars [c]; T (1, x);   T (3, w); T (16, f); T (1, c); T (14, x); T (1, y); T (1, f)]"
40.2,413383,202452,5655552,377856,"[V f; U (1, f); U (14, y); U (3, h); T (128, c); Hoist_vars [c]; T (1, x);   T (3, w); T (8, f); T (1, c); T (14, x); T (1, y); T (2, f)]"
40.1,411719,212995,5655552,377856,"[V f; U (1, f); U (14, y); U (3, h); T (128, c); Hoist_vars [c]; T (1, x);   T (3, w); T (4, f); T (1, c); T (14, x); T (1, y); T (4, f)]"
41.1,407604,194628,5655552,377856,"[V f; U (1, f); U (14, y); U (3, h); T (128, c); Hoist_vars [c]; T (1, x);   T (3, w); T (2, f); T (1, c); T (14, x); T (1, y); T (8, f)]"
42.2,394165,197344,5655552,377856,"[V f; U (1, f); U (14, y); U (3, h); T (128, c); Hoist_vars [c]; T (1, x);   T (3, w); T (1, f); T (1, c); T (14, x); T (1, y); T (16, f)]"
67.7,587527,88959,8795136,676864,"[V f; U (4, f); U (7, y); U (3, h); T (128, c); Hoist_vars [c]; T (14, x);   T (3, w); T (4, f); T (1, c); T (1, x); T (2, y); T (1, f)]"
65.2,587568,106200,8795136,377856,"[V f; U (4, f); U (7, y); U (3, h); T (128, c); Hoist_vars [c]; T (14, x);   T (3, w); T (2, f); T (1, c); T (1, x); T (2, y); T (2, f)]"
64.9,586062,102554,8795136,377856,"[V f; U (4, f); U (7, y); U (3, h); T (128, c); Hoist_vars [c]; T (14, x);   T (3, w); T (1, f); T (1, c); T (1, x); T (2, y); T (4, f)]"
61.0,587705,137176,8795136,1271296,"[V f; U (4, f); U (7, y); U (3, h); T (128, c); Hoist_vars [c]; T (7, x);   T (3, w); T (4, f); T (1, c); T (2, x); T (2, y); T (1, f)]"
61.8,586757,144428,8795136,377856,"[V f; U (4, f); U (7, y); U (3, h); T (128, c); Hoist_vars [c]; T (7, x);   T (3, w); T (2, f); T (1, c); T (2, x); T (2, y); T (2, f)]"
59.4,587012,163336,8795136,377856,"[V f; U (4, f); U (7, y); U (3, h); T (128, c); Hoist_vars [c]; T (7, x);   T (3, w); T (1, f); T (1, c); T (2, x); T (2, y); T (4, f)]"
45.8,575199,318545,8795136,4243456,"[V f; U (4, f); U (7, y); U (3, h); T (128, c); Hoist_vars [c]; T (2, x);   T (3, w); T (4, f); T (1, c); T (7, x); T (2, y); T (1, f)]"
45.5,576164,342486,8795136,377856,"[V f; U (4, f); U (7, y); U (3, h); T (128, c); Hoist_vars [c]; T (2, x);   T (3, w); T (2, f); T (1, c); T (7, x); T (2, y); T (2, f)]"
45.1,578634,341136,8795136,377856,"[V f; U (4, f); U (7, y); U (3, h); T (128, c); Hoist_vars [c]; T (2, x);   T (3, w); T (1, f); T (1, c); T (7, x); T (2, y); T (4, f)]"
42.9,564715,466125,8795136,8404480,"[V f; U (4, f); U (7, y); U (3, h); T (128, c); Hoist_vars [c]; T (1, x);   T (3, w); T (4, f); T (1, c); T (14, x); T (2, y); T (1, f)]"
37.1,568167,499170,8795136,377856,"[V f; U (4, f); U (7, y); U (3, h); T (128, c); Hoist_vars [c]; T (1, x);   T (3, w); T (2, f); T (1, c); T (14, x); T (2, y); T (2, f)]"
37.1,571794,593436,8795136,377856,"[V f; U (4, f); U (7, y); U (3, h); T (128, c); Hoist_vars [c]; T (1, x);   T (3, w); T (1, f); T (1, c); T (14, x); T (2, y); T (4, f)]"
68.7,617152,89540,9311232,676864,"[V f; U (4, f); U (7, y); U (3, w); T (128, c); Hoist_vars [c]; T (14, x);   T (3, h); T (4, f); T (1, c); T (1, x); T (2, y); T (1, f)]"
66.2,619772,103543,9311232,377856,"[V f; U (4, f); U (7, y); U (3, w); T (128, c); Hoist_vars [c]; T (14, x);   T (3, h); T (2, f); T (1, c); T (1, x); T (2, y); T (2, f)]"
68.4,617934,104363,9311232,377856,"[V f; U (4, f); U (7, y); U (3, w); T (128, c); Hoist_vars [c]; T (14, x);   T (3, h); T (1, f); T (1, c); T (1, x); T (2, y); T (4, f)]"
61.7,617012,141663,9311232,1271296,"[V f; U (4, f); U (7, y); U (3, w); T (128, c); Hoist_vars [c]; T (7, x);   T (3, h); T (4, f); T (1, c); T (2, x); T (2, y); T (1, f)]"
63.7,613907,145669,9311232,377856,"[V f; U (4, f); U (7, y); U (3, w); T (128, c); Hoist_vars [c]; T (7, x);   T (3, h); T (2, f); T (1, c); T (2, x); T (2, y); T (2, f)]"
60.5,616834,160957,9311232,377856,"[V f; U (4, f); U (7, y); U (3, w); T (128, c); Hoist_vars [c]; T (7, x);   T (3, h); T (1, f); T (1, c); T (2, x); T (2, y); T (4, f)]"
47.5,599993,288796,9311232,4243456,"[V f; U (4, f); U (7, y); U (3, w); T (128, c); Hoist_vars [c]; T (2, x);   T (3, h); T (4, f); T (1, c); T (7, x); T (2, y); T (1, f)]"
48.1,604895,312334,9311232,377856,"[V f; U (4, f); U (7, y); U (3, w); T (128, c); Hoist_vars [c]; T (2, x);   T (3, h); T (2, f); T (1, c); T (7, x); T (2, y); T (2, f)]"
45.9,604605,341392,9311232,377856,"[V f; U (4, f); U (7, y); U (3, w); T (128, c); Hoist_vars [c]; T (2, x);   T (3, h); T (1, f); T (1, c); T (7, x); T (2, y); T (4, f)]"
38.6,579213,512949,9311232,8404480,"[V f; U (4, f); U (7, y); U (3, w); T (128, c); Hoist_vars [c]; T (1, x);   T (3, h); T (4, f); T (1, c); T (14, x); T (2, y); T (1, f)]"
37.6,585566,498965,9311232,377856,"[V f; U (4, f); U (7, y); U (3, w); T (128, c); Hoist_vars [c]; T (1, x);   T (3, h); T (2, f); T (1, c); T (14, x); T (2, y); T (2, f)]"
37.7,593668,546319,9311232,377856,"[V f; U (4, f); U (7, y); U (3, w); T (128, c); Hoist_vars [c]; T (1, x);   T (3, h); T (1, f); T (1, c); T (14, x); T (2, y); T (4, f)]"
67.3,864431,119653,13515264,981504,"[V f; U (4, f); ULambda y; U (3, w); T (128, c); Hoist_vars [c]; T (14, x);   T (3, h); T (4, f); T (1, c); T (1, x);   Lambda_apply y [((Iter 1), (Arg 4)); ((Iter 2), (Arg 5))]; T (1, f)]"
67.8,864856,115064,13515264,377856,"[V f; U (4, f); ULambda y; U (3, w); T (128, c); Hoist_vars [c]; T (14, x);   T (3, h); T (2, f); T (1, c); T (1, x);   Lambda_apply y [((Iter 1), (Arg 4)); ((Iter 2), (Arg 5))]; T (2, f)]"
67.3,861676,125767,13515264,377856,"[V f; U (4, f); ULambda y; U (3, w); T (128, c); Hoist_vars [c]; T (14, x);   T (3, h); T (1, f); T (1, c); T (1, x);   Lambda_apply y [((Iter 1), (Arg 4)); ((Iter 2), (Arg 5))]; T (4, f)]"
62.6,864736,157672,13515264,1871616,"[V f; U (4, f); ULambda y; U (3, w); T (128, c); Hoist_vars [c]; T (7, x);   T (3, h); T (4, f); T (1, c); T (2, x);   Lambda_apply y [((Iter 1), (Arg 4)); ((Iter 2), (Arg 5))]; T (1, f)]"
60.3,863867,176520,13515264,377856,"[V f; U (4, f); ULambda y; U (3, w); T (128, c); Hoist_vars [c]; T (7, x);   T (3, h); T (2, f); T (1, c); T (2, x);   Lambda_apply y [((Iter 1), (Arg 4)); ((Iter 2), (Arg 5))]; T (2, f)]"
62.0,861550,191862,13515264,377856,"[V f; U (4, f); ULambda y; U (3, w); T (128, c); Hoist_vars [c]; T (7, x);   T (3, h); T (1, f); T (1, c); T (2, x);   Lambda_apply y [((Iter 1), (Arg 4)); ((Iter 2), (Arg 5))]; T (4, f)]"
42.8,838135,390839,13515264,6322176,"[V f; U (4, f); ULambda y; U (3, w); T (128, c); Hoist_vars [c]; T (2, x);   T (3, h); T (4, f); T (1, c); T (7, x);   Lambda_apply y [((Iter 1), (Arg 4)); ((Iter 2), (Arg 5))]; T (1, f)]"
42.0,842814,414694,13515264,377856,"[V f; U (4, f); ULambda y; U (3, w); T (128, c); Hoist_vars [c]; T (2, x);   T (3, h); T (2, f); T (1, c); T (7, x);   Lambda_apply y [((Iter 1), (Arg 4)); ((Iter 2), (Arg 5))]; T (2, f)]"
43.9,846160,397811,13515264,377856,"[V f; U (4, f); ULambda y; U (3, w); T (128, c); Hoist_vars [c]; T (2, x);   T (3, h); T (1, f); T (1, c); T (7, x);   Lambda_apply y [((Iter 1), (Arg 4)); ((Iter 2), (Arg 5))]; T (4, f)]"
38.1,830135,549820,13515264,12552960,"[V f; U (4, f); ULambda y; U (3, w); T (128, c); Hoist_vars [c]; T (1, x);   T (3, h); T (4, f); T (1, c); T (14, x);   Lambda_apply y [((Iter 1), (Arg 4)); ((Iter 2), (Arg 5))]; T (1, f)]"
32.9,833854,643012,13515264,377856,"[V f; U (4, f); ULambda y; U (3, w); T (128, c); Hoist_vars [c]; T (1, x);   T (3, h); T (2, f); T (1, c); T (14, x);   Lambda_apply y [((Iter 1), (Arg 4)); ((Iter 2), (Arg 5))]; T (2, f)]"
34.7,838050,625339,13515264,377856,"[V f; U (4, f); ULambda y; U (3, w); T (128, c); Hoist_vars [c]; T (1, x);   T (3, h); T (1, f); T (1, c); T (14, x);   Lambda_apply y [((Iter 1), (Arg 4)); ((Iter 2), (Arg 5))]; T (4, f)]"
69.6,864625,103774,13741056,998400,"[V f; U (4, f); ULambda y; U (3, w); T (128, c); Hoist_vars [c]; T (14, x);   T (3, h); T (4, f); T (1, c); T (1, x);   Lambda_apply y [((Iter 2), (Arg 4)); ((Iter 1), (Arg 6))]; T (1, f)]"
67.4,864919,120213,13741056,377856,"[V f; U (4, f); ULambda y; U (3, w); T (128, c); Hoist_vars [c]; T (14, x);   T (3, h); T (2, f); T (1, c); T (1, x);   Lambda_apply y [((Iter 2), (Arg 4)); ((Iter 1), (Arg 6))]; T (2, f)]"
67.9,864348,120734,13741056,377856,"[V f; U (4, f); ULambda y; U (3, w); T (128, c); Hoist_vars [c]; T (14, x);   T (3, h); T (1, f); T (1, c); T (1, x);   Lambda_apply y [((Iter 2), (Arg 4)); ((Iter 1), (Arg 6))]; T (4, f)]"
63.2,864701,151207,13741056,1889280,"[V f; U (4, f); ULambda y; U (3, w); T (128, c); Hoist_vars [c]; T (7, x);   T (3, h); T (4, f); T (1, c); T (2, x);   Lambda_apply y [((Iter 2), (Arg 4)); ((Iter 1), (Arg 6))]; T (1, f)]"
60.7,864791,172907,13741056,377856,"[V f; U (4, f); ULambda y; U (3, w); T (128, c); Hoist_vars [c]; T (7, x);   T (3, h); T (2, f); T (1, c); T (2, x);   Lambda_apply y [((Iter 2), (Arg 4)); ((Iter 1), (Arg 6))]; T (2, f)]"
60.4,864137,182040,13741056,377856,"[V f; U (4, f); ULambda y; U (3, w); T (128, c); Hoist_vars [c]; T (7, x);   T (3, h); T (1, f); T (1, c); T (2, x);   Lambda_apply y [((Iter 2), (Arg 4)); ((Iter 1), (Arg 6))]; T (4, f)]"
48.3,839921,337770,13741056,6343680,"[V f; U (4, f); ULambda y; U (3, w); T (128, c); Hoist_vars [c]; T (2, x);   T (3, h); T (4, f); T (1, c); T (7, x);   Lambda_apply y [((Iter 2), (Arg 4)); ((Iter 1), (Arg 6))]; T (1, f)]"
46.0,844320,369507,13741056,377856,"[V f; U (4, f); ULambda y; U (3, w); T (128, c); Hoist_vars [c]; T (2, x);   T (3, h); T (2, f); T (1, c); T (7, x);   Lambda_apply y [((Iter 2), (Arg 4)); ((Iter 1), (Arg 6))]; T (2, f)]"
42.6,850055,400255,13741056,377856,"[V f; U (4, f); ULambda y; U (3, w); T (128, c); Hoist_vars [c]; T (2, x);   T (3, h); T (1, f); T (1, c); T (7, x);   Lambda_apply y [((Iter 2), (Arg 4)); ((Iter 1), (Arg 6))]; T (4, f)]"
37.3,829223,580006,13741056,12579840,"[V f; U (4, f); ULambda y; U (3, w); T (128, c); Hoist_vars [c]; T (1, x);   T (3, h); T (4, f); T (1, c); T (14, x);   Lambda_apply y [((Iter 2), (Arg 4)); ((Iter 1), (Arg 6))]; T (1, f)]"
33.1,836079,618859,13741056,377856,"[V f; U (4, f); ULambda y; U (3, w); T (128, c); Hoist_vars [c]; T (1, x);   T (3, h); T (2, f); T (1, c); T (14, x);   Lambda_apply y [((Iter 2), (Arg 4)); ((Iter 1), (Arg 6))]; T (2, f)]"
34.4,839153,628036,13741056,377856,"[V f; U (4, f); ULambda y; U (3, w); T (128, c); Hoist_vars [c]; T (1, x);   T (3, h); T (1, f); T (1, c); T (14, x);   Lambda_apply y [((Iter 2), (Arg 4)); ((Iter 1), (Arg 6))]; T (4, f)]"
