IdRun;MethodParallelization;NameConv;Time(ms);std;NbMicroKernel;AxeFuse1;SizeAxeFuse1;order1;AxeFuse2;SizeAxeFuse2;order2;Schema;Time_search
0;0;ResNet18_07;0.23776059999999996;0.0024398372978540993;1;axe_xx1_0;14;axe_out_channels1_0,axe_yy1_0,axe_out_channels1_1,axe_in_channels1_0,axe_xx1_0,axe_w1_0,axe_h1_0,axe_xx1_1,axe_yy1_1,axe_in_channels1_1,axe_out_channels1_2;;;;F:1, Y:1, F:8, C:4, X:14, W:3, H:3, X:1, Y:14, C:32, F:32, ;2.5901296138763428
0;1;ResNet18_07;0.2356484;0.0013992212262540914;1;axe_out_channels1_0,axe_yy1_0,axe_out_channels1_1,axe_xx1_0;112;axe_out_channels1_0,axe_yy1_0,axe_out_channels1_1,axe_xx1_0,axe_in_channels1_0,axe_w1_0,axe_h1_0,axe_xx1_1,axe_yy1_1,axe_in_channels1_1,axe_out_channels1_2;;;;F:1, Y:1, F:8, C:4, X:14, W:3, H:3, X:1, Y:14, C:32, F:32, ;3.577570676803589
0;2;ResNet18_07;0.26654659999999997;0.0016445705336044412;1;axe_out_channels1_0,axe_yy1_0,axe_out_channels1_1,axe_xx1_0;112;axe_in_channels1_0,axe_out_channels1_0,axe_yy1_0,axe_out_channels1_1,axe_xx1_0,axe_w1_0,axe_h1_0,axe_xx1_1,axe_yy1_1,axe_in_channels1_1,axe_out_channels1_2;;;;F:1, Y:1, F:8, C:4, X:14, W:3, H:3, X:1, Y:14, C:32, F:32, ;4.575185298919678
1;0;ResNet18_07;0.49603480000000005;0.04128971682828545;1;axe_xx1_0;14;axe_out_channels1_0,axe_yy1_0,axe_out_channels1_1,axe_in_channels1_0,axe_xx1_0,axe_w1_0,axe_h1_0,axe_xx1_1,axe_yy1_1,axe_in_channels1_1,axe_out_channels1_2;;;;F:2, Y:1, F:4, C:4, X:14, W:3, H:3, X:1, Y:14, C:32, F:32, ;5.625290155410767
1;1;ResNet18_07;0.23832950000000003;0.0035735000559675347;1;axe_out_channels1_0,axe_yy1_0,axe_out_channels1_1,axe_xx1_0;112;axe_out_channels1_0,axe_yy1_0,axe_out_channels1_1,axe_xx1_0,axe_in_channels1_0,axe_w1_0,axe_h1_0,axe_xx1_1,axe_yy1_1,axe_in_channels1_1,axe_out_channels1_2;;;;F:2, Y:1, F:4, C:4, X:14, W:3, H:3, X:1, Y:14, C:32, F:32, ;6.623401165008545
1;2;ResNet18_07;0.13304480000000002;0.002063964767141146;1;axe_out_channels1_0,axe_yy1_0,axe_out_channels1_1,axe_xx1_0;112;axe_in_channels1_0,axe_out_channels1_0,axe_yy1_0,axe_out_channels1_1,axe_xx1_0,axe_w1_0,axe_h1_0,axe_xx1_1,axe_yy1_1,axe_in_channels1_1,axe_out_channels1_2;;;;F:2, Y:1, F:4, C:4, X:14, W:3, H:3, X:1, Y:14, C:32, F:32, ;7.594131708145142
2;0;ResNet18_07;0.23751799999999998;0.0007884037036950058;1;axe_xx1_0;14;axe_out_channels1_0,axe_yy1_0,axe_out_channels1_1,axe_in_channels1_0,axe_xx1_0,axe_w1_0,axe_h1_0,axe_xx1_1,axe_yy1_1,axe_in_channels1_1,axe_out_channels1_2;;;;F:4, Y:1, F:2, C:4, X:14, W:3, H:3, X:1, Y:14, C:32, F:32, ;8.595767259597778
2;1;ResNet18_07;0.1175856;0.00031665729108927695;1;axe_out_channels1_0,axe_yy1_0,axe_out_channels1_1,axe_xx1_0;112;axe_out_channels1_0,axe_yy1_0,axe_out_channels1_1,axe_xx1_0,axe_in_channels1_0,axe_w1_0,axe_h1_0,axe_xx1_1,axe_yy1_1,axe_in_channels1_1,axe_out_channels1_2;;;;F:4, Y:1, F:2, C:4, X:14, W:3, H:3, X:1, Y:14, C:32, F:32, ;9.556051015853882
2;2;ResNet18_07;0.13242230000000002;0.0006011008318077763;1;axe_out_channels1_0,axe_yy1_0,axe_out_channels1_1,axe_xx1_0;112;axe_in_channels1_0,axe_out_channels1_0,axe_yy1_0,axe_out_channels1_1,axe_xx1_0,axe_w1_0,axe_h1_0,axe_xx1_1,axe_yy1_1,axe_in_channels1_1,axe_out_channels1_2;;;;F:4, Y:1, F:2, C:4, X:14, W:3, H:3, X:1, Y:14, C:32, F:32, ;10.54344916343689
3;0;ResNet18_07;0.5176877999999999;0.0009508328770083694;1;axe_xx1_0;14;axe_out_channels1_0,axe_yy1_0,axe_out_channels1_1,axe_in_channels1_0,axe_xx1_0,axe_w1_0,axe_h1_0,axe_xx1_1,axe_yy1_1,axe_in_channels1_1,axe_out_channels1_2;;;;F:8, Y:1, F:1, C:4, X:14, W:3, H:3, X:1, Y:14, C:32, F:32, ;11.564578771591187
3;1;ResNet18_07;0.11719120000000001;0.0002151063922806566;1;axe_out_channels1_0,axe_yy1_0,axe_out_channels1_1,axe_xx1_0;112;axe_out_channels1_0,axe_yy1_0,axe_out_channels1_1,axe_xx1_0,axe_in_channels1_0,axe_w1_0,axe_h1_0,axe_xx1_1,axe_yy1_1,axe_in_channels1_1,axe_out_channels1_2;;;;F:8, Y:1, F:1, C:4, X:14, W:3, H:3, X:1, Y:14, C:32, F:32, ;12.523085117340088
3;2;ResNet18_07;0.1325218;0.00048130111157154243;1;axe_out_channels1_0,axe_yy1_0,axe_out_channels1_1,axe_xx1_0;112;axe_in_channels1_0,axe_out_channels1_0,axe_yy1_0,axe_out_channels1_1,axe_xx1_0,axe_w1_0,axe_h1_0,axe_xx1_1,axe_yy1_1,axe_in_channels1_1,axe_out_channels1_2;;;;F:8, Y:1, F:1, C:4, X:14, W:3, H:3, X:1, Y:14, C:32, F:32, ;13.495982885360718
4;0;ResNet18_07;0.3168394;0.0007542034473535716;1;axe_xx1_0;14;axe_out_channels1_0,axe_yy1_0,axe_out_channels1_1,axe_in_channels1_0,axe_xx1_0,axe_w1_0,axe_h1_0,axe_xx1_1,axe_yy1_1,axe_in_channels1_1,axe_out_channels1_2;;;;F:1, Y:1, F:8, C:8, X:14, W:3, H:3, X:1, Y:14, C:16, F:32, ;14.514670133590698
4;1;ResNet18_07;0.12054450000000001;0.000549535121716526;1;axe_out_channels1_0,axe_yy1_0,axe_out_channels1_1,axe_xx1_0;112;axe_out_channels1_0,axe_yy1_0,axe_out_channels1_1,axe_xx1_0,axe_in_channels1_0,axe_w1_0,axe_h1_0,axe_xx1_1,axe_yy1_1,axe_in_channels1_1,axe_out_channels1_2;;;;F:1, Y:1, F:8, C:8, X:14, W:3, H:3, X:1, Y:14, C:16, F:32, ;15.493353366851807
4;2;ResNet18_07;0.1486084;0.0006461170482195899;1;axe_out_channels1_0,axe_yy1_0,axe_out_channels1_1,axe_xx1_0;112;axe_in_channels1_0,axe_out_channels1_0,axe_yy1_0,axe_out_channels1_1,axe_xx1_0,axe_w1_0,axe_h1_0,axe_xx1_1,axe_yy1_1,axe_in_channels1_1,axe_out_channels1_2;;;;F:1, Y:1, F:8, C:8, X:14, W:3, H:3, X:1, Y:14, C:16, F:32, ;16.46934700012207
5;0;ResNet18_07;0.7171482;0.04907386523558135;1;axe_xx1_0;14;axe_out_channels1_0,axe_yy1_0,axe_out_channels1_1,axe_in_channels1_0,axe_xx1_0,axe_w1_0,axe_h1_0,axe_xx1_1,axe_yy1_1,axe_in_channels1_1,axe_out_channels1_2;;;;F:2, Y:1, F:4, C:8, X:14, W:3, H:3, X:1, Y:14, C:16, F:32, ;17.50127124786377
5;1;ResNet18_07;0.2415898;0.001513794754912307;1;axe_out_channels1_0,axe_yy1_0,axe_out_channels1_1,axe_xx1_0;112;axe_out_channels1_0,axe_yy1_0,axe_out_channels1_1,axe_xx1_0,axe_in_channels1_0,axe_w1_0,axe_h1_0,axe_xx1_1,axe_yy1_1,axe_in_channels1_1,axe_out_channels1_2;;;;F:2, Y:1, F:4, C:8, X:14, W:3, H:3, X:1, Y:14, C:16, F:32, ;18.489734888076782
5;2;ResNet18_07;0.14879389999999998;0.0012586060900853712;1;axe_out_channels1_0,axe_yy1_0,axe_out_channels1_1,axe_xx1_0;112;axe_in_channels1_0,axe_out_channels1_0,axe_yy1_0,axe_out_channels1_1,axe_xx1_0,axe_w1_0,axe_h1_0,axe_xx1_1,axe_yy1_1,axe_in_channels1_1,axe_out_channels1_2;;;;F:2, Y:1, F:4, C:8, X:14, W:3, H:3, X:1, Y:14, C:16, F:32, ;19.46842646598816
6;0;ResNet18_07;0.7365989;0.0017495935213643235;1;axe_xx1_0;14;axe_out_channels1_0,axe_yy1_0,axe_out_channels1_1,axe_in_channels1_0,axe_xx1_0,axe_w1_0,axe_h1_0,axe_xx1_1,axe_yy1_1,axe_in_channels1_1,axe_out_channels1_2;;;;F:4, Y:1, F:2, C:8, X:14, W:3, H:3, X:1, Y:14, C:16, F:32, ;20.501209020614624
6;1;ResNet18_07;0.176873;0.053718102196559404;1;axe_out_channels1_0,axe_yy1_0,axe_out_channels1_1,axe_xx1_0;112;axe_out_channels1_0,axe_yy1_0,axe_out_channels1_1,axe_xx1_0,axe_in_channels1_0,axe_w1_0,axe_h1_0,axe_xx1_1,axe_yy1_1,axe_in_channels1_1,axe_out_channels1_2;;;;F:4, Y:1, F:2, C:8, X:14, W:3, H:3, X:1, Y:14, C:16, F:32, ;21.491785049438477
6;2;ResNet18_07;0.149678;0.0012420682750960185;1;axe_out_channels1_0,axe_yy1_0,axe_out_channels1_1,axe_xx1_0;112;axe_in_channels1_0,axe_out_channels1_0,axe_yy1_0,axe_out_channels1_1,axe_xx1_0,axe_w1_0,axe_h1_0,axe_xx1_1,axe_yy1_1,axe_in_channels1_1,axe_out_channels1_2;;;;F:4, Y:1, F:2, C:8, X:14, W:3, H:3, X:1, Y:14, C:16, F:32, ;22.473405361175537
7;0;ResNet18_07;0.3172916;0.0010813584234656052;1;axe_xx1_0;14;axe_out_channels1_0,axe_yy1_0,axe_out_channels1_1,axe_in_channels1_0,axe_xx1_0,axe_w1_0,axe_h1_0,axe_xx1_1,axe_yy1_1,axe_in_channels1_1,axe_out_channels1_2;;;;F:8, Y:1, F:1, C:8, X:14, W:3, H:3, X:1, Y:14, C:16, F:32, ;23.49992060661316
7;1;ResNet18_07;0.23859850000000002;0.0015661349399077992;1;axe_out_channels1_0,axe_yy1_0,axe_out_channels1_1,axe_xx1_0;112;axe_out_channels1_0,axe_yy1_0,axe_out_channels1_1,axe_xx1_0,axe_in_channels1_0,axe_w1_0,axe_h1_0,axe_xx1_1,axe_yy1_1,axe_in_channels1_1,axe_out_channels1_2;;;;F:8, Y:1, F:1, C:8, X:14, W:3, H:3, X:1, Y:14, C:16, F:32, ;24.485664129257202
7;2;ResNet18_07;0.27366820000000003;0.0014154613240919005;1;axe_out_channels1_0,axe_yy1_0,axe_out_channels1_1,axe_xx1_0;112;axe_in_channels1_0,axe_out_channels1_0,axe_yy1_0,axe_out_channels1_1,axe_xx1_0,axe_w1_0,axe_h1_0,axe_xx1_1,axe_yy1_1,axe_in_channels1_1,axe_out_channels1_2;;;;F:8, Y:1, F:1, C:8, X:14, W:3, H:3, X:1, Y:14, C:16, F:32, ;25.491076469421387
8;0;ResNet18_07;0.1963045;0.00043331587785356136;1;axe_xx1_0;14;axe_out_channels1_0,axe_yy1_0,axe_out_channels1_1,axe_in_channels1_0,axe_xx1_0,axe_w1_0,axe_h1_0,axe_xx1_1,axe_yy1_1,axe_in_channels1_1,axe_out_channels1_2;;;;F:1, Y:1, F:8, C:2, X:14, W:3, H:3, X:1, Y:14, C:64, F:32, ;26.485737800598145
8;1;ResNet18_07;0.23408029999999996;0.0005635311970068736;1;axe_out_channels1_0,axe_yy1_0,axe_out_channels1_1,axe_xx1_0;112;axe_out_channels1_0,axe_yy1_0,axe_out_channels1_1,axe_xx1_0,axe_in_channels1_0,axe_w1_0,axe_h1_0,axe_xx1_1,axe_yy1_1,axe_in_channels1_1,axe_out_channels1_2;;;;F:1, Y:1, F:8, C:2, X:14, W:3, H:3, X:1, Y:14, C:64, F:32, ;27.48152995109558
8;2;ResNet18_07;0.12393470000000002;0.0003995805425693324;1;axe_out_channels1_0,axe_yy1_0,axe_out_channels1_1,axe_xx1_0;112;axe_in_channels1_0,axe_out_channels1_0,axe_yy1_0,axe_out_channels1_1,axe_xx1_0,axe_w1_0,axe_h1_0,axe_xx1_1,axe_yy1_1,axe_in_channels1_1,axe_out_channels1_2;;;;F:1, Y:1, F:8, C:2, X:14, W:3, H:3, X:1, Y:14, C:64, F:32, ;28.490827560424805
9;0;ResNet18_07;0.196376;0.00027866718500749356;1;axe_xx1_0;14;axe_out_channels1_0,axe_yy1_0,axe_out_channels1_1,axe_in_channels1_0,axe_xx1_0,axe_w1_0,axe_h1_0,axe_xx1_1,axe_yy1_1,axe_in_channels1_1,axe_out_channels1_2;;;;F:2, Y:1, F:4, C:2, X:14, W:3, H:3, X:1, Y:14, C:64, F:32, ;29.465831995010376
9;1;ResNet18_07;0.1166941;0.00025653633270942454;1;axe_out_channels1_0,axe_yy1_0,axe_out_channels1_1,axe_xx1_0;112;axe_out_channels1_0,axe_yy1_0,axe_out_channels1_1,axe_xx1_0,axe_in_channels1_0,axe_w1_0,axe_h1_0,axe_xx1_1,axe_yy1_1,axe_in_channels1_1,axe_out_channels1_2;;;;F:2, Y:1, F:4, C:2, X:14, W:3, H:3, X:1, Y:14, C:64, F:32, ;30.435873985290527
9;2;ResNet18_07;0.24048039999999998;0.00022028399851100957;1;axe_out_channels1_0,axe_yy1_0,axe_out_channels1_1,axe_xx1_0;112;axe_in_channels1_0,axe_out_channels1_0,axe_yy1_0,axe_out_channels1_1,axe_xx1_0,axe_w1_0,axe_h1_0,axe_xx1_1,axe_yy1_1,axe_in_channels1_1,axe_out_channels1_2;;;;F:2, Y:1, F:4, C:2, X:14, W:3, H:3, X:1, Y:14, C:64, F:32, ;31.425617456436157
10;0;ResNet18_07;0.1972319;0.00027359512057052233;1;axe_xx1_0;14;axe_out_channels1_0,axe_yy1_0,axe_out_channels1_1,axe_in_channels1_0,axe_xx1_0,axe_w1_0,axe_h1_0,axe_xx1_1,axe_yy1_1,axe_in_channels1_1,axe_out_channels1_2;;;;F:4, Y:1, F:2, C:2, X:14, W:3, H:3, X:1, Y:14, C:64, F:32, ;32.40097260475159
10;1;ResNet18_07;0.23509699999999997;0.002527451601910506;1;axe_out_channels1_0,axe_yy1_0,axe_out_channels1_1,axe_xx1_0;112;axe_out_channels1_0,axe_yy1_0,axe_out_channels1_1,axe_xx1_0,axe_in_channels1_0,axe_w1_0,axe_h1_0,axe_xx1_1,axe_yy1_1,axe_in_channels1_1,axe_out_channels1_2;;;;F:4, Y:1, F:2, C:2, X:14, W:3, H:3, X:1, Y:14, C:64, F:32, ;33.39356064796448
10;2;ResNet18_07;0.1236148;0.0002172950988862788;1;axe_out_channels1_0,axe_yy1_0,axe_out_channels1_1,axe_xx1_0;112;axe_in_channels1_0,axe_out_channels1_0,axe_yy1_0,axe_out_channels1_1,axe_xx1_0,axe_w1_0,axe_h1_0,axe_xx1_1,axe_yy1_1,axe_in_channels1_1,axe_out_channels1_2;;;;F:4, Y:1, F:2, C:2, X:14, W:3, H:3, X:1, Y:14, C:64, F:32, ;34.37302279472351
11;0;ResNet18_07;0.4236624;0.0006869707708483664;1;axe_xx1_0;14;axe_out_channels1_0,axe_yy1_0,axe_out_channels1_1,axe_in_channels1_0,axe_xx1_0,axe_w1_0,axe_h1_0,axe_xx1_1,axe_yy1_1,axe_in_channels1_1,axe_out_channels1_2;;;;F:8, Y:1, F:1, C:2, X:14, W:3, H:3, X:1, Y:14, C:64, F:32, ;35.39727973937988
11;1;ResNet18_07;0.234249;0.002009686393445508;1;axe_out_channels1_0,axe_yy1_0,axe_out_channels1_1,axe_xx1_0;112;axe_out_channels1_0,axe_yy1_0,axe_out_channels1_1,axe_xx1_0,axe_in_channels1_0,axe_w1_0,axe_h1_0,axe_xx1_1,axe_yy1_1,axe_in_channels1_1,axe_out_channels1_2;;;;F:8, Y:1, F:1, C:2, X:14, W:3, H:3, X:1, Y:14, C:64, F:32, ;36.41751956939697
11;2;ResNet18_07;0.2405504;0.0002134803035410997;1;axe_out_channels1_0,axe_yy1_0,axe_out_channels1_1,axe_xx1_0;112;axe_in_channels1_0,axe_out_channels1_0,axe_yy1_0,axe_out_channels1_1,axe_xx1_0,axe_w1_0,axe_h1_0,axe_xx1_1,axe_yy1_1,axe_in_channels1_1,axe_out_channels1_2;;;;F:8, Y:1, F:1, C:2, X:14, W:3, H:3, X:1, Y:14, C:64, F:32, ;37.42158341407776
12;0;ResNet18_07;0.2681568;0.0006604446683863869;1;axe_xx1_0;14;axe_out_channels1_0,axe_yy1_0,axe_out_channels1_1,axe_in_channels1_0,axe_xx1_0,axe_w1_0,axe_h1_0,axe_xx1_1,axe_yy1_1,axe_in_channels1_1,axe_out_channels1_2;;;;F:1, Y:2, F:4, C:4, X:14, W:3, H:3, X:1, Y:7, C:32, F:64, ;38.39865732192993
12;1;ResNet18_07;0.13545590000000002;0.0017047092684677907;1;axe_out_channels1_0,axe_yy1_0,axe_out_channels1_1,axe_xx1_0;112;axe_out_channels1_0,axe_yy1_0,axe_out_channels1_1,axe_xx1_0,axe_in_channels1_0,axe_w1_0,axe_h1_0,axe_xx1_1,axe_yy1_1,axe_in_channels1_1,axe_out_channels1_2;;;;F:1, Y:2, F:4, C:4, X:14, W:3, H:3, X:1, Y:7, C:32, F:64, ;39.39376354217529
12;2;ResNet18_07;0.26742079999999996;0.0043254329910426305;1;axe_out_channels1_0,axe_yy1_0,axe_out_channels1_1,axe_xx1_0;112;axe_in_channels1_0,axe_out_channels1_0,axe_yy1_0,axe_out_channels1_1,axe_xx1_0,axe_w1_0,axe_h1_0,axe_xx1_1,axe_yy1_1,axe_in_channels1_1,axe_out_channels1_2;;;;F:1, Y:2, F:4, C:4, X:14, W:3, H:3, X:1, Y:7, C:32, F:64, ;40.378780126571655
13;0;ResNet18_07;0.2666117;0.0007222473329822794;1;axe_xx1_0;14;axe_out_channels1_0,axe_yy1_0,axe_out_channels1_1,axe_in_channels1_0,axe_xx1_0,axe_w1_0,axe_h1_0,axe_xx1_1,axe_yy1_1,axe_in_channels1_1,axe_out_channels1_2;;;;F:2, Y:2, F:2, C:4, X:14, W:3, H:3, X:1, Y:7, C:32, F:64, ;41.37475109100342
13;1;ResNet18_07;0.2435108;0.0013299864510588086;1;axe_out_channels1_0,axe_yy1_0,axe_out_channels1_1,axe_xx1_0;112;axe_out_channels1_0,axe_yy1_0,axe_out_channels1_1,axe_xx1_0,axe_in_channels1_0,axe_w1_0,axe_h1_0,axe_xx1_1,axe_yy1_1,axe_in_channels1_1,axe_out_channels1_2;;;;F:2, Y:2, F:2, C:4, X:14, W:3, H:3, X:1, Y:7, C:32, F:64, ;42.36228609085083
13;2;ResNet18_07;0.2675151;0.002296148141997816;1;axe_out_channels1_0,axe_yy1_0,axe_out_channels1_1,axe_xx1_0;112;axe_in_channels1_0,axe_out_channels1_0,axe_yy1_0,axe_out_channels1_1,axe_xx1_0,axe_w1_0,axe_h1_0,axe_xx1_1,axe_yy1_1,axe_in_channels1_1,axe_out_channels1_2;;;;F:2, Y:2, F:2, C:4, X:14, W:3, H:3, X:1, Y:7, C:32, F:64, ;43.37083959579468
14;0;ResNet18_07;0.5491955;0.0570321085814824;1;axe_xx1_0;14;axe_out_channels1_0,axe_yy1_0,axe_out_channels1_1,axe_in_channels1_0,axe_xx1_0,axe_w1_0,axe_h1_0,axe_xx1_1,axe_yy1_1,axe_in_channels1_1,axe_out_channels1_2;;;;F:4, Y:2, F:1, C:4, X:14, W:3, H:3, X:1, Y:7, C:32, F:64, ;44.37412977218628
14;1;ResNet18_07;0.24536040000000003;0.0028319209099125706;1;axe_out_channels1_0,axe_yy1_0,axe_out_channels1_1,axe_xx1_0;112;axe_out_channels1_0,axe_yy1_0,axe_out_channels1_1,axe_xx1_0,axe_in_channels1_0,axe_w1_0,axe_h1_0,axe_xx1_1,axe_yy1_1,axe_in_channels1_1,axe_out_channels1_2;;;;F:4, Y:2, F:1, C:4, X:14, W:3, H:3, X:1, Y:7, C:32, F:64, ;45.350329875946045
14;2;ResNet18_07;0.15024600000000002;0.003915518765119121;1;axe_out_channels1_0,axe_yy1_0,axe_out_channels1_1,axe_xx1_0;112;axe_in_channels1_0,axe_out_channels1_0,axe_yy1_0,axe_out_channels1_1,axe_xx1_0,axe_w1_0,axe_h1_0,axe_xx1_1,axe_yy1_1,axe_in_channels1_1,axe_out_channels1_2;;;;F:4, Y:2, F:1, C:4, X:14, W:3, H:3, X:1, Y:7, C:32, F:64, ;46.32895517349243
15;0;ResNet18_07;0.2869227;0.0015516783204002017;1;axe_xx1_0;14;axe_out_channels1_0,axe_yy1_0,axe_out_channels1_1,axe_in_channels1_0,axe_xx1_0,axe_w1_0,axe_h1_0,axe_xx1_1,axe_yy1_1,axe_in_channels1_1,axe_out_channels1_2;;;;F:1, Y:2, F:4, C:4, X:14, W:3, H:3, X:1, Y:7, C:32, F:64, ;47.38378167152405
15;1;ResNet18_07;0.2741537;0.002510947592045678;1;axe_out_channels1_0,axe_yy1_0,axe_out_channels1_1,axe_xx1_0;112;axe_out_channels1_0,axe_yy1_0,axe_out_channels1_1,axe_xx1_0,axe_in_channels1_0,axe_w1_0,axe_h1_0,axe_xx1_1,axe_yy1_1,axe_in_channels1_1,axe_out_channels1_2;;;;F:1, Y:2, F:4, C:4, X:14, W:3, H:3, X:1, Y:7, C:32, F:64, ;48.39953327178955
15;2;ResNet18_07;0.2958929;0.0018488471786494403;1;axe_out_channels1_0,axe_yy1_0,axe_out_channels1_1,axe_xx1_0;112;axe_in_channels1_0,axe_out_channels1_0,axe_yy1_0,axe_out_channels1_1,axe_xx1_0,axe_w1_0,axe_h1_0,axe_xx1_1,axe_yy1_1,axe_in_channels1_1,axe_out_channels1_2;;;;F:1, Y:2, F:4, C:4, X:14, W:3, H:3, X:1, Y:7, C:32, F:64, ;49.42805457115173
16;0;ResNet18_07;0.5824431999999999;0.06589748252672482;1;axe_xx1_0;14;axe_out_channels1_0,axe_yy1_0,axe_out_channels1_1,axe_in_channels1_0,axe_xx1_0,axe_w1_0,axe_h1_0,axe_xx1_1,axe_yy1_1,axe_in_channels1_1,axe_out_channels1_2;;;;F:2, Y:2, F:2, C:4, X:14, W:3, H:3, X:1, Y:7, C:32, F:64, ;50.484944581985474
16;1;ResNet18_07;0.15309140000000002;0.004062074179529469;1;axe_out_channels1_0,axe_yy1_0,axe_out_channels1_1,axe_xx1_0;112;axe_out_channels1_0,axe_yy1_0,axe_out_channels1_1,axe_xx1_0,axe_in_channels1_0,axe_w1_0,axe_h1_0,axe_xx1_1,axe_yy1_1,axe_in_channels1_1,axe_out_channels1_2;;;;F:2, Y:2, F:2, C:4, X:14, W:3, H:3, X:1, Y:7, C:32, F:64, ;51.47803711891174
16;2;ResNet18_07;0.16513150000000001;0.002283718119646113;1;axe_out_channels1_0,axe_yy1_0,axe_out_channels1_1,axe_xx1_0;112;axe_in_channels1_0,axe_out_channels1_0,axe_yy1_0,axe_out_channels1_1,axe_xx1_0,axe_w1_0,axe_h1_0,axe_xx1_1,axe_yy1_1,axe_in_channels1_1,axe_out_channels1_2;;;;F:2, Y:2, F:2, C:4, X:14, W:3, H:3, X:1, Y:7, C:32, F:64, ;52.47127866744995
17;0;ResNet18_07;0.2817082;0.0011278798517572858;1;axe_xx1_0;14;axe_out_channels1_0,axe_yy1_0,axe_out_channels1_1,axe_in_channels1_0,axe_xx1_0,axe_w1_0,axe_h1_0,axe_xx1_1,axe_yy1_1,axe_in_channels1_1,axe_out_channels1_2;;;;F:4, Y:2, F:1, C:4, X:14, W:3, H:3, X:1, Y:7, C:32, F:64, ;53.485950231552124
17;1;ResNet18_07;0.28511610000000004;0.008206101406270826;1;axe_out_channels1_0,axe_yy1_0,axe_out_channels1_1,axe_xx1_0;112;axe_out_channels1_0,axe_yy1_0,axe_out_channels1_1,axe_xx1_0,axe_in_channels1_0,axe_w1_0,axe_h1_0,axe_xx1_1,axe_yy1_1,axe_in_channels1_1,axe_out_channels1_2;;;;F:4, Y:2, F:1, C:4, X:14, W:3, H:3, X:1, Y:7, C:32, F:64, ;54.51877498626709
17;2;ResNet18_07;0.2760789;0.06692124497713711;1;axe_out_channels1_0,axe_yy1_0,axe_out_channels1_1,axe_xx1_0;112;axe_in_channels1_0,axe_out_channels1_0,axe_yy1_0,axe_out_channels1_1,axe_xx1_0,axe_w1_0,axe_h1_0,axe_xx1_1,axe_yy1_1,axe_in_channels1_1,axe_out_channels1_2;;;;F:4, Y:2, F:1, C:4, X:14, W:3, H:3, X:1, Y:7, C:32, F:64, ;55.531749963760376
18;0;ResNet18_07;0.2597942;0.0007362474855644544;1;axe_xx1_0;14;axe_out_channels1_0,axe_yy1_0,axe_out_channels1_1,axe_in_channels1_0,axe_xx1_0,axe_w1_0,axe_h1_0,axe_xx1_1,axe_yy1_1,axe_in_channels1_1,axe_out_channels1_2;;;;F:1, Y:2, F:4, C:4, X:14, W:3, H:3, X:1, Y:7, C:32, F:64, ;56.57367134094238
18;1;ResNet18_07;0.12412039999999999;0.001439870216373683;1;axe_out_channels1_0,axe_yy1_0,axe_out_channels1_1,axe_xx1_0;112;axe_out_channels1_0,axe_yy1_0,axe_out_channels1_1,axe_xx1_0,axe_in_channels1_0,axe_w1_0,axe_h1_0,axe_xx1_1,axe_yy1_1,axe_in_channels1_1,axe_out_channels1_2;;;;F:1, Y:2, F:4, C:4, X:14, W:3, H:3, X:1, Y:7, C:32, F:64, ;57.581658124923706
18;2;ResNet18_07;0.14635360000000003;0.0022634761408064368;1;axe_out_channels1_0,axe_yy1_0,axe_out_channels1_1,axe_xx1_0;112;axe_in_channels1_0,axe_out_channels1_0,axe_yy1_0,axe_out_channels1_1,axe_xx1_0,axe_w1_0,axe_h1_0,axe_xx1_1,axe_yy1_1,axe_in_channels1_1,axe_out_channels1_2;;;;F:1, Y:2, F:4, C:4, X:14, W:3, H:3, X:1, Y:7, C:32, F:64, ;58.580317974090576
19;0;ResNet18_07;0.26641980000000004;0.0009879375283893227;1;axe_xx1_0;14;axe_out_channels1_0,axe_yy1_0,axe_out_channels1_1,axe_in_channels1_0,axe_xx1_0,axe_w1_0,axe_h1_0,axe_xx1_1,axe_yy1_1,axe_in_channels1_1,axe_out_channels1_2;;;;F:2, Y:2, F:2, C:4, X:14, W:3, H:3, X:1, Y:7, C:32, F:64, ;59.60631990432739
19;1;ResNet18_07;0.2386019;0.001628330338107111;1;axe_out_channels1_0,axe_yy1_0,axe_out_channels1_1,axe_xx1_0;112;axe_out_channels1_0,axe_yy1_0,axe_out_channels1_1,axe_xx1_0,axe_in_channels1_0,axe_w1_0,axe_h1_0,axe_xx1_1,axe_yy1_1,axe_in_channels1_1,axe_out_channels1_2;;;;F:2, Y:2, F:2, C:4, X:14, W:3, H:3, X:1, Y:7, C:32, F:64, ;60.63392210006714
19;2;ResNet18_07;0.2693999;0.001963935663406514;1;axe_out_channels1_0,axe_yy1_0,axe_out_channels1_1,axe_xx1_0;112;axe_in_channels1_0,axe_out_channels1_0,axe_yy1_0,axe_out_channels1_1,axe_xx1_0,axe_w1_0,axe_h1_0,axe_xx1_1,axe_yy1_1,axe_in_channels1_1,axe_out_channels1_2;;;;F:2, Y:2, F:2, C:4, X:14, W:3, H:3, X:1, Y:7, C:32, F:64, ;61.65091300010681
20;0;ResNet18_07;0.5308117000000001;0.07113162070563273;1;axe_xx1_0;14;axe_out_channels1_0,axe_yy1_0,axe_out_channels1_1,axe_in_channels1_0,axe_xx1_0,axe_w1_0,axe_h1_0,axe_xx1_1,axe_yy1_1,axe_in_channels1_1,axe_out_channels1_2;;;;F:4, Y:2, F:1, C:4, X:14, W:3, H:3, X:1, Y:7, C:32, F:64, ;62.677900314331055
20;1;ResNet18_07;0.24366910000000003;0.001861708594275704;1;axe_out_channels1_0,axe_yy1_0,axe_out_channels1_1,axe_xx1_0;112;axe_out_channels1_0,axe_yy1_0,axe_out_channels1_1,axe_xx1_0,axe_in_channels1_0,axe_w1_0,axe_h1_0,axe_xx1_1,axe_yy1_1,axe_in_channels1_1,axe_out_channels1_2;;;;F:4, Y:2, F:1, C:4, X:14, W:3, H:3, X:1, Y:7, C:32, F:64, ;63.68621110916138
20;2;ResNet18_07;0.1439784;0.0018914766295146266;1;axe_out_channels1_0,axe_yy1_0,axe_out_channels1_1,axe_xx1_0;112;axe_in_channels1_0,axe_out_channels1_0,axe_yy1_0,axe_out_channels1_1,axe_xx1_0,axe_w1_0,axe_h1_0,axe_xx1_1,axe_yy1_1,axe_in_channels1_1,axe_out_channels1_2;;;;F:4, Y:2, F:1, C:4, X:14, W:3, H:3, X:1, Y:7, C:32, F:64, ;64.68834638595581
21;0;ResNet18_07;0.2727695;0.0008523612203754985;1;axe_out_channels1_0,axe_yy1_0,axe_out_channels1_1;16;axe_out_channels1_0,axe_yy1_0,axe_out_channels1_1,axe_in_channels1_0,axe_xx1_0,axe_w1_0,axe_h1_0,axe_xx1_1,axe_yy1_1,axe_in_channels1_1,axe_out_channels1_2;;;;F:1, Y:1, F:16, C:1, X:14, W:3, H:3, X:1, Y:14, C:128, F:16, ;65.6927421092987
21;1;ResNet18_07;0.12269979999999998;0.00038620429826712716;1;axe_out_channels1_0,axe_yy1_0,axe_out_channels1_1,axe_xx1_0;224;axe_out_channels1_0,axe_yy1_0,axe_out_channels1_1,axe_xx1_0,axe_in_channels1_0,axe_w1_0,axe_h1_0,axe_xx1_1,axe_yy1_1,axe_in_channels1_1,axe_out_channels1_2;;;;F:1, Y:1, F:16, C:1, X:14, W:3, H:3, X:1, Y:14, C:128, F:16, ;66.69950270652771
21;2;ResNet18_07;0.1268482;0.0003372482171932133;1;axe_out_channels1_0,axe_yy1_0,axe_out_channels1_1,axe_xx1_0;224;axe_in_channels1_0,axe_out_channels1_0,axe_yy1_0,axe_out_channels1_1,axe_xx1_0,axe_w1_0,axe_h1_0,axe_xx1_1,axe_yy1_1,axe_in_channels1_1,axe_out_channels1_2;;;;F:1, Y:1, F:16, C:1, X:14, W:3, H:3, X:1, Y:14, C:128, F:16, ;67.68920373916626
22;0;ResNet18_07;0.14116840000000003;0.001150976124860979;1;axe_out_channels1_0,axe_yy1_0,axe_out_channels1_1;16;axe_out_channels1_0,axe_yy1_0,axe_out_channels1_1,axe_in_channels1_0,axe_xx1_0,axe_w1_0,axe_h1_0,axe_xx1_1,axe_yy1_1,axe_in_channels1_1,axe_out_channels1_2;;;;F:2, Y:1, F:8, C:1, X:14, W:3, H:3, X:1, Y:14, C:128, F:16, ;68.68819570541382
22;1;ResNet18_07;0.12333670000000001;0.0004817584560752419;1;axe_out_channels1_0,axe_yy1_0,axe_out_channels1_1,axe_xx1_0;224;axe_out_channels1_0,axe_yy1_0,axe_out_channels1_1,axe_xx1_0,axe_in_channels1_0,axe_w1_0,axe_h1_0,axe_xx1_1,axe_yy1_1,axe_in_channels1_1,axe_out_channels1_2;;;;F:2, Y:1, F:8, C:1, X:14, W:3, H:3, X:1, Y:14, C:128, F:16, ;69.69554567337036
22;2;ResNet18_07;0.2340359;0.0006374540689335891;1;axe_out_channels1_0,axe_yy1_0,axe_out_channels1_1,axe_xx1_0;224;axe_in_channels1_0,axe_out_channels1_0,axe_yy1_0,axe_out_channels1_1,axe_xx1_0,axe_w1_0,axe_h1_0,axe_xx1_1,axe_yy1_1,axe_in_channels1_1,axe_out_channels1_2;;;;F:2, Y:1, F:8, C:1, X:14, W:3, H:3, X:1, Y:14, C:128, F:16, ;70.69463586807251
23;0;ResNet18_07;0.1403683;0.0007211902730902601;1;axe_out_channels1_0,axe_yy1_0,axe_out_channels1_1;16;axe_out_channels1_0,axe_yy1_0,axe_out_channels1_1,axe_in_channels1_0,axe_xx1_0,axe_w1_0,axe_h1_0,axe_xx1_1,axe_yy1_1,axe_in_channels1_1,axe_out_channels1_2;;;;F:4, Y:1, F:4, C:1, X:14, W:3, H:3, X:1, Y:14, C:128, F:16, ;71.65525579452515
23;1;ResNet18_07;0.12287160000000001;0.00031672581202043355;1;axe_out_channels1_0,axe_yy1_0,axe_out_channels1_1,axe_xx1_0;224;axe_out_channels1_0,axe_yy1_0,axe_out_channels1_1,axe_xx1_0,axe_in_channels1_0,axe_w1_0,axe_h1_0,axe_xx1_1,axe_yy1_1,axe_in_channels1_1,axe_out_channels1_2;;;;F:4, Y:1, F:4, C:1, X:14, W:3, H:3, X:1, Y:14, C:128, F:16, ;72.64704942703247
23;2;ResNet18_07;0.1248586;0.0017845486376112012;1;axe_out_channels1_0,axe_yy1_0,axe_out_channels1_1,axe_xx1_0;224;axe_in_channels1_0,axe_out_channels1_0,axe_yy1_0,axe_out_channels1_1,axe_xx1_0,axe_w1_0,axe_h1_0,axe_xx1_1,axe_yy1_1,axe_in_channels1_1,axe_out_channels1_2;;;;F:4, Y:1, F:4, C:1, X:14, W:3, H:3, X:1, Y:14, C:128, F:16, ;73.63321018218994
24;0;ResNet18_07;0.14028079999999998;0.000997551281889806;1;axe_out_channels1_0,axe_yy1_0,axe_out_channels1_1;16;axe_out_channels1_0,axe_yy1_0,axe_out_channels1_1,axe_in_channels1_0,axe_xx1_0,axe_w1_0,axe_h1_0,axe_xx1_1,axe_yy1_1,axe_in_channels1_1,axe_out_channels1_2;;;;F:8, Y:1, F:2, C:1, X:14, W:3, H:3, X:1, Y:14, C:128, F:16, ;74.62567830085754
24;1;ResNet18_07;0.22991389999999998;0.0008576426353674325;1;axe_out_channels1_0,axe_yy1_0,axe_out_channels1_1,axe_xx1_0;224;axe_out_channels1_0,axe_yy1_0,axe_out_channels1_1,axe_xx1_0,axe_in_channels1_0,axe_w1_0,axe_h1_0,axe_xx1_1,axe_yy1_1,axe_in_channels1_1,axe_out_channels1_2;;;;F:8, Y:1, F:2, C:1, X:14, W:3, H:3, X:1, Y:14, C:128, F:16, ;75.61338710784912
24;2;ResNet18_07;0.12469899999999998;0.0019975105506604934;1;axe_out_channels1_0,axe_yy1_0,axe_out_channels1_1,axe_xx1_0;224;axe_in_channels1_0,axe_out_channels1_0,axe_yy1_0,axe_out_channels1_1,axe_xx1_0,axe_w1_0,axe_h1_0,axe_xx1_1,axe_yy1_1,axe_in_channels1_1,axe_out_channels1_2;;;;F:8, Y:1, F:2, C:1, X:14, W:3, H:3, X:1, Y:14, C:128, F:16, ;76.5931568145752
25;0;ResNet18_07;0.2622104;0.0010103709417832662;1;axe_out_channels1_0,axe_yy1_0,axe_out_channels1_1;16;axe_out_channels1_0,axe_yy1_0,axe_out_channels1_1,axe_in_channels1_0,axe_xx1_0,axe_w1_0,axe_h1_0,axe_xx1_1,axe_yy1_1,axe_in_channels1_1,axe_out_channels1_2;;;;F:16, Y:1, F:1, C:1, X:14, W:3, H:3, X:1, Y:14, C:128, F:16, ;77.59493160247803
25;1;ResNet18_07;0.23396460000000002;0.0017472152815265739;1;axe_out_channels1_0,axe_yy1_0,axe_out_channels1_1,axe_xx1_0;224;axe_out_channels1_0,axe_yy1_0,axe_out_channels1_1,axe_xx1_0,axe_in_channels1_0,axe_w1_0,axe_h1_0,axe_xx1_1,axe_yy1_1,axe_in_channels1_1,axe_out_channels1_2;;;;F:16, Y:1, F:1, C:1, X:14, W:3, H:3, X:1, Y:14, C:128, F:16, ;78.58557295799255
25;2;ResNet18_07;0.23459030000000003;0.0006307273658245715;1;axe_out_channels1_0,axe_yy1_0,axe_out_channels1_1,axe_xx1_0;224;axe_in_channels1_0,axe_out_channels1_0,axe_yy1_0,axe_out_channels1_1,axe_xx1_0,axe_w1_0,axe_h1_0,axe_xx1_1,axe_yy1_1,axe_in_channels1_1,axe_out_channels1_2;;;;F:16, Y:1, F:1, C:1, X:14, W:3, H:3, X:1, Y:14, C:128, F:16, ;79.57760787010193
26;0;ResNet18_07;0.2527983;0.00047919329085453543;1;axe_out_channels1_0,axe_yy1_0,axe_out_channels1_1;16;axe_out_channels1_0,axe_yy1_0,axe_out_channels1_1,axe_in_channels1_0,axe_xx1_0,axe_w1_0,axe_h1_0,axe_xx1_1,axe_yy1_1,axe_in_channels1_1,axe_out_channels1_2;;;;F:1, Y:1, F:16, C:2, X:14, W:3, H:3, X:1, Y:14, C:64, F:16, ;80.57790875434875
26;1;ResNet18_07;0.1239145;0.0004809896568534485;1;axe_out_channels1_0,axe_yy1_0,axe_out_channels1_1,axe_xx1_0;224;axe_out_channels1_0,axe_yy1_0,axe_out_channels1_1,axe_xx1_0,axe_in_channels1_0,axe_w1_0,axe_h1_0,axe_xx1_1,axe_yy1_1,axe_in_channels1_1,axe_out_channels1_2;;;;F:1, Y:1, F:16, C:2, X:14, W:3, H:3, X:1, Y:14, C:64, F:16, ;81.53209638595581
26;2;ResNet18_07;0.2294561;0.0005409080236047513;1;axe_out_channels1_0,axe_yy1_0,axe_out_channels1_1,axe_xx1_0;224;axe_in_channels1_0,axe_out_channels1_0,axe_yy1_0,axe_out_channels1_1,axe_xx1_0,axe_w1_0,axe_h1_0,axe_xx1_1,axe_yy1_1,axe_in_channels1_1,axe_out_channels1_2;;;;F:1, Y:1, F:16, C:2, X:14, W:3, H:3, X:1, Y:14, C:64, F:16, ;82.52517938613892
27;0;ResNet18_07;0.2657933;0.001730033759786214;1;axe_out_channels1_0,axe_yy1_0,axe_out_channels1_1;16;axe_out_channels1_0,axe_yy1_0,axe_out_channels1_1,axe_in_channels1_0,axe_xx1_0,axe_w1_0,axe_h1_0,axe_xx1_1,axe_yy1_1,axe_in_channels1_1,axe_out_channels1_2;;;;F:2, Y:1, F:8, C:2, X:14, W:3, H:3, X:1, Y:14, C:64, F:16, ;83.536128282547
27;1;ResNet18_07;0.1241735;0.00026992563790792414;1;axe_out_channels1_0,axe_yy1_0,axe_out_channels1_1,axe_xx1_0;224;axe_out_channels1_0,axe_yy1_0,axe_out_channels1_1,axe_xx1_0,axe_in_channels1_0,axe_w1_0,axe_h1_0,axe_xx1_1,axe_yy1_1,axe_in_channels1_1,axe_out_channels1_2;;;;F:2, Y:1, F:8, C:2, X:14, W:3, H:3, X:1, Y:14, C:64, F:16, ;84.55211925506592
27;2;ResNet18_07;0.25623729999999995;0.0017101511658330149;1;axe_out_channels1_0,axe_yy1_0,axe_out_channels1_1,axe_xx1_0;224;axe_in_channels1_0,axe_out_channels1_0,axe_yy1_0,axe_out_channels1_1,axe_xx1_0,axe_w1_0,axe_h1_0,axe_xx1_1,axe_yy1_1,axe_in_channels1_1,axe_out_channels1_2;;;;F:2, Y:1, F:8, C:2, X:14, W:3, H:3, X:1, Y:14, C:64, F:16, ;85.55554008483887
28;0;ResNet18_07;0.2533975;0.0011655881133573814;1;axe_out_channels1_0,axe_yy1_0,axe_out_channels1_1;16;axe_out_channels1_0,axe_yy1_0,axe_out_channels1_1,axe_in_channels1_0,axe_xx1_0,axe_w1_0,axe_h1_0,axe_xx1_1,axe_yy1_1,axe_in_channels1_1,axe_out_channels1_2;;;;F:4, Y:1, F:4, C:2, X:14, W:3, H:3, X:1, Y:14, C:64, F:16, ;86.56202054023743
28;1;ResNet18_07;0.23611079999999998;0.00038638291887711887;1;axe_out_channels1_0,axe_yy1_0,axe_out_channels1_1,axe_xx1_0;224;axe_out_channels1_0,axe_yy1_0,axe_out_channels1_1,axe_xx1_0,axe_in_channels1_0,axe_w1_0,axe_h1_0,axe_xx1_1,axe_yy1_1,axe_in_channels1_1,axe_out_channels1_2;;;;F:4, Y:1, F:4, C:2, X:14, W:3, H:3, X:1, Y:14, C:64, F:16, ;87.55762457847595
28;2;ResNet18_07;0.11943039999999998;0.00047590738594815014;1;axe_out_channels1_0,axe_yy1_0,axe_out_channels1_1,axe_xx1_0;224;axe_in_channels1_0,axe_out_channels1_0,axe_yy1_0,axe_out_channels1_1,axe_xx1_0,axe_w1_0,axe_h1_0,axe_xx1_1,axe_yy1_1,axe_in_channels1_1,axe_out_channels1_2;;;;F:4, Y:1, F:4, C:2, X:14, W:3, H:3, X:1, Y:14, C:64, F:16, ;88.54862594604492
29;0;ResNet18_07;0.25435369999999996;0.0011528832594846666;1;axe_out_channels1_0,axe_yy1_0,axe_out_channels1_1;16;axe_out_channels1_0,axe_yy1_0,axe_out_channels1_1,axe_in_channels1_0,axe_xx1_0,axe_w1_0,axe_h1_0,axe_xx1_1,axe_yy1_1,axe_in_channels1_1,axe_out_channels1_2;;;;F:8, Y:1, F:2, C:2, X:14, W:3, H:3, X:1, Y:14, C:64, F:16, ;89.55399560928345
29;1;ResNet18_07;0.1236375;0.0006312565643223042;1;axe_out_channels1_0,axe_yy1_0,axe_out_channels1_1,axe_xx1_0;224;axe_out_channels1_0,axe_yy1_0,axe_out_channels1_1,axe_xx1_0,axe_in_channels1_0,axe_w1_0,axe_h1_0,axe_xx1_1,axe_yy1_1,axe_in_channels1_1,axe_out_channels1_2;;;;F:8, Y:1, F:2, C:2, X:14, W:3, H:3, X:1, Y:14, C:64, F:16, ;90.52868127822876
29;2;ResNet18_07;0.22875079999999998;0.0005299084449223273;1;axe_out_channels1_0,axe_yy1_0,axe_out_channels1_1,axe_xx1_0;224;axe_in_channels1_0,axe_out_channels1_0,axe_yy1_0,axe_out_channels1_1,axe_xx1_0,axe_w1_0,axe_h1_0,axe_xx1_1,axe_yy1_1,axe_in_channels1_1,axe_out_channels1_2;;;;F:8, Y:1, F:2, C:2, X:14, W:3, H:3, X:1, Y:14, C:64, F:16, ;91.52121114730835
30;0;ResNet18_07;0.25451819999999997;0.0018820797432627585;1;axe_out_channels1_0,axe_yy1_0,axe_out_channels1_1;16;axe_out_channels1_0,axe_yy1_0,axe_out_channels1_1,axe_in_channels1_0,axe_xx1_0,axe_w1_0,axe_h1_0,axe_xx1_1,axe_yy1_1,axe_in_channels1_1,axe_out_channels1_2;;;;F:16, Y:1, F:1, C:2, X:14, W:3, H:3, X:1, Y:14, C:64, F:16, ;92.52600312232971
30;1;ResNet18_07;0.23697299999999996;0.0013285955742813528;1;axe_out_channels1_0,axe_yy1_0,axe_out_channels1_1,axe_xx1_0;224;axe_out_channels1_0,axe_yy1_0,axe_out_channels1_1,axe_xx1_0,axe_in_channels1_0,axe_w1_0,axe_h1_0,axe_xx1_1,axe_yy1_1,axe_in_channels1_1,axe_out_channels1_2;;;;F:16, Y:1, F:1, C:2, X:14, W:3, H:3, X:1, Y:14, C:64, F:16, ;93.50984406471252
30;2;ResNet18_07;0.12035669999999998;0.0009130369160116154;1;axe_out_channels1_0,axe_yy1_0,axe_out_channels1_1,axe_xx1_0;224;axe_in_channels1_0,axe_out_channels1_0,axe_yy1_0,axe_out_channels1_1,axe_xx1_0,axe_w1_0,axe_h1_0,axe_xx1_1,axe_yy1_1,axe_in_channels1_1,axe_out_channels1_2;;;;F:16, Y:1, F:1, C:2, X:14, W:3, H:3, X:1, Y:14, C:64, F:16, ;94.48770904541016
31;0;ResNet18_07;0.2495616;0.0017195174439359545;1;axe_out_channels1_0,axe_yy1_0,axe_out_channels1_1;16;axe_out_channels1_0,axe_yy1_0,axe_out_channels1_1,axe_in_channels1_0,axe_xx1_0,axe_w1_0,axe_h1_0,axe_xx1_1,axe_yy1_1,axe_in_channels1_1,axe_out_channels1_2;;;;F:1, Y:1, F:16, C:4, X:14, W:3, H:3, X:1, Y:14, C:32, F:16, ;95.48592233657837
31;1;ResNet18_07;0.1247083;0.00021453999627108963;1;axe_out_channels1_0,axe_yy1_0,axe_out_channels1_1,axe_xx1_0;224;axe_out_channels1_0,axe_yy1_0,axe_out_channels1_1,axe_xx1_0,axe_in_channels1_0,axe_w1_0,axe_h1_0,axe_xx1_1,axe_yy1_1,axe_in_channels1_1,axe_out_channels1_2;;;;F:1, Y:1, F:16, C:4, X:14, W:3, H:3, X:1, Y:14, C:32, F:16, ;96.45598101615906
31;2;ResNet18_07;0.1252555;0.0003450426785196217;1;axe_out_channels1_0,axe_yy1_0,axe_out_channels1_1,axe_xx1_0;224;axe_in_channels1_0,axe_out_channels1_0,axe_yy1_0,axe_out_channels1_1,axe_xx1_0,axe_w1_0,axe_h1_0,axe_xx1_1,axe_yy1_1,axe_in_channels1_1,axe_out_channels1_2;;;;F:1, Y:1, F:16, C:4, X:14, W:3, H:3, X:1, Y:14, C:32, F:16, ;97.442063331604
32;0;ResNet18_07;0.25149679999999996;0.0011967083019683569;1;axe_out_channels1_0,axe_yy1_0,axe_out_channels1_1;16;axe_out_channels1_0,axe_yy1_0,axe_out_channels1_1,axe_in_channels1_0,axe_xx1_0,axe_w1_0,axe_h1_0,axe_xx1_1,axe_yy1_1,axe_in_channels1_1,axe_out_channels1_2;;;;F:2, Y:1, F:8, C:4, X:14, W:3, H:3, X:1, Y:14, C:32, F:16, ;98.44196557998657
32;1;ResNet18_07;0.233685;0.0013745327933519806;1;axe_out_channels1_0,axe_yy1_0,axe_out_channels1_1,axe_xx1_0;224;axe_out_channels1_0,axe_yy1_0,axe_out_channels1_1,axe_xx1_0,axe_in_channels1_0,axe_w1_0,axe_h1_0,axe_xx1_1,axe_yy1_1,axe_in_channels1_1,axe_out_channels1_2;;;;F:2, Y:1, F:8, C:4, X:14, W:3, H:3, X:1, Y:14, C:32, F:16, ;99.42550659179688
32;2;ResNet18_07;0.12562579999999998;0.0005693646985895772;1;axe_out_channels1_0,axe_yy1_0,axe_out_channels1_1,axe_xx1_0;224;axe_in_channels1_0,axe_out_channels1_0,axe_yy1_0,axe_out_channels1_1,axe_xx1_0,axe_w1_0,axe_h1_0,axe_xx1_1,axe_yy1_1,axe_in_channels1_1,axe_out_channels1_2;;;;F:2, Y:1, F:8, C:4, X:14, W:3, H:3, X:1, Y:14, C:32, F:16, ;100.40887117385864
33;0;ResNet18_07;0.2506866;0.0006936368213986436;1;axe_out_channels1_0,axe_yy1_0,axe_out_channels1_1;16;axe_out_channels1_0,axe_yy1_0,axe_out_channels1_1,axe_in_channels1_0,axe_xx1_0,axe_w1_0,axe_h1_0,axe_xx1_1,axe_yy1_1,axe_in_channels1_1,axe_out_channels1_2;;;;F:4, Y:1, F:4, C:4, X:14, W:3, H:3, X:1, Y:14, C:32, F:16, ;101.42596936225891
33;1;ResNet18_07;0.12415479999999998;0.0005476003652299777;1;axe_out_channels1_0,axe_yy1_0,axe_out_channels1_1,axe_xx1_0;224;axe_out_channels1_0,axe_yy1_0,axe_out_channels1_1,axe_xx1_0,axe_in_channels1_0,axe_w1_0,axe_h1_0,axe_xx1_1,axe_yy1_1,axe_in_channels1_1,axe_out_channels1_2;;;;F:4, Y:1, F:4, C:4, X:14, W:3, H:3, X:1, Y:14, C:32, F:16, ;102.38399457931519
33;2;ResNet18_07;0.23793440000000002;0.0007800078461143843;1;axe_out_channels1_0,axe_yy1_0,axe_out_channels1_1,axe_xx1_0;224;axe_in_channels1_0,axe_out_channels1_0,axe_yy1_0,axe_out_channels1_1,axe_xx1_0,axe_w1_0,axe_h1_0,axe_xx1_1,axe_yy1_1,axe_in_channels1_1,axe_out_channels1_2;;;;F:4, Y:1, F:4, C:4, X:14, W:3, H:3, X:1, Y:14, C:32, F:16, ;103.3734803199768
34;0;ResNet18_07;0.2506048;0.0009569182619220898;1;axe_out_channels1_0,axe_yy1_0,axe_out_channels1_1;16;axe_out_channels1_0,axe_yy1_0,axe_out_channels1_1,axe_in_channels1_0,axe_xx1_0,axe_w1_0,axe_h1_0,axe_xx1_1,axe_yy1_1,axe_in_channels1_1,axe_out_channels1_2;;;;F:8, Y:1, F:2, C:4, X:14, W:3, H:3, X:1, Y:14, C:32, F:16, ;104.36592030525208
34;1;ResNet18_07;0.12524949999999999;0.0012979986325108357;1;axe_out_channels1_0,axe_yy1_0,axe_out_channels1_1,axe_xx1_0;224;axe_out_channels1_0,axe_yy1_0,axe_out_channels1_1,axe_xx1_0,axe_in_channels1_0,axe_w1_0,axe_h1_0,axe_xx1_1,axe_yy1_1,axe_in_channels1_1,axe_out_channels1_2;;;;F:8, Y:1, F:2, C:4, X:14, W:3, H:3, X:1, Y:14, C:32, F:16, ;105.34419131278992
34;2;ResNet18_07;0.1257374;0.00045561589085544126;1;axe_out_channels1_0,axe_yy1_0,axe_out_channels1_1,axe_xx1_0;224;axe_in_channels1_0,axe_out_channels1_0,axe_yy1_0,axe_out_channels1_1,axe_xx1_0,axe_w1_0,axe_h1_0,axe_xx1_1,axe_yy1_1,axe_in_channels1_1,axe_out_channels1_2;;;;F:8, Y:1, F:2, C:4, X:14, W:3, H:3, X:1, Y:14, C:32, F:16, ;106.31961297988892
35;0;ResNet18_07;0.25020169999999997;0.0010365398255735337;1;axe_out_channels1_0,axe_yy1_0,axe_out_channels1_1;16;axe_out_channels1_0,axe_yy1_0,axe_out_channels1_1,axe_in_channels1_0,axe_xx1_0,axe_w1_0,axe_h1_0,axe_xx1_1,axe_yy1_1,axe_in_channels1_1,axe_out_channels1_2;;;;F:16, Y:1, F:1, C:4, X:14, W:3, H:3, X:1, Y:14, C:32, F:16, ;107.31796503067017
35;1;ResNet18_07;0.2540745;0.0012815147482569164;1;axe_out_channels1_0,axe_yy1_0,axe_out_channels1_1,axe_xx1_0;224;axe_out_channels1_0,axe_yy1_0,axe_out_channels1_1,axe_xx1_0,axe_in_channels1_0,axe_w1_0,axe_h1_0,axe_xx1_1,axe_yy1_1,axe_in_channels1_1,axe_out_channels1_2;;;;F:16, Y:1, F:1, C:4, X:14, W:3, H:3, X:1, Y:14, C:32, F:16, ;108.30803513526917
35;2;ResNet18_07;0.12641480000000002;0.0019241330931097222;1;axe_out_channels1_0,axe_yy1_0,axe_out_channels1_1,axe_xx1_0;224;axe_in_channels1_0,axe_out_channels1_0,axe_yy1_0,axe_out_channels1_1,axe_xx1_0,axe_w1_0,axe_h1_0,axe_xx1_1,axe_yy1_1,axe_in_channels1_1,axe_out_channels1_2;;;;F:16, Y:1, F:1, C:4, X:14, W:3, H:3, X:1, Y:14, C:32, F:16, ;109.27491116523743
36;0;ResNet18_07;0.7021040000000001;0.07068155396282684;2;axe_xx1_0;14;axe_out_channels1_0,axe_yy1_0,axe_out_channels1_1,axe_in_channels1_0,axe_xx1_0,axe_w1_0,axe_h1_0,axe_xx1_1,axe_yy1_1,axe_in_channels1_1,axe_out_channels1_2;axe_xx2_0;14;axe_out_channels2_0,axe_yy2_0,axe_out_channels2_1,axe_in_channels2_0,axe_xx2_0,axe_w2_0,axe_h2_0,axe_xx2_1,axe_yy2_1,axe_in_channels2_1,axe_out_channels2_2;F:1, Y:1, F:4, C:4, X:14, W:3, H:3, X:1, Y:4, C:32, F:64, ;110.48540544509888
36;1;ResNet18_07;0.2731109;0.0010717881740344155;2;axe_out_channels1_0,axe_yy1_0,axe_out_channels1_1,axe_xx1_0;56;axe_out_channels1_0,axe_yy1_0,axe_out_channels1_1,axe_xx1_0,axe_in_channels1_0,axe_w1_0,axe_h1_0,axe_xx1_1,axe_yy1_1,axe_in_channels1_1,axe_out_channels1_2;axe_out_channels2_0,axe_yy2_0,axe_out_channels2_1,axe_xx2_0;112;axe_out_channels2_0,axe_yy2_0,axe_out_channels2_1,axe_xx2_0,axe_in_channels2_0,axe_w2_0,axe_h2_0,axe_xx2_1,axe_yy2_1,axe_in_channels2_1,axe_out_channels2_2;F:1, Y:1, F:4, C:4, X:14, W:3, H:3, X:1, Y:4, C:32, F:64, ;111.64759373664856
36;2;ResNet18_07;0.3100915000000001;0.0015198357970517761;2;axe_out_channels1_0,axe_yy1_0,axe_out_channels1_1,axe_xx1_0;56;axe_in_channels1_0,axe_out_channels1_0,axe_yy1_0,axe_out_channels1_1,axe_xx1_0,axe_w1_0,axe_h1_0,axe_xx1_1,axe_yy1_1,axe_in_channels1_1,axe_out_channels1_2;axe_out_channels2_0,axe_yy2_0,axe_out_channels2_1,axe_xx2_0;112;axe_in_channels2_0,axe_out_channels2_0,axe_yy2_0,axe_out_channels2_1,axe_xx2_0,axe_w2_0,axe_h2_0,axe_xx2_1,axe_yy2_1,axe_in_channels2_1,axe_out_channels2_2;F:1, Y:1, F:4, C:4, X:14, W:3, H:3, X:1, Y:4, C:32, F:64, ;112.82915759086609
37;0;ResNet18_07;0.7144864;0.002811042802946976;2;axe_xx1_0;14;axe_out_channels1_0,axe_yy1_0,axe_out_channels1_1,axe_in_channels1_0,axe_xx1_0,axe_w1_0,axe_h1_0,axe_xx1_1,axe_yy1_1,axe_in_channels1_1,axe_out_channels1_2;axe_xx2_0;14;axe_out_channels2_0,axe_yy2_0,axe_out_channels2_1,axe_in_channels2_0,axe_xx2_0,axe_w2_0,axe_h2_0,axe_xx2_1,axe_yy2_1,axe_in_channels2_1,axe_out_channels2_2;F:2, Y:1, F:2, C:4, X:14, W:3, H:3, X:1, Y:4, C:32, F:64, ;114.05258536338806
37;1;ResNet18_07;0.15885010000000002;0.0025304109725497194;2;axe_out_channels1_0,axe_yy1_0,axe_out_channels1_1,axe_xx1_0;56;axe_out_channels1_0,axe_yy1_0,axe_out_channels1_1,axe_xx1_0,axe_in_channels1_0,axe_w1_0,axe_h1_0,axe_xx1_1,axe_yy1_1,axe_in_channels1_1,axe_out_channels1_2;axe_out_channels2_0,axe_yy2_0,axe_out_channels2_1,axe_xx2_0;112;axe_out_channels2_0,axe_yy2_0,axe_out_channels2_1,axe_xx2_0,axe_in_channels2_0,axe_w2_0,axe_h2_0,axe_xx2_1,axe_yy2_1,axe_in_channels2_1,axe_out_channels2_2;F:2, Y:1, F:2, C:4, X:14, W:3, H:3, X:1, Y:4, C:32, F:64, ;115.18928742408752
37;2;ResNet18_07;0.1774216;0.0013008713387572212;2;axe_out_channels1_0,axe_yy1_0,axe_out_channels1_1,axe_xx1_0;56;axe_in_channels1_0,axe_out_channels1_0,axe_yy1_0,axe_out_channels1_1,axe_xx1_0,axe_w1_0,axe_h1_0,axe_xx1_1,axe_yy1_1,axe_in_channels1_1,axe_out_channels1_2;axe_out_channels2_0,axe_yy2_0,axe_out_channels2_1,axe_xx2_0;112;axe_in_channels2_0,axe_out_channels2_0,axe_yy2_0,axe_out_channels2_1,axe_xx2_0,axe_w2_0,axe_h2_0,axe_xx2_1,axe_yy2_1,axe_in_channels2_1,axe_out_channels2_2;F:2, Y:1, F:2, C:4, X:14, W:3, H:3, X:1, Y:4, C:32, F:64, ;116.32702779769897
38;0;ResNet18_07;0.34093090000000004;0.0023687245280952364;2;axe_xx1_0;14;axe_out_channels1_0,axe_yy1_0,axe_out_channels1_1,axe_in_channels1_0,axe_xx1_0,axe_w1_0,axe_h1_0,axe_xx1_1,axe_yy1_1,axe_in_channels1_1,axe_out_channels1_2;axe_xx2_0;14;axe_out_channels2_0,axe_yy2_0,axe_out_channels2_1,axe_in_channels2_0,axe_xx2_0,axe_w2_0,axe_h2_0,axe_xx2_1,axe_yy2_1,axe_in_channels2_1,axe_out_channels2_2;F:4, Y:1, F:1, C:4, X:14, W:3, H:3, X:1, Y:4, C:32, F:64, ;117.48539900779724
38;1;ResNet18_07;0.15619749999999996;0.002272034077649365;2;axe_out_channels1_0,axe_yy1_0,axe_out_channels1_1,axe_xx1_0;56;axe_out_channels1_0,axe_yy1_0,axe_out_channels1_1,axe_xx1_0,axe_in_channels1_0,axe_w1_0,axe_h1_0,axe_xx1_1,axe_yy1_1,axe_in_channels1_1,axe_out_channels1_2;axe_out_channels2_0,axe_yy2_0,axe_out_channels2_1,axe_xx2_0;112;axe_out_channels2_0,axe_yy2_0,axe_out_channels2_1,axe_xx2_0,axe_in_channels2_0,axe_w2_0,axe_h2_0,axe_xx2_1,axe_yy2_1,axe_in_channels2_1,axe_out_channels2_2;F:4, Y:1, F:1, C:4, X:14, W:3, H:3, X:1, Y:4, C:32, F:64, ;118.65771746635437
38;2;ResNet18_07;0.1751304;0.0016743355219310096;2;axe_out_channels1_0,axe_yy1_0,axe_out_channels1_1,axe_xx1_0;56;axe_in_channels1_0,axe_out_channels1_0,axe_yy1_0,axe_out_channels1_1,axe_xx1_0,axe_w1_0,axe_h1_0,axe_xx1_1,axe_yy1_1,axe_in_channels1_1,axe_out_channels1_2;axe_out_channels2_0,axe_yy2_0,axe_out_channels2_1,axe_xx2_0;112;axe_in_channels2_0,axe_out_channels2_0,axe_yy2_0,axe_out_channels2_1,axe_xx2_0,axe_w2_0,axe_h2_0,axe_xx2_1,axe_yy2_1,axe_in_channels2_1,axe_out_channels2_2;F:4, Y:1, F:1, C:4, X:14, W:3, H:3, X:1, Y:4, C:32, F:64, ;119.8112645149231
39;0;ResNet18_07;0.342455;0.001790569965122835;2;axe_xx1_0;14;axe_out_channels1_0,axe_yy1_0,axe_out_channels1_1,axe_in_channels1_0,axe_xx1_0,axe_w1_0,axe_h1_0,axe_xx1_1,axe_yy1_1,axe_in_channels1_1,axe_out_channels1_2;axe_xx2_0;14;axe_out_channels2_0,axe_yy2_0,axe_out_channels2_1,axe_in_channels2_0,axe_xx2_0,axe_w2_0,axe_h2_0,axe_xx2_1,axe_yy2_1,axe_in_channels2_1,axe_out_channels2_2;F:1, Y:2, F:4, C:4, X:14, W:3, H:3, X:1, Y:4, C:32, F:64, ;120.99026775360107
39;1;ResNet18_07;0.1635143;0.0015990182644360286;2;axe_out_channels1_0,axe_yy1_0,axe_out_channels1_1,axe_xx1_0;112;axe_out_channels1_0,axe_yy1_0,axe_out_channels1_1,axe_xx1_0,axe_in_channels1_0,axe_w1_0,axe_h1_0,axe_xx1_1,axe_yy1_1,axe_in_channels1_1,axe_out_channels1_2;axe_out_channels2_0,axe_yy2_0,axe_out_channels2_1,axe_xx2_0;56;axe_out_channels2_0,axe_yy2_0,axe_out_channels2_1,axe_xx2_0,axe_in_channels2_0,axe_w2_0,axe_h2_0,axe_xx2_1,axe_yy2_1,axe_in_channels2_1,axe_out_channels2_2;F:1, Y:2, F:4, C:4, X:14, W:3, H:3, X:1, Y:4, C:32, F:64, ;122.17397332191467
39;2;ResNet18_07;0.3212134;0.0018703875641160553;2;axe_out_channels1_0,axe_yy1_0,axe_out_channels1_1,axe_xx1_0;112;axe_in_channels1_0,axe_out_channels1_0,axe_yy1_0,axe_out_channels1_1,axe_xx1_0,axe_w1_0,axe_h1_0,axe_xx1_1,axe_yy1_1,axe_in_channels1_1,axe_out_channels1_2;axe_out_channels2_0,axe_yy2_0,axe_out_channels2_1,axe_xx2_0;56;axe_in_channels2_0,axe_out_channels2_0,axe_yy2_0,axe_out_channels2_1,axe_xx2_0,axe_w2_0,axe_h2_0,axe_xx2_1,axe_yy2_1,axe_in_channels2_1,axe_out_channels2_2;F:1, Y:2, F:4, C:4, X:14, W:3, H:3, X:1, Y:4, C:32, F:64, ;123.34903478622437
40;0;ResNet18_07;0.7318703;0.0021128814472184477;2;axe_xx1_0;14;axe_out_channels1_0,axe_yy1_0,axe_out_channels1_1,axe_in_channels1_0,axe_xx1_0,axe_w1_0,axe_h1_0,axe_xx1_1,axe_yy1_1,axe_in_channels1_1,axe_out_channels1_2;axe_xx2_0;14;axe_out_channels2_0,axe_yy2_0,axe_out_channels2_1,axe_in_channels2_0,axe_xx2_0,axe_w2_0,axe_h2_0,axe_xx2_1,axe_yy2_1,axe_in_channels2_1,axe_out_channels2_2;F:2, Y:2, F:2, C:4, X:14, W:3, H:3, X:1, Y:4, C:32, F:64, ;124.604416847229
40;1;ResNet18_07;0.1594163;0.0022241821890303893;2;axe_out_channels1_0,axe_yy1_0,axe_out_channels1_1,axe_xx1_0;112;axe_out_channels1_0,axe_yy1_0,axe_out_channels1_1,axe_xx1_0,axe_in_channels1_0,axe_w1_0,axe_h1_0,axe_xx1_1,axe_yy1_1,axe_in_channels1_1,axe_out_channels1_2;axe_out_channels2_0,axe_yy2_0,axe_out_channels2_1,axe_xx2_0;56;axe_out_channels2_0,axe_yy2_0,axe_out_channels2_1,axe_xx2_0,axe_in_channels2_0,axe_w2_0,axe_h2_0,axe_xx2_1,axe_yy2_1,axe_in_channels2_1,axe_out_channels2_2;F:2, Y:2, F:2, C:4, X:14, W:3, H:3, X:1, Y:4, C:32, F:64, ;125.73765182495117
40;2;ResNet18_07;0.312828;0.001530590082288534;2;axe_out_channels1_0,axe_yy1_0,axe_out_channels1_1,axe_xx1_0;112;axe_in_channels1_0,axe_out_channels1_0,axe_yy1_0,axe_out_channels1_1,axe_xx1_0,axe_w1_0,axe_h1_0,axe_xx1_1,axe_yy1_1,axe_in_channels1_1,axe_out_channels1_2;axe_out_channels2_0,axe_yy2_0,axe_out_channels2_1,axe_xx2_0;56;axe_in_channels2_0,axe_out_channels2_0,axe_yy2_0,axe_out_channels2_1,axe_xx2_0,axe_w2_0,axe_h2_0,axe_xx2_1,axe_yy2_1,axe_in_channels2_1,axe_out_channels2_2;F:2, Y:2, F:2, C:4, X:14, W:3, H:3, X:1, Y:4, C:32, F:64, ;126.93311667442322
41;0;ResNet18_07;0.3342036;0.0016154972113872584;2;axe_xx1_0;14;axe_out_channels1_0,axe_yy1_0,axe_out_channels1_1,axe_in_channels1_0,axe_xx1_0,axe_w1_0,axe_h1_0,axe_xx1_1,axe_yy1_1,axe_in_channels1_1,axe_out_channels1_2;axe_xx2_0;14;axe_out_channels2_0,axe_yy2_0,axe_out_channels2_1,axe_in_channels2_0,axe_xx2_0,axe_w2_0,axe_h2_0,axe_xx2_1,axe_yy2_1,axe_in_channels2_1,axe_out_channels2_2;F:4, Y:2, F:1, C:4, X:14, W:3, H:3, X:1, Y:4, C:32, F:64, ;128.14134740829468
41;1;ResNet18_07;0.2771433;0.0013832838501189782;2;axe_out_channels1_0,axe_yy1_0,axe_out_channels1_1,axe_xx1_0;112;axe_out_channels1_0,axe_yy1_0,axe_out_channels1_1,axe_xx1_0,axe_in_channels1_0,axe_w1_0,axe_h1_0,axe_xx1_1,axe_yy1_1,axe_in_channels1_1,axe_out_channels1_2;axe_out_channels2_0,axe_yy2_0,axe_out_channels2_1,axe_xx2_0;56;axe_out_channels2_0,axe_yy2_0,axe_out_channels2_1,axe_xx2_0,axe_in_channels2_0,axe_w2_0,axe_h2_0,axe_xx2_1,axe_yy2_1,axe_in_channels2_1,axe_out_channels2_2;F:4, Y:2, F:1, C:4, X:14, W:3, H:3, X:1, Y:4, C:32, F:64, ;129.3157172203064
41;2;ResNet18_07;0.36458650000000004;0.002815897876344254;2;axe_out_channels1_0,axe_yy1_0,axe_out_channels1_1,axe_xx1_0;112;axe_in_channels1_0,axe_out_channels1_0,axe_yy1_0,axe_out_channels1_1,axe_xx1_0,axe_w1_0,axe_h1_0,axe_xx1_1,axe_yy1_1,axe_in_channels1_1,axe_out_channels1_2;axe_out_channels2_0,axe_yy2_0,axe_out_channels2_1,axe_xx2_0;56;axe_in_channels2_0,axe_out_channels2_0,axe_yy2_0,axe_out_channels2_1,axe_xx2_0,axe_w2_0,axe_h2_0,axe_xx2_1,axe_yy2_1,axe_in_channels2_1,axe_out_channels2_2;F:4, Y:2, F:1, C:4, X:14, W:3, H:3, X:1, Y:4, C:32, F:64, ;130.5166699886322
42;0;ResNet18_07;0.3483136;0.015671747778725896;1;axe_xx1_0;14;axe_out_channels1_0,axe_yy1_0,axe_out_channels1_1,axe_in_channels1_0,axe_xx1_0,axe_w1_0,axe_h1_0,axe_xx1_1,axe_yy1_1,axe_in_channels1_1,axe_out_channels1_2;;;;F:1, Y:1, F:8, C:1, X:14, W:3, H:3, X:1, Y:14, C:128, F:32, ;131.53453016281128
42;1;ResNet18_07;0.230384;0.0009526140876556453;1;axe_out_channels1_0,axe_yy1_0,axe_out_channels1_1,axe_xx1_0;112;axe_out_channels1_0,axe_yy1_0,axe_out_channels1_1,axe_xx1_0,axe_in_channels1_0,axe_w1_0,axe_h1_0,axe_xx1_1,axe_yy1_1,axe_in_channels1_1,axe_out_channels1_2;;;;F:1, Y:1, F:8, C:1, X:14, W:3, H:3, X:1, Y:14, C:128, F:32, ;132.517235994339
42;2;ResNet18_07;0.23568419999999998;0.001143735441437397;1;axe_out_channels1_0,axe_yy1_0,axe_out_channels1_1,axe_xx1_0;112;axe_in_channels1_0,axe_out_channels1_0,axe_yy1_0,axe_out_channels1_1,axe_xx1_0,axe_w1_0,axe_h1_0,axe_xx1_1,axe_yy1_1,axe_in_channels1_1,axe_out_channels1_2;;;;F:1, Y:1, F:8, C:1, X:14, W:3, H:3, X:1, Y:14, C:128, F:32, ;133.52144074440002
43;0;ResNet18_07;0.3642556;0.0004971221580255753;1;axe_xx1_0;14;axe_out_channels1_0,axe_yy1_0,axe_out_channels1_1,axe_in_channels1_0,axe_xx1_0,axe_w1_0,axe_h1_0,axe_xx1_1,axe_yy1_1,axe_in_channels1_1,axe_out_channels1_2;;;;F:2, Y:1, F:4, C:1, X:14, W:3, H:3, X:1, Y:14, C:128, F:32, ;134.53336000442505
43;1;ResNet18_07;0.11500940000000001;0.0001956457001827535;1;axe_out_channels1_0,axe_yy1_0,axe_out_channels1_1,axe_xx1_0;112;axe_out_channels1_0,axe_yy1_0,axe_out_channels1_1,axe_xx1_0,axe_in_channels1_0,axe_w1_0,axe_h1_0,axe_xx1_1,axe_yy1_1,axe_in_channels1_1,axe_out_channels1_2;;;;F:2, Y:1, F:4, C:1, X:14, W:3, H:3, X:1, Y:14, C:128, F:32, ;135.48759007453918
43;2;ResNet18_07;0.11832260000000001;0.0002373593056949748;1;axe_out_channels1_0,axe_yy1_0,axe_out_channels1_1,axe_xx1_0;112;axe_in_channels1_0,axe_out_channels1_0,axe_yy1_0,axe_out_channels1_1,axe_xx1_0,axe_w1_0,axe_h1_0,axe_xx1_1,axe_yy1_1,axe_in_channels1_1,axe_out_channels1_2;;;;F:2, Y:1, F:4, C:1, X:14, W:3, H:3, X:1, Y:14, C:128, F:32, ;136.46445870399475
44;0;ResNet18_07;0.1753253;0.00029835617975835317;1;axe_xx1_0;14;axe_out_channels1_0,axe_yy1_0,axe_out_channels1_1,axe_in_channels1_0,axe_xx1_0,axe_w1_0,axe_h1_0,axe_xx1_1,axe_yy1_1,axe_in_channels1_1,axe_out_channels1_2;;;;F:4, Y:1, F:2, C:1, X:14, W:3, H:3, X:1, Y:14, C:128, F:32, ;137.43258023262024
44;1;ResNet18_07;0.23565419999999998;0.0020072514939588402;1;axe_out_channels1_0,axe_yy1_0,axe_out_channels1_1,axe_xx1_0;112;axe_out_channels1_0,axe_yy1_0,axe_out_channels1_1,axe_xx1_0,axe_in_channels1_0,axe_w1_0,axe_h1_0,axe_xx1_1,axe_yy1_1,axe_in_channels1_1,axe_out_channels1_2;;;;F:4, Y:1, F:2, C:1, X:14, W:3, H:3, X:1, Y:14, C:128, F:32, ;138.41953229904175
44;2;ResNet18_07;0.23634519999999998;0.001818879204345358;1;axe_out_channels1_0,axe_yy1_0,axe_out_channels1_1,axe_xx1_0;112;axe_in_channels1_0,axe_out_channels1_0,axe_yy1_0,axe_out_channels1_1,axe_xx1_0,axe_w1_0,axe_h1_0,axe_xx1_1,axe_yy1_1,axe_in_channels1_1,axe_out_channels1_2;;;;F:4, Y:1, F:2, C:1, X:14, W:3, H:3, X:1, Y:14, C:128, F:32, ;139.42943143844604
45;0;ResNet18_07;0.1752531;0.0004343414440276234;1;axe_xx1_0;14;axe_out_channels1_0,axe_yy1_0,axe_out_channels1_1,axe_in_channels1_0,axe_xx1_0,axe_w1_0,axe_h1_0,axe_xx1_1,axe_yy1_1,axe_in_channels1_1,axe_out_channels1_2;;;;F:8, Y:1, F:1, C:1, X:14, W:3, H:3, X:1, Y:14, C:128, F:32, ;140.40056705474854
45;1;ResNet18_07;0.1154806;0.0007244670040795522;1;axe_out_channels1_0,axe_yy1_0,axe_out_channels1_1,axe_xx1_0;112;axe_out_channels1_0,axe_yy1_0,axe_out_channels1_1,axe_xx1_0,axe_in_channels1_0,axe_w1_0,axe_h1_0,axe_xx1_1,axe_yy1_1,axe_in_channels1_1,axe_out_channels1_2;;;;F:8, Y:1, F:1, C:1, X:14, W:3, H:3, X:1, Y:14, C:128, F:32, ;141.34247207641602
45;2;ResNet18_07;0.169225;0.05441771236463363;1;axe_out_channels1_0,axe_yy1_0,axe_out_channels1_1,axe_xx1_0;112;axe_in_channels1_0,axe_out_channels1_0,axe_yy1_0,axe_out_channels1_1,axe_xx1_0,axe_w1_0,axe_h1_0,axe_xx1_1,axe_yy1_1,axe_in_channels1_1,axe_out_channels1_2;;;;F:8, Y:1, F:1, C:1, X:14, W:3, H:3, X:1, Y:14, C:128, F:32, ;142.32342839241028
46;0;ResNet18_07;0.187482;0.00041883218596473434;1;axe_xx1_0;14;axe_out_channels1_0,axe_yy1_0,axe_out_channels1_1,axe_in_channels1_0,axe_xx1_0,axe_w1_0,axe_h1_0,axe_xx1_1,axe_yy1_1,axe_in_channels1_1,axe_out_channels1_2;;;;F:1, Y:2, F:4, C:1, X:14, W:3, H:3, X:1, Y:7, C:128, F:64, ;143.2825517654419
46;1;ResNet18_07;0.23780220000000002;0.0009138780881496168;1;axe_out_channels1_0,axe_yy1_0,axe_out_channels1_1,axe_xx1_0;112;axe_out_channels1_0,axe_yy1_0,axe_out_channels1_1,axe_xx1_0,axe_in_channels1_0,axe_w1_0,axe_h1_0,axe_xx1_1,axe_yy1_1,axe_in_channels1_1,axe_out_channels1_2;;;;F:1, Y:2, F:4, C:1, X:14, W:3, H:3, X:1, Y:7, C:128, F:64, ;144.2581503391266
46;2;ResNet18_07;0.13574769999999997;0.0009724870230496688;1;axe_out_channels1_0,axe_yy1_0,axe_out_channels1_1,axe_xx1_0;112;axe_in_channels1_0,axe_out_channels1_0,axe_yy1_0,axe_out_channels1_1,axe_xx1_0,axe_w1_0,axe_h1_0,axe_xx1_1,axe_yy1_1,axe_in_channels1_1,axe_out_channels1_2;;;;F:1, Y:2, F:4, C:1, X:14, W:3, H:3, X:1, Y:7, C:128, F:64, ;145.23754978179932
47;0;ResNet18_07;0.18431060000000002;0.00044569590529866743;1;axe_xx1_0;14;axe_out_channels1_0,axe_yy1_0,axe_out_channels1_1,axe_in_channels1_0,axe_xx1_0,axe_w1_0,axe_h1_0,axe_xx1_1,axe_yy1_1,axe_in_channels1_1,axe_out_channels1_2;;;;F:2, Y:2, F:2, C:1, X:14, W:3, H:3, X:1, Y:7, C:128, F:64, ;146.22268342971802
47;1;ResNet18_07;0.1314584;0.00406773895917622;1;axe_out_channels1_0,axe_yy1_0,axe_out_channels1_1,axe_xx1_0;112;axe_out_channels1_0,axe_yy1_0,axe_out_channels1_1,axe_xx1_0,axe_in_channels1_0,axe_w1_0,axe_h1_0,axe_xx1_1,axe_yy1_1,axe_in_channels1_1,axe_out_channels1_2;;;;F:2, Y:2, F:2, C:1, X:14, W:3, H:3, X:1, Y:7, C:128, F:64, ;147.1724979877472
47;2;ResNet18_07;0.1395475;0.0028051219670452814;1;axe_out_channels1_0,axe_yy1_0,axe_out_channels1_1,axe_xx1_0;112;axe_in_channels1_0,axe_out_channels1_0,axe_yy1_0,axe_out_channels1_1,axe_xx1_0,axe_w1_0,axe_h1_0,axe_xx1_1,axe_yy1_1,axe_in_channels1_1,axe_out_channels1_2;;;;F:2, Y:2, F:2, C:1, X:14, W:3, H:3, X:1, Y:7, C:128, F:64, ;148.1415295600891
48;0;ResNet18_07;0.34467290000000006;0.0022909386482400725;1;axe_xx1_0;14;axe_out_channels1_0,axe_yy1_0,axe_out_channels1_1,axe_in_channels1_0,axe_xx1_0,axe_w1_0,axe_h1_0,axe_xx1_1,axe_yy1_1,axe_in_channels1_1,axe_out_channels1_2;;;;F:4, Y:2, F:1, C:1, X:14, W:3, H:3, X:1, Y:7, C:128, F:64, ;149.1510751247406
48;1;ResNet18_07;0.13114430000000002;0.002555717239836991;1;axe_out_channels1_0,axe_yy1_0,axe_out_channels1_1,axe_xx1_0;112;axe_out_channels1_0,axe_yy1_0,axe_out_channels1_1,axe_xx1_0,axe_in_channels1_0,axe_w1_0,axe_h1_0,axe_xx1_1,axe_yy1_1,axe_in_channels1_1,axe_out_channels1_2;;;;F:4, Y:2, F:1, C:1, X:14, W:3, H:3, X:1, Y:7, C:128, F:64, ;150.08830785751343
48;2;ResNet18_07;0.1996598;0.05421076855348944;1;axe_out_channels1_0,axe_yy1_0,axe_out_channels1_1,axe_xx1_0;112;axe_in_channels1_0,axe_out_channels1_0,axe_yy1_0,axe_out_channels1_1,axe_xx1_0,axe_w1_0,axe_h1_0,axe_xx1_1,axe_yy1_1,axe_in_channels1_1,axe_out_channels1_2;;;;F:4, Y:2, F:1, C:1, X:14, W:3, H:3, X:1, Y:7, C:128, F:64, ;151.0657138824463
49;0;ResNet18_07;0.18955519999999998;0.0007465436089070795;1;axe_xx1_0;14;axe_out_channels1_0,axe_yy1_0,axe_out_channels1_1,axe_in_channels1_0,axe_xx1_0,axe_w1_0,axe_h1_0,axe_xx1_1,axe_yy1_1,axe_in_channels1_1,axe_out_channels1_2;;;;F:1, Y:2, F:4, C:1, X:14, W:3, H:3, X:1, Y:7, C:128, F:64, ;152.05495834350586
49;1;ResNet18_07;0.24192059999999999;0.0009738011295947431;1;axe_out_channels1_0,axe_yy1_0,axe_out_channels1_1,axe_xx1_0;112;axe_out_channels1_0,axe_yy1_0,axe_out_channels1_1,axe_xx1_0,axe_in_channels1_0,axe_w1_0,axe_h1_0,axe_xx1_1,axe_yy1_1,axe_in_channels1_1,axe_out_channels1_2;;;;F:1, Y:2, F:4, C:1, X:14, W:3, H:3, X:1, Y:7, C:128, F:64, ;153.06223559379578
49;2;ResNet18_07;0.1341947;0.0009986187510757061;1;axe_out_channels1_0,axe_yy1_0,axe_out_channels1_1,axe_xx1_0;112;axe_in_channels1_0,axe_out_channels1_0,axe_yy1_0,axe_out_channels1_1,axe_xx1_0,axe_w1_0,axe_h1_0,axe_xx1_1,axe_yy1_1,axe_in_channels1_1,axe_out_channels1_2;;;;F:1, Y:2, F:4, C:1, X:14, W:3, H:3, X:1, Y:7, C:128, F:64, ;154.05733108520508
50;0;ResNet18_07;0.34540020000000005;0.06760124981951147;1;axe_xx1_0;14;axe_out_channels1_0,axe_yy1_0,axe_out_channels1_1,axe_in_channels1_0,axe_xx1_0,axe_w1_0,axe_h1_0,axe_xx1_1,axe_yy1_1,axe_in_channels1_1,axe_out_channels1_2;;;;F:2, Y:2, F:2, C:1, X:14, W:3, H:3, X:1, Y:7, C:128, F:64, ;155.08734846115112
50;1;ResNet18_07;0.1298909;0.0023530151061988557;1;axe_out_channels1_0,axe_yy1_0,axe_out_channels1_1,axe_xx1_0;112;axe_out_channels1_0,axe_yy1_0,axe_out_channels1_1,axe_xx1_0,axe_in_channels1_0,axe_w1_0,axe_h1_0,axe_xx1_1,axe_yy1_1,axe_in_channels1_1,axe_out_channels1_2;;;;F:2, Y:2, F:2, C:1, X:14, W:3, H:3, X:1, Y:7, C:128, F:64, ;156.0914695262909
50;2;ResNet18_07;0.1353729;0.0014656850582577387;1;axe_out_channels1_0,axe_yy1_0,axe_out_channels1_1,axe_xx1_0;112;axe_in_channels1_0,axe_out_channels1_0,axe_yy1_0,axe_out_channels1_1,axe_xx1_0,axe_w1_0,axe_h1_0,axe_xx1_1,axe_yy1_1,axe_in_channels1_1,axe_out_channels1_2;;;;F:2, Y:2, F:2, C:1, X:14, W:3, H:3, X:1, Y:7, C:128, F:64, ;157.10496258735657
51;0;ResNet18_07;0.3390459;0.0036534432375500245;1;axe_xx1_0;14;axe_out_channels1_0,axe_yy1_0,axe_out_channels1_1,axe_in_channels1_0,axe_xx1_0,axe_w1_0,axe_h1_0,axe_xx1_1,axe_yy1_1,axe_in_channels1_1,axe_out_channels1_2;;;;F:4, Y:2, F:1, C:1, X:14, W:3, H:3, X:1, Y:7, C:128, F:64, ;158.13163447380066
51;1;ResNet18_07;0.2433401;0.0008224865287650534;1;axe_out_channels1_0,axe_yy1_0,axe_out_channels1_1,axe_xx1_0;112;axe_out_channels1_0,axe_yy1_0,axe_out_channels1_1,axe_xx1_0,axe_in_channels1_0,axe_w1_0,axe_h1_0,axe_xx1_1,axe_yy1_1,axe_in_channels1_1,axe_out_channels1_2;;;;F:4, Y:2, F:1, C:1, X:14, W:3, H:3, X:1, Y:7, C:128, F:64, ;159.1342067718506
51;2;ResNet18_07;0.19436720000000002;0.05709117169895885;1;axe_out_channels1_0,axe_yy1_0,axe_out_channels1_1,axe_xx1_0;112;axe_in_channels1_0,axe_out_channels1_0,axe_yy1_0,axe_out_channels1_1,axe_xx1_0,axe_w1_0,axe_h1_0,axe_xx1_1,axe_yy1_1,axe_in_channels1_1,axe_out_channels1_2;;;;F:4, Y:2, F:1, C:1, X:14, W:3, H:3, X:1, Y:7, C:128, F:64, ;160.14959526062012
52;0;ResNet18_07;0.21311870000000002;0.0009384615122635583;1;axe_xx1_0;14;axe_out_channels1_0,axe_yy1_0,axe_out_channels1_1,axe_in_channels1_0,axe_xx1_0,axe_w1_0,axe_h1_0,axe_xx1_1,axe_yy1_1,axe_in_channels1_1,axe_out_channels1_2;;;;F:1, Y:2, F:4, C:2, X:14, W:3, H:3, X:1, Y:7, C:64, F:64, ;161.13143610954285
52;1;ResNet18_07;0.1314385;0.0029107951920394563;1;axe_out_channels1_0,axe_yy1_0,axe_out_channels1_1,axe_xx1_0;112;axe_out_channels1_0,axe_yy1_0,axe_out_channels1_1,axe_xx1_0,axe_in_channels1_0,axe_w1_0,axe_h1_0,axe_xx1_1,axe_yy1_1,axe_in_channels1_1,axe_out_channels1_2;;;;F:1, Y:2, F:4, C:2, X:14, W:3, H:3, X:1, Y:7, C:64, F:64, ;162.1279273033142
52;2;ResNet18_07;0.2728079;0.0021701480802009954;1;axe_out_channels1_0,axe_yy1_0,axe_out_channels1_1,axe_xx1_0;112;axe_in_channels1_0,axe_out_channels1_0,axe_yy1_0,axe_out_channels1_1,axe_xx1_0,axe_w1_0,axe_h1_0,axe_xx1_1,axe_yy1_1,axe_in_channels1_1,axe_out_channels1_2;;;;F:1, Y:2, F:4, C:2, X:14, W:3, H:3, X:1, Y:7, C:64, F:64, ;163.1206078529358
53;0;ResNet18_07;0.3939934;0.030298271789658243;1;axe_xx1_0;14;axe_out_channels1_0,axe_yy1_0,axe_out_channels1_1,axe_in_channels1_0,axe_xx1_0,axe_w1_0,axe_h1_0,axe_xx1_1,axe_yy1_1,axe_in_channels1_1,axe_out_channels1_2;;;;F:2, Y:2, F:2, C:2, X:14, W:3, H:3, X:1, Y:7, C:64, F:64, ;164.1458501815796
53;1;ResNet18_07;0.24352560000000004;0.0022091854698055562;1;axe_out_channels1_0,axe_yy1_0,axe_out_channels1_1,axe_xx1_0;112;axe_out_channels1_0,axe_yy1_0,axe_out_channels1_1,axe_xx1_0,axe_in_channels1_0,axe_w1_0,axe_h1_0,axe_xx1_1,axe_yy1_1,axe_in_channels1_1,axe_out_channels1_2;;;;F:2, Y:2, F:2, C:2, X:14, W:3, H:3, X:1, Y:7, C:64, F:64, ;165.13814783096313
53;2;ResNet18_07;0.25297230000000004;0.001374573464751888;1;axe_out_channels1_0,axe_yy1_0,axe_out_channels1_1,axe_xx1_0;112;axe_in_channels1_0,axe_out_channels1_0,axe_yy1_0,axe_out_channels1_1,axe_xx1_0,axe_w1_0,axe_h1_0,axe_xx1_1,axe_yy1_1,axe_in_channels1_1,axe_out_channels1_2;;;;F:2, Y:2, F:2, C:2, X:14, W:3, H:3, X:1, Y:7, C:64, F:64, ;166.12210988998413
54;0;ResNet18_07;0.38799059999999996;0.025521920097045996;1;axe_xx1_0;14;axe_out_channels1_0,axe_yy1_0,axe_out_channels1_1,axe_in_channels1_0,axe_xx1_0,axe_w1_0,axe_h1_0,axe_xx1_1,axe_yy1_1,axe_in_channels1_1,axe_out_channels1_2;;;;F:4, Y:2, F:1, C:2, X:14, W:3, H:3, X:1, Y:7, C:64, F:64, ;167.12526154518127
54;1;ResNet18_07;0.1317621;0.002520956185656546;1;axe_out_channels1_0,axe_yy1_0,axe_out_channels1_1,axe_xx1_0;112;axe_out_channels1_0,axe_yy1_0,axe_out_channels1_1,axe_xx1_0,axe_in_channels1_0,axe_w1_0,axe_h1_0,axe_xx1_1,axe_yy1_1,axe_in_channels1_1,axe_out_channels1_2;;;;F:4, Y:2, F:1, C:2, X:14, W:3, H:3, X:1, Y:7, C:64, F:64, ;168.1337025165558
54;2;ResNet18_07;0.13653089999999998;0.0008870896741592711;1;axe_out_channels1_0,axe_yy1_0,axe_out_channels1_1,axe_xx1_0;112;axe_in_channels1_0,axe_out_channels1_0,axe_yy1_0,axe_out_channels1_1,axe_xx1_0,axe_w1_0,axe_h1_0,axe_xx1_1,axe_yy1_1,axe_in_channels1_1,axe_out_channels1_2;;;;F:4, Y:2, F:1, C:2, X:14, W:3, H:3, X:1, Y:7, C:64, F:64, ;169.08902764320374
55;0;ResNet18_07;0.2133121;0.0004485838717564418;1;axe_xx1_0;14;axe_out_channels1_0,axe_yy1_0,axe_out_channels1_1,axe_in_channels1_0,axe_xx1_0,axe_w1_0,axe_h1_0,axe_xx1_1,axe_yy1_1,axe_in_channels1_1,axe_out_channels1_2;;;;F:1, Y:2, F:4, C:2, X:14, W:3, H:3, X:1, Y:7, C:64, F:64, ;170.10311341285706
55;1;ResNet18_07;0.1264966;0.0010624918070272333;1;axe_out_channels1_0,axe_yy1_0,axe_out_channels1_1,axe_xx1_0;112;axe_out_channels1_0,axe_yy1_0,axe_out_channels1_1,axe_xx1_0,axe_in_channels1_0,axe_w1_0,axe_h1_0,axe_xx1_1,axe_yy1_1,axe_in_channels1_1,axe_out_channels1_2;;;;F:1, Y:2, F:4, C:2, X:14, W:3, H:3, X:1, Y:7, C:64, F:64, ;171.10004806518555
55;2;ResNet18_07;0.13421080000000002;0.0007714285190476158;1;axe_out_channels1_0,axe_yy1_0,axe_out_channels1_1,axe_xx1_0;112;axe_in_channels1_0,axe_out_channels1_0,axe_yy1_0,axe_out_channels1_1,axe_xx1_0,axe_w1_0,axe_h1_0,axe_xx1_1,axe_yy1_1,axe_in_channels1_1,axe_out_channels1_2;;;;F:1, Y:2, F:4, C:2, X:14, W:3, H:3, X:1, Y:7, C:64, F:64, ;172.09919261932373
56;0;ResNet18_07;0.40693630000000003;0.039127591799266156;1;axe_xx1_0;14;axe_out_channels1_0,axe_yy1_0,axe_out_channels1_1,axe_in_channels1_0,axe_xx1_0,axe_w1_0,axe_h1_0,axe_xx1_1,axe_yy1_1,axe_in_channels1_1,axe_out_channels1_2;;;;F:2, Y:2, F:2, C:2, X:14, W:3, H:3, X:1, Y:7, C:64, F:64, ;173.13434886932373
56;1;ResNet18_07;0.23520219999999997;0.0005929601672962589;1;axe_out_channels1_0,axe_yy1_0,axe_out_channels1_1,axe_xx1_0;112;axe_out_channels1_0,axe_yy1_0,axe_out_channels1_1,axe_xx1_0,axe_in_channels1_0,axe_w1_0,axe_h1_0,axe_xx1_1,axe_yy1_1,axe_in_channels1_1,axe_out_channels1_2;;;;F:2, Y:2, F:2, C:2, X:14, W:3, H:3, X:1, Y:7, C:64, F:64, ;174.15031599998474
56;2;ResNet18_07;0.1332209;0.0011205079607035369;1;axe_out_channels1_0,axe_yy1_0,axe_out_channels1_1,axe_xx1_0;112;axe_in_channels1_0,axe_out_channels1_0,axe_yy1_0,axe_out_channels1_1,axe_xx1_0,axe_w1_0,axe_h1_0,axe_xx1_1,axe_yy1_1,axe_in_channels1_1,axe_out_channels1_2;;;;F:2, Y:2, F:2, C:2, X:14, W:3, H:3, X:1, Y:7, C:64, F:64, ;175.1612982749939
57;0;ResNet18_07;0.447018;0.0009585234478091742;1;axe_xx1_0;14;axe_out_channels1_0,axe_yy1_0,axe_out_channels1_1,axe_in_channels1_0,axe_xx1_0,axe_w1_0,axe_h1_0,axe_xx1_1,axe_yy1_1,axe_in_channels1_1,axe_out_channels1_2;;;;F:4, Y:2, F:1, C:2, X:14, W:3, H:3, X:1, Y:7, C:64, F:64, ;176.1971616744995
57;1;ResNet18_07;0.2323271;0.0005460123533401095;1;axe_out_channels1_0,axe_yy1_0,axe_out_channels1_1,axe_xx1_0;112;axe_out_channels1_0,axe_yy1_0,axe_out_channels1_1,axe_xx1_0,axe_in_channels1_0,axe_w1_0,axe_h1_0,axe_xx1_1,axe_yy1_1,axe_in_channels1_1,axe_out_channels1_2;;;;F:4, Y:2, F:1, C:2, X:14, W:3, H:3, X:1, Y:7, C:64, F:64, ;177.21372389793396
57;2;ResNet18_07;0.1329448;0.0010989893357080426;1;axe_out_channels1_0,axe_yy1_0,axe_out_channels1_1,axe_xx1_0;112;axe_in_channels1_0,axe_out_channels1_0,axe_yy1_0,axe_out_channels1_1,axe_xx1_0,axe_w1_0,axe_h1_0,axe_xx1_1,axe_yy1_1,axe_in_channels1_1,axe_out_channels1_2;;;;F:4, Y:2, F:1, C:2, X:14, W:3, H:3, X:1, Y:7, C:64, F:64, ;178.2253453731537
58;0;ResNet18_07;0.2344518;0.0006459375821238442;2;axe_xx1_0;14;axe_out_channels1_0,axe_yy1_0,axe_out_channels1_1,axe_in_channels1_0,axe_xx1_0,axe_w1_0,axe_h1_0,axe_xx1_1,axe_yy1_1,axe_in_channels1_1,axe_out_channels1_2;axe_xx2_0;14;axe_out_channels2_0,axe_yy2_0,axe_out_channels2_1,axe_in_channels2_0,axe_xx2_0,axe_w2_0,axe_h2_0,axe_xx2_1,axe_yy2_1,axe_in_channels2_1,axe_out_channels2_2;F:1, Y:1, F:4, C:1, X:14, W:3, H:3, X:1, Y:4, C:128, F:64, ;179.3927412033081
58;1;ResNet18_07;0.1665705;0.0007927366838995136;2;axe_out_channels1_0,axe_yy1_0,axe_out_channels1_1,axe_xx1_0;56;axe_out_channels1_0,axe_yy1_0,axe_out_channels1_1,axe_xx1_0,axe_in_channels1_0,axe_w1_0,axe_h1_0,axe_xx1_1,axe_yy1_1,axe_in_channels1_1,axe_out_channels1_2;axe_out_channels2_0,axe_yy2_0,axe_out_channels2_1,axe_xx2_0;112;axe_out_channels2_0,axe_yy2_0,axe_out_channels2_1,axe_xx2_0,axe_in_channels2_0,axe_w2_0,axe_h2_0,axe_xx2_1,axe_yy2_1,axe_in_channels2_1,axe_out_channels2_2;F:1, Y:1, F:4, C:1, X:14, W:3, H:3, X:1, Y:4, C:128, F:64, ;180.5146746635437
58;2;ResNet18_07;0.1740812;0.0015098833597334547;2;axe_out_channels1_0,axe_yy1_0,axe_out_channels1_1,axe_xx1_0;56;axe_in_channels1_0,axe_out_channels1_0,axe_yy1_0,axe_out_channels1_1,axe_xx1_0,axe_w1_0,axe_h1_0,axe_xx1_1,axe_yy1_1,axe_in_channels1_1,axe_out_channels1_2;axe_out_channels2_0,axe_yy2_0,axe_out_channels2_1,axe_xx2_0;112;axe_in_channels2_0,axe_out_channels2_0,axe_yy2_0,axe_out_channels2_1,axe_xx2_0,axe_w2_0,axe_h2_0,axe_xx2_1,axe_yy2_1,axe_in_channels2_1,axe_out_channels2_2;F:1, Y:1, F:4, C:1, X:14, W:3, H:3, X:1, Y:4, C:128, F:64, ;181.69066643714905
59;0;ResNet18_07;0.4360919;0.025786297874840425;2;axe_xx1_0;14;axe_out_channels1_0,axe_yy1_0,axe_out_channels1_1,axe_in_channels1_0,axe_xx1_0,axe_w1_0,axe_h1_0,axe_xx1_1,axe_yy1_1,axe_in_channels1_1,axe_out_channels1_2;axe_xx2_0;14;axe_out_channels2_0,axe_yy2_0,axe_out_channels2_1,axe_in_channels2_0,axe_xx2_0,axe_w2_0,axe_h2_0,axe_xx2_1,axe_yy2_1,axe_in_channels2_1,axe_out_channels2_2;F:2, Y:1, F:2, C:1, X:14, W:3, H:3, X:1, Y:4, C:128, F:64, ;182.8796136379242
59;1;ResNet18_07;0.1638618;0.0007870239894691907;2;axe_out_channels1_0,axe_yy1_0,axe_out_channels1_1,axe_xx1_0;56;axe_out_channels1_0,axe_yy1_0,axe_out_channels1_1,axe_xx1_0,axe_in_channels1_0,axe_w1_0,axe_h1_0,axe_xx1_1,axe_yy1_1,axe_in_channels1_1,axe_out_channels1_2;axe_out_channels2_0,axe_yy2_0,axe_out_channels2_1,axe_xx2_0;112;axe_out_channels2_0,axe_yy2_0,axe_out_channels2_1,axe_xx2_0,axe_in_channels2_0,axe_w2_0,axe_h2_0,axe_xx2_1,axe_yy2_1,axe_in_channels2_1,axe_out_channels2_2;F:2, Y:1, F:2, C:1, X:14, W:3, H:3, X:1, Y:4, C:128, F:64, ;184.01884579658508
59;2;ResNet18_07;0.17040289999999997;0.001300473025479575;2;axe_out_channels1_0,axe_yy1_0,axe_out_channels1_1,axe_xx1_0;56;axe_in_channels1_0,axe_out_channels1_0,axe_yy1_0,axe_out_channels1_1,axe_xx1_0,axe_w1_0,axe_h1_0,axe_xx1_1,axe_yy1_1,axe_in_channels1_1,axe_out_channels1_2;axe_out_channels2_0,axe_yy2_0,axe_out_channels2_1,axe_xx2_0;112;axe_in_channels2_0,axe_out_channels2_0,axe_yy2_0,axe_out_channels2_1,axe_xx2_0,axe_w2_0,axe_h2_0,axe_xx2_1,axe_yy2_1,axe_in_channels2_1,axe_out_channels2_2;F:2, Y:1, F:2, C:1, X:14, W:3, H:3, X:1, Y:4, C:128, F:64, ;185.17565393447876
60;0;ResNet18_07;0.46805969999999997;0.0009569884064083501;2;axe_xx1_0;14;axe_out_channels1_0,axe_yy1_0,axe_out_channels1_1,axe_in_channels1_0,axe_xx1_0,axe_w1_0,axe_h1_0,axe_xx1_1,axe_yy1_1,axe_in_channels1_1,axe_out_channels1_2;axe_xx2_0;14;axe_out_channels2_0,axe_yy2_0,axe_out_channels2_1,axe_in_channels2_0,axe_xx2_0,axe_w2_0,axe_h2_0,axe_xx2_1,axe_yy2_1,axe_in_channels2_1,axe_out_channels2_2;F:4, Y:1, F:1, C:1, X:14, W:3, H:3, X:1, Y:4, C:128, F:64, ;186.36674976348877
60;1;ResNet18_07;0.1620668;0.0009687382308962498;2;axe_out_channels1_0,axe_yy1_0,axe_out_channels1_1,axe_xx1_0;56;axe_out_channels1_0,axe_yy1_0,axe_out_channels1_1,axe_xx1_0,axe_in_channels1_0,axe_w1_0,axe_h1_0,axe_xx1_1,axe_yy1_1,axe_in_channels1_1,axe_out_channels1_2;axe_out_channels2_0,axe_yy2_0,axe_out_channels2_1,axe_xx2_0;112;axe_out_channels2_0,axe_yy2_0,axe_out_channels2_1,axe_xx2_0,axe_in_channels2_0,axe_w2_0,axe_h2_0,axe_xx2_1,axe_yy2_1,axe_in_channels2_1,axe_out_channels2_2;F:4, Y:1, F:1, C:1, X:14, W:3, H:3, X:1, Y:4, C:128, F:64, ;187.549298286438
60;2;ResNet18_07;0.1706161;0.0008279275874132964;2;axe_out_channels1_0,axe_yy1_0,axe_out_channels1_1,axe_xx1_0;56;axe_in_channels1_0,axe_out_channels1_0,axe_yy1_0,axe_out_channels1_1,axe_xx1_0,axe_w1_0,axe_h1_0,axe_xx1_1,axe_yy1_1,axe_in_channels1_1,axe_out_channels1_2;axe_out_channels2_0,axe_yy2_0,axe_out_channels2_1,axe_xx2_0;112;axe_in_channels2_0,axe_out_channels2_0,axe_yy2_0,axe_out_channels2_1,axe_xx2_0,axe_w2_0,axe_h2_0,axe_xx2_1,axe_yy2_1,axe_in_channels2_1,axe_out_channels2_2;F:4, Y:1, F:1, C:1, X:14, W:3, H:3, X:1, Y:4, C:128, F:64, ;188.67520928382874
61;0;ResNet18_07;0.43148159999999997;0.029131761873254433;2;axe_xx1_0;14;axe_out_channels1_0,axe_yy1_0,axe_out_channels1_1,axe_in_channels1_0,axe_xx1_0,axe_w1_0,axe_h1_0,axe_xx1_1,axe_yy1_1,axe_in_channels1_1,axe_out_channels1_2;axe_xx2_0;14;axe_out_channels2_0,axe_yy2_0,axe_out_channels2_1,axe_in_channels2_0,axe_xx2_0,axe_w2_0,axe_h2_0,axe_xx2_1,axe_yy2_1,axe_in_channels2_1,axe_out_channels2_2;F:1, Y:2, F:4, C:1, X:14, W:3, H:3, X:1, Y:4, C:128, F:64, ;189.87178015708923
61;1;ResNet18_07;0.2855564;0.0013753292842079731;2;axe_out_channels1_0,axe_yy1_0,axe_out_channels1_1,axe_xx1_0;112;axe_out_channels1_0,axe_yy1_0,axe_out_channels1_1,axe_xx1_0,axe_in_channels1_0,axe_w1_0,axe_h1_0,axe_xx1_1,axe_yy1_1,axe_in_channels1_1,axe_out_channels1_2;axe_out_channels2_0,axe_yy2_0,axe_out_channels2_1,axe_xx2_0;56;axe_out_channels2_0,axe_yy2_0,axe_out_channels2_1,axe_xx2_0,axe_in_channels2_0,axe_w2_0,axe_h2_0,axe_xx2_1,axe_yy2_1,axe_in_channels2_1,axe_out_channels2_2;F:1, Y:2, F:4, C:1, X:14, W:3, H:3, X:1, Y:4, C:128, F:64, ;191.0443205833435
61;2;ResNet18_07;0.17547580000000002;0.0010964517134830882;2;axe_out_channels1_0,axe_yy1_0,axe_out_channels1_1,axe_xx1_0;112;axe_in_channels1_0,axe_out_channels1_0,axe_yy1_0,axe_out_channels1_1,axe_xx1_0,axe_w1_0,axe_h1_0,axe_xx1_1,axe_yy1_1,axe_in_channels1_1,axe_out_channels1_2;axe_out_channels2_0,axe_yy2_0,axe_out_channels2_1,axe_xx2_0;56;axe_in_channels2_0,axe_out_channels2_0,axe_yy2_0,axe_out_channels2_1,axe_xx2_0,axe_w2_0,axe_h2_0,axe_xx2_1,axe_yy2_1,axe_in_channels2_1,axe_out_channels2_2;F:1, Y:2, F:4, C:1, X:14, W:3, H:3, X:1, Y:4, C:128, F:64, ;192.20539951324463
62;0;ResNet18_07;0.23340449999999996;0.0007699580832746651;2;axe_xx1_0;14;axe_out_channels1_0,axe_yy1_0,axe_out_channels1_1,axe_in_channels1_0,axe_xx1_0,axe_w1_0,axe_h1_0,axe_xx1_1,axe_yy1_1,axe_in_channels1_1,axe_out_channels1_2;axe_xx2_0;14;axe_out_channels2_0,axe_yy2_0,axe_out_channels2_1,axe_in_channels2_0,axe_xx2_0,axe_w2_0,axe_h2_0,axe_xx2_1,axe_yy2_1,axe_in_channels2_1,axe_out_channels2_2;F:2, Y:2, F:2, C:1, X:14, W:3, H:3, X:1, Y:4, C:128, F:64, ;193.36943936347961
62;1;ResNet18_07;0.26462260000000004;0.05903087249262033;2;axe_out_channels1_0,axe_yy1_0,axe_out_channels1_1,axe_xx1_0;112;axe_out_channels1_0,axe_yy1_0,axe_out_channels1_1,axe_xx1_0,axe_in_channels1_0,axe_w1_0,axe_h1_0,axe_xx1_1,axe_yy1_1,axe_in_channels1_1,axe_out_channels1_2;axe_out_channels2_0,axe_yy2_0,axe_out_channels2_1,axe_xx2_0;56;axe_out_channels2_0,axe_yy2_0,axe_out_channels2_1,axe_xx2_0,axe_in_channels2_0,axe_w2_0,axe_h2_0,axe_xx2_1,axe_yy2_1,axe_in_channels2_1,axe_out_channels2_2;F:2, Y:2, F:2, C:1, X:14, W:3, H:3, X:1, Y:4, C:128, F:64, ;194.5281183719635
62;2;ResNet18_07;0.17117530000000003;0.0004244608462508605;2;axe_out_channels1_0,axe_yy1_0,axe_out_channels1_1,axe_xx1_0;112;axe_in_channels1_0,axe_out_channels1_0,axe_yy1_0,axe_out_channels1_1,axe_xx1_0,axe_w1_0,axe_h1_0,axe_xx1_1,axe_yy1_1,axe_in_channels1_1,axe_out_channels1_2;axe_out_channels2_0,axe_yy2_0,axe_out_channels2_1,axe_xx2_0;56;axe_in_channels2_0,axe_out_channels2_0,axe_yy2_0,axe_out_channels2_1,axe_xx2_0,axe_w2_0,axe_h2_0,axe_xx2_1,axe_yy2_1,axe_in_channels2_1,axe_out_channels2_2;F:2, Y:2, F:2, C:1, X:14, W:3, H:3, X:1, Y:4, C:128, F:64, ;195.6826913356781
63;0;ResNet18_07;0.23221280000000002;0.0005123808739599935;2;axe_xx1_0;14;axe_out_channels1_0,axe_yy1_0,axe_out_channels1_1,axe_in_channels1_0,axe_xx1_0,axe_w1_0,axe_h1_0,axe_xx1_1,axe_yy1_1,axe_in_channels1_1,axe_out_channels1_2;axe_xx2_0;14;axe_out_channels2_0,axe_yy2_0,axe_out_channels2_1,axe_in_channels2_0,axe_xx2_0,axe_w2_0,axe_h2_0,axe_xx2_1,axe_yy2_1,axe_in_channels2_1,axe_out_channels2_2;F:4, Y:2, F:1, C:1, X:14, W:3, H:3, X:1, Y:4, C:128, F:64, ;196.8380355834961
63;1;ResNet18_07;0.3191354;0.0028854804175388205;2;axe_out_channels1_0,axe_yy1_0,axe_out_channels1_1,axe_xx1_0;112;axe_out_channels1_0,axe_yy1_0,axe_out_channels1_1,axe_xx1_0,axe_in_channels1_0,axe_w1_0,axe_h1_0,axe_xx1_1,axe_yy1_1,axe_in_channels1_1,axe_out_channels1_2;axe_out_channels2_0,axe_yy2_0,axe_out_channels2_1,axe_xx2_0;56;axe_out_channels2_0,axe_yy2_0,axe_out_channels2_1,axe_xx2_0,axe_in_channels2_0,axe_w2_0,axe_h2_0,axe_xx2_1,axe_yy2_1,axe_in_channels2_1,axe_out_channels2_2;F:4, Y:2, F:1, C:1, X:14, W:3, H:3, X:1, Y:4, C:128, F:64, ;197.9998791217804
63;2;ResNet18_07;0.16982440000000001;0.0007174061889891942;2;axe_out_channels1_0,axe_yy1_0,axe_out_channels1_1,axe_xx1_0;112;axe_in_channels1_0,axe_out_channels1_0,axe_yy1_0,axe_out_channels1_1,axe_xx1_0,axe_w1_0,axe_h1_0,axe_xx1_1,axe_yy1_1,axe_in_channels1_1,axe_out_channels1_2;axe_out_channels2_0,axe_yy2_0,axe_out_channels2_1,axe_xx2_0;56;axe_in_channels2_0,axe_out_channels2_0,axe_yy2_0,axe_out_channels2_1,axe_xx2_0,axe_w2_0,axe_h2_0,axe_xx2_1,axe_yy2_1,axe_in_channels2_1,axe_out_channels2_2;F:4, Y:2, F:1, C:1, X:14, W:3, H:3, X:1, Y:4, C:128, F:64, ;199.1502287387848
64;0;ResNet18_07;0.2726921;0.000934494777941533;2;axe_xx1_0;14;axe_out_channels1_0,axe_yy1_0,axe_out_channels1_1,axe_in_channels1_0,axe_xx1_0,axe_w1_0,axe_h1_0,axe_xx1_1,axe_yy1_1,axe_in_channels1_1,axe_out_channels1_2;axe_xx2_0;14;axe_out_channels2_0,axe_yy2_0,axe_out_channels2_1,axe_in_channels2_0,axe_xx2_0,axe_w2_0,axe_h2_0,axe_xx2_1,axe_yy2_1,axe_in_channels2_1,axe_out_channels2_2;F:1, Y:1, F:4, C:2, X:14, W:3, H:3, X:1, Y:4, C:64, F:64, ;200.30749607086182
64;1;ResNet18_07;0.2805348;0.0014010137615312656;2;axe_out_channels1_0,axe_yy1_0,axe_out_channels1_1,axe_xx1_0;56;axe_out_channels1_0,axe_yy1_0,axe_out_channels1_1,axe_xx1_0,axe_in_channels1_0,axe_w1_0,axe_h1_0,axe_xx1_1,axe_yy1_1,axe_in_channels1_1,axe_out_channels1_2;axe_out_channels2_0,axe_yy2_0,axe_out_channels2_1,axe_xx2_0;112;axe_out_channels2_0,axe_yy2_0,axe_out_channels2_1,axe_xx2_0,axe_in_channels2_0,axe_w2_0,axe_h2_0,axe_xx2_1,axe_yy2_1,axe_in_channels2_1,axe_out_channels2_2;F:1, Y:1, F:4, C:2, X:14, W:3, H:3, X:1, Y:4, C:64, F:64, ;201.48419332504272
64;2;ResNet18_07;0.16378009999999998;0.00068023943578713;2;axe_out_channels1_0,axe_yy1_0,axe_out_channels1_1,axe_xx1_0;56;axe_in_channels1_0,axe_out_channels1_0,axe_yy1_0,axe_out_channels1_1,axe_xx1_0,axe_w1_0,axe_h1_0,axe_xx1_1,axe_yy1_1,axe_in_channels1_1,axe_out_channels1_2;axe_out_channels2_0,axe_yy2_0,axe_out_channels2_1,axe_xx2_0;112;axe_in_channels2_0,axe_out_channels2_0,axe_yy2_0,axe_out_channels2_1,axe_xx2_0,axe_w2_0,axe_h2_0,axe_xx2_1,axe_yy2_1,axe_in_channels2_1,axe_out_channels2_2;F:1, Y:1, F:4, C:2, X:14, W:3, H:3, X:1, Y:4, C:64, F:64, ;202.6471815109253
65;0;ResNet18_07;0.2672663;0.0013938817776267792;2;axe_xx1_0;14;axe_out_channels1_0,axe_yy1_0,axe_out_channels1_1,axe_in_channels1_0,axe_xx1_0,axe_w1_0,axe_h1_0,axe_xx1_1,axe_yy1_1,axe_in_channels1_1,axe_out_channels1_2;axe_xx2_0;14;axe_out_channels2_0,axe_yy2_0,axe_out_channels2_1,axe_in_channels2_0,axe_xx2_0,axe_w2_0,axe_h2_0,axe_xx2_1,axe_yy2_1,axe_in_channels2_1,axe_out_channels2_2;F:2, Y:1, F:2, C:2, X:14, W:3, H:3, X:1, Y:4, C:64, F:64, ;203.82685208320618
65;1;ResNet18_07;0.16214599999999998;0.0009206903931289838;2;axe_out_channels1_0,axe_yy1_0,axe_out_channels1_1,axe_xx1_0;56;axe_out_channels1_0,axe_yy1_0,axe_out_channels1_1,axe_xx1_0,axe_in_channels1_0,axe_w1_0,axe_h1_0,axe_xx1_1,axe_yy1_1,axe_in_channels1_1,axe_out_channels1_2;axe_out_channels2_0,axe_yy2_0,axe_out_channels2_1,axe_xx2_0;112;axe_out_channels2_0,axe_yy2_0,axe_out_channels2_1,axe_xx2_0,axe_in_channels2_0,axe_w2_0,axe_h2_0,axe_xx2_1,axe_yy2_1,axe_in_channels2_1,axe_out_channels2_2;F:2, Y:1, F:2, C:2, X:14, W:3, H:3, X:1, Y:4, C:64, F:64, ;204.96554350852966
65;2;ResNet18_07;0.1624585;0.0009403557039758918;2;axe_out_channels1_0,axe_yy1_0,axe_out_channels1_1,axe_xx1_0;56;axe_in_channels1_0,axe_out_channels1_0,axe_yy1_0,axe_out_channels1_1,axe_xx1_0,axe_w1_0,axe_h1_0,axe_xx1_1,axe_yy1_1,axe_in_channels1_1,axe_out_channels1_2;axe_out_channels2_0,axe_yy2_0,axe_out_channels2_1,axe_xx2_0;112;axe_in_channels2_0,axe_out_channels2_0,axe_yy2_0,axe_out_channels2_1,axe_xx2_0,axe_w2_0,axe_h2_0,axe_xx2_1,axe_yy2_1,axe_in_channels2_1,axe_out_channels2_2;F:2, Y:1, F:2, C:2, X:14, W:3, H:3, X:1, Y:4, C:64, F:64, ;206.1136920452118
66;0;ResNet18_07;0.2699911;0.0010959098913688142;2;axe_xx1_0;14;axe_out_channels1_0,axe_yy1_0,axe_out_channels1_1,axe_in_channels1_0,axe_xx1_0,axe_w1_0,axe_h1_0,axe_xx1_1,axe_yy1_1,axe_in_channels1_1,axe_out_channels1_2;axe_xx2_0;14;axe_out_channels2_0,axe_yy2_0,axe_out_channels2_1,axe_in_channels2_0,axe_xx2_0,axe_w2_0,axe_h2_0,axe_xx2_1,axe_yy2_1,axe_in_channels2_1,axe_out_channels2_2;F:4, Y:1, F:1, C:2, X:14, W:3, H:3, X:1, Y:4, C:64, F:64, ;207.25928807258606
66;1;ResNet18_07;0.1582222;0.0015985140474828472;2;axe_out_channels1_0,axe_yy1_0,axe_out_channels1_1,axe_xx1_0;56;axe_out_channels1_0,axe_yy1_0,axe_out_channels1_1,axe_xx1_0,axe_in_channels1_0,axe_w1_0,axe_h1_0,axe_xx1_1,axe_yy1_1,axe_in_channels1_1,axe_out_channels1_2;axe_out_channels2_0,axe_yy2_0,axe_out_channels2_1,axe_xx2_0;112;axe_out_channels2_0,axe_yy2_0,axe_out_channels2_1,axe_xx2_0,axe_in_channels2_0,axe_w2_0,axe_h2_0,axe_xx2_1,axe_yy2_1,axe_in_channels2_1,axe_out_channels2_2;F:4, Y:1, F:1, C:2, X:14, W:3, H:3, X:1, Y:4, C:64, F:64, ;208.41514992713928
66;2;ResNet18_07;0.16074409999999997;0.0007718312574649948;2;axe_out_channels1_0,axe_yy1_0,axe_out_channels1_1,axe_xx1_0;56;axe_in_channels1_0,axe_out_channels1_0,axe_yy1_0,axe_out_channels1_1,axe_xx1_0,axe_w1_0,axe_h1_0,axe_xx1_1,axe_yy1_1,axe_in_channels1_1,axe_out_channels1_2;axe_out_channels2_0,axe_yy2_0,axe_out_channels2_1,axe_xx2_0;112;axe_in_channels2_0,axe_out_channels2_0,axe_yy2_0,axe_out_channels2_1,axe_xx2_0,axe_w2_0,axe_h2_0,axe_xx2_1,axe_yy2_1,axe_in_channels2_1,axe_out_channels2_2;F:4, Y:1, F:1, C:2, X:14, W:3, H:3, X:1, Y:4, C:64, F:64, ;209.56976985931396
67;0;ResNet18_07;0.5258257000000001;0.05312029431780287;2;axe_xx1_0;14;axe_out_channels1_0,axe_yy1_0,axe_out_channels1_1,axe_in_channels1_0,axe_xx1_0,axe_w1_0,axe_h1_0,axe_xx1_1,axe_yy1_1,axe_in_channels1_1,axe_out_channels1_2;axe_xx2_0;14;axe_out_channels2_0,axe_yy2_0,axe_out_channels2_1,axe_in_channels2_0,axe_xx2_0,axe_w2_0,axe_h2_0,axe_xx2_1,axe_yy2_1,axe_in_channels2_1,axe_out_channels2_2;F:1, Y:2, F:4, C:2, X:14, W:3, H:3, X:1, Y:4, C:64, F:64, ;210.77551531791687
67;1;ResNet18_07;0.3223773;0.001523418921373897;2;axe_out_channels1_0,axe_yy1_0,axe_out_channels1_1,axe_xx1_0;112;axe_out_channels1_0,axe_yy1_0,axe_out_channels1_1,axe_xx1_0,axe_in_channels1_0,axe_w1_0,axe_h1_0,axe_xx1_1,axe_yy1_1,axe_in_channels1_1,axe_out_channels1_2;axe_out_channels2_0,axe_yy2_0,axe_out_channels2_1,axe_xx2_0;56;axe_out_channels2_0,axe_yy2_0,axe_out_channels2_1,axe_xx2_0,axe_in_channels2_0,axe_w2_0,axe_h2_0,axe_xx2_1,axe_yy2_1,axe_in_channels2_1,axe_out_channels2_2;F:1, Y:2, F:4, C:2, X:14, W:3, H:3, X:1, Y:4, C:64, F:64, ;211.9763641357422
67;2;ResNet18_07;0.1624102;0.0012762139945949492;2;axe_out_channels1_0,axe_yy1_0,axe_out_channels1_1,axe_xx1_0;112;axe_in_channels1_0,axe_out_channels1_0,axe_yy1_0,axe_out_channels1_1,axe_xx1_0,axe_w1_0,axe_h1_0,axe_xx1_1,axe_yy1_1,axe_in_channels1_1,axe_out_channels1_2;axe_out_channels2_0,axe_yy2_0,axe_out_channels2_1,axe_xx2_0;56;axe_in_channels2_0,axe_out_channels2_0,axe_yy2_0,axe_out_channels2_1,axe_xx2_0,axe_w2_0,axe_h2_0,axe_xx2_1,axe_yy2_1,axe_in_channels2_1,axe_out_channels2_2;F:1, Y:2, F:4, C:2, X:14, W:3, H:3, X:1, Y:4, C:64, F:64, ;213.14520382881165
68;0;ResNet18_07;0.2682957;0.0010101631600885137;2;axe_xx1_0;14;axe_out_channels1_0,axe_yy1_0,axe_out_channels1_1,axe_in_channels1_0,axe_xx1_0,axe_w1_0,axe_h1_0,axe_xx1_1,axe_yy1_1,axe_in_channels1_1,axe_out_channels1_2;axe_xx2_0;14;axe_out_channels2_0,axe_yy2_0,axe_out_channels2_1,axe_in_channels2_0,axe_xx2_0,axe_w2_0,axe_h2_0,axe_xx2_1,axe_yy2_1,axe_in_channels2_1,axe_out_channels2_2;F:2, Y:2, F:2, C:2, X:14, W:3, H:3, X:1, Y:4, C:64, F:64, ;214.35886025428772
68;1;ResNet18_07;0.3089539;0.001940587666146533;2;axe_out_channels1_0,axe_yy1_0,axe_out_channels1_1,axe_xx1_0;112;axe_out_channels1_0,axe_yy1_0,axe_out_channels1_1,axe_xx1_0,axe_in_channels1_0,axe_w1_0,axe_h1_0,axe_xx1_1,axe_yy1_1,axe_in_channels1_1,axe_out_channels1_2;axe_out_channels2_0,axe_yy2_0,axe_out_channels2_1,axe_xx2_0;56;axe_out_channels2_0,axe_yy2_0,axe_out_channels2_1,axe_xx2_0,axe_in_channels2_0,axe_w2_0,axe_h2_0,axe_xx2_1,axe_yy2_1,axe_in_channels2_1,axe_out_channels2_2;F:2, Y:2, F:2, C:2, X:14, W:3, H:3, X:1, Y:4, C:64, F:64, ;215.54360842704773
68;2;ResNet18_07;0.2883583;0.0010477456800197205;2;axe_out_channels1_0,axe_yy1_0,axe_out_channels1_1,axe_xx1_0;112;axe_in_channels1_0,axe_out_channels1_0,axe_yy1_0,axe_out_channels1_1,axe_xx1_0,axe_w1_0,axe_h1_0,axe_xx1_1,axe_yy1_1,axe_in_channels1_1,axe_out_channels1_2;axe_out_channels2_0,axe_yy2_0,axe_out_channels2_1,axe_xx2_0;56;axe_in_channels2_0,axe_out_channels2_0,axe_yy2_0,axe_out_channels2_1,axe_xx2_0,axe_w2_0,axe_h2_0,axe_xx2_1,axe_yy2_1,axe_in_channels2_1,axe_out_channels2_2;F:2, Y:2, F:2, C:2, X:14, W:3, H:3, X:1, Y:4, C:64, F:64, ;216.73190784454346
69;0;ResNet18_07;0.5275827000000001;0.054882930694433604;2;axe_xx1_0;14;axe_out_channels1_0,axe_yy1_0,axe_out_channels1_1,axe_in_channels1_0,axe_xx1_0,axe_w1_0,axe_h1_0,axe_xx1_1,axe_yy1_1,axe_in_channels1_1,axe_out_channels1_2;axe_xx2_0;14;axe_out_channels2_0,axe_yy2_0,axe_out_channels2_1,axe_in_channels2_0,axe_xx2_0,axe_w2_0,axe_h2_0,axe_xx2_1,axe_yy2_1,axe_in_channels2_1,axe_out_channels2_2;F:4, Y:2, F:1, C:2, X:14, W:3, H:3, X:1, Y:4, C:64, F:64, ;217.9555459022522
69;1;ResNet18_07;0.1600954;0.0007826957518729764;2;axe_out_channels1_0,axe_yy1_0,axe_out_channels1_1,axe_xx1_0;112;axe_out_channels1_0,axe_yy1_0,axe_out_channels1_1,axe_xx1_0,axe_in_channels1_0,axe_w1_0,axe_h1_0,axe_xx1_1,axe_yy1_1,axe_in_channels1_1,axe_out_channels1_2;axe_out_channels2_0,axe_yy2_0,axe_out_channels2_1,axe_xx2_0;56;axe_out_channels2_0,axe_yy2_0,axe_out_channels2_1,axe_xx2_0,axe_in_channels2_0,axe_w2_0,axe_h2_0,axe_xx2_1,axe_yy2_1,axe_in_channels2_1,axe_out_channels2_2;F:4, Y:2, F:1, C:2, X:14, W:3, H:3, X:1, Y:4, C:64, F:64, ;219.13511204719543
69;2;ResNet18_07;0.15972959999999997;0.0007001267313851058;2;axe_out_channels1_0,axe_yy1_0,axe_out_channels1_1,axe_xx1_0;112;axe_in_channels1_0,axe_out_channels1_0,axe_yy1_0,axe_out_channels1_1,axe_xx1_0,axe_w1_0,axe_h1_0,axe_xx1_1,axe_yy1_1,axe_in_channels1_1,axe_out_channels1_2;axe_out_channels2_0,axe_yy2_0,axe_out_channels2_1,axe_xx2_0;56;axe_in_channels2_0,axe_out_channels2_0,axe_yy2_0,axe_out_channels2_1,axe_xx2_0,axe_w2_0,axe_h2_0,axe_xx2_1,axe_yy2_1,axe_in_channels2_1,axe_out_channels2_2;F:4, Y:2, F:1, C:2, X:14, W:3, H:3, X:1, Y:4, C:64, F:64, ;220.285950422287
70;0;ResNet18_07;0.2029583;0.0009068905170967387;1;axe_xx1_0;14;axe_out_channels1_0,axe_yy1_0,axe_out_channels1_1,axe_in_channels1_0,axe_xx1_0,axe_w1_0,axe_h1_0,axe_xx1_1,axe_yy1_1,axe_in_channels1_1,axe_out_channels1_2;;;;F:1, Y:2, F:4, C:1, X:14, W:3, H:3, X:1, Y:7, C:128, F:64, ;221.31524682044983
70;1;ResNet18_07;0.2555381;0.001169926446405931;1;axe_out_channels1_0,axe_yy1_0,axe_out_channels1_1,axe_xx1_0;112;axe_out_channels1_0,axe_yy1_0,axe_out_channels1_1,axe_xx1_0,axe_in_channels1_0,axe_w1_0,axe_h1_0,axe_xx1_1,axe_yy1_1,axe_in_channels1_1,axe_out_channels1_2;;;;F:1, Y:2, F:4, C:1, X:14, W:3, H:3, X:1, Y:7, C:128, F:64, ;222.31882977485657
70;2;ResNet18_07;0.1434679;0.001076880443689086;1;axe_out_channels1_0,axe_yy1_0,axe_out_channels1_1,axe_xx1_0;112;axe_in_channels1_0,axe_out_channels1_0,axe_yy1_0,axe_out_channels1_1,axe_xx1_0,axe_w1_0,axe_h1_0,axe_xx1_1,axe_yy1_1,axe_in_channels1_1,axe_out_channels1_2;;;;F:1, Y:2, F:4, C:1, X:14, W:3, H:3, X:1, Y:7, C:128, F:64, ;223.3222987651825
71;0;ResNet18_07;0.20220029999999997;0.0007884423948520264;1;axe_xx1_0;14;axe_out_channels1_0,axe_yy1_0,axe_out_channels1_1,axe_in_channels1_0,axe_xx1_0,axe_w1_0,axe_h1_0,axe_xx1_1,axe_yy1_1,axe_in_channels1_1,axe_out_channels1_2;;;;F:2, Y:2, F:2, C:1, X:14, W:3, H:3, X:1, Y:7, C:128, F:64, ;224.368408203125
71;1;ResNet18_07;0.25879280000000005;0.0016437875653502302;1;axe_out_channels1_0,axe_yy1_0,axe_out_channels1_1,axe_xx1_0;112;axe_out_channels1_0,axe_yy1_0,axe_out_channels1_1,axe_xx1_0,axe_in_channels1_0,axe_w1_0,axe_h1_0,axe_xx1_1,axe_yy1_1,axe_in_channels1_1,axe_out_channels1_2;;;;F:2, Y:2, F:2, C:1, X:14, W:3, H:3, X:1, Y:7, C:128, F:64, ;225.37490010261536
71;2;ResNet18_07;0.1425208;0.0011388682803555425;1;axe_out_channels1_0,axe_yy1_0,axe_out_channels1_1,axe_xx1_0;112;axe_in_channels1_0,axe_out_channels1_0,axe_yy1_0,axe_out_channels1_1,axe_xx1_0,axe_w1_0,axe_h1_0,axe_xx1_1,axe_yy1_1,axe_in_channels1_1,axe_out_channels1_2;;;;F:2, Y:2, F:2, C:1, X:14, W:3, H:3, X:1, Y:7, C:128, F:64, ;226.39036393165588
72;0;ResNet18_07;0.2022668;0.0008918955992715772;1;axe_xx1_0;14;axe_out_channels1_0,axe_yy1_0,axe_out_channels1_1,axe_in_channels1_0,axe_xx1_0,axe_w1_0,axe_h1_0,axe_xx1_1,axe_yy1_1,axe_in_channels1_1,axe_out_channels1_2;;;;F:4, Y:2, F:1, C:1, X:14, W:3, H:3, X:1, Y:7, C:128, F:64, ;227.41295433044434
72;1;ResNet18_07;0.25298529999999997;0.0013971365752853276;1;axe_out_channels1_0,axe_yy1_0,axe_out_channels1_1,axe_xx1_0;112;axe_out_channels1_0,axe_yy1_0,axe_out_channels1_1,axe_xx1_0,axe_in_channels1_0,axe_w1_0,axe_h1_0,axe_xx1_1,axe_yy1_1,axe_in_channels1_1,axe_out_channels1_2;;;;F:4, Y:2, F:1, C:1, X:14, W:3, H:3, X:1, Y:7, C:128, F:64, ;228.41465306282043
72;2;ResNet18_07;0.1438029;0.0012233534607790162;1;axe_out_channels1_0,axe_yy1_0,axe_out_channels1_1,axe_xx1_0;112;axe_in_channels1_0,axe_out_channels1_0,axe_yy1_0,axe_out_channels1_1,axe_xx1_0,axe_w1_0,axe_h1_0,axe_xx1_1,axe_yy1_1,axe_in_channels1_1,axe_out_channels1_2;;;;F:4, Y:2, F:1, C:1, X:14, W:3, H:3, X:1, Y:7, C:128, F:64, ;229.42241406440735
73;0;ResNet18_07;0.232269;0.0005142631622039456;1;axe_xx1_0;14;axe_out_channels1_0,axe_yy1_0,axe_out_channels1_1,axe_in_channels1_0,axe_xx1_0,axe_w1_0,axe_h1_0,axe_xx1_1,axe_yy1_1,axe_in_channels1_1,axe_out_channels1_2;;;;F:1, Y:2, F:4, C:2, X:14, W:3, H:3, X:1, Y:7, C:64, F:64, ;230.4539451599121
73;1;ResNet18_07;0.2736607;0.001458160282685002;1;axe_out_channels1_0,axe_yy1_0,axe_out_channels1_1,axe_xx1_0;112;axe_out_channels1_0,axe_yy1_0,axe_out_channels1_1,axe_xx1_0,axe_in_channels1_0,axe_w1_0,axe_h1_0,axe_xx1_1,axe_yy1_1,axe_in_channels1_1,axe_out_channels1_2;;;;F:1, Y:2, F:4, C:2, X:14, W:3, H:3, X:1, Y:7, C:64, F:64, ;231.46347570419312
73;2;ResNet18_07;0.15096179999999998;0.001396828751135952;1;axe_out_channels1_0,axe_yy1_0,axe_out_channels1_1,axe_xx1_0;112;axe_in_channels1_0,axe_out_channels1_0,axe_yy1_0,axe_out_channels1_1,axe_xx1_0,axe_w1_0,axe_h1_0,axe_xx1_1,axe_yy1_1,axe_in_channels1_1,axe_out_channels1_2;;;;F:1, Y:2, F:4, C:2, X:14, W:3, H:3, X:1, Y:7, C:64, F:64, ;232.48613142967224
74;0;ResNet18_07;0.23362829999999998;0.0005285152883313828;1;axe_xx1_0;14;axe_out_channels1_0,axe_yy1_0,axe_out_channels1_1,axe_in_channels1_0,axe_xx1_0,axe_w1_0,axe_h1_0,axe_xx1_1,axe_yy1_1,axe_in_channels1_1,axe_out_channels1_2;;;;F:2, Y:2, F:2, C:2, X:14, W:3, H:3, X:1, Y:7, C:64, F:64, ;233.51321363449097
74;1;ResNet18_07;0.14350849999999998;0.002169257488174242;1;axe_out_channels1_0,axe_yy1_0,axe_out_channels1_1,axe_xx1_0;112;axe_out_channels1_0,axe_yy1_0,axe_out_channels1_1,axe_xx1_0,axe_in_channels1_0,axe_w1_0,axe_h1_0,axe_xx1_1,axe_yy1_1,axe_in_channels1_1,axe_out_channels1_2;;;;F:2, Y:2, F:2, C:2, X:14, W:3, H:3, X:1, Y:7, C:64, F:64, ;234.50925135612488
74;2;ResNet18_07;0.14923559999999997;0.0007570461280529694;1;axe_out_channels1_0,axe_yy1_0,axe_out_channels1_1,axe_xx1_0;112;axe_in_channels1_0,axe_out_channels1_0,axe_yy1_0,axe_out_channels1_1,axe_xx1_0,axe_w1_0,axe_h1_0,axe_xx1_1,axe_yy1_1,axe_in_channels1_1,axe_out_channels1_2;;;;F:2, Y:2, F:2, C:2, X:14, W:3, H:3, X:1, Y:7, C:64, F:64, ;235.52080059051514
75;0;ResNet18_07;0.4191625;0.026977761687174865;1;axe_xx1_0;14;axe_out_channels1_0,axe_yy1_0,axe_out_channels1_1,axe_in_channels1_0,axe_xx1_0,axe_w1_0,axe_h1_0,axe_xx1_1,axe_yy1_1,axe_in_channels1_1,axe_out_channels1_2;;;;F:4, Y:2, F:1, C:2, X:14, W:3, H:3, X:1, Y:7, C:64, F:64, ;236.54260754585266
75;1;ResNet18_07;0.2748068;0.0021519668120117386;1;axe_out_channels1_0,axe_yy1_0,axe_out_channels1_1,axe_xx1_0;112;axe_out_channels1_0,axe_yy1_0,axe_out_channels1_1,axe_xx1_0,axe_in_channels1_0,axe_w1_0,axe_h1_0,axe_xx1_1,axe_yy1_1,axe_in_channels1_1,axe_out_channels1_2;;;;F:4, Y:2, F:1, C:2, X:14, W:3, H:3, X:1, Y:7, C:64, F:64, ;237.55147504806519
75;2;ResNet18_07;0.2511855;0.062096249085190326;1;axe_out_channels1_0,axe_yy1_0,axe_out_channels1_1,axe_xx1_0;112;axe_in_channels1_0,axe_out_channels1_0,axe_yy1_0,axe_out_channels1_1,axe_xx1_0,axe_w1_0,axe_h1_0,axe_xx1_1,axe_yy1_1,axe_in_channels1_1,axe_out_channels1_2;;;;F:4, Y:2, F:1, C:2, X:14, W:3, H:3, X:1, Y:7, C:64, F:64, ;238.5634961128235
