/usr/local/lib/python3.7/dist-packages/xgboost/training.py:17: UserWarning: Old style callback is deprecated.  See: https://xgboost.readthedocs.io/en/latest/python/callbacks.html
  warnings.warn(f'Old style callback is deprecated.  See: {link}', UserWarning)
/usr/local/lib/python3.7/dist-packages/xgboost/training.py:17: UserWarning: Old style callback is deprecated.  See: https://xgboost.readthedocs.io/en/latest/python/callbacks.html
  warnings.warn(f'Old style callback is deprecated.  See: {link}', UserWarning)
/usr/local/lib/python3.7/dist-packages/xgboost/training.py:17: UserWarning: Old style callback is deprecated.  See: https://xgboost.readthedocs.io/en/latest/python/callbacks.html
  warnings.warn(f'Old style callback is deprecated.  See: {link}', UserWarning)
/usr/local/lib/python3.7/dist-packages/xgboost/training.py:17: UserWarning: Old style callback is deprecated.  See: https://xgboost.readthedocs.io/en/latest/python/callbacks.html
  warnings.warn(f'Old style callback is deprecated.  See: {link}', UserWarning)
/usr/local/lib/python3.7/dist-packages/xgboost/training.py:17: UserWarning: Old style callback is deprecated.  See: https://xgboost.readthedocs.io/en/latest/python/callbacks.html
  warnings.warn(f'Old style callback is deprecated.  See: {link}', UserWarning)
/usr/local/lib/python3.7/dist-packages/xgboost/training.py:17: UserWarning: Old style callback is deprecated.  See: https://xgboost.readthedocs.io/en/latest/python/callbacks.html
  warnings.warn(f'Old style callback is deprecated.  See: {link}', UserWarning)
/usr/local/lib/python3.7/dist-packages/xgboost/training.py:17: UserWarning: Old style callback is deprecated.  See: https://xgboost.readthedocs.io/en/latest/python/callbacks.html
  warnings.warn(f'Old style callback is deprecated.  See: {link}', UserWarning)
/usr/local/lib/python3.7/dist-packages/xgboost/training.py:17: UserWarning: Old style callback is deprecated.  See: https://xgboost.readthedocs.io/en/latest/python/callbacks.html
  warnings.warn(f'Old style callback is deprecated.  See: {link}', UserWarning)
/usr/local/lib/python3.7/dist-packages/xgboost/training.py:17: UserWarning: Old style callback is deprecated.  See: https://xgboost.readthedocs.io/en/latest/python/callbacks.html
  warnings.warn(f'Old style callback is deprecated.  See: {link}', UserWarning)
/usr/local/lib/python3.7/dist-packages/xgboost/training.py:17: UserWarning: Old style callback is deprecated.  See: https://xgboost.readthedocs.io/en/latest/python/callbacks.html
  warnings.warn(f'Old style callback is deprecated.  See: {link}', UserWarning)
/usr/local/lib/python3.7/dist-packages/xgboost/training.py:17: UserWarning: Old style callback is deprecated.  See: https://xgboost.readthedocs.io/en/latest/python/callbacks.html
  warnings.warn(f'Old style callback is deprecated.  See: {link}', UserWarning)
/usr/local/lib/python3.7/dist-packages/xgboost/training.py:17: UserWarning: Old style callback is deprecated.  See: https://xgboost.readthedocs.io/en/latest/python/callbacks.html
  warnings.warn(f'Old style callback is deprecated.  See: {link}', UserWarning)
/usr/local/lib/python3.7/dist-packages/xgboost/training.py:17: UserWarning: Old style callback is deprecated.  See: https://xgboost.readthedocs.io/en/latest/python/callbacks.html
  warnings.warn(f'Old style callback is deprecated.  See: {link}', UserWarning)
/usr/local/lib/python3.7/dist-packages/xgboost/training.py:17: UserWarning: Old style callback is deprecated.  See: https://xgboost.readthedocs.io/en/latest/python/callbacks.html
  warnings.warn(f'Old style callback is deprecated.  See: {link}', UserWarning)
/usr/local/lib/python3.7/dist-packages/xgboost/training.py:17: UserWarning: Old style callback is deprecated.  See: https://xgboost.readthedocs.io/en/latest/python/callbacks.html
  warnings.warn(f'Old style callback is deprecated.  See: {link}', UserWarning)
/usr/local/lib/python3.7/dist-packages/xgboost/training.py:17: UserWarning: Old style callback is deprecated.  See: https://xgboost.readthedocs.io/en/latest/python/callbacks.html
  warnings.warn(f'Old style callback is deprecated.  See: {link}', UserWarning)
/usr/local/lib/python3.7/dist-packages/xgboost/training.py:17: UserWarning: Old style callback is deprecated.  See: https://xgboost.readthedocs.io/en/latest/python/callbacks.html
  warnings.warn(f'Old style callback is deprecated.  See: {link}', UserWarning)
/usr/local/lib/python3.7/dist-packages/xgboost/training.py:17: UserWarning: Old style callback is deprecated.  See: https://xgboost.readthedocs.io/en/latest/python/callbacks.html
  warnings.warn(f'Old style callback is deprecated.  See: {link}', UserWarning)
/usr/local/lib/python3.7/dist-packages/xgboost/training.py:17: UserWarning: Old style callback is deprecated.  See: https://xgboost.readthedocs.io/en/latest/python/callbacks.html
  warnings.warn(f'Old style callback is deprecated.  See: {link}', UserWarning)
Traceback (most recent call last):
  File "conv_NCHW.py", line 7, in <module>
    import tvm
ModuleNotFoundError: No module named 'tvm'
Traceback (most recent call last):
  File "conv_NCHW.py", line 7, in <module>
    import tvm
ModuleNotFoundError: No module named 'tvm'
Traceback (most recent call last):
  File "conv_NCHW.py", line 7, in <module>
    import tvm
ModuleNotFoundError: No module named 'tvm'
Traceback (most recent call last):
  File "conv_NCHW.py", line 7, in <module>
    import tvm
ModuleNotFoundError: No module named 'tvm'
Traceback (most recent call last):
  File "conv_NCHW.py", line 7, in <module>
    import tvm
ModuleNotFoundError: No module named 'tvm'
Traceback (most recent call last):
  File "conv_NCHW.py", line 7, in <module>
    import tvm
ModuleNotFoundError: No module named 'tvm'
Traceback (most recent call last):
  File "conv_NCHW.py", line 7, in <module>
    import tvm
ModuleNotFoundError: No module named 'tvm'
Traceback (most recent call last):
  File "conv_NCHW.py", line 7, in <module>
    import tvm
ModuleNotFoundError: No module named 'tvm'
Traceback (most recent call last):
  File "conv_NCHW.py", line 7, in <module>
    import tvm
ModuleNotFoundError: No module named 'tvm'
Traceback (most recent call last):
  File "conv_NCHW.py", line 7, in <module>
    import tvm
ModuleNotFoundError: No module named 'tvm'
Traceback (most recent call last):
  File "conv_NCHW.py", line 7, in <module>
    import tvm
ModuleNotFoundError: No module named 'tvm'
Traceback (most recent call last):
  File "conv_NCHW.py", line 7, in <module>
    import tvm
ModuleNotFoundError: No module named 'tvm'
Traceback (most recent call last):
  File "conv_NCHW.py", line 7, in <module>
    import tvm
ModuleNotFoundError: No module named 'tvm'
Traceback (most recent call last):
  File "conv_NCHW.py", line 7, in <module>
    import tvm
ModuleNotFoundError: No module named 'tvm'
Traceback (most recent call last):
  File "conv_NCHW.py", line 7, in <module>
    import tvm
ModuleNotFoundError: No module named 'tvm'
Traceback (most recent call last):
  File "conv_NCHW.py", line 7, in <module>
    import tvm
ModuleNotFoundError: No module named 'tvm'
Traceback (most recent call last):
  File "conv_NCHW.py", line 7, in <module>
    import tvm
ModuleNotFoundError: No module named 'tvm'
Traceback (most recent call last):
  File "conv_NCHW.py", line 7, in <module>
    import tvm
ModuleNotFoundError: No module named 'tvm'
Traceback (most recent call last):
  File "conv_NCHW.py", line 7, in <module>
    import tvm
ModuleNotFoundError: No module named 'tvm'
Traceback (most recent call last):
  File "conv_NCHW.py", line 7, in <module>
    import tvm
ModuleNotFoundError: No module named 'tvm'
Traceback (most recent call last):
  File "conv_NCHW.py", line 7, in <module>
    import tvm
ModuleNotFoundError: No module named 'tvm'
Traceback (most recent call last):
  File "conv_NCHW.py", line 7, in <module>
    import tvm
ModuleNotFoundError: No module named 'tvm'
/usr/local/lib/python3.7/dist-packages/xgboost/training.py:17: UserWarning: Old style callback is deprecated.  See: https://xgboost.readthedocs.io/en/latest/python/callbacks.html
  warnings.warn(f'Old style callback is deprecated.  See: {link}', UserWarning)
/usr/local/lib/python3.7/dist-packages/xgboost/training.py:17: UserWarning: Old style callback is deprecated.  See: https://xgboost.readthedocs.io/en/latest/python/callbacks.html
  warnings.warn(f'Old style callback is deprecated.  See: {link}', UserWarning)
/usr/local/lib/python3.7/dist-packages/xgboost/training.py:17: UserWarning: Old style callback is deprecated.  See: https://xgboost.readthedocs.io/en/latest/python/callbacks.html
  warnings.warn(f'Old style callback is deprecated.  See: {link}', UserWarning)
/usr/local/lib/python3.7/dist-packages/xgboost/training.py:17: UserWarning: Old style callback is deprecated.  See: https://xgboost.readthedocs.io/en/latest/python/callbacks.html
  warnings.warn(f'Old style callback is deprecated.  See: {link}', UserWarning)
/usr/local/lib/python3.7/dist-packages/xgboost/training.py:17: UserWarning: Old style callback is deprecated.  See: https://xgboost.readthedocs.io/en/latest/python/callbacks.html
  warnings.warn(f'Old style callback is deprecated.  See: {link}', UserWarning)
/usr/local/lib/python3.7/dist-packages/xgboost/training.py:17: UserWarning: Old style callback is deprecated.  See: https://xgboost.readthedocs.io/en/latest/python/callbacks.html
  warnings.warn(f'Old style callback is deprecated.  See: {link}', UserWarning)
/usr/local/lib/python3.7/dist-packages/xgboost/training.py:17: UserWarning: Old style callback is deprecated.  See: https://xgboost.readthedocs.io/en/latest/python/callbacks.html
  warnings.warn(f'Old style callback is deprecated.  See: {link}', UserWarning)
/usr/local/lib/python3.7/dist-packages/xgboost/training.py:17: UserWarning: Old style callback is deprecated.  See: https://xgboost.readthedocs.io/en/latest/python/callbacks.html
  warnings.warn(f'Old style callback is deprecated.  See: {link}', UserWarning)
/usr/local/lib/python3.7/dist-packages/xgboost/training.py:17: UserWarning: Old style callback is deprecated.  See: https://xgboost.readthedocs.io/en/latest/python/callbacks.html
  warnings.warn(f'Old style callback is deprecated.  See: {link}', UserWarning)
/usr/local/lib/python3.7/dist-packages/xgboost/training.py:17: UserWarning: Old style callback is deprecated.  See: https://xgboost.readthedocs.io/en/latest/python/callbacks.html
  warnings.warn(f'Old style callback is deprecated.  See: {link}', UserWarning)
/usr/local/lib/python3.7/dist-packages/xgboost/training.py:17: UserWarning: Old style callback is deprecated.  See: https://xgboost.readthedocs.io/en/latest/python/callbacks.html
  warnings.warn(f'Old style callback is deprecated.  See: {link}', UserWarning)
/usr/local/lib/python3.7/dist-packages/xgboost/training.py:17: UserWarning: Old style callback is deprecated.  See: https://xgboost.readthedocs.io/en/latest/python/callbacks.html
  warnings.warn(f'Old style callback is deprecated.  See: {link}', UserWarning)
/usr/local/lib/python3.7/dist-packages/xgboost/training.py:17: UserWarning: Old style callback is deprecated.  See: https://xgboost.readthedocs.io/en/latest/python/callbacks.html
  warnings.warn(f'Old style callback is deprecated.  See: {link}', UserWarning)
/usr/local/lib/python3.7/dist-packages/xgboost/training.py:17: UserWarning: Old style callback is deprecated.  See: https://xgboost.readthedocs.io/en/latest/python/callbacks.html
  warnings.warn(f'Old style callback is deprecated.  See: {link}', UserWarning)
/usr/local/lib/python3.7/dist-packages/xgboost/training.py:17: UserWarning: Old style callback is deprecated.  See: https://xgboost.readthedocs.io/en/latest/python/callbacks.html
  warnings.warn(f'Old style callback is deprecated.  See: {link}', UserWarning)
/usr/local/lib/python3.7/dist-packages/xgboost/training.py:17: UserWarning: Old style callback is deprecated.  See: https://xgboost.readthedocs.io/en/latest/python/callbacks.html
  warnings.warn(f'Old style callback is deprecated.  See: {link}', UserWarning)
/usr/local/lib/python3.7/dist-packages/xgboost/training.py:17: UserWarning: Old style callback is deprecated.  See: https://xgboost.readthedocs.io/en/latest/python/callbacks.html
  warnings.warn(f'Old style callback is deprecated.  See: {link}', UserWarning)
/usr/local/lib/python3.7/dist-packages/xgboost/training.py:17: UserWarning: Old style callback is deprecated.  See: https://xgboost.readthedocs.io/en/latest/python/callbacks.html
  warnings.warn(f'Old style callback is deprecated.  See: {link}', UserWarning)
/usr/local/lib/python3.7/dist-packages/xgboost/training.py:17: UserWarning: Old style callback is deprecated.  See: https://xgboost.readthedocs.io/en/latest/python/callbacks.html
  warnings.warn(f'Old style callback is deprecated.  See: {link}', UserWarning)
/usr/local/lib/python3.7/dist-packages/xgboost/training.py:17: UserWarning: Old style callback is deprecated.  See: https://xgboost.readthedocs.io/en/latest/python/callbacks.html
  warnings.warn(f'Old style callback is deprecated.  See: {link}', UserWarning)
/usr/local/lib/python3.7/dist-packages/xgboost/training.py:17: UserWarning: Old style callback is deprecated.  See: https://xgboost.readthedocs.io/en/latest/python/callbacks.html
  warnings.warn(f'Old style callback is deprecated.  See: {link}', UserWarning)
/usr/local/lib/python3.7/dist-packages/xgboost/training.py:17: UserWarning: Old style callback is deprecated.  See: https://xgboost.readthedocs.io/en/latest/python/callbacks.html
  warnings.warn(f'Old style callback is deprecated.  See: {link}', UserWarning)
