def @main(%data: Tensor[(1, 32, 114, 114), float32], %weight: Tensor[(32, 32, 3, 3), float32]) -> Tensor[(1, 32, 112, 112), float32] {
  nn.conv2d(%data, %weight, padding=[0, 0, 0, 0], channels=32, kernel_size=[3, 3]) /* ty=Tensor[(1, 32, 112, 112), float32] */
}

...47%, 0.01 MB, 149 KB/s, 0 seconds passed...94%, 0.02 MB, 292 KB/s, 0 seconds passed...100%, 0.02 MB, 436 KB/s, 0 seconds passed
[Task MobilNet_01] Current/Best:    0.00/   0.00 GFLOPS | Progress: (0/792) | 0.00 s
[Task MobilNet_01] Current/Best:  205.93/2598.81 GFLOPS | Progress: (64/792) | 46.36 s
[Task MobilNet_01] Current/Best: 2944.10/2944.10 GFLOPS | Progress: (128/792) | 85.24 s
[Task MobilNet_01] Current/Best:  552.38/2962.89 GFLOPS | Progress: (192/792) | 124.85 s
[Task MobilNet_01] Current/Best:  412.71/2962.89 GFLOPS | Progress: (256/792) | 167.36 s
[Task MobilNet_01] Current/Best:  842.93/2962.89 GFLOPS | Progress: (320/792) | 212.58 s
[Task MobilNet_01] Current/Best:  238.46/2962.89 GFLOPS | Progress: (384/792) | 257.50 s
[Task MobilNet_01] Current/Best:  140.53/2962.89 GFLOPS | Progress: (448/792) | 302.54 s
[Task MobilNet_01] Current/Best:  206.77/2962.89 GFLOPS | Progress: (512/792) | 346.50 s
[Task MobilNet_01] Current/Best:  578.12/2962.89 GFLOPS | Progress: (576/792) | 392.24 s
[Task MobilNet_01] Current/Best:  133.27/2962.89 GFLOPS | Progress: (640/792) | 437.37 s
[Task MobilNet_01] Current/Best:   71.81/2962.89 GFLOPS | Progress: (704/792) | 484.34 s
[Task MobilNet_01] Current/Best:  190.56/2962.89 GFLOPS | Progress: (768/792) | 532.35 s
[Task MobilNet_01] Current/Best:  198.02/2962.89 GFLOPS | Progress: (792/792) | 549.34 s
 Done.
def @main(%data: Tensor[(1, 64, 114, 114), float32], %weight: Tensor[(64, 64, 3, 3), float32]) -> Tensor[(1, 64, 56, 56), float32] {
  nn.conv2d(%data, %weight, strides=[2, 2], padding=[0, 0, 0, 0], channels=64, kernel_size=[3, 3]) /* ty=Tensor[(1, 64, 56, 56), float32] */
}

[Task MobilNet_02] Current/Best:    0.00/   0.00 GFLOPS | Progress: (0/980) | 0.00 s
[Task MobilNet_02] Current/Best:  814.10/2520.50 GFLOPS | Progress: (64/980) | 52.68 s
[Task MobilNet_02] Current/Best:  532.10/2585.23 GFLOPS | Progress: (128/980) | 96.24 s
[Task MobilNet_02] Current/Best:   69.83/2680.40 GFLOPS | Progress: (192/980) | 141.08 s
[Task MobilNet_02] Current/Best:  988.90/2680.40 GFLOPS | Progress: (256/980) | 190.15 s
[Task MobilNet_02] Current/Best:  673.86/2680.40 GFLOPS | Progress: (320/980) | 238.85 s
[Task MobilNet_02] Current/Best:  121.98/2680.40 GFLOPS | Progress: (384/980) | 287.95 s
[Task MobilNet_02] Current/Best:  401.11/2680.40 GFLOPS | Progress: (448/980) | 337.70 s
[Task MobilNet_02] Current/Best:  461.26/2680.40 GFLOPS | Progress: (512/980) | 389.19 s
[Task MobilNet_02] Current/Best:  678.06/2680.40 GFLOPS | Progress: (576/980) | 439.39 s
[Task MobilNet_02] Current/Best:  749.64/2680.40 GFLOPS | Progress: (640/980) | 491.87 s
[Task MobilNet_02] Current/Best:  533.76/2680.40 GFLOPS | Progress: (704/980) | 544.28 s
[Task MobilNet_02] Current/Best:  849.80/2680.40 GFLOPS | Progress: (768/980) | 599.38 s
[Task MobilNet_02] Current/Best:  543.06/2680.40 GFLOPS | Progress: (832/980) | 651.61 s
[Task MobilNet_02] Current/Best:  346.62/2680.40 GFLOPS | Progress: (896/980) | 705.70 s
[Task MobilNet_02] Current/Best:  278.20/2680.40 GFLOPS | Progress: (960/980) | 761.61 s
[Task MobilNet_02] Current/Best:  135.31/2680.40 GFLOPS | Progress: (980/980) | 778.01 s
 Done.
def @main(%data: Tensor[(1, 128, 58, 58), float32], %weight: Tensor[(128, 128, 3, 3), float32]) -> Tensor[(1, 128, 56, 56), float32] {
  nn.conv2d(%data, %weight, padding=[0, 0, 0, 0], channels=128, kernel_size=[3, 3]) /* ty=Tensor[(1, 128, 56, 56), float32] */
}

[Task MobilNet_03] Current/Best:    0.00/   0.00 GFLOPS | Progress: (0/1280) | 0.00 s
[Task MobilNet_03] Current/Best:  928.73/3503.47 GFLOPS | Progress: (64/1280) | 60.53 s
[Task MobilNet_03] Current/Best: 2987.03/3527.35 GFLOPS | Progress: (128/1280) | 106.15 s
[Task MobilNet_03] Current/Best:  877.36/3527.35 GFLOPS | Progress: (192/1280) | 153.91 s
[Task MobilNet_03] Current/Best:  268.85/3527.35 GFLOPS | Progress: (256/1280) | 199.90 s
[Task MobilNet_03] Current/Best:  648.90/3527.35 GFLOPS | Progress: (320/1280) | 251.65 s
[Task MobilNet_03] Current/Best:  134.87/3527.35 GFLOPS | Progress: (384/1280) | 309.35 s
[Task MobilNet_03] Current/Best:  263.03/3527.35 GFLOPS | Progress: (448/1280) | 365.36 s
[Task MobilNet_03] Current/Best:  728.38/3527.35 GFLOPS | Progress: (512/1280) | 422.28 s
[Task MobilNet_03] Current/Best:  599.51/3527.35 GFLOPS | Progress: (576/1280) | 482.40 s
[Task MobilNet_03] Current/Best:   68.06/3527.35 GFLOPS | Progress: (640/1280) | 537.41 s
[Task MobilNet_03] Current/Best:  848.68/3527.35 GFLOPS | Progress: (704/1280) | 598.42 s
[Task MobilNet_03] Current/Best: 1109.05/3527.35 GFLOPS | Progress: (768/1280) | 659.10 s
[Task MobilNet_03] Current/Best:  868.03/3527.35 GFLOPS | Progress: (832/1280) | 726.28 s
[Task MobilNet_03] Current/Best:  204.44/3527.35 GFLOPS | Progress: (896/1280) | 791.68 s
[Task MobilNet_03] Current/Best:   68.48/3527.35 GFLOPS | Progress: (960/1280) | 856.47 s
[Task MobilNet_03] Current/Best:  534.08/3527.35 GFLOPS | Progress: (1024/1280) | 919.18 s
[Task MobilNet_03] Current/Best:  881.04/3527.35 GFLOPS | Progress: (1088/1280) | 985.02 s
[Task MobilNet_03] Current/Best:  135.78/3527.35 GFLOPS | Progress: (1152/1280) | 1055.78 s
[Task MobilNet_03] Current/Best:  135.26/3527.35 GFLOPS | Progress: (1216/1280) | 1132.18 s
[Task MobilNet_03] Current/Best:   68.06/3527.35 GFLOPS | Progress: (1280/1280) | 1203.24 s
 Done.
def @main(%data: Tensor[(1, 128, 58, 58), float32], %weight: Tensor[(128, 128, 3, 3), float32]) -> Tensor[(1, 128, 28, 28), float32] {
  nn.conv2d(%data, %weight, strides=[2, 2], padding=[0, 0, 0, 0], channels=128, kernel_size=[3, 3]) /* ty=Tensor[(1, 128, 28, 28), float32] */
}

[Task MobilNet_04] Current/Best:    0.00/   0.00 GFLOPS | Progress: (0/1024) | 0.00 s
[Task MobilNet_04] Current/Best: 1116.91/2524.44 GFLOPS | Progress: (64/1024) | 45.53 s
[Task MobilNet_04] Current/Best: 1053.80/2620.98 GFLOPS | Progress: (128/1024) | 84.60 s
[Task MobilNet_04] Current/Best:   33.37/2620.98 GFLOPS | Progress: (192/1024) | 124.39 s
[Task MobilNet_04] Current/Best:  520.38/2620.98 GFLOPS | Progress: (256/1024) | 163.26 s
[Task MobilNet_04] Current/Best:  643.23/2620.98 GFLOPS | Progress: (320/1024) | 206.77 s
[Task MobilNet_04] Current/Best:  892.26/2620.98 GFLOPS | Progress: (384/1024) | 247.54 s
[Task MobilNet_04] Current/Best:  704.37/2620.98 GFLOPS | Progress: (448/1024) | 293.16 s
[Task MobilNet_04] Current/Best: 1088.53/2620.98 GFLOPS | Progress: (512/1024) | 338.42 s
[Task MobilNet_04] Current/Best:  135.88/2620.98 GFLOPS | Progress: (576/1024) | 381.30 s
[Task MobilNet_04] Current/Best:  687.45/2620.98 GFLOPS | Progress: (640/1024) | 425.09 s
[Task MobilNet_04] Current/Best:   34.14/2620.98 GFLOPS | Progress: (704/1024) | 471.91 s
[Task MobilNet_04] Current/Best:  846.26/2620.98 GFLOPS | Progress: (768/1024) | 515.85 s
[Task MobilNet_04] Current/Best:  169.01/2620.98 GFLOPS | Progress: (832/1024) | 563.11 s
[Task MobilNet_04] Current/Best:   65.30/2620.98 GFLOPS | Progress: (896/1024) | 609.59 s
[Task MobilNet_04] Current/Best:  688.22/2620.98 GFLOPS | Progress: (960/1024) | 657.72 s
[Task MobilNet_04] Current/Best:  268.70/2620.98 GFLOPS | Progress: (1024/1024) | 704.54 s
 Done.
def @main(%data: Tensor[(1, 256, 30, 30), float32], %weight: Tensor[(256, 256, 3, 3), float32]) -> Tensor[(1, 256, 28, 28), float32] {
  nn.conv2d(%data, %weight, padding=[0, 0, 0, 0], channels=256, kernel_size=[3, 3]) /* ty=Tensor[(1, 256, 28, 28), float32] */
}

[Task MobilNet_05] Current/Best:    0.00/   0.00 GFLOPS | Progress: (0/1296) | 0.00 s
[Task MobilNet_05] Current/Best: 1612.78/3352.93 GFLOPS | Progress: (64/1296) | 65.44 s
[Task MobilNet_05] Current/Best:  426.71/3449.55 GFLOPS | Progress: (128/1296) | 114.11 s
[Task MobilNet_05] Current/Best: 1404.35/3489.10 GFLOPS | Progress: (192/1296) | 163.04 s
[Task MobilNet_05] Current/Best:  614.62/3489.10 GFLOPS | Progress: (256/1296) | 213.02 s
[Task MobilNet_05] Current/Best:   67.35/3489.10 GFLOPS | Progress: (320/1296) | 271.00 s
[Task MobilNet_05] Current/Best:  886.47/3489.10 GFLOPS | Progress: (384/1296) | 323.27 s
[Task MobilNet_05] Current/Best:  739.35/3489.10 GFLOPS | Progress: (448/1296) | 384.01 s
[Task MobilNet_05] Current/Best:  818.07/3489.10 GFLOPS | Progress: (512/1296) | 437.30 s
[Task MobilNet_05] Current/Best: 1322.29/3489.10 GFLOPS | Progress: (576/1296) | 499.19 s
[Task MobilNet_05] Current/Best:  384.89/3489.10 GFLOPS | Progress: (640/1296) | 559.14 s
[Task MobilNet_05] Current/Best:  496.38/3489.10 GFLOPS | Progress: (704/1296) | 618.49 s
[Task MobilNet_05] Current/Best:  134.34/3489.10 GFLOPS | Progress: (768/1296) | 685.33 s
[Task MobilNet_05] Current/Best:  633.04/3489.10 GFLOPS | Progress: (832/1296) | 746.98 s
[Task MobilNet_05] Current/Best:  132.88/3489.10 GFLOPS | Progress: (896/1296) | 818.64 s
[Task MobilNet_05] Current/Best:  410.63/3489.10 GFLOPS | Progress: (960/1296) | 888.75 s
[Task MobilNet_05] Current/Best:  613.48/3489.10 GFLOPS | Progress: (1024/1296) | 970.95 s
[Task MobilNet_05] Current/Best:  132.91/3489.10 GFLOPS | Progress: (1088/1296) | 1039.56 s
[Task MobilNet_05] Current/Best:  265.81/3489.10 GFLOPS | Progress: (1152/1296) | 1104.49 s
[Task MobilNet_05] Current/Best:  533.57/3489.10 GFLOPS | Progress: (1216/1296) | 1176.71 s
[Task MobilNet_05] Current/Best:  427.52/3489.10 GFLOPS | Progress: (1280/1296) | 1248.32 s
[Task MobilNet_05] Current/Best:  621.44/3489.10 GFLOPS | Progress: (1296/1296) | 1268.64 s
 Done.
def @main(%data: Tensor[(1, 256, 30, 30), float32], %weight: Tensor[(256, 256, 3, 3), float32]) -> Tensor[(1, 256, 14, 14), float32] {
  nn.conv2d(%data, %weight, strides=[2, 2], padding=[0, 0, 0, 0], channels=256, kernel_size=[3, 3]) /* ty=Tensor[(1, 256, 14, 14), float32] */
}

[Task MobilNet_06] Current/Best:    0.00/   0.00 GFLOPS | Progress: (0/972) | 0.00 s
[Task MobilNet_06] Current/Best: 1121.51/2249.87 GFLOPS | Progress: (64/972) | 50.23 s
[Task MobilNet_06] Current/Best: 2403.42/2444.75 GFLOPS | Progress: (128/972) | 92.27 s
[Task MobilNet_06] Current/Best:  972.52/2444.75 GFLOPS | Progress: (192/972) | 135.14 s
[Task MobilNet_06] Current/Best:  241.68/2444.75 GFLOPS | Progress: (256/972) | 181.31 s
[Task MobilNet_06] Current/Best:  300.92/2444.75 GFLOPS | Progress: (320/972) | 225.70 s
[Task MobilNet_06] Current/Best: 1068.14/2444.75 GFLOPS | Progress: (384/972) | 273.20 s
[Task MobilNet_06] Current/Best:   67.36/2444.75 GFLOPS | Progress: (448/972) | 318.36 s
[Task MobilNet_06] Current/Best:  614.84/2444.75 GFLOPS | Progress: (512/972) | 364.67 s
[Task MobilNet_06] Current/Best:  723.01/2444.75 GFLOPS | Progress: (576/972) | 411.43 s
[Task MobilNet_06] Current/Best:  854.02/2444.75 GFLOPS | Progress: (640/972) | 461.85 s
[Task MobilNet_06] Current/Best:  134.11/2444.75 GFLOPS | Progress: (704/972) | 510.87 s
[Task MobilNet_06] Current/Best:  133.23/2444.75 GFLOPS | Progress: (768/972) | 559.06 s
[Task MobilNet_06] Current/Best:  199.45/2444.75 GFLOPS | Progress: (832/972) | 609.07 s
[Task MobilNet_06] Current/Best:  418.59/2444.75 GFLOPS | Progress: (896/972) | 657.82 s
[Task MobilNet_06] Current/Best:  446.75/2444.75 GFLOPS | Progress: (960/972) | 706.98 s
[Task MobilNet_06] Current/Best:  248.77/2444.75 GFLOPS | Progress: (972/972) | 716.03 s
 Done.
def @main(%data: Tensor[(1, 512, 16, 16), float32], %weight: Tensor[(512, 512, 3, 3), float32]) -> Tensor[(1, 512, 14, 14), float32] {
  nn.conv2d(%data, %weight, padding=[0, 0, 0, 0], channels=512, kernel_size=[3, 3]) /* ty=Tensor[(1, 512, 14, 14), float32] */
}

[Task MobilNet_07] Current/Best:    0.00/   0.00 GFLOPS | Progress: (0/1200) | 0.00 s
[Task MobilNet_07] Current/Best:  518.74/3037.64 GFLOPS | Progress: (64/1200) | 102.59 s
[Task MobilNet_07] Current/Best:  728.61/3392.31 GFLOPS | Progress: (128/1200) | 184.77 s
[Task MobilNet_07] Current/Best:  266.93/3392.31 GFLOPS | Progress: (192/1200) | 266.09 s
[Task MobilNet_07] Current/Best:  672.32/3392.31 GFLOPS | Progress: (256/1200) | 360.74 s
[Task MobilNet_07] Current/Best:  191.04/3392.31 GFLOPS | Progress: (320/1200) | 458.73 s
[Task MobilNet_07] Current/Best:  673.73/3392.31 GFLOPS | Progress: (384/1200) | 545.88 s
[Task MobilNet_07] Current/Best:  529.81/3392.31 GFLOPS | Progress: (448/1200) | 635.53 s
[Task MobilNet_07] Current/Best:  266.85/3392.31 GFLOPS | Progress: (512/1200) | 741.09 s
[Task MobilNet_07] Current/Best:  391.74/3392.31 GFLOPS | Progress: (576/1200) | 843.76 s
[Task MobilNet_07] Current/Best:  116.14/3392.31 GFLOPS | Progress: (640/1200) | 939.62 s
[Task MobilNet_07] Current/Best:  723.46/3392.31 GFLOPS | Progress: (704/1200) | 1047.77 s
[Task MobilNet_07] Current/Best:  921.07/3392.31 GFLOPS | Progress: (768/1200) | 1154.52 s
[Task MobilNet_07] Current/Best:  408.26/3392.31 GFLOPS | Progress: (832/1200) | 1272.01 s
[Task MobilNet_07] Current/Best:  810.26/3392.31 GFLOPS | Progress: (896/1200) | 1375.12 s
[Task MobilNet_07] Current/Best:  267.11/3392.31 GFLOPS | Progress: (960/1200) | 1482.96 s
[Task MobilNet_07] Current/Best:  610.25/3392.31 GFLOPS | Progress: (1024/1200) | 1593.05 s
[Task MobilNet_07] Current/Best:  211.73/3392.31 GFLOPS | Progress: (1088/1200) | 1705.37 s
[Task MobilNet_07] Current/Best:  578.47/3392.31 GFLOPS | Progress: (1152/1200) | 1818.64 s
[Task MobilNet_07] Current/Best:  560.49/3392.31 GFLOPS | Progress: (1200/1200) | 1904.32 s
 Done.
def @main(%data: Tensor[(1, 512, 16, 16), float32], %weight: Tensor[(512, 512, 3, 3), float32]) -> Tensor[(1, 512, 7, 7), float32] {
  nn.conv2d(%data, %weight, strides=[2, 2], padding=[0, 0, 0, 0], channels=512, kernel_size=[3, 3]) /* ty=Tensor[(1, 512, 7, 7), float32] */
}

[Task MobilNet_08] Current/Best:    0.00/   0.00 GFLOPS | Progress: (0/800) | 0.00 s
[Task MobilNet_08] Current/Best:   66.80/2055.46 GFLOPS | Progress: (64/800) | 84.24 s
[Task MobilNet_08] Current/Best:  660.76/2152.20 GFLOPS | Progress: (128/800) | 160.92 s
[Task MobilNet_08] Current/Best:  252.00/2152.20 GFLOPS | Progress: (192/800) | 238.75 s
[Task MobilNet_08] Current/Best:   66.88/2152.20 GFLOPS | Progress: (256/800) | 321.26 s
[Task MobilNet_08] Current/Best:  133.02/2152.20 GFLOPS | Progress: (320/800) | 402.84 s
[Task MobilNet_08] Current/Best:  210.66/2152.20 GFLOPS | Progress: (384/800) | 487.32 s
[Task MobilNet_08] Current/Best:  490.15/2152.20 GFLOPS | Progress: (448/800) | 571.62 s
[Task MobilNet_08] Current/Best:  188.23/2152.20 GFLOPS | Progress: (512/800) | 655.38 s
[Task MobilNet_08] Current/Best:   33.56/2152.20 GFLOPS | Progress: (576/800) | 743.29 s
[Task MobilNet_08] Current/Best:   58.45/2152.20 GFLOPS | Progress: (640/800) | 832.12 s
[Task MobilNet_08] Current/Best:  226.38/2152.20 GFLOPS | Progress: (704/800) | 918.94 s
[Task MobilNet_08] Current/Best:  332.35/2152.20 GFLOPS | Progress: (768/800) | 1007.44 s
[Task MobilNet_08] Current/Best:  133.06/2152.20 GFLOPS | Progress: (800/800) | 1050.12 s
 Done.
def @main(%data: Tensor[(1, 1024, 9, 9), float32], %weight: Tensor[(1024, 1024, 3, 3), float32]) -> Tensor[(1, 1024, 7, 7), float32] {
  nn.conv2d(%data, %weight, padding=[0, 0, 0, 0], channels=1024, kernel_size=[3, 3]) /* ty=Tensor[(1, 1024, 7, 7), float32] */
}

[Task MobilNet_09] Current/Best:    0.00/   0.00 GFLOPS | Progress: (0/968) | 0.00 s
[Task MobilNet_09] Current/Best:   34.07/1716.39 GFLOPS | Progress: (64/968) | 256.69 s
[Task MobilNet_09] Current/Best:   55.78/2322.58 GFLOPS | Progress: (128/968) | 460.35 s
[Task MobilNet_09] Current/Best:   93.02/2322.58 GFLOPS | Progress: (192/968) | 664.38 s
[Task MobilNet_09] Current/Best:  155.33/2322.58 GFLOPS | Progress: (256/968) | 902.36 s
[Task MobilNet_09] Current/Best:  133.14/2322.58 GFLOPS | Progress: (320/968) | 1162.92 s
[Task MobilNet_09] Current/Best:   33.86/2322.58 GFLOPS | Progress: (384/968) | 1422.61 s
[Task MobilNet_09] Current/Best:  376.73/2322.58 GFLOPS | Progress: (448/968) | 1675.38 s
[Task MobilNet_09] Current/Best:  172.05/2322.58 GFLOPS | Progress: (512/968) | 1921.16 s
[Task MobilNet_09] Current/Best:  132.88/2322.58 GFLOPS | Progress: (576/968) | 2180.31 s
[Task MobilNet_09] Current/Best:  280.06/2322.58 GFLOPS | Progress: (640/968) | 2447.01 s
[Task MobilNet_09] Current/Best:   33.62/2322.58 GFLOPS | Progress: (704/968) | 2736.24 s
[Task MobilNet_09] Current/Best:  254.37/2322.58 GFLOPS | Progress: (768/968) | 3012.77 s
[Task MobilNet_09] Current/Best:   95.70/2322.58 GFLOPS | Progress: (832/968) | 3302.16 s
[Task MobilNet_09] Current/Best:  107.71/2322.58 GFLOPS | Progress: (896/968) | 3596.30 s
[Task MobilNet_09] Current/Best:  116.81/2322.58 GFLOPS | Progress: (960/968) | 3897.46 s
[Task MobilNet_09] Current/Best:  154.46/2322.58 GFLOPS | Progress: (968/968) | 3940.48 s
 Done.
def @main(%data: Tensor[(1, 3, 230, 230), float32], %weight: Tensor[(64, 3, 7, 7), float32]) -> Tensor[(1, 64, 112, 112), float32] {
  nn.conv2d(%data, %weight, strides=[2, 2], padding=[0, 0, 0, 0], channels=64, kernel_size=[7, 7]) /* ty=Tensor[(1, 64, 112, 112), float32] */
}

[Task ResNet18_01] Current/Best:    0.00/   0.00 GFLOPS | Progress: (0/308) | 0.00 s
[Task ResNet18_01] Current/Best: 2562.65/2977.23 GFLOPS | Progress: (64/308) | 42.42 s
[Task ResNet18_01] Current/Best:  210.75/2994.98 GFLOPS | Progress: (128/308) | 80.76 s
[Task ResNet18_01] Current/Best:  434.11/2994.98 GFLOPS | Progress: (192/308) | 123.73 s
[Task ResNet18_01] Current/Best:  213.62/2994.98 GFLOPS | Progress: (256/308) | 165.94 s
[Task ResNet18_01] Current/Best:  241.46/2994.98 GFLOPS | Progress: (308/308) | 202.22 s
 Done.
def @main(%data: Tensor[(1, 64, 58, 58), float32], %weight: Tensor[(64, 64, 3, 3), float32]) -> Tensor[(1, 64, 56, 56), float32] {
  nn.conv2d(%data, %weight, padding=[0, 0, 0, 0], channels=64, kernel_size=[3, 3]) /* ty=Tensor[(1, 64, 56, 56), float32] */
}

[Task ResNet18_02] Current/Best:    0.00/   0.00 GFLOPS | Progress: (0/980) | 0.00 s
[Task ResNet18_02] Current/Best:  792.25/2635.10 GFLOPS | Progress: (64/980) | 39.59 s
[Task ResNet18_02] Current/Best:  265.78/2907.46 GFLOPS | Progress: (128/980) | 72.23 s
[Task ResNet18_02] Current/Best:  261.91/2907.46 GFLOPS | Progress: (192/980) | 106.45 s
[Task ResNet18_02] Current/Best:  489.82/2907.46 GFLOPS | Progress: (256/980) | 141.37 s
[Task ResNet18_02] Current/Best:  282.45/2907.46 GFLOPS | Progress: (320/980) | 178.68 s
[Task ResNet18_02] Current/Best:  194.67/2907.46 GFLOPS | Progress: (384/980) | 215.28 s
[Task ResNet18_02] Current/Best:  908.06/2907.46 GFLOPS | Progress: (448/980) | 250.86 s
[Task ResNet18_02] Current/Best: 1509.20/2907.46 GFLOPS | Progress: (512/980) | 289.48 s
[Task ResNet18_02] Current/Best:  810.47/2907.46 GFLOPS | Progress: (576/980) | 327.24 s
[Task ResNet18_02] Current/Best:   66.60/2907.46 GFLOPS | Progress: (640/980) | 367.00 s
[Task ResNet18_02] Current/Best:  133.47/2907.46 GFLOPS | Progress: (704/980) | 405.49 s
[Task ResNet18_02] Current/Best:  499.28/2907.46 GFLOPS | Progress: (768/980) | 444.28 s
[Task ResNet18_02] Current/Best:  442.42/2907.46 GFLOPS | Progress: (832/980) | 482.37 s
[Task ResNet18_02] Current/Best:  134.21/2907.46 GFLOPS | Progress: (896/980) | 520.86 s
[Task ResNet18_02] Current/Best:  517.61/2907.46 GFLOPS | Progress: (960/980) | 560.22 s
[Task ResNet18_02] Current/Best:  433.69/2907.46 GFLOPS | Progress: (980/980) | 572.73 s
 Done.
def @main(%data: Tensor[(1, 64, 56, 56), float32], %weight: Tensor[(64, 64, 1, 1), float32]) -> Tensor[(1, 64, 56, 56), float32] {
  nn.conv2d(%data, %weight, padding=[0, 0, 0, 0], channels=64, kernel_size=[1, 1]) /* ty=Tensor[(1, 64, 56, 56), float32] */
}

[Task ResNet18_03] Current/Best:    0.00/   0.00 GFLOPS | Progress: (0/980) | 0.00 s
[Task ResNet18_03] Current/Best:  220.84/1044.24 GFLOPS | Progress: (64/980) | 34.22 s
[Task ResNet18_03] Current/Best:  356.40/1049.63 GFLOPS | Progress: (128/980) | 65.01 s
[Task ResNet18_03] Current/Best:  474.22/1056.95 GFLOPS | Progress: (192/980) | 99.11 s
[Task ResNet18_03] Current/Best:  333.04/1056.95 GFLOPS | Progress: (256/980) | 131.56 s
[Task ResNet18_03] Current/Best:  537.30/1056.95 GFLOPS | Progress: (320/980) | 164.50 s
[Task ResNet18_03] Current/Best:  311.41/1056.95 GFLOPS | Progress: (384/980) | 196.83 s
[Task ResNet18_03] Current/Best:  511.33/1056.95 GFLOPS | Progress: (448/980) | 229.97 s
[Task ResNet18_03] Current/Best:  324.33/1056.95 GFLOPS | Progress: (512/980) | 263.20 s
[Task ResNet18_03] Current/Best:  369.04/1056.95 GFLOPS | Progress: (576/980) | 296.26 s
[Task ResNet18_03] Current/Best:  136.60/1056.95 GFLOPS | Progress: (640/980) | 329.81 s
[Task ResNet18_03] Current/Best:   98.40/1056.95 GFLOPS | Progress: (704/980) | 363.67 s
[Task ResNet18_03] Current/Best:  126.03/1056.95 GFLOPS | Progress: (768/980) | 396.67 s
[Task ResNet18_03] Current/Best:  215.84/1056.95 GFLOPS | Progress: (832/980) | 429.96 s
[Task ResNet18_03] Current/Best:  437.81/1056.95 GFLOPS | Progress: (896/980) | 465.12 s
[Task ResNet18_03] Current/Best:  284.88/1056.95 GFLOPS | Progress: (960/980) | 499.04 s
[Task ResNet18_03] Current/Best:  250.56/1056.95 GFLOPS | Progress: (980/980) | 509.28 s
 Done.
def @main(%data: Tensor[(1, 64, 58, 58), float32], %weight: Tensor[(128, 64, 3, 3), float32]) -> Tensor[(1, 128, 28, 28), float32] {
  nn.conv2d(%data, %weight, strides=[2, 2], padding=[0, 0, 0, 0], channels=128, kernel_size=[3, 3]) /* ty=Tensor[(1, 128, 28, 28), float32] */
}

[Task ResNet18_04] Current/Best:    0.00/   0.00 GFLOPS | Progress: (0/896) | 0.00 s
[Task ResNet18_04] Current/Best:  139.36/2149.21 GFLOPS | Progress: (64/896) | 37.79 s
[Task ResNet18_04] Current/Best: 1362.34/2178.84 GFLOPS | Progress: (128/896) | 70.36 s
[Task ResNet18_04] Current/Best:  265.64/2188.59 GFLOPS | Progress: (192/896) | 103.37 s
[Task ResNet18_04] Current/Best: 1342.22/2188.59 GFLOPS | Progress: (256/896) | 136.94 s
[Task ResNet18_04] Current/Best: 1149.09/2188.59 GFLOPS | Progress: (320/896) | 170.61 s
[Task ResNet18_04] Current/Best: 1194.79/2188.59 GFLOPS | Progress: (384/896) | 205.00 s
[Task ResNet18_04] Current/Best:  646.67/2188.59 GFLOPS | Progress: (448/896) | 239.46 s
[Task ResNet18_04] Current/Best:  353.85/2188.59 GFLOPS | Progress: (512/896) | 274.07 s
[Task ResNet18_04] Current/Best:  194.55/2188.59 GFLOPS | Progress: (576/896) | 309.42 s
[Task ResNet18_04] Current/Best:   35.14/2188.59 GFLOPS | Progress: (640/896) | 346.39 s
[Task ResNet18_04] Current/Best:  734.77/2188.59 GFLOPS | Progress: (704/896) | 382.96 s
[Task ResNet18_04] Current/Best:  733.41/2188.59 GFLOPS | Progress: (768/896) | 418.89 s
[Task ResNet18_04] Current/Best:  165.65/2188.59 GFLOPS | Progress: (832/896) | 457.30 s
[Task ResNet18_04] Current/Best:  204.48/2188.59 GFLOPS | Progress: (896/896) | 494.10 s
 Done.
def @main(%data: Tensor[(1, 64, 56, 56), float32], %weight: Tensor[(128, 64, 1, 1), float32]) -> Tensor[(1, 128, 28, 28), float32] {
  nn.conv2d(%data, %weight, strides=[2, 2], padding=[0, 0, 0, 0], channels=128, kernel_size=[1, 1]) /* ty=Tensor[(1, 128, 28, 28), float32] */
}

[Task ResNet18_05] Current/Best:    0.00/   0.00 GFLOPS | Progress: (0/896) | 0.00 s
[Task ResNet18_05] Current/Best:  464.01/ 612.61 GFLOPS | Progress: (64/896) | 33.49 s
[Task ResNet18_05] Current/Best:  225.81/ 612.61 GFLOPS | Progress: (128/896) | 64.03 s
[Task ResNet18_05] Current/Best:  476.51/ 626.34 GFLOPS | Progress: (192/896) | 94.24 s
[Task ResNet18_05] Current/Best:  129.97/ 626.34 GFLOPS | Progress: (256/896) | 124.90 s
[Task ResNet18_05] Current/Best:  183.78/ 626.34 GFLOPS | Progress: (320/896) | 156.93 s
[Task ResNet18_05] Current/Best:  130.83/ 626.34 GFLOPS | Progress: (384/896) | 188.65 s
[Task ResNet18_05] Current/Best:  113.72/ 626.34 GFLOPS | Progress: (448/896) | 219.57 s
[Task ResNet18_05] Current/Best:  327.15/ 626.34 GFLOPS | Progress: (512/896) | 251.15 s
[Task ResNet18_05] Current/Best:  356.13/ 626.34 GFLOPS | Progress: (576/896) | 283.54 s
[Task ResNet18_05] Current/Best:  370.36/ 626.34 GFLOPS | Progress: (640/896) | 316.74 s
[Task ResNet18_05] Current/Best:  369.14/ 626.34 GFLOPS | Progress: (704/896) | 348.89 s
[Task ResNet18_05] Current/Best:  175.91/ 626.34 GFLOPS | Progress: (768/896) | 380.75 s
[Task ResNet18_05] Current/Best:  145.71/ 626.34 GFLOPS | Progress: (832/896) | 414.59 s
[Task ResNet18_05] Current/Best:  254.41/ 626.34 GFLOPS | Progress: (896/896) | 446.30 s
 Done.
def @main(%data: Tensor[(1, 128, 30, 30), float32], %weight: Tensor[(128, 128, 3, 3), float32]) -> Tensor[(1, 128, 28, 28), float32] {
  nn.conv2d(%data, %weight, padding=[0, 0, 0, 0], channels=128, kernel_size=[3, 3]) /* ty=Tensor[(1, 128, 28, 28), float32] */
}

[Task ResNet18_06] Current/Best:    0.00/   0.00 GFLOPS | Progress: (0/1024) | 0.00 s
[Task ResNet18_06] Current/Best: 1334.08/2887.51 GFLOPS | Progress: (64/1024) | 39.27 s
[Task ResNet18_06] Current/Best:  224.54/2887.51 GFLOPS | Progress: (128/1024) | 72.14 s
[Task ResNet18_06] Current/Best:  532.18/2887.51 GFLOPS | Progress: (192/1024) | 105.57 s
[Task ResNet18_06] Current/Best:  135.00/2887.51 GFLOPS | Progress: (256/1024) | 139.64 s
[Task ResNet18_06] Current/Best: 1506.03/2887.51 GFLOPS | Progress: (320/1024) | 174.73 s
[Task ResNet18_06] Current/Best:   68.43/2887.51 GFLOPS | Progress: (384/1024) | 211.73 s
[Task ResNet18_06] Current/Best:  530.36/2887.51 GFLOPS | Progress: (448/1024) | 248.65 s
[Task ResNet18_06] Current/Best: 1109.40/2887.51 GFLOPS | Progress: (512/1024) | 285.95 s
[Task ResNet18_06] Current/Best:  524.46/2887.51 GFLOPS | Progress: (576/1024) | 322.13 s
[Task ResNet18_06] Current/Best:   66.17/2887.51 GFLOPS | Progress: (640/1024) | 361.63 s
[Task ResNet18_06] Current/Best:  207.44/2887.51 GFLOPS | Progress: (704/1024) | 398.08 s
[Task ResNet18_06] Current/Best:  758.65/2887.51 GFLOPS | Progress: (768/1024) | 436.02 s
[Task ResNet18_06] Current/Best:  751.61/2887.51 GFLOPS | Progress: (832/1024) | 474.41 s
[Task ResNet18_06] Current/Best:  530.25/2887.51 GFLOPS | Progress: (896/1024) | 512.77 s
[Task ResNet18_06] Current/Best:  420.69/2887.51 GFLOPS | Progress: (960/1024) | 552.14 s
[Task ResNet18_06] Current/Best:  550.19/2887.51 GFLOPS | Progress: (1024/1024) | 591.66 s
 Done.
def @main(%data: Tensor[(1, 128, 30, 30), float32], %weight: Tensor[(256, 128, 3, 3), float32]) -> Tensor[(1, 256, 14, 14), float32] {
  nn.conv2d(%data, %weight, strides=[2, 2], padding=[0, 0, 0, 0], channels=256, kernel_size=[3, 3]) /* ty=Tensor[(1, 256, 14, 14), float32] */
}

[Task ResNet18_07] Current/Best:    0.00/   0.00 GFLOPS | Progress: (0/864) | 0.00 s
[Task ResNet18_07] Current/Best: 1005.73/2074.44 GFLOPS | Progress: (64/864) | 38.35 s
[Task ResNet18_07] Current/Best:  113.04/2215.97 GFLOPS | Progress: (128/864) | 70.86 s
[Task ResNet18_07] Current/Best:  266.77/2215.97 GFLOPS | Progress: (192/864) | 104.49 s
[Task ResNet18_07] Current/Best:  381.19/2215.97 GFLOPS | Progress: (256/864) | 137.88 s
[Task ResNet18_07] Current/Best:  929.88/2215.97 GFLOPS | Progress: (320/864) | 173.23 s
[Task ResNet18_07] Current/Best:  255.11/2215.97 GFLOPS | Progress: (384/864) | 207.60 s
[Task ResNet18_07] Current/Best:  217.50/2215.97 GFLOPS | Progress: (448/864) | 242.10 s
[Task ResNet18_07] Current/Best:  757.13/2215.97 GFLOPS | Progress: (512/864) | 277.76 s
[Task ResNet18_07] Current/Best:  771.64/2215.97 GFLOPS | Progress: (576/864) | 313.08 s
[Task ResNet18_07] Current/Best:  240.16/2215.97 GFLOPS | Progress: (640/864) | 348.46 s
[Task ResNet18_07] Current/Best:  264.32/2215.97 GFLOPS | Progress: (704/864) | 387.96 s
[Task ResNet18_07] Current/Best:  731.54/2215.97 GFLOPS | Progress: (768/864) | 425.70 s
[Task ResNet18_07] Current/Best:  132.10/2215.97 GFLOPS | Progress: (832/864) | 463.26 s
[Task ResNet18_07] Current/Best:  440.43/2215.97 GFLOPS | Progress: (864/864) | 481.17 s
 Done.
def @main(%data: Tensor[(1, 128, 30, 30), float32], %weight: Tensor[(256, 128, 3, 3), float32]) -> Tensor[(1, 256, 28, 28), float32] {
  nn.conv2d(%data, %weight, padding=[0, 0, 0, 0], channels=256, kernel_size=[3, 3]) /* ty=Tensor[(1, 256, 28, 28), float32] */
}

[Task ResNet18_08] Current/Best:    0.00/   0.00 GFLOPS | Progress: (0/1152) | 0.00 s
[Task ResNet18_08] Current/Best: 1063.99/2872.98 GFLOPS | Progress: (64/1152) | 47.63 s
[Task ResNet18_08] Current/Best:  208.59/3313.25 GFLOPS | Progress: (128/1152) | 85.01 s
[Task ResNet18_08] Current/Best:  896.52/3313.25 GFLOPS | Progress: (192/1152) | 122.60 s
[Task ResNet18_08] Current/Best: 1099.96/3313.25 GFLOPS | Progress: (256/1152) | 160.34 s
[Task ResNet18_08] Current/Best:  818.69/3313.25 GFLOPS | Progress: (320/1152) | 203.58 s
[Task ResNet18_08] Current/Best:   34.18/3313.25 GFLOPS | Progress: (384/1152) | 248.70 s
[Task ResNet18_08] Current/Best:  529.10/3313.25 GFLOPS | Progress: (448/1152) | 296.65 s
[Task ResNet18_08] Current/Best:  941.75/3313.25 GFLOPS | Progress: (512/1152) | 340.02 s
[Task ResNet18_08] Current/Best:  413.07/3313.25 GFLOPS | Progress: (576/1152) | 385.11 s
[Task ResNet18_08] Current/Best:  883.15/3313.25 GFLOPS | Progress: (640/1152) | 427.98 s
[Task ResNet18_08] Current/Best:   34.27/3313.25 GFLOPS | Progress: (704/1152) | 475.41 s
[Task ResNet18_08] Current/Best:  623.37/3313.25 GFLOPS | Progress: (768/1152) | 520.24 s
[Task ResNet18_08] Current/Best:  812.47/3313.25 GFLOPS | Progress: (832/1152) | 569.67 s
[Task ResNet18_08] Current/Best:  854.73/3313.25 GFLOPS | Progress: (896/1152) | 615.37 s
[Task ResNet18_08] Current/Best:  133.78/3313.25 GFLOPS | Progress: (960/1152) | 663.39 s
[Task ResNet18_08] Current/Best:  649.40/3313.25 GFLOPS | Progress: (1024/1152) | 715.02 s
[Task ResNet18_08] Current/Best:  328.92/3313.25 GFLOPS | Progress: (1088/1152) | 767.69 s
[Task ResNet18_08] Current/Best:  669.54/3313.25 GFLOPS | Progress: (1152/1152) | 819.08 s
 Done.
def @main(%data: Tensor[(1, 256, 16, 16), float32], %weight: Tensor[(256, 256, 3, 3), float32]) -> Tensor[(1, 256, 14, 14), float32] {
  nn.conv2d(%data, %weight, padding=[0, 0, 0, 0], channels=256, kernel_size=[3, 3]) /* ty=Tensor[(1, 256, 14, 14), float32] */
}

[Task ResNet18_09] Current/Best:    0.00/   0.00 GFLOPS | Progress: (0/972) | 0.00 s
[Task ResNet18_09] Current/Best: 1057.90/2713.68 GFLOPS | Progress: (64/972) | 45.67 s
[Task ResNet18_09] Current/Best: 2492.63/2780.66 GFLOPS | Progress: (128/972) | 83.97 s
[Task ResNet18_09] Current/Best:  712.31/2783.93 GFLOPS | Progress: (192/972) | 123.24 s
[Task ResNet18_09] Current/Best:  166.31/2783.93 GFLOPS | Progress: (256/972) | 162.48 s
[Task ResNet18_09] Current/Best:   66.64/2783.93 GFLOPS | Progress: (320/972) | 204.58 s
[Task ResNet18_09] Current/Best:  480.52/2783.93 GFLOPS | Progress: (384/972) | 247.36 s
[Task ResNet18_09] Current/Best:  345.17/2783.93 GFLOPS | Progress: (448/972) | 289.52 s
[Task ResNet18_09] Current/Best:   67.21/2783.93 GFLOPS | Progress: (512/972) | 335.00 s
[Task ResNet18_09] Current/Best:  780.08/2783.93 GFLOPS | Progress: (576/972) | 379.02 s
[Task ResNet18_09] Current/Best:  115.25/2783.93 GFLOPS | Progress: (640/972) | 421.15 s
[Task ResNet18_09] Current/Best:  774.87/2783.93 GFLOPS | Progress: (704/972) | 467.56 s
[Task ResNet18_09] Current/Best:   67.32/2783.93 GFLOPS | Progress: (768/972) | 512.38 s
[Task ResNet18_09] Current/Best:  241.86/2783.93 GFLOPS | Progress: (832/972) | 555.86 s
[Task ResNet18_09] Current/Best:   67.34/2783.93 GFLOPS | Progress: (896/972) | 602.73 s
[Task ResNet18_09] Current/Best:  383.77/2783.93 GFLOPS | Progress: (960/972) | 649.48 s
[Task ResNet18_09] Current/Best:   67.12/2783.93 GFLOPS | Progress: (972/972) | 658.43 s
 Done.
def @main(%data: Tensor[(1, 512, 16, 16), float32], %weight: Tensor[(512, 512, 3, 3), float32]) -> Tensor[(1, 512, 7, 7), float32] {
  nn.conv2d(%data, %weight, strides=[2, 2], padding=[0, 0, 0, 0], channels=512, kernel_size=[3, 3]) /* ty=Tensor[(1, 512, 7, 7), float32] */
}

[Task ResNet18_10] Current/Best:    0.00/   0.00 GFLOPS | Progress: (0/800) | 0.00 s
[Task ResNet18_10] Current/Best:   66.78/2055.90 GFLOPS | Progress: (64/800) | 84.22 s
[Task ResNet18_10] Current/Best:  458.57/2156.93 GFLOPS | Progress: (128/800) | 159.72 s
[Task ResNet18_10] Current/Best:   33.55/2156.93 GFLOPS | Progress: (192/800) | 237.77 s
[Task ResNet18_10] Current/Best:   66.75/2156.93 GFLOPS | Progress: (256/800) | 323.15 s
[Task ResNet18_10] Current/Best:  872.56/2156.93 GFLOPS | Progress: (320/800) | 407.96 s
[Task ResNet18_10] Current/Best:   33.55/2156.93 GFLOPS | Progress: (384/800) | 488.54 s
[Task ResNet18_10] Current/Best:  783.31/2156.93 GFLOPS | Progress: (448/800) | 572.04 s
[Task ResNet18_10] Current/Best:  100.21/2156.93 GFLOPS | Progress: (512/800) | 658.14 s
[Task ResNet18_10] Current/Best:   75.57/2156.93 GFLOPS | Progress: (576/800) | 746.51 s
[Task ResNet18_10] Current/Best:   95.37/2156.93 GFLOPS | Progress: (640/800) | 833.22 s
[Task ResNet18_10] Current/Best:   95.32/2156.93 GFLOPS | Progress: (704/800) | 919.75 s
[Task ResNet18_10] Current/Best:  331.03/2156.93 GFLOPS | Progress: (768/800) | 1009.02 s
[Task ResNet18_10] Current/Best:  262.28/2156.93 GFLOPS | Progress: (800/800) | 1052.06 s
 Done.
def @main(%data: Tensor[(1, 256, 14, 14), float32], %weight: Tensor[(512, 256, 1, 1), float32]) -> Tensor[(1, 512, 7, 7), float32] {
  nn.conv2d(%data, %weight, strides=[2, 2], padding=[0, 0, 0, 0], channels=512, kernel_size=[1, 1]) /* ty=Tensor[(1, 512, 7, 7), float32] */
}

[Task ResNet18_11] Current/Best:    0.00/   0.00 GFLOPS | Progress: (0/720) | 0.00 s
[Task ResNet18_11] Current/Best:  252.92/ 613.43 GFLOPS | Progress: (64/720) | 29.61 s
[Task ResNet18_11] Current/Best:  206.57/ 621.43 GFLOPS | Progress: (128/720) | 55.00 s
[Task ResNet18_11] Current/Best:   26.52/ 621.43 GFLOPS | Progress: (192/720) | 82.69 s
[Task ResNet18_11] Current/Best:  514.77/ 621.43 GFLOPS | Progress: (256/720) | 110.54 s
[Task ResNet18_11] Current/Best:   65.22/ 621.43 GFLOPS | Progress: (320/720) | 137.59 s
[Task ResNet18_11] Current/Best:  104.66/ 621.43 GFLOPS | Progress: (384/720) | 164.93 s
[Task ResNet18_11] Current/Best:  167.45/ 621.43 GFLOPS | Progress: (448/720) | 191.55 s
[Task ResNet18_11] Current/Best:  168.57/ 621.43 GFLOPS | Progress: (512/720) | 219.21 s
[Task ResNet18_11] Current/Best:  233.13/ 621.43 GFLOPS | Progress: (576/720) | 247.56 s
[Task ResNet18_11] Current/Best:  320.70/ 621.43 GFLOPS | Progress: (640/720) | 275.62 s
[Task ResNet18_11] Current/Best:  108.60/ 621.43 GFLOPS | Progress: (704/720) | 303.99 s
[Task ResNet18_11] Current/Best:   68.58/ 621.43 GFLOPS | Progress: (720/720) | 310.54 s
 Done.
def @main(%data: Tensor[(1, 512, 9, 9), float32], %weight: Tensor[(512, 512, 3, 3), float32]) -> Tensor[(1, 512, 7, 7), float32] {
  nn.conv2d(%data, %weight, padding=[0, 0, 0, 0], channels=512, kernel_size=[3, 3]) /* ty=Tensor[(1, 512, 7, 7), float32] */
}

[Task ResNet18_12] Current/Best:    0.00/   0.00 GFLOPS | Progress: (0/800) | 0.00 s
[Task ResNet18_12] Current/Best:   65.93/2203.52 GFLOPS | Progress: (64/800) | 81.71 s
[Task ResNet18_12] Current/Best:  124.12/2267.71 GFLOPS | Progress: (128/800) | 156.99 s
[Task ResNet18_12] Current/Best:  798.07/2267.71 GFLOPS | Progress: (192/800) | 231.69 s
[Task ResNet18_12] Current/Best:  602.81/2267.71 GFLOPS | Progress: (256/800) | 314.78 s
[Task ResNet18_12] Current/Best:   94.22/2267.71 GFLOPS | Progress: (320/800) | 395.49 s
[Task ResNet18_12] Current/Best:  202.23/2267.71 GFLOPS | Progress: (384/800) | 479.62 s
[Task ResNet18_12] Current/Best:   57.93/2267.71 GFLOPS | Progress: (448/800) | 564.65 s
[Task ResNet18_12] Current/Best:  646.35/2267.71 GFLOPS | Progress: (512/800) | 648.62 s
[Task ResNet18_12] Current/Best:  292.62/2267.71 GFLOPS | Progress: (576/800) | 732.00 s
[Task ResNet18_12] Current/Best:   33.47/2267.71 GFLOPS | Progress: (640/800) | 817.96 s
[Task ResNet18_12] Current/Best:  322.19/2267.71 GFLOPS | Progress: (704/800) | 900.91 s
[Task ResNet18_12] Current/Best:   89.97/2267.71 GFLOPS | Progress: (768/800) | 986.51 s
[Task ResNet18_12] Current/Best:  302.79/2267.71 GFLOPS | Progress: (800/800) | 1029.44 s
 Done.
def @main(%data: Tensor[(1, 3, 546, 546), float32], %weight: Tensor[(32, 3, 3, 3), float32]) -> Tensor[(1, 32, 544, 544), float32] {
  nn.conv2d(%data, %weight, padding=[0, 0, 0, 0], channels=32, kernel_size=[3, 3]) /* ty=Tensor[(1, 32, 544, 544), float32] */
}

[Task Yolo9000_00] Current/Best:    0.00/   0.00 GFLOPS | Progress: (0/216) | 0.00 s
[Task Yolo9000_00] Current/Best:  327.22/2964.11 GFLOPS | Progress: (64/216) | 174.42 s
[Task Yolo9000_00] Current/Best:  338.68/2981.20 GFLOPS | Progress: (128/216) | 343.14 s
[Task Yolo9000_00] Current/Best:  739.13/2981.20 GFLOPS | Progress: (192/216) | 517.80 s
[Task Yolo9000_00] Current/Best:  762.74/2981.20 GFLOPS | Progress: (216/216) | 582.69 s
 Done.
def @main(%data: Tensor[(1, 32, 274, 274), float32], %weight: Tensor[(64, 32, 3, 3), float32]) -> Tensor[(1, 64, 272, 272), float32] {
  nn.conv2d(%data, %weight, padding=[0, 0, 0, 0], channels=64, kernel_size=[3, 3]) /* ty=Tensor[(1, 64, 272, 272), float32] */
}

[Task Yolo9000_02] Current/Best:    0.00/   0.00 GFLOPS | Progress: (0/756) | 0.00 s
[Task Yolo9000_02] Current/Best:  141.95/3522.43 GFLOPS | Progress: (64/756) | 175.66 s
[Task Yolo9000_02] Current/Best:  931.92/3619.97 GFLOPS | Progress: (128/756) | 321.29 s
[Task Yolo9000_02] Current/Best:  711.32/3619.97 GFLOPS | Progress: (192/756) | 465.43 s
[Task Yolo9000_02] Current/Best:  499.67/3619.97 GFLOPS | Progress: (256/756) | 645.86 s
[Task Yolo9000_02] Current/Best:  297.16/3619.97 GFLOPS | Progress: (320/756) | 815.50 s
[Task Yolo9000_02] Current/Best:  119.39/3619.97 GFLOPS | Progress: (384/756) | 1001.44 s
[Task Yolo9000_02] Current/Best:   69.29/3619.97 GFLOPS | Progress: (448/756) | 1181.91 s
[Task Yolo9000_02] Current/Best:  908.80/3619.97 GFLOPS | Progress: (512/756) | 1393.63 s
[Task Yolo9000_02] Current/Best:  804.77/3619.97 GFLOPS | Progress: (576/756) | 1609.23 s
[Task Yolo9000_02] Current/Best:  147.09/3619.97 GFLOPS | Progress: (640/756) | 1798.72 s
[Task Yolo9000_02] Current/Best:  575.08/3619.97 GFLOPS | Progress: (704/756) | 2019.15 s
[Task Yolo9000_02] Current/Best:  121.96/3619.97 GFLOPS | Progress: (756/756) | 2210.60 s
 Done.
def @main(%data: Tensor[(1, 64, 138, 138), float32], %weight: Tensor[(128, 64, 3, 3), float32]) -> Tensor[(1, 128, 136, 136), float32] {
  nn.conv2d(%data, %weight, padding=[0, 0, 0, 0], channels=128, kernel_size=[3, 3]) /* ty=Tensor[(1, 128, 136, 136), float32] */
}

[Task Yolo9000_04] Current/Best:    0.00/   0.00 GFLOPS | Progress: (0/1008) | 0.00 s
[Task Yolo9000_04] Current/Best:  188.87/3375.06 GFLOPS | Progress: (64/1008) | 119.34 s
[Task Yolo9000_04] Current/Best:  960.69/3617.78 GFLOPS | Progress: (128/1008) | 206.81 s
[Task Yolo9000_04] Current/Best:  538.53/3617.78 GFLOPS | Progress: (192/1008) | 296.83 s
[Task Yolo9000_04] Current/Best: 1181.33/3617.78 GFLOPS | Progress: (256/1008) | 415.59 s
[Task Yolo9000_04] Current/Best:   69.24/3617.78 GFLOPS | Progress: (320/1008) | 538.97 s
[Task Yolo9000_04] Current/Best: 1158.37/3617.78 GFLOPS | Progress: (384/1008) | 652.69 s
[Task Yolo9000_04] Current/Best:  420.98/3617.78 GFLOPS | Progress: (448/1008) | 769.34 s
[Task Yolo9000_04] Current/Best:  281.38/3617.78 GFLOPS | Progress: (512/1008) | 905.69 s
[Task Yolo9000_04] Current/Best: 1071.00/3617.78 GFLOPS | Progress: (576/1008) | 1025.29 s
[Task Yolo9000_04] Current/Best:  325.70/3617.78 GFLOPS | Progress: (640/1008) | 1167.72 s
[Task Yolo9000_04] Current/Best:  392.21/3617.78 GFLOPS | Progress: (704/1008) | 1326.20 s
[Task Yolo9000_04] Current/Best:  553.69/3617.78 GFLOPS | Progress: (768/1008) | 1484.59 s
[Task Yolo9000_04] Current/Best:  343.45/3617.78 GFLOPS | Progress: (832/1008) | 1627.38 s
[Task Yolo9000_04] Current/Best:  671.40/3617.78 GFLOPS | Progress: (896/1008) | 1781.46 s
[Task Yolo9000_04] Current/Best:  498.68/3617.78 GFLOPS | Progress: (960/1008) | 1962.18 s
[Task Yolo9000_04] Current/Best:  558.14/3617.78 GFLOPS | Progress: (1008/1008) | 2070.43 s
 Done.
def @main(%data: Tensor[(1, 128, 136, 136), float32], %weight: Tensor[(64, 128, 1, 1), float32]) -> Tensor[(1, 64, 136, 136), float32] {
  nn.conv2d(%data, %weight, padding=[0, 0, 0, 0], channels=64, kernel_size=[1, 1]) /* ty=Tensor[(1, 64, 136, 136), float32] */
}

[Task Yolo9000_05] Current/Best:    0.00/   0.00 GFLOPS | Progress: (0/1008) | 0.00 s
[Task Yolo9000_05] Current/Best:   40.64/1847.91 GFLOPS | Progress: (64/1008) | 99.77 s
[Task Yolo9000_05] Current/Best:  158.32/2232.99 GFLOPS | Progress: (128/1008) | 189.59 s
[Task Yolo9000_05] Current/Best:  841.84/2313.39 GFLOPS | Progress: (192/1008) | 277.24 s
[Task Yolo9000_05] Current/Best: 1363.74/2313.39 GFLOPS | Progress: (256/1008) | 362.98 s
[Task Yolo9000_05] Current/Best:  549.72/2313.39 GFLOPS | Progress: (320/1008) | 458.45 s
[Task Yolo9000_05] Current/Best:  653.09/2313.39 GFLOPS | Progress: (384/1008) | 553.61 s
[Task Yolo9000_05] Current/Best:  852.81/2313.39 GFLOPS | Progress: (448/1008) | 646.24 s
[Task Yolo9000_05] Current/Best:  280.95/2313.39 GFLOPS | Progress: (512/1008) | 741.96 s
[Task Yolo9000_05] Current/Best:  563.27/2313.39 GFLOPS | Progress: (576/1008) | 837.72 s
[Task Yolo9000_05] Current/Best:  430.10/2313.39 GFLOPS | Progress: (640/1008) | 932.72 s
[Task Yolo9000_05] Current/Best:   85.94/2313.39 GFLOPS | Progress: (704/1008) | 1032.57 s
[Task Yolo9000_05] Current/Best:  104.20/2313.39 GFLOPS | Progress: (768/1008) | 1130.00 s
[Task Yolo9000_05] Current/Best:   80.43/2313.39 GFLOPS | Progress: (832/1008) | 1226.66 s
[Task Yolo9000_05] Current/Best:  495.47/2313.39 GFLOPS | Progress: (896/1008) | 1329.62 s
[Task Yolo9000_05] Current/Best:  104.97/2313.39 GFLOPS | Progress: (960/1008) | 1433.29 s
[Task Yolo9000_05] Current/Best:  158.36/2313.39 GFLOPS | Progress: (1008/1008) | 1509.14 s
 Done.
def @main(%data: Tensor[(1, 128, 70, 70), float32], %weight: Tensor[(256, 128, 3, 3), float32]) -> Tensor[(1, 256, 68, 68), float32] {
  nn.conv2d(%data, %weight, padding=[0, 0, 0, 0], channels=256, kernel_size=[3, 3]) /* ty=Tensor[(1, 256, 68, 68), float32] */
}

[Task Yolo9000_08] Current/Best:    0.00/   0.00 GFLOPS | Progress: (0/1296) | 0.00 s
def @main(%data: Tensor[(1, 32, 114, 114), float32], %weight: Tensor[(32, 32, 3, 3), float32]) -> Tensor[(1, 32, 112, 112), float32] {
  nn.conv2d(%data, %weight, padding=[0, 0, 0, 0], channels=32, kernel_size=[3, 3]) /* ty=Tensor[(1, 32, 112, 112), float32] */
}

[Task MobilNet_01] Current/Best:    0.00/   0.00 GFLOPS | Progress: (0/792) | 0.00 s
[Task MobilNet_01] Current/Best:  196.91/2840.54 GFLOPS | Progress: (64/792) | 44.07 s
[Task MobilNet_01] Current/Best:  135.39/3246.53 GFLOPS | Progress: (128/792) | 80.63 s
[Task MobilNet_01] Current/Best: 1159.10/3246.53 GFLOPS | Progress: (192/792) | 115.98 s
[Task MobilNet_01] Current/Best:  773.61/3246.53 GFLOPS | Progress: (256/792) | 155.19 s
[Task MobilNet_01] Current/Best: 1668.08/3246.53 GFLOPS | Progress: (320/792) | 198.14 s
[Task MobilNet_01] Current/Best:   37.09/3246.53 GFLOPS | Progress: (384/792) | 234.70 s
[Task MobilNet_01] Current/Best:  217.48/3246.53 GFLOPS | Progress: (448/792) | 278.13 s
[Task MobilNet_01] Current/Best:  481.26/3246.53 GFLOPS | Progress: (512/792) | 320.86 s
[Task MobilNet_01] Current/Best:  268.52/3246.53 GFLOPS | Progress: (576/792) | 363.61 s
[Task MobilNet_01] Current/Best:  141.12/3246.53 GFLOPS | Progress: (640/792) | 407.66 s
[Task MobilNet_01] Current/Best:  276.02/3246.53 GFLOPS | Progress: (704/792) | 450.93 s
[Task MobilNet_01] Current/Best:  144.56/3246.53 GFLOPS | Progress: (768/792) | 495.02 s
[Task MobilNet_01] Current/Best:  150.26/3246.53 GFLOPS | Progress: (792/792) | 514.27 s
 Done.
def @main(%data: Tensor[(1, 64, 114, 114), float32], %weight: Tensor[(64, 64, 3, 3), float32]) -> Tensor[(1, 64, 56, 56), float32] {
  nn.conv2d(%data, %weight, strides=[2, 2], padding=[0, 0, 0, 0], channels=64, kernel_size=[3, 3]) /* ty=Tensor[(1, 64, 56, 56), float32] */
}

[Task MobilNet_02] Current/Best:    0.00/   0.00 GFLOPS | Progress: (0/980) | 0.00 s
[Task MobilNet_02] Current/Best:  595.43/2904.05 GFLOPS | Progress: (64/980) | 47.08 s
[Task MobilNet_02] Current/Best:  355.40/2920.03 GFLOPS | Progress: (128/980) | 86.33 s
[Task MobilNet_02] Current/Best:  706.92/2920.03 GFLOPS | Progress: (192/980) | 126.46 s
[Task MobilNet_02] Current/Best:  199.11/2920.03 GFLOPS | Progress: (256/980) | 169.90 s
[Task MobilNet_02] Current/Best:  931.03/2920.03 GFLOPS | Progress: (320/980) | 212.70 s
[Task MobilNet_02] Current/Best:  675.64/2920.03 GFLOPS | Progress: (384/980) | 257.69 s
[Task MobilNet_02] Current/Best:  548.32/2920.03 GFLOPS | Progress: (448/980) | 300.69 s
[Task MobilNet_02] Current/Best:  924.44/2920.03 GFLOPS | Progress: (512/980) | 347.94 s
[Task MobilNet_02] Current/Best:  664.32/2920.03 GFLOPS | Progress: (576/980) | 393.88 s
[Task MobilNet_02] Current/Best:  779.99/2920.03 GFLOPS | Progress: (640/980) | 438.89 s
[Task MobilNet_02] Current/Best:  843.55/2920.03 GFLOPS | Progress: (704/980) | 483.92 s
[Task MobilNet_02] Current/Best:  169.77/2920.03 GFLOPS | Progress: (768/980) | 531.62 s
[Task MobilNet_02] Current/Best:  137.21/2920.03 GFLOPS | Progress: (832/980) | 579.42 s
[Task MobilNet_02] Current/Best:   67.67/2920.03 GFLOPS | Progress: (896/980) | 627.60 s
[Task MobilNet_02] Current/Best:  272.74/2920.03 GFLOPS | Progress: (960/980) | 677.05 s
[Task MobilNet_02] Current/Best:  136.25/2920.03 GFLOPS | Progress: (980/980) | 691.50 s
 Done.
def @main(%data: Tensor[(1, 128, 58, 58), float32], %weight: Tensor[(128, 128, 3, 3), float32]) -> Tensor[(1, 128, 56, 56), float32] {
  nn.conv2d(%data, %weight, padding=[0, 0, 0, 0], channels=128, kernel_size=[3, 3]) /* ty=Tensor[(1, 128, 56, 56), float32] */
}

[Task MobilNet_03] Current/Best:    0.00/   0.00 GFLOPS | Progress: (0/1280) | 0.00 s
[Task MobilNet_03] Current/Best:  823.61/3639.32 GFLOPS | Progress: (64/1280) | 55.51 s
[Task MobilNet_03] Current/Best:  224.57/3666.01 GFLOPS | Progress: (128/1280) | 97.43 s
[Task MobilNet_03] Current/Best:  700.66/3666.01 GFLOPS | Progress: (192/1280) | 136.86 s
[Task MobilNet_03] Current/Best: 1742.09/3666.01 GFLOPS | Progress: (256/1280) | 176.58 s
[Task MobilNet_03] Current/Best:  529.60/3666.01 GFLOPS | Progress: (320/1280) | 224.77 s
[Task MobilNet_03] Current/Best: 1817.06/3666.01 GFLOPS | Progress: (384/1280) | 278.57 s
[Task MobilNet_03] Current/Best:  839.05/3666.01 GFLOPS | Progress: (448/1280) | 323.33 s
[Task MobilNet_03] Current/Best:  135.07/3666.01 GFLOPS | Progress: (512/1280) | 371.48 s
[Task MobilNet_03] Current/Best:  273.25/3666.01 GFLOPS | Progress: (576/1280) | 426.01 s
[Task MobilNet_03] Current/Best:  112.01/3666.01 GFLOPS | Progress: (640/1280) | 480.80 s
[Task MobilNet_03] Current/Best:  968.52/3666.01 GFLOPS | Progress: (704/1280) | 531.61 s
[Task MobilNet_03] Current/Best:  707.48/3666.01 GFLOPS | Progress: (768/1280) | 586.15 s
[Task MobilNet_03] Current/Best:  696.12/3666.01 GFLOPS | Progress: (832/1280) | 644.75 s
[Task MobilNet_03] Current/Best:  835.38/3666.01 GFLOPS | Progress: (896/1280) | 706.30 s
[Task MobilNet_03] Current/Best:  552.01/3666.01 GFLOPS | Progress: (960/1280) | 760.59 s
[Task MobilNet_03] Current/Best:  198.52/3666.01 GFLOPS | Progress: (1024/1280) | 829.89 s
[Task MobilNet_03] Current/Best:  350.67/3666.01 GFLOPS | Progress: (1088/1280) | 890.44 s
[Task MobilNet_03] Current/Best:  700.26/3666.01 GFLOPS | Progress: (1152/1280) | 954.59 s
[Task MobilNet_03] Current/Best:  386.42/3666.01 GFLOPS | Progress: (1216/1280) | 1023.41 s
[Task MobilNet_03] Current/Best:  133.38/3666.01 GFLOPS | Progress: (1280/1280) | 1081.24 s
 Done.
def @main(%data: Tensor[(1, 128, 58, 58), float32], %weight: Tensor[(128, 128, 3, 3), float32]) -> Tensor[(1, 128, 28, 28), float32] {
  nn.conv2d(%data, %weight, strides=[2, 2], padding=[0, 0, 0, 0], channels=128, kernel_size=[3, 3]) /* ty=Tensor[(1, 128, 28, 28), float32] */
}

[Task MobilNet_04] Current/Best:    0.00/   0.00 GFLOPS | Progress: (0/1024) | 0.00 s
[Task MobilNet_04] Current/Best: 1318.47/2723.66 GFLOPS | Progress: (64/1024) | 41.23 s
[Task MobilNet_04] Current/Best:  480.57/2830.05 GFLOPS | Progress: (128/1024) | 76.33 s
[Task MobilNet_04] Current/Best:  147.06/2948.65 GFLOPS | Progress: (192/1024) | 111.36 s
[Task MobilNet_04] Current/Best: 1803.58/2948.65 GFLOPS | Progress: (256/1024) | 147.08 s
[Task MobilNet_04] Current/Best: 1042.18/2948.65 GFLOPS | Progress: (320/1024) | 185.93 s
[Task MobilNet_04] Current/Best:  535.61/2948.65 GFLOPS | Progress: (384/1024) | 225.80 s
[Task MobilNet_04] Current/Best:  511.68/2948.65 GFLOPS | Progress: (448/1024) | 264.96 s
[Task MobilNet_04] Current/Best: 1358.58/2948.65 GFLOPS | Progress: (512/1024) | 304.95 s
[Task MobilNet_04] Current/Best:  179.32/2948.65 GFLOPS | Progress: (576/1024) | 344.12 s
[Task MobilNet_04] Current/Best:  536.97/2948.65 GFLOPS | Progress: (640/1024) | 384.25 s
[Task MobilNet_04] Current/Best:  752.71/2948.65 GFLOPS | Progress: (704/1024) | 421.82 s
[Task MobilNet_04] Current/Best:  356.12/2948.65 GFLOPS | Progress: (768/1024) | 462.62 s
[Task MobilNet_04] Current/Best:  137.36/2948.65 GFLOPS | Progress: (832/1024) | 503.44 s
[Task MobilNet_04] Current/Best:  724.94/2948.65 GFLOPS | Progress: (896/1024) | 545.16 s
[Task MobilNet_04] Current/Best:  258.96/2948.65 GFLOPS | Progress: (960/1024) | 588.40 s
[Task MobilNet_04] Current/Best:   68.41/2948.65 GFLOPS | Progress: (1024/1024) | 629.79 s
 Done.
def @main(%data: Tensor[(1, 256, 30, 30), float32], %weight: Tensor[(256, 256, 3, 3), float32]) -> Tensor[(1, 256, 28, 28), float32] {
  nn.conv2d(%data, %weight, padding=[0, 0, 0, 0], channels=256, kernel_size=[3, 3]) /* ty=Tensor[(1, 256, 28, 28), float32] */
}

[Task MobilNet_05] Current/Best:    0.00/   0.00 GFLOPS | Progress: (0/1296) | 0.00 s
[Task MobilNet_05] Current/Best: 1837.32/2987.89 GFLOPS | Progress: (64/1296) | 59.26 s
[Task MobilNet_05] Current/Best:  247.90/3544.20 GFLOPS | Progress: (128/1296) | 100.08 s
[Task MobilNet_05] Current/Best:  718.00/3663.73 GFLOPS | Progress: (192/1296) | 141.07 s
[Task MobilNet_05] Current/Best:  581.55/3663.73 GFLOPS | Progress: (256/1296) | 182.20 s
[Task MobilNet_05] Current/Best: 1358.88/3663.73 GFLOPS | Progress: (320/1296) | 230.72 s
[Task MobilNet_05] Current/Best:  388.24/3663.73 GFLOPS | Progress: (384/1296) | 275.80 s
[Task MobilNet_05] Current/Best:  635.43/3663.73 GFLOPS | Progress: (448/1296) | 332.54 s
[Task MobilNet_05] Current/Best:  398.62/3663.73 GFLOPS | Progress: (512/1296) | 383.49 s
[Task MobilNet_05] Current/Best:  133.65/3663.73 GFLOPS | Progress: (576/1296) | 436.95 s
[Task MobilNet_05] Current/Best:  265.50/3663.73 GFLOPS | Progress: (640/1296) | 488.72 s
[Task MobilNet_05] Current/Best:  442.81/3663.73 GFLOPS | Progress: (704/1296) | 545.24 s
[Task MobilNet_05] Current/Best:  793.49/3663.73 GFLOPS | Progress: (768/1296) | 600.13 s
[Task MobilNet_05] Current/Best:  279.93/3663.73 GFLOPS | Progress: (832/1296) | 664.88 s
[Task MobilNet_05] Current/Best:  333.11/3663.73 GFLOPS | Progress: (896/1296) | 723.10 s
[Task MobilNet_05] Current/Best:  441.89/3663.73 GFLOPS | Progress: (960/1296) | 786.13 s
[Task MobilNet_05] Current/Best:  604.83/3663.73 GFLOPS | Progress: (1024/1296) | 842.15 s
[Task MobilNet_05] Current/Best:  208.16/3663.73 GFLOPS | Progress: (1088/1296) | 902.61 s
[Task MobilNet_05] Current/Best:  571.76/3663.73 GFLOPS | Progress: (1152/1296) | 968.82 s
[Task MobilNet_05] Current/Best:   67.63/3663.73 GFLOPS | Progress: (1216/1296) | 1038.95 s
[Task MobilNet_05] Current/Best:  608.55/3663.73 GFLOPS | Progress: (1280/1296) | 1109.21 s
[Task MobilNet_05] Current/Best:  610.60/3663.73 GFLOPS | Progress: (1296/1296) | 1128.95 s
 Done.
def @main(%data: Tensor[(1, 256, 30, 30), float32], %weight: Tensor[(256, 256, 3, 3), float32]) -> Tensor[(1, 256, 14, 14), float32] {
  nn.conv2d(%data, %weight, strides=[2, 2], padding=[0, 0, 0, 0], channels=256, kernel_size=[3, 3]) /* ty=Tensor[(1, 256, 14, 14), float32] */
}

[Task MobilNet_06] Current/Best:    0.00/   0.00 GFLOPS | Progress: (0/972) | 0.00 s
[Task MobilNet_06] Current/Best: 1013.53/2607.00 GFLOPS | Progress: (64/972) | 44.62 s
[Task MobilNet_06] Current/Best:  697.29/2921.55 GFLOPS | Progress: (128/972) | 80.21 s
[Task MobilNet_06] Current/Best:  263.49/2960.79 GFLOPS | Progress: (192/972) | 114.98 s
[Task MobilNet_06] Current/Best:  133.82/2960.79 GFLOPS | Progress: (256/972) | 154.44 s
[Task MobilNet_06] Current/Best:  228.98/2960.79 GFLOPS | Progress: (320/972) | 195.07 s
[Task MobilNet_06] Current/Best:  334.07/2960.79 GFLOPS | Progress: (384/972) | 232.83 s
[Task MobilNet_06] Current/Best: 1313.76/2960.79 GFLOPS | Progress: (448/972) | 276.03 s
[Task MobilNet_06] Current/Best:  217.03/2960.79 GFLOPS | Progress: (512/972) | 316.57 s
[Task MobilNet_06] Current/Best:  705.82/2960.79 GFLOPS | Progress: (576/972) | 356.72 s
[Task MobilNet_06] Current/Best:  709.56/2960.79 GFLOPS | Progress: (640/972) | 396.15 s
[Task MobilNet_06] Current/Best:  533.41/2960.79 GFLOPS | Progress: (704/972) | 437.14 s
[Task MobilNet_06] Current/Best:  638.87/2960.79 GFLOPS | Progress: (768/972) | 480.27 s
[Task MobilNet_06] Current/Best:  395.25/2960.79 GFLOPS | Progress: (832/972) | 524.39 s
[Task MobilNet_06] Current/Best:  637.74/2960.79 GFLOPS | Progress: (896/972) | 567.47 s
[Task MobilNet_06] Current/Best:  532.06/2960.79 GFLOPS | Progress: (960/972) | 611.80 s
[Task MobilNet_06] Current/Best:   33.70/2960.79 GFLOPS | Progress: (972/972) | 620.95 s
 Done.
def @main(%data: Tensor[(1, 512, 16, 16), float32], %weight: Tensor[(512, 512, 3, 3), float32]) -> Tensor[(1, 512, 14, 14), float32] {
  nn.conv2d(%data, %weight, padding=[0, 0, 0, 0], channels=512, kernel_size=[3, 3]) /* ty=Tensor[(1, 512, 14, 14), float32] */
}

[Task MobilNet_07] Current/Best:    0.00/   0.00 GFLOPS | Progress: (0/1200) | 0.00 s
[Task MobilNet_07] Current/Best:  536.07/2938.34 GFLOPS | Progress: (64/1200) | 82.88 s
[Task MobilNet_07] Current/Best:  232.96/3527.44 GFLOPS | Progress: (128/1200) | 147.45 s
[Task MobilNet_07] Current/Best:  555.17/3629.14 GFLOPS | Progress: (192/1200) | 211.30 s
[Task MobilNet_07] Current/Best:  134.27/3629.14 GFLOPS | Progress: (256/1200) | 293.37 s
[Task MobilNet_07] Current/Best:  663.69/3629.14 GFLOPS | Progress: (320/1200) | 366.15 s
[Task MobilNet_07] Current/Best:  534.99/3629.14 GFLOPS | Progress: (384/1200) | 433.02 s
[Task MobilNet_07] Current/Best: 1063.01/3629.14 GFLOPS | Progress: (448/1200) | 518.56 s
[Task MobilNet_07] Current/Best:  281.83/3629.14 GFLOPS | Progress: (512/1200) | 605.54 s
[Task MobilNet_07] Current/Best:  264.43/3629.14 GFLOPS | Progress: (576/1200) | 685.77 s
[Task MobilNet_07] Current/Best:  232.36/3629.14 GFLOPS | Progress: (640/1200) | 765.80 s
[Task MobilNet_07] Current/Best:  412.01/3629.14 GFLOPS | Progress: (704/1200) | 852.12 s
[Task MobilNet_07] Current/Best:  390.64/3629.14 GFLOPS | Progress: (768/1200) | 930.82 s
[Task MobilNet_07] Current/Best:  386.22/3629.14 GFLOPS | Progress: (832/1200) | 1016.85 s
[Task MobilNet_07] Current/Best:  268.37/3629.14 GFLOPS | Progress: (896/1200) | 1098.30 s
[Task MobilNet_07] Current/Best:  268.19/3629.14 GFLOPS | Progress: (960/1200) | 1183.56 s
[Task MobilNet_07] Current/Best:  113.76/3629.14 GFLOPS | Progress: (1024/1200) | 1278.08 s
[Task MobilNet_07] Current/Best:  383.47/3629.14 GFLOPS | Progress: (1088/1200) | 1371.90 s
[Task MobilNet_07] Current/Best:  419.00/3629.14 GFLOPS | Progress: (1152/1200) | 1465.76 s
[Task MobilNet_07] Current/Best:  645.21/3629.14 GFLOPS | Progress: (1200/1200) | 1532.45 s
 Done.
def @main(%data: Tensor[(1, 512, 16, 16), float32], %weight: Tensor[(512, 512, 3, 3), float32]) -> Tensor[(1, 512, 7, 7), float32] {
  nn.conv2d(%data, %weight, strides=[2, 2], padding=[0, 0, 0, 0], channels=512, kernel_size=[3, 3]) /* ty=Tensor[(1, 512, 7, 7), float32] */
}

[Task MobilNet_08] Current/Best:    0.00/   0.00 GFLOPS | Progress: (0/800) | 0.00 s
[Task MobilNet_08] Current/Best:   67.04/2223.90 GFLOPS | Progress: (64/800) | 65.40 s
[Task MobilNet_08] Current/Best:  133.77/2573.50 GFLOPS | Progress: (128/800) | 121.86 s
[Task MobilNet_08] Current/Best:  644.22/2573.50 GFLOPS | Progress: (192/800) | 180.29 s
[Task MobilNet_08] Current/Best:  133.81/2573.50 GFLOPS | Progress: (256/800) | 246.28 s
[Task MobilNet_08] Current/Best:  343.05/2573.50 GFLOPS | Progress: (320/800) | 309.31 s
[Task MobilNet_08] Current/Best:  109.03/2573.50 GFLOPS | Progress: (384/800) | 371.61 s
[Task MobilNet_08] Current/Best:  644.14/2573.50 GFLOPS | Progress: (448/800) | 436.02 s
[Task MobilNet_08] Current/Best:  301.47/2573.50 GFLOPS | Progress: (512/800) | 500.17 s
[Task MobilNet_08] Current/Best:  344.85/2573.50 GFLOPS | Progress: (576/800) | 565.16 s
[Task MobilNet_08] Current/Best:  133.55/2573.50 GFLOPS | Progress: (640/800) | 632.13 s
[Task MobilNet_08] Current/Best:  116.58/2573.50 GFLOPS | Progress: (704/800) | 699.06 s
[Task MobilNet_08] Current/Best:  209.81/2573.50 GFLOPS | Progress: (768/800) | 766.68 s
[Task MobilNet_08] Current/Best:  133.10/2573.50 GFLOPS | Progress: (800/800) | 800.58 s
 Done.
def @main(%data: Tensor[(1, 1024, 9, 9), float32], %weight: Tensor[(1024, 1024, 3, 3), float32]) -> Tensor[(1, 1024, 7, 7), float32] {
  nn.conv2d(%data, %weight, padding=[0, 0, 0, 0], channels=1024, kernel_size=[3, 3]) /* ty=Tensor[(1, 1024, 7, 7), float32] */
}

[Task MobilNet_09] Current/Best:    0.00/   0.00 GFLOPS | Progress: (0/968) | 0.00 s
[Task MobilNet_09] Current/Best:   44.37/1875.37 GFLOPS | Progress: (64/968) | 197.33 s
[Task MobilNet_09] Current/Best:   58.61/2738.99 GFLOPS | Progress: (128/968) | 353.81 s
[Task MobilNet_09] Current/Best:  233.75/2738.99 GFLOPS | Progress: (192/968) | 507.77 s
[Task MobilNet_09] Current/Best:  578.42/2738.99 GFLOPS | Progress: (256/968) | 700.74 s
[Task MobilNet_09] Current/Best:   33.49/2738.99 GFLOPS | Progress: (320/968) | 894.51 s
[Task MobilNet_09] Current/Best:  183.55/2738.99 GFLOPS | Progress: (384/968) | 1066.09 s
[Task MobilNet_09] Current/Best:   96.16/2738.99 GFLOPS | Progress: (448/968) | 1259.85 s
[Task MobilNet_09] Current/Best:  232.32/2738.99 GFLOPS | Progress: (512/968) | 1438.25 s
[Task MobilNet_09] Current/Best:  163.66/2738.99 GFLOPS | Progress: (576/968) | 1620.15 s
[Task MobilNet_09] Current/Best:  135.67/2738.99 GFLOPS | Progress: (640/968) | 1822.41 s
[Task MobilNet_09] Current/Best:   79.88/2738.99 GFLOPS | Progress: (704/968) | 2039.47 s
[Task MobilNet_09] Current/Best:  267.46/2738.99 GFLOPS | Progress: (768/968) | 2244.73 s
[Task MobilNet_09] Current/Best:  240.33/2738.99 GFLOPS | Progress: (832/968) | 2452.36 s
[Task MobilNet_09] Current/Best:  116.86/2738.99 GFLOPS | Progress: (896/968) | 2681.30 s
[Task MobilNet_09] Current/Best:  233.79/2738.99 GFLOPS | Progress: (960/968) | 2919.06 s
[Task MobilNet_09] Current/Best:  117.06/2738.99 GFLOPS | Progress: (968/968) | 2946.49 s
 Done.
def @main(%data: Tensor[(1, 3, 230, 230), float32], %weight: Tensor[(64, 3, 7, 7), float32]) -> Tensor[(1, 64, 112, 112), float32] {
  nn.conv2d(%data, %weight, strides=[2, 2], padding=[0, 0, 0, 0], channels=64, kernel_size=[7, 7]) /* ty=Tensor[(1, 64, 112, 112), float32] */
}

[Task ResNet18_01] Current/Best:    0.00/   0.00 GFLOPS | Progress: (0/308) | 0.00 s
[Task ResNet18_01] Current/Best: 2697.52/3211.88 GFLOPS | Progress: (64/308) | 44.00 s
[Task ResNet18_01] Current/Best: 1045.34/3266.19 GFLOPS | Progress: (128/308) | 82.18 s
[Task ResNet18_01] Current/Best:  762.99/3266.19 GFLOPS | Progress: (192/308) | 130.57 s
[Task ResNet18_01] Current/Best:  578.02/3266.19 GFLOPS | Progress: (256/308) | 177.82 s
[Task ResNet18_01] Current/Best:  155.51/3266.19 GFLOPS | Progress: (308/308) | 216.99 s
 Done.
def @main(%data: Tensor[(1, 64, 58, 58), float32], %weight: Tensor[(64, 64, 3, 3), float32]) -> Tensor[(1, 64, 56, 56), float32] {
  nn.conv2d(%data, %weight, padding=[0, 0, 0, 0], channels=64, kernel_size=[3, 3]) /* ty=Tensor[(1, 64, 56, 56), float32] */
}

[Task ResNet18_02] Current/Best:    0.00/   0.00 GFLOPS | Progress: (0/980) | 0.00 s
[Task ResNet18_02] Current/Best:  556.32/2970.54 GFLOPS | Progress: (64/980) | 39.37 s
[Task ResNet18_02] Current/Best:  963.09/3238.17 GFLOPS | Progress: (128/980) | 70.02 s
[Task ResNet18_02] Current/Best:  496.52/3238.17 GFLOPS | Progress: (192/980) | 101.85 s
[Task ResNet18_02] Current/Best:  380.52/3238.17 GFLOPS | Progress: (256/980) | 135.83 s
[Task ResNet18_02] Current/Best:  143.88/3238.17 GFLOPS | Progress: (320/980) | 170.16 s
[Task ResNet18_02] Current/Best:   70.16/3238.17 GFLOPS | Progress: (384/980) | 203.20 s
[Task ResNet18_02] Current/Best:  546.92/3238.17 GFLOPS | Progress: (448/980) | 240.61 s
[Task ResNet18_02] Current/Best:  257.91/3238.17 GFLOPS | Progress: (512/980) | 276.38 s
[Task ResNet18_02] Current/Best:  592.11/3238.17 GFLOPS | Progress: (576/980) | 311.75 s
[Task ResNet18_02] Current/Best:  276.82/3238.17 GFLOPS | Progress: (640/980) | 349.15 s
[Task ResNet18_02] Current/Best:  811.61/3238.17 GFLOPS | Progress: (704/980) | 385.81 s
[Task ResNet18_02] Current/Best:  632.08/3238.17 GFLOPS | Progress: (768/980) | 423.00 s
[Task ResNet18_02] Current/Best:  777.12/3238.17 GFLOPS | Progress: (832/980) | 461.66 s
[Task ResNet18_02] Current/Best:  479.16/3238.17 GFLOPS | Progress: (896/980) | 500.98 s
[Task ResNet18_02] Current/Best:   67.18/3238.17 GFLOPS | Progress: (960/980) | 540.16 s
[Task ResNet18_02] Current/Best:  744.22/3238.17 GFLOPS | Progress: (980/980) | 552.50 s
 Done.
def @main(%data: Tensor[(1, 64, 56, 56), float32], %weight: Tensor[(64, 64, 1, 1), float32]) -> Tensor[(1, 64, 56, 56), float32] {
  nn.conv2d(%data, %weight, padding=[0, 0, 0, 0], channels=64, kernel_size=[1, 1]) /* ty=Tensor[(1, 64, 56, 56), float32] */
}

[Task ResNet18_03] Current/Best:    0.00/   0.00 GFLOPS | Progress: (0/980) | 0.00 s
[Task ResNet18_03] Current/Best:  198.20/1499.54 GFLOPS | Progress: (64/980) | 34.05 s
[Task ResNet18_03] Current/Best:  800.95/1634.66 GFLOPS | Progress: (128/980) | 63.93 s
[Task ResNet18_03] Current/Best:  818.06/1634.66 GFLOPS | Progress: (192/980) | 94.04 s
[Task ResNet18_03] Current/Best:  624.96/1634.66 GFLOPS | Progress: (256/980) | 125.04 s
[Task ResNet18_03] Current/Best:  470.24/1634.66 GFLOPS | Progress: (320/980) | 156.28 s
[Task ResNet18_03] Current/Best:  133.31/1634.66 GFLOPS | Progress: (384/980) | 186.42 s
[Task ResNet18_03] Current/Best:  175.40/1634.66 GFLOPS | Progress: (448/980) | 216.83 s
[Task ResNet18_03] Current/Best:  925.89/1634.66 GFLOPS | Progress: (512/980) | 248.17 s
[Task ResNet18_03] Current/Best:  174.65/1634.66 GFLOPS | Progress: (576/980) | 280.63 s
[Task ResNet18_03] Current/Best:  137.59/1634.66 GFLOPS | Progress: (640/980) | 312.80 s
[Task ResNet18_03] Current/Best:  344.00/1634.66 GFLOPS | Progress: (704/980) | 343.71 s
[Task ResNet18_03] Current/Best:  331.29/1634.66 GFLOPS | Progress: (768/980) | 376.03 s
[Task ResNet18_03] Current/Best:  443.38/1634.66 GFLOPS | Progress: (832/980) | 409.38 s
[Task ResNet18_03] Current/Best:  151.37/1634.66 GFLOPS | Progress: (896/980) | 441.97 s
[Task ResNet18_03] Current/Best:  165.08/1634.66 GFLOPS | Progress: (960/980) | 473.58 s
[Task ResNet18_03] Current/Best:  136.45/1634.66 GFLOPS | Progress: (980/980) | 483.52 s
 Done.
def @main(%data: Tensor[(1, 64, 58, 58), float32], %weight: Tensor[(128, 64, 3, 3), float32]) -> Tensor[(1, 128, 28, 28), float32] {
  nn.conv2d(%data, %weight, strides=[2, 2], padding=[0, 0, 0, 0], channels=128, kernel_size=[3, 3]) /* ty=Tensor[(1, 128, 28, 28), float32] */
}

[Task ResNet18_04] Current/Best:    0.00/   0.00 GFLOPS | Progress: (0/896) | 0.00 s
[Task ResNet18_04] Current/Best:  139.53/2658.80 GFLOPS | Progress: (64/896) | 35.75 s
[Task ResNet18_04] Current/Best: 1034.91/2680.45 GFLOPS | Progress: (128/896) | 66.27 s
[Task ResNet18_04] Current/Best:  812.17/2680.98 GFLOPS | Progress: (192/896) | 96.89 s
[Task ResNet18_04] Current/Best:  638.38/2680.98 GFLOPS | Progress: (256/896) | 128.19 s
[Task ResNet18_04] Current/Best:  784.02/2680.98 GFLOPS | Progress: (320/896) | 161.03 s
[Task ResNet18_04] Current/Best:  686.70/2680.98 GFLOPS | Progress: (384/896) | 193.82 s
[Task ResNet18_04] Current/Best:  189.31/2680.98 GFLOPS | Progress: (448/896) | 227.08 s
[Task ResNet18_04] Current/Best:  199.14/2680.98 GFLOPS | Progress: (512/896) | 259.38 s
[Task ResNet18_04] Current/Best:   69.62/2680.98 GFLOPS | Progress: (576/896) | 292.52 s
[Task ResNet18_04] Current/Best:  623.21/2680.98 GFLOPS | Progress: (640/896) | 326.10 s
[Task ResNet18_04] Current/Best:  208.20/2680.98 GFLOPS | Progress: (704/896) | 358.85 s
[Task ResNet18_04] Current/Best:  677.49/2680.98 GFLOPS | Progress: (768/896) | 392.59 s
[Task ResNet18_04] Current/Best:  191.55/2680.98 GFLOPS | Progress: (832/896) | 427.70 s
[Task ResNet18_04] Current/Best:  540.27/2680.98 GFLOPS | Progress: (896/896) | 461.68 s
 Done.
def @main(%data: Tensor[(1, 64, 56, 56), float32], %weight: Tensor[(128, 64, 1, 1), float32]) -> Tensor[(1, 128, 28, 28), float32] {
  nn.conv2d(%data, %weight, strides=[2, 2], padding=[0, 0, 0, 0], channels=128, kernel_size=[1, 1]) /* ty=Tensor[(1, 128, 28, 28), float32] */
}

[Task ResNet18_05] Current/Best:    0.00/   0.00 GFLOPS | Progress: (0/896) | 0.00 s
[Task ResNet18_05] Current/Best:  644.43/1068.35 GFLOPS | Progress: (64/896) | 31.98 s
[Task ResNet18_05] Current/Best:  172.33/1144.96 GFLOPS | Progress: (128/896) | 60.55 s
[Task ResNet18_05] Current/Best:   51.19/1144.96 GFLOPS | Progress: (192/896) | 89.39 s
[Task ResNet18_05] Current/Best:  190.47/1144.96 GFLOPS | Progress: (256/896) | 119.56 s
[Task ResNet18_05] Current/Best:  293.15/1144.96 GFLOPS | Progress: (320/896) | 149.03 s
[Task ResNet18_05] Current/Best:  269.76/1144.96 GFLOPS | Progress: (384/896) | 179.33 s
[Task ResNet18_05] Current/Best:  579.30/1144.96 GFLOPS | Progress: (448/896) | 208.56 s
[Task ResNet18_05] Current/Best:  476.36/1144.96 GFLOPS | Progress: (512/896) | 240.57 s
[Task ResNet18_05] Current/Best:  361.88/1144.96 GFLOPS | Progress: (576/896) | 271.00 s
[Task ResNet18_05] Current/Best:  112.69/1144.96 GFLOPS | Progress: (640/896) | 301.97 s
[Task ResNet18_05] Current/Best:  146.45/1144.96 GFLOPS | Progress: (704/896) | 334.42 s
[Task ResNet18_05] Current/Best:  268.37/1144.96 GFLOPS | Progress: (768/896) | 366.04 s
[Task ResNet18_05] Current/Best:  469.85/1144.96 GFLOPS | Progress: (832/896) | 398.01 s
[Task ResNet18_05] Current/Best:   82.95/1144.96 GFLOPS | Progress: (896/896) | 427.65 s
 Done.
def @main(%data: Tensor[(1, 128, 30, 30), float32], %weight: Tensor[(128, 128, 3, 3), float32]) -> Tensor[(1, 128, 28, 28), float32] {
  nn.conv2d(%data, %weight, padding=[0, 0, 0, 0], channels=128, kernel_size=[3, 3]) /* ty=Tensor[(1, 128, 28, 28), float32] */
}

[Task ResNet18_06] Current/Best:    0.00/   0.00 GFLOPS | Progress: (0/1024) | 0.00 s
[Task ResNet18_06] Current/Best: 1401.11/3212.28 GFLOPS | Progress: (64/1024) | 36.71 s
[Task ResNet18_06] Current/Best:  398.02/3222.52 GFLOPS | Progress: (128/1024) | 67.20 s
[Task ResNet18_06] Current/Best:  160.18/3222.52 GFLOPS | Progress: (192/1024) | 97.43 s
[Task ResNet18_06] Current/Best:   67.48/3222.52 GFLOPS | Progress: (256/1024) | 128.59 s
[Task ResNet18_06] Current/Best:  268.42/3222.52 GFLOPS | Progress: (320/1024) | 162.83 s
[Task ResNet18_06] Current/Best: 1820.34/3222.52 GFLOPS | Progress: (384/1024) | 195.95 s
[Task ResNet18_06] Current/Best:  479.79/3222.52 GFLOPS | Progress: (448/1024) | 229.19 s
[Task ResNet18_06] Current/Best:  718.89/3222.52 GFLOPS | Progress: (512/1024) | 267.95 s
[Task ResNet18_06] Current/Best: 1020.38/3222.52 GFLOPS | Progress: (576/1024) | 301.53 s
[Task ResNet18_06] Current/Best:  195.80/3222.52 GFLOPS | Progress: (640/1024) | 335.18 s
[Task ResNet18_06] Current/Best:  948.02/3222.52 GFLOPS | Progress: (704/1024) | 369.51 s
[Task ResNet18_06] Current/Best:  271.29/3222.52 GFLOPS | Progress: (768/1024) | 405.39 s
[Task ResNet18_06] Current/Best:  177.76/3222.52 GFLOPS | Progress: (832/1024) | 442.18 s
[Task ResNet18_06] Current/Best:  536.57/3222.52 GFLOPS | Progress: (896/1024) | 478.27 s
[Task ResNet18_06] Current/Best:  707.95/3222.52 GFLOPS | Progress: (960/1024) | 517.17 s
[Task ResNet18_06] Current/Best:  810.09/3222.52 GFLOPS | Progress: (1024/1024) | 554.50 s
 Done.
def @main(%data: Tensor[(1, 128, 30, 30), float32], %weight: Tensor[(256, 128, 3, 3), float32]) -> Tensor[(1, 256, 14, 14), float32] {
  nn.conv2d(%data, %weight, strides=[2, 2], padding=[0, 0, 0, 0], channels=256, kernel_size=[3, 3]) /* ty=Tensor[(1, 256, 14, 14), float32] */
}

[Task ResNet18_07] Current/Best:    0.00/   0.00 GFLOPS | Progress: (0/864) | 0.00 s
[Task ResNet18_07] Current/Best: 1162.20/2316.64 GFLOPS | Progress: (64/864) | 34.70 s
[Task ResNet18_07] Current/Best: 1084.60/2701.11 GFLOPS | Progress: (128/864) | 62.81 s
[Task ResNet18_07] Current/Best: 1337.23/2701.11 GFLOPS | Progress: (192/864) | 91.04 s
[Task ResNet18_07] Current/Best: 1127.51/2701.11 GFLOPS | Progress: (256/864) | 122.63 s
[Task ResNet18_07] Current/Best:  184.64/2701.11 GFLOPS | Progress: (320/864) | 151.69 s
[Task ResNet18_07] Current/Best:  328.81/2701.11 GFLOPS | Progress: (384/864) | 183.50 s
[Task ResNet18_07] Current/Best: 1068.31/2701.11 GFLOPS | Progress: (448/864) | 216.60 s
[Task ResNet18_07] Current/Best:  671.16/2701.11 GFLOPS | Progress: (512/864) | 247.91 s
[Task ResNet18_07] Current/Best:  315.97/2701.11 GFLOPS | Progress: (576/864) | 280.53 s
[Task ResNet18_07] Current/Best:  115.64/2701.11 GFLOPS | Progress: (640/864) | 315.72 s
[Task ResNet18_07] Current/Best:  385.44/2701.11 GFLOPS | Progress: (704/864) | 346.43 s
[Task ResNet18_07] Current/Best:  297.87/2701.11 GFLOPS | Progress: (768/864) | 379.63 s
[Task ResNet18_07] Current/Best:  115.42/2701.11 GFLOPS | Progress: (832/864) | 414.57 s
[Task ResNet18_07] Current/Best:  197.01/2701.11 GFLOPS | Progress: (864/864) | 430.33 s
 Done.
def @main(%data: Tensor[(1, 128, 30, 30), float32], %weight: Tensor[(256, 128, 3, 3), float32]) -> Tensor[(1, 256, 28, 28), float32] {
  nn.conv2d(%data, %weight, padding=[0, 0, 0, 0], channels=256, kernel_size=[3, 3]) /* ty=Tensor[(1, 256, 28, 28), float32] */
}

[Task ResNet18_08] Current/Best:    0.00/   0.00 GFLOPS | Progress: (0/1152) | 0.00 s
[Task ResNet18_08] Current/Best:  992.26/2948.53 GFLOPS | Progress: (64/1152) | 45.02 s
[Task ResNet18_08] Current/Best:  177.38/3540.82 GFLOPS | Progress: (128/1152) | 79.06 s
[Task ResNet18_08] Current/Best:  135.40/3540.82 GFLOPS | Progress: (192/1152) | 112.60 s
[Task ResNet18_08] Current/Best: 1276.76/3540.82 GFLOPS | Progress: (256/1152) | 147.47 s
[Task ResNet18_08] Current/Best:   67.32/3540.82 GFLOPS | Progress: (320/1152) | 190.95 s
[Task ResNet18_08] Current/Best:  566.80/3540.82 GFLOPS | Progress: (384/1152) | 229.37 s
[Task ResNet18_08] Current/Best:  697.57/3540.82 GFLOPS | Progress: (448/1152) | 269.80 s
[Task ResNet18_08] Current/Best: 1228.08/3540.82 GFLOPS | Progress: (512/1152) | 309.59 s
[Task ResNet18_08] Current/Best:  996.00/3540.82 GFLOPS | Progress: (576/1152) | 348.87 s
[Task ResNet18_08] Current/Best:  133.28/3540.82 GFLOPS | Progress: (640/1152) | 389.73 s
[Task ResNet18_08] Current/Best:  261.15/3540.82 GFLOPS | Progress: (704/1152) | 429.51 s
[Task ResNet18_08] Current/Best:  605.59/3540.82 GFLOPS | Progress: (768/1152) | 472.68 s
[Task ResNet18_08] Current/Best:  270.47/3540.82 GFLOPS | Progress: (832/1152) | 517.34 s
[Task ResNet18_08] Current/Best:  752.18/3540.82 GFLOPS | Progress: (896/1152) | 561.93 s
[Task ResNet18_08] Current/Best:  207.93/3540.82 GFLOPS | Progress: (960/1152) | 611.29 s
[Task ResNet18_08] Current/Best:  727.25/3540.82 GFLOPS | Progress: (1024/1152) | 661.54 s
[Task ResNet18_08] Current/Best:  669.19/3540.82 GFLOPS | Progress: (1088/1152) | 709.95 s
[Task ResNet18_08] Current/Best:  535.86/3540.82 GFLOPS | Progress: (1152/1152) | 756.89 s
 Done.
def @main(%data: Tensor[(1, 256, 16, 16), float32], %weight: Tensor[(256, 256, 3, 3), float32]) -> Tensor[(1, 256, 14, 14), float32] {
  nn.conv2d(%data, %weight, padding=[0, 0, 0, 0], channels=256, kernel_size=[3, 3]) /* ty=Tensor[(1, 256, 14, 14), float32] */
}

[Task ResNet18_09] Current/Best:    0.00/   0.00 GFLOPS | Progress: (0/972) | 0.00 s
[Task ResNet18_09] Current/Best:  955.20/2938.37 GFLOPS | Progress: (64/972) | 40.01 s
[Task ResNet18_09] Current/Best:  529.46/3247.16 GFLOPS | Progress: (128/972) | 72.22 s
[Task ResNet18_09] Current/Best:   32.59/3247.16 GFLOPS | Progress: (192/972) | 106.91 s
[Task ResNet18_09] Current/Best:   67.50/3247.16 GFLOPS | Progress: (256/972) | 143.84 s
[Task ResNet18_09] Current/Best:  448.10/3247.16 GFLOPS | Progress: (320/972) | 179.12 s
[Task ResNet18_09] Current/Best:   32.92/3247.16 GFLOPS | Progress: (384/972) | 216.97 s
[Task ResNet18_09] Current/Best:  210.29/3247.16 GFLOPS | Progress: (448/972) | 253.44 s
[Task ResNet18_09] Current/Best:  333.72/3247.16 GFLOPS | Progress: (512/972) | 290.89 s
[Task ResNet18_09] Current/Best:  262.25/3247.16 GFLOPS | Progress: (576/972) | 328.87 s
[Task ResNet18_09] Current/Best: 1197.84/3247.16 GFLOPS | Progress: (640/972) | 367.58 s
[Task ResNet18_09] Current/Best:  757.35/3247.16 GFLOPS | Progress: (704/972) | 405.89 s
[Task ResNet18_09] Current/Best:  711.98/3247.16 GFLOPS | Progress: (768/972) | 445.12 s
[Task ResNet18_09] Current/Best:   33.78/3247.16 GFLOPS | Progress: (832/972) | 487.67 s
[Task ResNet18_09] Current/Best:  736.11/3247.16 GFLOPS | Progress: (896/972) | 527.31 s
[Task ResNet18_09] Current/Best:   66.68/3247.16 GFLOPS | Progress: (960/972) | 568.33 s
[Task ResNet18_09] Current/Best:  386.52/3247.16 GFLOPS | Progress: (972/972) | 575.71 s
 Done.
def @main(%data: Tensor[(1, 512, 16, 16), float32], %weight: Tensor[(512, 512, 3, 3), float32]) -> Tensor[(1, 512, 7, 7), float32] {
  nn.conv2d(%data, %weight, strides=[2, 2], padding=[0, 0, 0, 0], channels=512, kernel_size=[3, 3]) /* ty=Tensor[(1, 512, 7, 7), float32] */
}

[Task ResNet18_10] Current/Best:    0.00/   0.00 GFLOPS | Progress: (0/800) | 0.00 s
[Task ResNet18_10] Current/Best:   67.01/2348.31 GFLOPS | Progress: (64/800) | 65.36 s
[Task ResNet18_10] Current/Best: 1740.65/2548.55 GFLOPS | Progress: (128/800) | 121.59 s
[Task ResNet18_10] Current/Best:  462.37/2548.55 GFLOPS | Progress: (192/800) | 179.45 s
[Task ResNet18_10] Current/Best:  788.57/2548.55 GFLOPS | Progress: (256/800) | 241.86 s
[Task ResNet18_10] Current/Best:  232.17/2548.55 GFLOPS | Progress: (320/800) | 305.14 s
[Task ResNet18_10] Current/Best:  111.16/2548.55 GFLOPS | Progress: (384/800) | 368.91 s
[Task ResNet18_10] Current/Best:  527.59/2548.55 GFLOPS | Progress: (448/800) | 433.28 s
[Task ResNet18_10] Current/Best:  384.40/2548.55 GFLOPS | Progress: (512/800) | 498.72 s
[Task ResNet18_10] Current/Best:  380.78/2548.55 GFLOPS | Progress: (576/800) | 565.38 s
[Task ResNet18_10] Current/Best:  133.76/2548.55 GFLOPS | Progress: (640/800) | 633.41 s
[Task ResNet18_10] Current/Best:  121.01/2548.55 GFLOPS | Progress: (704/800) | 700.16 s
[Task ResNet18_10] Current/Best:   67.05/2548.55 GFLOPS | Progress: (768/800) | 771.12 s
[Task ResNet18_10] Current/Best:   67.02/2548.55 GFLOPS | Progress: (800/800) | 804.76 s
 Done.
def @main(%data: Tensor[(1, 256, 14, 14), float32], %weight: Tensor[(512, 256, 1, 1), float32]) -> Tensor[(1, 512, 7, 7), float32] {
  nn.conv2d(%data, %weight, strides=[2, 2], padding=[0, 0, 0, 0], channels=512, kernel_size=[1, 1]) /* ty=Tensor[(1, 512, 7, 7), float32] */
}

[Task ResNet18_11] Current/Best:    0.00/   0.00 GFLOPS | Progress: (0/720) | 0.00 s
[Task ResNet18_11] Current/Best:  226.46/1107.66 GFLOPS | Progress: (64/720) | 28.04 s
[Task ResNet18_11] Current/Best:  207.43/1115.61 GFLOPS | Progress: (128/720) | 52.08 s
[Task ResNet18_11] Current/Best:  667.45/1115.61 GFLOPS | Progress: (192/720) | 76.58 s
[Task ResNet18_11] Current/Best:  705.21/1115.61 GFLOPS | Progress: (256/720) | 103.15 s
[Task ResNet18_11] Current/Best:  398.19/1115.61 GFLOPS | Progress: (320/720) | 128.92 s
[Task ResNet18_11] Current/Best:  416.11/1115.61 GFLOPS | Progress: (384/720) | 154.72 s
[Task ResNet18_11] Current/Best:  288.92/1115.61 GFLOPS | Progress: (448/720) | 182.45 s
[Task ResNet18_11] Current/Best:   93.80/1115.61 GFLOPS | Progress: (512/720) | 210.57 s
[Task ResNet18_11] Current/Best:  115.27/1115.61 GFLOPS | Progress: (576/720) | 237.75 s
[Task ResNet18_11] Current/Best:  200.32/1115.61 GFLOPS | Progress: (640/720) | 264.56 s
[Task ResNet18_11] Current/Best:  158.31/1115.61 GFLOPS | Progress: (704/720) | 291.25 s
[Task ResNet18_11] Current/Best:  307.56/1115.61 GFLOPS | Progress: (720/720) | 298.11 s
 Done.
def @main(%data: Tensor[(1, 512, 9, 9), float32], %weight: Tensor[(512, 512, 3, 3), float32]) -> Tensor[(1, 512, 7, 7), float32] {
  nn.conv2d(%data, %weight, padding=[0, 0, 0, 0], channels=512, kernel_size=[3, 3]) /* ty=Tensor[(1, 512, 7, 7), float32] */
}

[Task ResNet18_12] Current/Best:    0.00/   0.00 GFLOPS | Progress: (0/800) | 0.00 s
[Task ResNet18_12] Current/Best:   66.78/2633.77 GFLOPS | Progress: (64/800) | 63.74 s
[Task ResNet18_12] Current/Best:  230.89/2792.59 GFLOPS | Progress: (128/800) | 118.94 s
[Task ResNet18_12] Current/Best:  114.66/2792.59 GFLOPS | Progress: (192/800) | 176.19 s
[Task ResNet18_12] Current/Best:  110.87/2792.59 GFLOPS | Progress: (256/800) | 239.10 s
[Task ResNet18_12] Current/Best:  793.20/2792.59 GFLOPS | Progress: (320/800) | 300.03 s
[Task ResNet18_12] Current/Best:  232.97/2792.59 GFLOPS | Progress: (384/800) | 362.96 s
[Task ResNet18_12] Current/Best:  526.10/2792.59 GFLOPS | Progress: (448/800) | 422.95 s
[Task ResNet18_12] Current/Best:  121.40/2792.59 GFLOPS | Progress: (512/800) | 489.29 s
[Task ResNet18_12] Current/Best:  116.76/2792.59 GFLOPS | Progress: (576/800) | 554.31 s
[Task ResNet18_12] Current/Best:  232.46/2792.59 GFLOPS | Progress: (640/800) | 618.58 s
[Task ResNet18_12] Current/Best:  415.63/2792.59 GFLOPS | Progress: (704/800) | 684.24 s
[Task ResNet18_12] Current/Best:  173.87/2792.59 GFLOPS | Progress: (768/800) | 752.52 s
[Task ResNet18_12] Current/Best:  412.61/2792.59 GFLOPS | Progress: (800/800) | 785.74 s
 Done.
def @main(%data: Tensor[(1, 3, 546, 546), float32], %weight: Tensor[(32, 3, 3, 3), float32]) -> Tensor[(1, 32, 544, 544), float32] {
  nn.conv2d(%data, %weight, padding=[0, 0, 0, 0], channels=32, kernel_size=[3, 3]) /* ty=Tensor[(1, 32, 544, 544), float32] */
}

[Task Yolo9000_00] Current/Best:    0.00/   0.00 GFLOPS | Progress: (0/216) | 0.00 s
[Task Yolo9000_00] Current/Best:  323.37/2300.98 GFLOPS | Progress: (64/216) | 169.57 s
[Task Yolo9000_00] Current/Best:  195.07/2521.90 GFLOPS | Progress: (128/216) | 332.96 s
[Task Yolo9000_00] Current/Best:  320.09/2521.90 GFLOPS | Progress: (192/216) | 506.37 s
[Task Yolo9000_00] Current/Best:  560.81/2521.90 GFLOPS | Progress: (216/216) | 569.72 s
 Done.
def @main(%data: Tensor[(1, 32, 274, 274), float32], %weight: Tensor[(64, 32, 3, 3), float32]) -> Tensor[(1, 64, 272, 272), float32] {
  nn.conv2d(%data, %weight, padding=[0, 0, 0, 0], channels=64, kernel_size=[3, 3]) /* ty=Tensor[(1, 64, 272, 272), float32] */
}

[Task Yolo9000_02] Current/Best:    0.00/   0.00 GFLOPS | Progress: (0/756) | 0.00 s
[Task Yolo9000_02] Current/Best:  140.17/3397.19 GFLOPS | Progress: (64/756) | 159.88 s
[Task Yolo9000_02] Current/Best:  829.05/3583.62 GFLOPS | Progress: (128/756) | 287.51 s
[Task Yolo9000_02] Current/Best:  830.91/3583.62 GFLOPS | Progress: (192/756) | 429.56 s
[Task Yolo9000_02] Current/Best:  861.93/3583.62 GFLOPS | Progress: (256/756) | 603.78 s
[Task Yolo9000_02] Current/Best:  145.74/3583.62 GFLOPS | Progress: (320/756) | 771.73 s
[Task Yolo9000_02] Current/Best:  253.91/3583.62 GFLOPS | Progress: (384/756) | 928.89 s
[Task Yolo9000_02] Current/Best:  469.08/3583.62 GFLOPS | Progress: (448/756) | 1091.91 s
[Task Yolo9000_02] Current/Best:   70.33/3583.62 GFLOPS | Progress: (512/756) | 1267.14 s
[Task Yolo9000_02] Current/Best:  294.82/3583.62 GFLOPS | Progress: (576/756) | 1441.64 s
[Task Yolo9000_02] Current/Best:  270.42/3583.62 GFLOPS | Progress: (640/756) | 1658.38 s
[Task Yolo9000_02] Current/Best:  134.24/3583.62 GFLOPS | Progress: (704/756) | 1861.34 s
[Task Yolo9000_02] Current/Best:  893.63/3583.62 GFLOPS | Progress: (756/756) | 2022.28 s
 Done.
def @main(%data: Tensor[(1, 64, 138, 138), float32], %weight: Tensor[(128, 64, 3, 3), float32]) -> Tensor[(1, 128, 136, 136), float32] {
  nn.conv2d(%data, %weight, padding=[0, 0, 0, 0], channels=128, kernel_size=[3, 3]) /* ty=Tensor[(1, 128, 136, 136), float32] */
}

[Task Yolo9000_04] Current/Best:    0.00/   0.00 GFLOPS | Progress: (0/1008) | 0.00 s
[Task Yolo9000_04] Current/Best:  183.55/3410.37 GFLOPS | Progress: (64/1008) | 111.96 s
[Task Yolo9000_04] Current/Best:  151.34/3634.36 GFLOPS | Progress: (128/1008) | 193.45 s
[Task Yolo9000_04] Current/Best:   70.44/3661.40 GFLOPS | Progress: (192/1008) | 277.46 s
[Task Yolo9000_04] Current/Best: 1418.56/3661.40 GFLOPS | Progress: (256/1008) | 395.15 s
[Task Yolo9000_04] Current/Best: 1370.90/3661.40 GFLOPS | Progress: (320/1008) | 506.50 s
[Task Yolo9000_04] Current/Best:  550.95/3661.40 GFLOPS | Progress: (384/1008) | 591.95 s
[Task Yolo9000_04] Current/Best:  482.68/3661.40 GFLOPS | Progress: (448/1008) | 721.41 s
[Task Yolo9000_04] Current/Best:  144.91/3661.40 GFLOPS | Progress: (512/1008) | 826.12 s
[Task Yolo9000_04] Current/Best:   99.91/3661.40 GFLOPS | Progress: (576/1008) | 958.66 s
[Task Yolo9000_04] Current/Best:  762.16/3661.40 GFLOPS | Progress: (640/1008) | 1090.20 s
[Task Yolo9000_04] Current/Best:   35.25/3661.40 GFLOPS | Progress: (704/1008) | 1232.54 s
[Task Yolo9000_04] Current/Best:  269.48/3661.40 GFLOPS | Progress: (768/1008) | 1376.16 s
[Task Yolo9000_04] Current/Best:  784.94/3661.40 GFLOPS | Progress: (832/1008) | 1507.39 s
[Task Yolo9000_04] Current/Best:  406.18/3661.40 GFLOPS | Progress: (896/1008) | 1652.33 s
[Task Yolo9000_04] Current/Best:  669.06/3661.40 GFLOPS | Progress: (960/1008) | 1805.68 s
[Task Yolo9000_04] Current/Best:  232.71/3661.40 GFLOPS | Progress: (1008/1008) | 1934.30 s
 Done.
def @main(%data: Tensor[(1, 128, 136, 136), float32], %weight: Tensor[(64, 128, 1, 1), float32]) -> Tensor[(1, 64, 136, 136), float32] {
  nn.conv2d(%data, %weight, padding=[0, 0, 0, 0], channels=64, kernel_size=[1, 1]) /* ty=Tensor[(1, 64, 136, 136), float32] */
}

[Task Yolo9000_05] Current/Best:    0.00/   0.00 GFLOPS | Progress: (0/1008) | 0.00 s
[Task Yolo9000_05] Current/Best:   41.11/2519.28 GFLOPS | Progress: (64/1008) | 80.96 s
[Task Yolo9000_05] Current/Best:  297.60/2837.15 GFLOPS | Progress: (128/1008) | 154.62 s
[Task Yolo9000_05] Current/Best:  809.41/2870.93 GFLOPS | Progress: (192/1008) | 225.66 s
[Task Yolo9000_05] Current/Best:  818.36/2870.93 GFLOPS | Progress: (256/1008) | 298.02 s
[Task Yolo9000_05] Current/Best:  396.56/2870.93 GFLOPS | Progress: (320/1008) | 373.30 s
[Task Yolo9000_05] Current/Best:  529.02/2870.93 GFLOPS | Progress: (384/1008) | 449.24 s
[Task Yolo9000_05] Current/Best:  919.30/2870.93 GFLOPS | Progress: (448/1008) | 526.15 s
[Task Yolo9000_05] Current/Best:  590.78/2870.93 GFLOPS | Progress: (512/1008) | 604.16 s
[Task Yolo9000_05] Current/Best:  678.93/2870.93 GFLOPS | Progress: (576/1008) | 684.41 s
[Task Yolo9000_05] Current/Best:   85.05/2870.93 GFLOPS | Progress: (640/1008) | 762.70 s
[Task Yolo9000_05] Current/Best:  683.78/2870.93 GFLOPS | Progress: (704/1008) | 841.38 s
[Task Yolo9000_05] Current/Best:  142.21/2870.93 GFLOPS | Progress: (768/1008) | 924.21 s
[Task Yolo9000_05] Current/Best:  529.91/2870.93 GFLOPS | Progress: (832/1008) | 1006.50 s
[Task Yolo9000_05] Current/Best:  612.48/2870.93 GFLOPS | Progress: (896/1008) | 1089.44 s
[Task Yolo9000_05] Current/Best:  301.39/2870.93 GFLOPS | Progress: (960/1008) | 1172.36 s
[Task Yolo9000_05] Current/Best:  129.86/2870.93 GFLOPS | Progress: (1008/1008) | 1232.24 s
 Done.
def @main(%data: Tensor[(1, 128, 70, 70), float32], %weight: Tensor[(256, 128, 3, 3), float32]) -> Tensor[(1, 256, 68, 68), float32] {
  nn.conv2d(%data, %weight, padding=[0, 0, 0, 0], channels=256, kernel_size=[3, 3]) /* ty=Tensor[(1, 256, 68, 68), float32] */
}

[Task Yolo9000_08] Current/Best:    0.00/   0.00 GFLOPS | Progress: (0/1296) | 0.00 s
[Task Yolo9000_08] Current/Best: 2789.37/3228.25 GFLOPS | Progress: (64/1296) | 120.44 s
[Task Yolo9000_08] Current/Best: 1623.97/3344.17 GFLOPS | Progress: (128/1296) | 183.11 s
[Task Yolo9000_08] Current/Best:  331.97/3426.07 GFLOPS | Progress: (192/1296) | 241.35 s
[Task Yolo9000_08] Current/Best:  140.93/3426.07 GFLOPS | Progress: (256/1296) | 305.29 s
[Task Yolo9000_08] Current/Best:  511.31/3426.07 GFLOPS | Progress: (320/1296) | 402.71 s
[Task Yolo9000_08] Current/Best:  226.91/3426.07 GFLOPS | Progress: (384/1296) | 472.48 s
[Task Yolo9000_08] Current/Best:  767.60/3426.07 GFLOPS | Progress: (448/1296) | 548.84 s
[Task Yolo9000_08] Current/Best:  559.58/3426.07 GFLOPS | Progress: (512/1296) | 630.67 s
[Task Yolo9000_08] Current/Best:  891.16/3426.07 GFLOPS | Progress: (576/1296) | 721.04 s
[Task Yolo9000_08] Current/Best:  608.75/3426.07 GFLOPS | Progress: (640/1296) | 830.85 s
[Task Yolo9000_08] Current/Best:  372.75/3426.07 GFLOPS | Progress: (704/1296) | 951.49 s
[Task Yolo9000_08] Current/Best:  135.39/3426.07 GFLOPS | Progress: (768/1296) | 1050.61 s
[Task Yolo9000_08] Current/Best:  489.83/3426.07 GFLOPS | Progress: (832/1296) | 1169.21 s
[Task Yolo9000_08] Current/Best:  536.10/3426.07 GFLOPS | Progress: (896/1296) | 1290.56 s
[Task Yolo9000_08] Current/Best:  507.21/3426.07 GFLOPS | Progress: (960/1296) | 1393.02 s
[Task Yolo9000_08] Current/Best:  101.51/3426.07 GFLOPS | Progress: (1024/1296) | 1521.41 s
[Task Yolo9000_08] Current/Best:  160.04/3426.07 GFLOPS | Progress: (1088/1296) | 1646.59 s
[Task Yolo9000_08] Current/Best:  213.56/3426.07 GFLOPS | Progress: (1152/1296) | 1784.52 s
[Task Yolo9000_08] Current/Best:  234.01/3426.07 GFLOPS | Progress: (1216/1296) | 1923.11 s
[Task Yolo9000_08] Current/Best:  139.20/3426.07 GFLOPS | Progress: (1280/1296) | 2074.38 s
[Task Yolo9000_08] Current/Best:  482.59/3426.07 GFLOPS | Progress: (1296/1296) | 2116.99 s
 Done.
def @main(%data: Tensor[(1, 256, 68, 68), float32], %weight: Tensor[(128, 256, 1, 1), float32]) -> Tensor[(1, 128, 68, 68), float32] {
  nn.conv2d(%data, %weight, padding=[0, 0, 0, 0], channels=128, kernel_size=[1, 1]) /* ty=Tensor[(1, 128, 68, 68), float32] */
}

[Task Yolo9000_09] Current/Best:    0.00/   0.00 GFLOPS | Progress: (0/1296) | 0.00 s
[Task Yolo9000_09] Current/Best:  513.95/2708.01 GFLOPS | Progress: (64/1296) | 57.02 s
[Task Yolo9000_09] Current/Best:  542.81/2753.05 GFLOPS | Progress: (128/1296) | 108.32 s
[Task Yolo9000_09] Current/Best:  553.00/2753.05 GFLOPS | Progress: (192/1296) | 156.76 s
[Task Yolo9000_09] Current/Best:  824.73/2753.05 GFLOPS | Progress: (256/1296) | 208.91 s
[Task Yolo9000_09] Current/Best:  533.29/2753.05 GFLOPS | Progress: (320/1296) | 263.70 s
[Task Yolo9000_09] Current/Best:  703.13/2753.05 GFLOPS | Progress: (384/1296) | 315.39 s
[Task Yolo9000_09] Current/Best:  906.19/2753.05 GFLOPS | Progress: (448/1296) | 371.32 s
[Task Yolo9000_09] Current/Best:   71.52/2753.05 GFLOPS | Progress: (512/1296) | 422.67 s
[Task Yolo9000_09] Current/Best:  250.22/2753.05 GFLOPS | Progress: (576/1296) | 477.54 s
[Task Yolo9000_09] Current/Best:  127.05/2753.05 GFLOPS | Progress: (640/1296) | 532.35 s
[Task Yolo9000_09] Current/Best:  318.22/2753.05 GFLOPS | Progress: (704/1296) | 587.79 s
[Task Yolo9000_09] Current/Best:  243.38/2753.05 GFLOPS | Progress: (768/1296) | 644.24 s
[Task Yolo9000_09] Current/Best:  343.37/2753.05 GFLOPS | Progress: (832/1296) | 701.32 s
[Task Yolo9000_09] Current/Best:  559.71/2753.05 GFLOPS | Progress: (896/1296) | 756.40 s
[Task Yolo9000_09] Current/Best:  112.83/2753.05 GFLOPS | Progress: (960/1296) | 817.41 s
[Task Yolo9000_09] Current/Best:  148.83/2753.05 GFLOPS | Progress: (1024/1296) | 880.94 s
[Task Yolo9000_09] Current/Best:  152.84/2753.05 GFLOPS | Progress: (1088/1296) | 940.77 s
[Task Yolo9000_09] Current/Best:  260.47/2753.05 GFLOPS | Progress: (1152/1296) | 1002.59 s
[Task Yolo9000_09] Current/Best:   50.42/2753.05 GFLOPS | Progress: (1216/1296) | 1063.13 s
[Task Yolo9000_09] Current/Best:  159.44/2753.05 GFLOPS | Progress: (1280/1296) | 1123.87 s
[Task Yolo9000_09] Current/Best:  137.79/2753.05 GFLOPS | Progress: (1296/1296) | 1140.22 s
 Done.
def @main(%data: Tensor[(1, 256, 36, 36), float32], %weight: Tensor[(512, 256, 3, 3), float32]) -> Tensor[(1, 512, 34, 34), float32] {
  nn.conv2d(%data, %weight, padding=[0, 0, 0, 0], channels=512, kernel_size=[3, 3]) /* ty=Tensor[(1, 512, 34, 34), float32] */
}

[Task Yolo9000_12] Current/Best:    0.00/   0.00 GFLOPS | Progress: (0/1440) | 0.00 s
[Task Yolo9000_12] Current/Best:  597.96/2691.58 GFLOPS | Progress: (64/1440) | 115.66 s
[Task Yolo9000_12] Current/Best:  169.30/3108.67 GFLOPS | Progress: (128/1440) | 180.29 s
[Task Yolo9000_12] Current/Best:  454.82/3249.79 GFLOPS | Progress: (192/1440) | 246.24 s
[Task Yolo9000_12] Current/Best: 1125.90/3249.79 GFLOPS | Progress: (256/1440) | 330.37 s
[Task Yolo9000_12] Current/Best:  537.64/3249.79 GFLOPS | Progress: (320/1440) | 431.86 s
[Task Yolo9000_12] Current/Best:  134.22/3249.79 GFLOPS | Progress: (384/1440) | 501.14 s
[Task Yolo9000_12] Current/Best:  107.34/3249.79 GFLOPS | Progress: (448/1440) | 574.62 s
[Task Yolo9000_12] Current/Best:  999.53/3249.79 GFLOPS | Progress: (512/1440) | 695.40 s
[Task Yolo9000_12] Current/Best:  268.85/3249.79 GFLOPS | Progress: (576/1440) | 785.28 s
[Task Yolo9000_12] Current/Best:  703.24/3249.79 GFLOPS | Progress: (640/1440) | 899.87 s
[Task Yolo9000_12] Current/Best:  270.18/3249.79 GFLOPS | Progress: (704/1440) | 1015.58 s
[Task Yolo9000_12] Current/Best:  650.29/3249.79 GFLOPS | Progress: (768/1440) | 1144.25 s
[Task Yolo9000_12] Current/Best:  495.82/3249.79 GFLOPS | Progress: (832/1440) | 1254.17 s
[Task Yolo9000_12] Current/Best:  599.66/3249.79 GFLOPS | Progress: (896/1440) | 1368.40 s
[Task Yolo9000_12] Current/Best:  208.05/3249.79 GFLOPS | Progress: (960/1440) | 1496.66 s
[Task Yolo9000_12] Current/Best:  125.77/3249.79 GFLOPS | Progress: (1024/1440) | 1614.76 s
[Task Yolo9000_12] Current/Best:  157.74/3249.79 GFLOPS | Progress: (1088/1440) | 1744.69 s
[Task Yolo9000_12] Current/Best:  294.91/3249.79 GFLOPS | Progress: (1152/1440) | 1872.23 s
[Task Yolo9000_12] Current/Best:  155.00/3249.79 GFLOPS | Progress: (1216/1440) | 2009.86 s
[Task Yolo9000_12] Current/Best:  315.22/3249.79 GFLOPS | Progress: (1280/1440) | 2180.48 s
[Task Yolo9000_12] Current/Best:  500.31/3249.79 GFLOPS | Progress: (1344/1440) | 2320.95 s
[Task Yolo9000_12] Current/Best:  390.40/3249.79 GFLOPS | Progress: (1408/1440) | 2460.25 s
[Task Yolo9000_12] Current/Best:  300.45/3249.79 GFLOPS | Progress: (1440/1440) | 2543.64 s
 Done.
def @main(%data: Tensor[(1, 512, 34, 34), float32], %weight: Tensor[(256, 512, 1, 1), float32]) -> Tensor[(1, 256, 34, 34), float32] {
  nn.conv2d(%data, %weight, padding=[0, 0, 0, 0], channels=256, kernel_size=[1, 1]) /* ty=Tensor[(1, 256, 34, 34), float32] */
}

[Task Yolo9000_13] Current/Best:    0.00/   0.00 GFLOPS | Progress: (0/1440) | 0.00 s
[Task Yolo9000_13] Current/Best:  920.91/2707.09 GFLOPS | Progress: (64/1440) | 46.24 s
[Task Yolo9000_13] Current/Best:  131.60/2720.22 GFLOPS | Progress: (128/1440) | 86.24 s
[Task Yolo9000_13] Current/Best:   68.74/2729.11 GFLOPS | Progress: (192/1440) | 124.56 s
[Task Yolo9000_13] Current/Best:  104.25/2729.11 GFLOPS | Progress: (256/1440) | 165.63 s
[Task Yolo9000_13] Current/Best:  701.05/2729.11 GFLOPS | Progress: (320/1440) | 206.58 s
[Task Yolo9000_13] Current/Best:  252.17/2729.11 GFLOPS | Progress: (384/1440) | 249.39 s
[Task Yolo9000_13] Current/Best:  378.85/2729.11 GFLOPS | Progress: (448/1440) | 295.51 s
[Task Yolo9000_13] Current/Best:  333.56/2729.11 GFLOPS | Progress: (512/1440) | 336.41 s
[Task Yolo9000_13] Current/Best:  251.82/2729.11 GFLOPS | Progress: (576/1440) | 381.58 s
[Task Yolo9000_13] Current/Best:  125.79/2729.11 GFLOPS | Progress: (640/1440) | 425.92 s
[Task Yolo9000_13] Current/Best:  208.06/2729.11 GFLOPS | Progress: (704/1440) | 469.85 s
[Task Yolo9000_13] Current/Best:   35.41/2729.11 GFLOPS | Progress: (768/1440) | 518.35 s
[Task Yolo9000_13] Current/Best:  524.68/2729.11 GFLOPS | Progress: (832/1440) | 566.08 s
[Task Yolo9000_13] Current/Best:  361.75/2729.11 GFLOPS | Progress: (896/1440) | 612.22 s
[Task Yolo9000_13] Current/Best:  342.30/2729.11 GFLOPS | Progress: (960/1440) | 659.85 s
[Task Yolo9000_13] Current/Best:  370.90/2729.11 GFLOPS | Progress: (1024/1440) | 706.11 s
[Task Yolo9000_13] Current/Best:  119.09/2729.11 GFLOPS | Progress: (1088/1440) | 751.88 s
[Task Yolo9000_13] Current/Best:  274.40/2729.11 GFLOPS | Progress: (1152/1440) | 802.35 s
[Task Yolo9000_13] Current/Best:  291.63/2729.11 GFLOPS | Progress: (1216/1440) | 853.35 s
[Task Yolo9000_13] Current/Best:  317.86/2729.11 GFLOPS | Progress: (1280/1440) | 903.35 s
[Task Yolo9000_13] Current/Best:  347.22/2729.11 GFLOPS | Progress: (1344/1440) | 954.01 s
[Task Yolo9000_13] Current/Best:   87.87/2729.11 GFLOPS | Progress: (1408/1440) | 1008.11 s
[Task Yolo9000_13] Current/Best:  174.76/2729.11 GFLOPS | Progress: (1440/1440) | 1032.83 s
 Done.
def @main(%data: Tensor[(1, 512, 19, 19), float32], %weight: Tensor[(1024, 512, 3, 3), float32]) -> Tensor[(1, 1024, 17, 17), float32] {
  nn.conv2d(%data, %weight, padding=[0, 0, 0, 0], channels=1024, kernel_size=[3, 3]) /* ty=Tensor[(1, 1024, 17, 17), float32] */
}

[Task Yolo9000_18] Current/Best:    0.00/   0.00 GFLOPS | Progress: (0/1320) | 0.00 s
[Task Yolo9000_18] Current/Best:   33.59/2450.31 GFLOPS | Progress: (64/1320) | 157.52 s
[Task Yolo9000_18] Current/Best:  453.30/2854.42 GFLOPS | Progress: (128/1320) | 260.76 s
[Task Yolo9000_18] Current/Best:  901.96/3035.18 GFLOPS | Progress: (192/1320) | 365.70 s
[Task Yolo9000_18] Current/Best:   33.07/3035.18 GFLOPS | Progress: (256/1320) | 487.32 s
[Task Yolo9000_18] Current/Best:  964.62/3035.18 GFLOPS | Progress: (320/1320) | 641.54 s
[Task Yolo9000_18] Current/Best:  360.25/3035.18 GFLOPS | Progress: (384/1320) | 761.10 s
[Task Yolo9000_18] Current/Best:  227.13/3035.18 GFLOPS | Progress: (448/1320) | 946.24 s
[Task Yolo9000_18] Current/Best:  329.45/3035.18 GFLOPS | Progress: (512/1320) | 1074.85 s
[Task Yolo9000_18] Current/Best:  268.58/3035.18 GFLOPS | Progress: (576/1320) | 1262.86 s
[Task Yolo9000_18] Current/Best:  608.95/3035.18 GFLOPS | Progress: (640/1320) | 1418.45 s
[Task Yolo9000_18] Current/Best:   51.23/3035.18 GFLOPS | Progress: (704/1320) | 1593.81 s
[Task Yolo9000_18] Current/Best:  229.27/3035.18 GFLOPS | Progress: (768/1320) | 1761.40 s
[Task Yolo9000_18] Current/Best:  556.20/3035.18 GFLOPS | Progress: (832/1320) | 1947.53 s
[Task Yolo9000_18] Current/Best:   33.58/3035.18 GFLOPS | Progress: (896/1320) | 2128.52 s
[Task Yolo9000_18] Current/Best:   33.61/3035.18 GFLOPS | Progress: (960/1320) | 2304.03 s
[Task Yolo9000_18] Current/Best:  134.17/3035.18 GFLOPS | Progress: (1024/1320) | 2479.65 s
[Task Yolo9000_18] Current/Best:  363.96/3035.18 GFLOPS | Progress: (1088/1320) | 2651.92 s
[Task Yolo9000_18] Current/Best:   89.92/3035.18 GFLOPS | Progress: (1152/1320) | 2833.07 s
[Task Yolo9000_18] Current/Best:  142.65/3035.18 GFLOPS | Progress: (1216/1320) | 3038.34 s
[Task Yolo9000_18] Current/Best:  235.74/3035.18 GFLOPS | Progress: (1280/1320) | 3238.28 s
[Task Yolo9000_18] Current/Best:  438.12/3035.18 GFLOPS | Progress: (1320/1320) | 3374.91 s
 Done.
def @main(%data: Tensor[(1, 1024, 17, 17), float32], %weight: Tensor[(512, 1024, 1, 1), float32]) -> Tensor[(1, 512, 17, 17), float32] {
  nn.conv2d(%data, %weight, padding=[0, 0, 0, 0], channels=512, kernel_size=[1, 1]) /* ty=Tensor[(1, 512, 17, 17), float32] */
}

[Task Yolo9000_19] Current/Best:    0.00/   0.00 GFLOPS | Progress: (0/1320) | 0.00 s
[Task Yolo9000_19] Current/Best: 1044.04/2451.81 GFLOPS | Progress: (64/1320) | 48.91 s
[Task Yolo9000_19] Current/Best:  783.02/2561.02 GFLOPS | Progress: (128/1320) | 86.13 s
[Task Yolo9000_19] Current/Best:  283.39/2561.02 GFLOPS | Progress: (192/1320) | 124.34 s
[Task Yolo9000_19] Current/Best: 1569.77/2561.02 GFLOPS | Progress: (256/1320) | 162.21 s
[Task Yolo9000_19] Current/Best:  250.58/2561.02 GFLOPS | Progress: (320/1320) | 205.42 s
[Task Yolo9000_19] Current/Best:  468.68/2561.02 GFLOPS | Progress: (384/1320) | 242.75 s
[Task Yolo9000_19] Current/Best:  479.48/2561.02 GFLOPS | Progress: (448/1320) | 285.97 s
[Task Yolo9000_19] Current/Best:  830.08/2561.02 GFLOPS | Progress: (512/1320) | 333.48 s
[Task Yolo9000_19] Current/Best:   75.23/2561.02 GFLOPS | Progress: (576/1320) | 376.86 s
[Task Yolo9000_19] Current/Best:  385.60/2561.02 GFLOPS | Progress: (640/1320) | 419.62 s
[Task Yolo9000_19] Current/Best:  572.46/2561.02 GFLOPS | Progress: (704/1320) | 466.29 s
[Task Yolo9000_19] Current/Best:  288.87/2561.02 GFLOPS | Progress: (768/1320) | 513.79 s
[Task Yolo9000_19] Current/Best:  107.47/2561.02 GFLOPS | Progress: (832/1320) | 564.19 s
[Task Yolo9000_19] Current/Best:  337.77/2561.02 GFLOPS | Progress: (896/1320) | 609.45 s
[Task Yolo9000_19] Current/Best:  625.35/2561.02 GFLOPS | Progress: (960/1320) | 658.21 s
[Task Yolo9000_19] Current/Best:  172.09/2561.02 GFLOPS | Progress: (1024/1320) | 709.64 s
[Task Yolo9000_19] Current/Best:   81.20/2561.02 GFLOPS | Progress: (1088/1320) | 760.09 s
[Task Yolo9000_19] Current/Best:  132.05/2561.02 GFLOPS | Progress: (1152/1320) | 813.76 s
[Task Yolo9000_19] Current/Best:  374.28/2561.02 GFLOPS | Progress: (1216/1320) | 865.17 s
[Task Yolo9000_19] Current/Best:  307.70/2561.02 GFLOPS | Progress: (1280/1320) | 918.26 s
[Task Yolo9000_19] Current/Best:  257.48/2561.02 GFLOPS | Progress: (1320/1320) | 951.39 s
 Done.
def @main(%data: Tensor[(1, 1024, 17, 17), float32], %weight: Tensor[(28269, 1024, 1, 1), float32]) -> Tensor[(1, 28269, 17, 17), float32] {
  nn.conv2d(%data, %weight, padding=[0, 0, 0, 0], channels=28269, kernel_size=[1, 1]) /* ty=Tensor[(1, 28269, 17, 17), float32] */
}

[Task Yolo9000_23] Current/Best:    0.00/   0.00 GFLOPS | Progress: (0/1320) | 0.00 s
[Task Yolo9000_23] Current/Best:    0.00/   0.00 GFLOPS | Progress: (64/1320) | 371.81 s
[Task Yolo9000_23] Current/Best:    0.00/   0.00 GFLOPS | Progress: (128/1320) | 814.72 s
[Task Yolo9000_23] Current/Best: 1001.87/1001.87 GFLOPS | Progress: (192/1320) | 1210.47 s
[Task Yolo9000_23] Current/Best:  926.02/1001.87 GFLOPS | Progress: (256/1320) | 1715.93 s
[Task Yolo9000_23] Current/Best: 1211.76/1318.86 GFLOPS | Progress: (320/1320) | 2136.65 s
[Task Yolo9000_23] Current/Best:    0.00/1318.86 GFLOPS | Progress: (384/1320) | 2602.49 s
[Task Yolo9000_23] Current/Best:    0.00/1318.86 GFLOPS | Progress: (448/1320) | 2997.02 s
[Task Yolo9000_23] Current/Best:    0.00/1318.86 GFLOPS | Progress: (512/1320) | 3453.21 s
[Task Yolo9000_23] Current/Best:  806.84/1318.86 GFLOPS | Progress: (640/1320) | 4372.87 s
[Task Yolo9000_23] Current/Best:    0.00/1318.86 GFLOPS | Progress: (704/1320) | 4746.13 s
[Task Yolo9000_23] Current/Best:    0.00/1318.86 GFLOPS | Progress: (768/1320) | 5202.16 s
