IdRun;MethodParallelization;NameConv;Time(ms);std;NbMicroKernel;AxeFuse1;SizeAxeFuse1;AxeFuse2;SizeAxeFuse2;Schema;Time_search(3.0705182552337646)
0;0;MobilNet_01;0.1827004;0.0008523835052369348;1;axe_yy1_1,axe_xx1_0;896;;;F:1, Y:1, C:1, Y:8, X:112, H:3, W:3, W:1, H:1, X:1, Y:14, C:32, F:32, ;4.09778904914856
0;1;MobilNet_01;0.16287260000000003;0.0015375946279822888;1;axe_out_channels1_0,axe_yy1_0,axe_yy1_1,axe_xx1_0;896;;;F:1, Y:1, C:1, Y:8, X:112, H:3, W:3, W:1, H:1, X:1, Y:14, C:32, F:32, ;5.0821373462677
1;0;MobilNet_01;0.1922871;0.0008528815216663971;1;axe_yy1_1,axe_xx1_0;448;;;F:1, Y:2, C:1, Y:4, X:112, H:3, W:3, W:1, H:1, X:1, Y:14, C:32, F:32, ;6.059947967529297
1;1;MobilNet_01;0.1624237;0.0012483661361956284;1;axe_out_channels1_0,axe_yy1_0,axe_yy1_1,axe_xx1_0;896;;;F:1, Y:2, C:1, Y:4, X:112, H:3, W:3, W:1, H:1, X:1, Y:14, C:32, F:32, ;7.022528648376465
2;0;MobilNet_01;0.21854559999999998;0.0010178213202718825;1;axe_yy1_1,axe_xx1_0;224;;;F:1, Y:4, C:1, Y:2, X:112, H:3, W:3, W:1, H:1, X:1, Y:14, C:32, F:32, ;7.997127294540405
2;1;MobilNet_01;0.16208070000000002;0.0007241535817766867;1;axe_out_channels1_0,axe_yy1_0,axe_yy1_1,axe_xx1_0;896;;;F:1, Y:4, C:1, Y:2, X:112, H:3, W:3, W:1, H:1, X:1, Y:14, C:32, F:32, ;8.9611656665802
3;0;MobilNet_01;0.26008760000000003;0.0010398733769070108;1;axe_yy1_1,axe_xx1_0;112;;;F:1, Y:8, C:1, Y:1, X:112, H:3, W:3, W:1, H:1, X:1, Y:14, C:32, F:32, ;9.978724002838135
3;1;MobilNet_01;0.16220110000000001;0.001067288662921146;1;axe_out_channels1_0,axe_yy1_0,axe_yy1_1,axe_xx1_0;896;;;F:1, Y:8, C:1, Y:1, X:112, H:3, W:3, W:1, H:1, X:1, Y:14, C:32, F:32, ;10.9450044631958
4;0;MobilNet_01;0.2285612;0.0026982396409511115;1;axe_yy1_1,axe_xx1_0;1568;;;F:1, Y:1, C:1, Y:14, X:112, H:3, W:3, W:1, H:1, X:1, Y:8, C:32, F:32, ;11.9087233543396
4;1;MobilNet_01;0.1815862;0.0014185177334104827;1;axe_out_channels1_0,axe_yy1_0,axe_yy1_1,axe_xx1_0;1568;;;F:1, Y:1, C:1, Y:14, X:112, H:3, W:3, W:1, H:1, X:1, Y:8, C:32, F:32, ;12.862627983093262
5;0;MobilNet_01;0.2083778;0.0006810752968651844;1;axe_yy1_1,axe_xx1_0;784;;;F:1, Y:2, C:1, Y:7, X:112, H:3, W:3, W:1, H:1, X:1, Y:8, C:32, F:32, ;13.831297159194946
5;1;MobilNet_01;0.18262740000000002;0.0015617855934794641;1;axe_out_channels1_0,axe_yy1_0,axe_yy1_1,axe_xx1_0;1568;;;F:1, Y:2, C:1, Y:7, X:112, H:3, W:3, W:1, H:1, X:1, Y:8, C:32, F:32, ;14.789855003356934
6;0;MobilNet_01;0.24954909999999994;0.001395009064486672;1;axe_yy1_1,axe_xx1_0;224;;;F:1, Y:7, C:1, Y:2, X:112, H:3, W:3, W:1, H:1, X:1, Y:8, C:32, F:32, ;15.759368181228638
6;1;MobilNet_01;0.18366939999999998;0.0009218523959940669;1;axe_out_channels1_0,axe_yy1_0,axe_yy1_1,axe_xx1_0;1568;;;F:1, Y:7, C:1, Y:2, X:112, H:3, W:3, W:1, H:1, X:1, Y:8, C:32, F:32, ;16.743398666381836
7;0;MobilNet_01;0.341974;0.00180119427047723;1;axe_yy1_1,axe_xx1_0;112;;;F:1, Y:14, C:1, Y:1, X:112, H:3, W:3, W:1, H:1, X:1, Y:8, C:32, F:32, ;17.74475932121277
7;1;MobilNet_01;0.1819478;0.0010953798245357646;1;axe_out_channels1_0,axe_yy1_0,axe_yy1_1,axe_xx1_0;1568;;;F:1, Y:14, C:1, Y:1, X:112, H:3, W:3, W:1, H:1, X:1, Y:8, C:32, F:32, ;18.70206093788147
8;0;MobilNet_01;0.36906970000000006;0.003188182242281655;2;axe_yy1_1,axe_xx1_0;112;axe_yy2_1,axe_xx2_0;336;F:1, Y:2, C:1, Y:1, X:112, H:3, W:3, W:1, H:1, X:1, Y:11, C:32, F:32, ;19.838853120803833
8;1;MobilNet_01;0.26500650000000003;0.000823494171199775;2;axe_out_channels1_0,axe_yy1_0,axe_yy1_1,axe_xx1_0;224;axe_out_channels2_0,axe_yy2_0,axe_yy2_1,axe_xx2_0;672;F:1, Y:2, C:1, Y:1, X:112, H:3, W:3, W:1, H:1, X:1, Y:11, C:32, F:32, ;20.959039211273193
9;0;MobilNet_01;0.3246408;0.0010994691264423963;2;axe_yy1_1,axe_xx1_0;224;axe_yy2_1,axe_xx2_0;224;F:1, Y:1, C:1, Y:2, X:112, H:3, W:3, W:1, H:1, X:1, Y:11, C:32, F:32, ;22.098737955093384
9;1;MobilNet_01;0.26609209999999994;0.00045930870882230057;2;axe_out_channels1_0,axe_yy1_0,axe_yy1_1,axe_xx1_0;224;axe_out_channels2_0,axe_yy2_0,axe_yy2_1,axe_xx2_0;672;F:1, Y:1, C:1, Y:2, X:112, H:3, W:3, W:1, H:1, X:1, Y:11, C:32, F:32, ;23.220789670944214
10;0;MobilNet_01;0.3140959;0.0009037248973000628;2;axe_yy1_1,axe_xx1_0;112;axe_yy2_1,axe_xx2_0;112;F:1, Y:4, C:1, Y:1, X:112, H:3, W:3, W:1, H:1, X:1, Y:13, C:32, F:32, ;24.38239049911499
10;1;MobilNet_01;0.24231870000000005;0.0005454264478369143;2;axe_out_channels1_0,axe_yy1_0,axe_yy1_1,axe_xx1_0;448;axe_out_channels2_0,axe_yy2_0,axe_yy2_1,axe_xx2_0;448;F:1, Y:4, C:1, Y:1, X:112, H:3, W:3, W:1, H:1, X:1, Y:13, C:32, F:32, ;25.5017192363739
11;0;MobilNet_01;0.2893895;0.0010907003484000638;2;axe_yy1_1,axe_xx1_0;448;axe_yy2_1,axe_xx2_0;448;F:1, Y:1, C:1, Y:4, X:112, H:3, W:3, W:1, H:1, X:1, Y:13, C:32, F:32, ;26.63002061843872
11;1;MobilNet_01;0.2430243;0.000850623659440527;2;axe_out_channels1_0,axe_yy1_0,axe_yy1_1,axe_xx1_0;448;axe_out_channels2_0,axe_yy2_0,axe_yy2_1,axe_xx2_0;448;F:1, Y:1, C:1, Y:4, X:112, H:3, W:3, W:1, H:1, X:1, Y:13, C:32, F:32, ;27.75801706314087
12;0;MobilNet_01;0.2523683;0.0006699117927010995;2;axe_yy1_1,axe_xx1_0;112;axe_yy2_1,axe_xx2_0;896;F:1, Y:1, C:1, Y:1, X:112, H:3, W:3, W:1, H:1, X:1, Y:8, C:32, F:32, ;28.883785247802734
12;1;MobilNet_01;0.21088520000000002;0.0005906250587301552;2;axe_out_channels1_0,axe_yy1_0,axe_yy1_1,axe_xx1_0;112;axe_out_channels2_0,axe_yy2_0,axe_yy2_1,axe_xx2_0;896;F:1, Y:1, C:1, Y:1, X:112, H:3, W:3, W:1, H:1, X:1, Y:8, C:32, F:32, ;29.9897518157959
13;0;MobilNet_01;0.28646630000000006;0.00121478854538557;2;axe_yy1_1,axe_xx1_0;112;axe_yy2_1,axe_xx2_0;112;F:1, Y:1, C:1, Y:1, X:112, H:3, W:3, W:1, H:1, X:1, Y:8, C:32, F:32, ;31.17273736000061
13;1;MobilNet_01;0.21006560000000002;0.00032997733255483286;2;axe_out_channels1_0,axe_yy1_0,axe_yy1_1,axe_xx1_0;112;axe_out_channels2_0,axe_yy2_0,axe_yy2_1,axe_xx2_0;896;F:1, Y:1, C:1, Y:1, X:112, H:3, W:3, W:1, H:1, X:1, Y:8, C:32, F:32, ;32.29292583465576
14;0;MobilNet_01;0.2538188;0.0012016109853026453;2;axe_yy1_1,axe_xx1_0;560;axe_yy2_1,axe_xx2_0;448;F:1, Y:1, C:1, Y:5, X:112, H:3, W:3, W:1, H:1, X:1, Y:12, C:32, F:32, ;33.411224603652954
14;1;MobilNet_01;0.2102211;0.0008298751050609953;2;axe_out_channels1_0,axe_yy1_0,axe_yy1_1,axe_xx1_0;560;axe_out_channels2_0,axe_yy2_0,axe_yy2_1,axe_xx2_0;448;F:1, Y:1, C:1, Y:5, X:112, H:3, W:3, W:1, H:1, X:1, Y:12, C:32, F:32, ;34.52043128013611
15;0;MobilNet_01;0.29095060000000006;0.0011818417152901662;2;axe_yy1_1,axe_xx1_0;112;axe_yy2_1,axe_xx2_0;112;F:1, Y:5, C:1, Y:1, X:112, H:3, W:3, W:1, H:1, X:1, Y:12, C:32, F:32, ;35.68534016609192
15;1;MobilNet_01;0.21084070000000002;0.0006802046824302214;2;axe_out_channels1_0,axe_yy1_0,axe_yy1_1,axe_xx1_0;560;axe_out_channels2_0,axe_yy2_0,axe_yy2_1,axe_xx2_0;448;F:1, Y:5, C:1, Y:1, X:112, H:3, W:3, W:1, H:1, X:1, Y:12, C:32, F:32, ;36.801109075546265
16;0;MobilNet_01;0.241472;0.000809702167466531;2;axe_yy1_1,axe_xx1_0;784;axe_yy2_1,axe_xx2_0;224;F:1, Y:1, C:1, Y:7, X:112, H:3, W:3, W:1, H:1, X:1, Y:12, C:32, F:32, ;37.93834733963013
16;1;MobilNet_01;0.20576270000000002;0.0004403464658652332;2;axe_out_channels1_0,axe_yy1_0,axe_yy1_1,axe_xx1_0;784;axe_out_channels2_0,axe_yy2_0,axe_yy2_1,axe_xx2_0;224;F:1, Y:1, C:1, Y:7, X:112, H:3, W:3, W:1, H:1, X:1, Y:12, C:32, F:32, ;39.0661301612854
17;0;MobilNet_01;0.2903959;0.00144136681313259;2;axe_yy1_1,axe_xx1_0;112;axe_yy2_1,axe_xx2_0;112;F:1, Y:7, C:1, Y:1, X:112, H:3, W:3, W:1, H:1, X:1, Y:12, C:32, F:32, ;40.23987412452698
17;1;MobilNet_01;0.205815;0.0006654129544876586;2;axe_out_channels1_0,axe_yy1_0,axe_yy1_1,axe_xx1_0;784;axe_out_channels2_0,axe_yy2_0,axe_yy2_1,axe_xx2_0;224;F:1, Y:7, C:1, Y:1, X:112, H:3, W:3, W:1, H:1, X:1, Y:12, C:32, F:32, ;41.36269187927246
18;0;MobilNet_01;0.2667893;0.000891356724325348;2;axe_yy1_1,axe_xx1_0;224;axe_yy2_1,axe_xx2_0;336;F:1, Y:2, C:1, Y:2, X:112, H:3, W:3, W:1, H:1, X:1, Y:10, C:32, F:32, ;42.54884052276611
18;1;MobilNet_01;0.2135529;0.0006239930207943047;2;axe_out_channels1_0,axe_yy1_0,axe_yy1_1,axe_xx1_0;448;axe_out_channels2_0,axe_yy2_0,axe_yy2_1,axe_xx2_0;672;F:1, Y:2, C:1, Y:2, X:112, H:3, W:3, W:1, H:1, X:1, Y:10, C:32, F:32, ;43.688023805618286
19;0;MobilNet_01;0.2679492;0.001051316298741719;2;axe_yy1_1,axe_xx1_0;224;axe_yy2_1,axe_xx2_0;224;F:1, Y:2, C:1, Y:2, X:112, H:3, W:3, W:1, H:1, X:1, Y:10, C:32, F:32, ;44.84794497489929
19;1;MobilNet_01;0.2139764;0.0005480098904216973;2;axe_out_channels1_0,axe_yy1_0,axe_yy1_1,axe_xx1_0;448;axe_out_channels2_0,axe_yy2_0,axe_yy2_1,axe_xx2_0;672;F:1, Y:2, C:1, Y:2, X:112, H:3, W:3, W:1, H:1, X:1, Y:10, C:32, F:32, ;46.02236032485962
20;0;MobilNet_01;0.2654651;0.0006821610440357845;2;axe_yy1_1,axe_xx1_0;336;axe_yy2_1,axe_xx2_0;224;F:1, Y:2, C:1, Y:3, X:112, H:3, W:3, W:1, H:1, X:1, Y:10, C:32, F:32, ;47.14606475830078
20;1;MobilNet_01;0.21176079999999997;0.0007261184200941363;2;axe_out_channels1_0,axe_yy1_0,axe_yy1_1,axe_xx1_0;672;axe_out_channels2_0,axe_yy2_0,axe_yy2_1,axe_xx2_0;448;F:1, Y:2, C:1, Y:3, X:112, H:3, W:3, W:1, H:1, X:1, Y:10, C:32, F:32, ;48.251768589019775
21;0;MobilNet_01;0.2669385;0.0005302322604293321;2;axe_yy1_1,axe_xx1_0;224;axe_yy2_1,axe_xx2_0;224;F:1, Y:3, C:1, Y:2, X:112, H:3, W:3, W:1, H:1, X:1, Y:10, C:32, F:32, ;49.372559547424316
21;1;MobilNet_01;0.2111379;0.0002655814187777475;2;axe_out_channels1_0,axe_yy1_0,axe_yy1_1,axe_xx1_0;672;axe_out_channels2_0,axe_yy2_0,axe_yy2_1,axe_xx2_0;448;F:1, Y:3, C:1, Y:2, X:112, H:3, W:3, W:1, H:1, X:1, Y:10, C:32, F:32, ;50.475797176361084
22;0;MobilNet_01;0.2418634;0.0006032256957391603;2;axe_yy1_1,axe_xx1_0;784;axe_yy2_1,axe_xx2_0;336;F:1, Y:1, C:1, Y:7, X:112, H:3, W:3, W:1, H:1, X:1, Y:10, C:32, F:32, ;51.63316464424133
22;1;MobilNet_01;0.2048429;0.00049375164809851;2;axe_out_channels1_0,axe_yy1_0,axe_yy1_1,axe_xx1_0;784;axe_out_channels2_0,axe_yy2_0,axe_yy2_1,axe_xx2_0;336;F:1, Y:1, C:1, Y:7, X:112, H:3, W:3, W:1, H:1, X:1, Y:10, C:32, F:32, ;52.78691816329956
23;0;MobilNet_01;0.2980117;0.0012695497666495765;2;axe_yy1_1,axe_xx1_0;112;axe_yy2_1,axe_xx2_0;112;F:1, Y:7, C:1, Y:1, X:112, H:3, W:3, W:1, H:1, X:1, Y:10, C:32, F:32, ;53.98780822753906
23;1;MobilNet_01;0.20661659999999998;0.0005242005723003321;2;axe_out_channels1_0,axe_yy1_0,axe_yy1_1,axe_xx1_0;784;axe_out_channels2_0,axe_yy2_0,axe_yy2_1,axe_xx2_0;336;F:1, Y:7, C:1, Y:1, X:112, H:3, W:3, W:1, H:1, X:1, Y:10, C:32, F:32, ;55.13669204711914
24;0;MobilNet_01;0.25329229999999997;0.0010684055456613726;2;axe_yy1_1,axe_xx1_0;448;axe_yy2_1,axe_xx2_0;112;F:1, Y:2, C:1, Y:4, X:112, H:3, W:3, W:1, H:1, X:1, Y:11, C:32, F:32, ;56.27735638618469
24;1;MobilNet_01;0.20852149999999997;0.0005686150279406992;2;axe_out_channels1_0,axe_yy1_0,axe_yy1_1,axe_xx1_0;896;axe_out_channels2_0,axe_yy2_0,axe_yy2_1,axe_xx2_0;224;F:1, Y:2, C:1, Y:4, X:112, H:3, W:3, W:1, H:1, X:1, Y:11, C:32, F:32, ;57.389164209365845
25;0;MobilNet_01;0.2698332;0.0008796693469707861;2;axe_yy1_1,axe_xx1_0;224;axe_yy2_1,axe_xx2_0;224;F:1, Y:4, C:1, Y:2, X:112, H:3, W:3, W:1, H:1, X:1, Y:11, C:32, F:32, ;58.518736124038696
25;1;MobilNet_01;0.20782050000000002;0.0005711058133130847;2;axe_out_channels1_0,axe_yy1_0,axe_yy1_1,axe_xx1_0;896;axe_out_channels2_0,axe_yy2_0,axe_yy2_1,axe_xx2_0;224;F:1, Y:4, C:1, Y:2, X:112, H:3, W:3, W:1, H:1, X:1, Y:11, C:32, F:32, ;59.627485036849976
26;0;MobilNet_01;0.24405129999999997;0.0007407305920508493;2;axe_yy1_1,axe_xx1_0;1008;axe_yy2_1,axe_xx2_0;112;F:1, Y:1, C:1, Y:9, X:112, H:3, W:3, W:1, H:1, X:1, Y:11, C:32, F:32, ;60.73450255393982
26;1;MobilNet_01;0.20514379999999996;0.00043229499187476256;2;axe_out_channels1_0,axe_yy1_0,axe_yy1_1,axe_xx1_0;1008;axe_out_channels2_0,axe_yy2_0,axe_yy2_1,axe_xx2_0;112;F:1, Y:1, C:1, Y:9, X:112, H:3, W:3, W:1, H:1, X:1, Y:11, C:32, F:32, ;61.83621335029602
27;0;MobilNet_01;0.30214630000000003;0.0015478706696620246;2;axe_yy1_1,axe_xx1_0;112;axe_yy2_1,axe_xx2_0;112;F:1, Y:9, C:1, Y:1, X:112, H:3, W:3, W:1, H:1, X:1, Y:11, C:32, F:32, ;62.972031593322754
27;1;MobilNet_01;0.20478939999999998;0.0008922875321330085;2;axe_out_channels1_0,axe_yy1_0,axe_yy1_1,axe_xx1_0;1008;axe_out_channels2_0,axe_yy2_0,axe_yy2_1,axe_xx2_0;112;F:1, Y:9, C:1, Y:1, X:112, H:3, W:3, W:1, H:1, X:1, Y:11, C:32, F:32, ;64.0688693523407
28;0;MobilNet_01;0.2665049;0.0014059735025952638;2;axe_yy1_1,axe_xx1_0;224;axe_yy2_1,axe_xx2_0;336;F:1, Y:2, C:1, Y:2, X:112, W:3, W:1, H:3, X:1, Y:10, C:32, F:32, ;65.24494671821594
28;1;MobilNet_01;0.2250915;0.0007404351760957854;2;axe_out_channels1_0,axe_yy1_0,axe_yy1_1,axe_xx1_0;448;axe_out_channels2_0,axe_yy2_0,axe_yy2_1,axe_xx2_0;672;F:1, Y:2, C:1, Y:2, X:112, W:3, W:1, H:3, X:1, Y:10, C:32, F:32, ;66.40472364425659
29;0;MobilNet_01;0.26783329999999994;0.0009917917170454821;2;axe_yy1_1,axe_xx1_0;224;axe_yy2_1,axe_xx2_0;224;F:1, Y:2, C:1, Y:2, X:112, W:3, W:1, H:3, X:1, Y:10, C:32, F:32, ;67.58320546150208
29;1;MobilNet_01;0.22447079999999997;0.0006651189066625621;2;axe_out_channels1_0,axe_yy1_0,axe_yy1_1,axe_xx1_0;448;axe_out_channels2_0,axe_yy2_0,axe_yy2_1,axe_xx2_0;672;F:1, Y:2, C:1, Y:2, X:112, W:3, W:1, H:3, X:1, Y:10, C:32, F:32, ;68.74508452415466
30;0;MobilNet_01;0.2351863;0.0010229645204013686;2;axe_yy1_1,axe_xx1_0;448;axe_yy2_1,axe_xx2_0;112;F:1, Y:2, C:1, Y:4, X:112, W:3, W:1, H:3, X:1, Y:11, C:32, F:32, ;69.94950556755066
30;1;MobilNet_01;0.20831560000000002;0.0006224399087462233;2;axe_out_channels1_0,axe_yy1_0,axe_yy1_1,axe_xx1_0;896;axe_out_channels2_0,axe_yy2_0,axe_yy2_1,axe_xx2_0;224;F:1, Y:2, C:1, Y:4, X:112, W:3, W:1, H:3, X:1, Y:11, C:32, F:32, ;71.11557674407959
31;0;MobilNet_01;0.25383560000000005;0.00096667431950993;2;axe_yy1_1,axe_xx1_0;224;axe_yy2_1,axe_xx2_0;224;F:1, Y:4, C:1, Y:2, X:112, W:3, W:1, H:3, X:1, Y:11, C:32, F:32, ;72.28560471534729
31;1;MobilNet_01;0.20845629999999998;0.0003908130115541223;2;axe_out_channels1_0,axe_yy1_0,axe_yy1_1,axe_xx1_0;896;axe_out_channels2_0,axe_yy2_0,axe_yy2_1,axe_xx2_0;224;F:1, Y:4, C:1, Y:2, X:112, W:3, W:1, H:3, X:1, Y:11, C:32, F:32, ;73.44351959228516
32;0;MobilNet_01;0.2509615;0.0009328822272934514;2;axe_yy1_1,axe_xx1_0;336;axe_yy2_1,axe_xx2_0;896;F:1, Y:1, C:1, Y:3, X:112, H:3, W:3, W:1, H:1, X:1, Y:8, C:32, F:32, ;74.54949116706848
32;1;MobilNet_01;0.2140973;0.0007575098745230977;2;axe_out_channels1_0,axe_yy1_0,axe_yy1_1,axe_xx1_0;336;axe_out_channels2_0,axe_yy2_0,axe_yy2_1,axe_xx2_0;896;F:1, Y:1, C:1, Y:3, X:112, H:3, W:3, W:1, H:1, X:1, Y:8, C:32, F:32, ;75.6551365852356
33;0;MobilNet_01;0.3100474000000001;0.0013947501711776137;2;axe_yy1_1,axe_xx1_0;112;axe_yy2_1,axe_xx2_0;112;F:1, Y:3, C:1, Y:1, X:112, H:3, W:3, W:1, H:1, X:1, Y:8, C:32, F:32, ;76.80655694007874
33;1;MobilNet_01;0.21434399999999995;0.000846218175177065;2;axe_out_channels1_0,axe_yy1_0,axe_yy1_1,axe_xx1_0;336;axe_out_channels2_0,axe_yy2_0,axe_yy2_1,axe_xx2_0;896;F:1, Y:3, C:1, Y:1, X:112, H:3, W:3, W:1, H:1, X:1, Y:8, C:32, F:32, ;77.90672969818115
34;0;MobilNet_01;0.24324489999999996;0.0005748892849932023;2;axe_yy1_1,axe_xx1_0;784;axe_yy2_1,axe_xx2_0;448;F:1, Y:1, C:1, Y:7, X:112, H:3, W:3, W:1, H:1, X:1, Y:8, C:32, F:32, ;79.0183310508728
34;1;MobilNet_01;0.2035881;0.0005396651647086425;2;axe_out_channels1_0,axe_yy1_0,axe_yy1_1,axe_xx1_0;784;axe_out_channels2_0,axe_yy2_0,axe_yy2_1,axe_xx2_0;448;F:1, Y:1, C:1, Y:7, X:112, H:3, W:3, W:1, H:1, X:1, Y:8, C:32, F:32, ;80.12471628189087
35;0;MobilNet_01;0.3117539;0.0017699639233611567;2;axe_yy1_1,axe_xx1_0;112;axe_yy2_1,axe_xx2_0;112;F:1, Y:7, C:1, Y:1, X:112, H:3, W:3, W:1, H:1, X:1, Y:8, C:32, F:32, ;81.28143525123596
35;1;MobilNet_01;0.20329629999999996;0.0006837562504284709;2;axe_out_channels1_0,axe_yy1_0,axe_yy1_1,axe_xx1_0;784;axe_out_channels2_0,axe_yy2_0,axe_yy2_1,axe_xx2_0;448;F:1, Y:7, C:1, Y:1, X:112, H:3, W:3, W:1, H:1, X:1, Y:8, C:32, F:32, ;82.38340950012207
36;0;MobilNet_01;0.24417840000000002;0.0003996421399202125;2;axe_yy1_1,axe_xx1_0;1008;axe_yy2_1,axe_xx2_0;224;F:1, Y:1, C:1, Y:9, X:112, H:3, W:3, W:1, H:1, X:1, Y:10, C:32, F:32, ;83.49807620048523
36;1;MobilNet_01;0.20876439999999996;0.0007593148490580154;2;axe_out_channels1_0,axe_yy1_0,axe_yy1_1,axe_xx1_0;1008;axe_out_channels2_0,axe_yy2_0,axe_yy2_1,axe_xx2_0;224;F:1, Y:1, C:1, Y:9, X:112, H:3, W:3, W:1, H:1, X:1, Y:10, C:32, F:32, ;84.61052560806274
37;0;MobilNet_01;0.3080621;0.0015547412935919553;2;axe_yy1_1,axe_xx1_0;112;axe_yy2_1,axe_xx2_0;112;F:1, Y:9, C:1, Y:1, X:112, H:3, W:3, W:1, H:1, X:1, Y:10, C:32, F:32, ;85.76693916320801
37;1;MobilNet_01;0.2083643;0.0010276351541281528;2;axe_out_channels1_0,axe_yy1_0,axe_yy1_1,axe_xx1_0;1008;axe_out_channels2_0,axe_yy2_0,axe_yy2_1,axe_xx2_0;224;F:1, Y:9, C:1, Y:1, X:112, H:3, W:3, W:1, H:1, X:1, Y:10, C:32, F:32, ;86.87556576728821
38;0;MobilNet_01;0.2144717;0.0009347350480216276;2;axe_yy1_1,axe_xx1_0;1008;axe_yy2_1,axe_xx2_0;224;F:1, Y:1, C:1, Y:9, X:112, W:3, W:1, H:3, X:1, Y:10, C:32, F:32, ;88.01698708534241
38;1;MobilNet_01;0.1761439;0.0007268517661806943;2;axe_out_channels1_0,axe_yy1_0,axe_yy1_1,axe_xx1_0;1008;axe_out_channels2_0,axe_yy2_0,axe_yy2_1,axe_xx2_0;224;F:1, Y:1, C:1, Y:9, X:112, W:3, W:1, H:3, X:1, Y:10, C:32, F:32, ;89.14527201652527
39;0;MobilNet_01;0.2757593;0.001067141419868984;2;axe_yy1_1,axe_xx1_0;112;axe_yy2_1,axe_xx2_0;112;F:1, Y:9, C:1, Y:1, X:112, W:3, W:1, H:3, X:1, Y:10, C:32, F:32, ;90.32719349861145
39;1;MobilNet_01;0.17606750000000002;0.0005754110270059105;2;axe_out_channels1_0,axe_yy1_0,axe_yy1_1,axe_xx1_0;1008;axe_out_channels2_0,axe_yy2_0,axe_yy2_1,axe_xx2_0;224;F:1, Y:9, C:1, Y:1, X:112, W:3, W:1, H:3, X:1, Y:10, C:32, F:32, ;91.45869374275208
40;0;MobilNet_01;0.2962333;0.0011313738595177068;2;axe_yy1_1,axe_xx1_0;112;axe_yy2_1,axe_xx2_0;224;F:1, Y:4, C:1, Y:1, X:112, H:3, W:3, W:1, H:1, X:1, Y:8, C:32, F:32, ;92.61296820640564
40;1;MobilNet_01;0.20499779999999998;0.0007880693878079544;2;axe_out_channels1_0,axe_yy1_0,axe_yy1_1,axe_xx1_0;448;axe_out_channels2_0,axe_yy2_0,axe_yy2_1,axe_xx2_0;896;F:1, Y:4, C:1, Y:1, X:112, H:3, W:3, W:1, H:1, X:1, Y:8, C:32, F:32, ;93.72910737991333
41;0;MobilNet_01;0.2519505;0.0012152735700244647;2;axe_yy1_1,axe_xx1_0;448;axe_yy2_1,axe_xx2_0;448;F:1, Y:1, C:1, Y:4, X:112, H:3, W:3, W:1, H:1, X:1, Y:8, C:32, F:32, ;94.8595700263977
41;1;MobilNet_01;0.2049042;0.0008102405568718427;2;axe_out_channels1_0,axe_yy1_0,axe_yy1_1,axe_xx1_0;448;axe_out_channels2_0,axe_yy2_0,axe_yy2_1,axe_xx2_0;896;F:1, Y:1, C:1, Y:4, X:112, H:3, W:3, W:1, H:1, X:1, Y:8, C:32, F:32, ;95.97383165359497
42;0;MobilNet_01;0.291202;0.0012892728182972088;2;axe_yy1_1,axe_xx1_0;224;axe_yy2_1,axe_xx2_0;112;F:1, Y:4, C:1, Y:2, X:112, H:3, W:3, W:1, H:1, X:1, Y:8, C:32, F:32, ;97.11036133766174
42;1;MobilNet_01;0.2070047;0.0007124307755845482;2;axe_out_channels1_0,axe_yy1_0,axe_yy1_1,axe_xx1_0;896;axe_out_channels2_0,axe_yy2_0,axe_yy2_1,axe_xx2_0;448;F:1, Y:4, C:1, Y:2, X:112, H:3, W:3, W:1, H:1, X:1, Y:8, C:32, F:32, ;98.20965695381165
43;0;MobilNet_01;0.2540571;0.0007429595480239901;2;axe_yy1_1,axe_xx1_0;448;axe_yy2_1,axe_xx2_0;448;F:1, Y:2, C:1, Y:4, X:112, H:3, W:3, W:1, H:1, X:1, Y:8, C:32, F:32, ;99.31845211982727
43;1;MobilNet_01;0.2065463;0.000724699116875415;2;axe_out_channels1_0,axe_yy1_0,axe_yy1_1,axe_xx1_0;896;axe_out_channels2_0,axe_yy2_0,axe_yy2_1,axe_xx2_0;448;F:1, Y:2, C:1, Y:4, X:112, H:3, W:3, W:1, H:1, X:1, Y:8, C:32, F:32, ;100.4131031036377
44;0;MobilNet_01;0.2918077;0.0009656228093826184;2;axe_yy1_1,axe_xx1_0;224;axe_yy2_1,axe_xx2_0;112;F:1, Y:4, C:1, Y:2, X:112, H:3, W:3, W:1, H:1, X:1, Y:9, C:32, F:32, ;101.61698746681213
44;1;MobilNet_01;0.20588490000000004;0.0005042986119354233;2;axe_out_channels1_0,axe_yy1_0,axe_yy1_1,axe_xx1_0;896;axe_out_channels2_0,axe_yy2_0,axe_yy2_1,axe_xx2_0;448;F:1, Y:4, C:1, Y:2, X:112, H:3, W:3, W:1, H:1, X:1, Y:9, C:32, F:32, ;102.77036428451538
45;0;MobilNet_01;0.24903029999999998;0.0007299052061740538;2;axe_yy1_1,axe_xx1_0;448;axe_yy2_1,axe_xx2_0;448;F:1, Y:2, C:1, Y:4, X:112, H:3, W:3, W:1, H:1, X:1, Y:9, C:32, F:32, ;103.93014812469482
45;1;MobilNet_01;0.20589439999999998;0.00029077352011488365;2;axe_out_channels1_0,axe_yy1_0,axe_yy1_1,axe_xx1_0;896;axe_out_channels2_0,axe_yy2_0,axe_yy2_1,axe_xx2_0;448;F:1, Y:2, C:1, Y:4, X:112, H:3, W:3, W:1, H:1, X:1, Y:9, C:32, F:32, ;105.07581734657288
46;0;MobilNet_01;0.27476020000000007;0.0011466330537709074;2;axe_yy1_1,axe_xx1_0;560;axe_yy2_1,axe_xx2_0;112;F:1, Y:2, C:1, Y:5, X:112, H:3, W:3, W:1, H:1, X:1, Y:9, C:32, F:32, ;106.20571184158325
46;1;MobilNet_01;0.20888690000000004;0.0005545736109841546;2;axe_out_channels1_0,axe_yy1_0,axe_yy1_1,axe_xx1_0;1120;axe_out_channels2_0,axe_yy2_0,axe_yy2_1,axe_xx2_0;224;F:1, Y:2, C:1, Y:5, X:112, H:3, W:3, W:1, H:1, X:1, Y:9, C:32, F:32, ;107.31209635734558
47;0;MobilNet_01;0.2790262;0.0009565978047225451;2;axe_yy1_1,axe_xx1_0;224;axe_yy2_1,axe_xx2_0;224;F:1, Y:5, C:1, Y:2, X:112, H:3, W:3, W:1, H:1, X:1, Y:9, C:32, F:32, ;108.43083024024963
47;1;MobilNet_01;0.2096535;0.000561101461413171;2;axe_out_channels1_0,axe_yy1_0,axe_yy1_1,axe_xx1_0;1120;axe_out_channels2_0,axe_yy2_0,axe_yy2_1,axe_xx2_0;224;F:1, Y:5, C:1, Y:2, X:112, H:3, W:3, W:1, H:1, X:1, Y:9, C:32, F:32, ;109.5358636379242
48;0;MobilNet_01;0.2606312;0.0010364274021850244;2;axe_yy1_1,axe_xx1_0;1232;axe_yy2_1,axe_xx2_0;112;F:1, Y:1, C:1, Y:11, X:112, H:3, W:3, W:1, H:1, X:1, Y:9, C:32, F:32, ;110.64654493331909
48;1;MobilNet_01;0.2112869;0.0005244439817559174;2;axe_out_channels1_0,axe_yy1_0,axe_yy1_1,axe_xx1_0;1232;axe_out_channels2_0,axe_yy2_0,axe_yy2_1,axe_xx2_0;112;F:1, Y:1, C:1, Y:11, X:112, H:3, W:3, W:1, H:1, X:1, Y:9, C:32, F:32, ;111.75156736373901
49;0;MobilNet_01;0.32449120000000004;0.002094813585978481;2;axe_yy1_1,axe_xx1_0;112;axe_yy2_1,axe_xx2_0;112;F:1, Y:11, C:1, Y:1, X:112, H:3, W:3, W:1, H:1, X:1, Y:9, C:32, F:32, ;112.89299273490906
49;1;MobilNet_01;0.212227;0.0005782082669765275;2;axe_out_channels1_0,axe_yy1_0,axe_yy1_1,axe_xx1_0;1232;axe_out_channels2_0,axe_yy2_0,axe_yy2_1,axe_xx2_0;112;F:1, Y:11, C:1, Y:1, X:112, H:3, W:3, W:1, H:1, X:1, Y:9, C:32, F:32, ;114.00052833557129
50;0;MobilNet_01;0.25922229999999996;0.0012201612229537453;2;axe_yy1_1,axe_xx1_0;224;axe_yy2_1,axe_xx2_0;112;F:1, Y:4, C:1, Y:2, X:112, W:3, W:1, H:3, X:1, Y:9, C:32, F:32, ;115.18062376976013
50;1;MobilNet_01;0.17475400000000002;0.0005901947136327153;2;axe_out_channels1_0,axe_yy1_0,axe_yy1_1,axe_xx1_0;896;axe_out_channels2_0,axe_yy2_0,axe_yy2_1,axe_xx2_0;448;F:1, Y:4, C:1, Y:2, X:112, W:3, W:1, H:3, X:1, Y:9, C:32, F:32, ;116.33144927024841
51;0;MobilNet_01;0.2176057;0.0008197425266508951;2;axe_yy1_1,axe_xx1_0;448;axe_yy2_1,axe_xx2_0;448;F:1, Y:2, C:1, Y:4, X:112, W:3, W:1, H:3, X:1, Y:9, C:32, F:32, ;117.49952960014343
51;1;MobilNet_01;0.1742518;0.0007301861132615483;2;axe_out_channels1_0,axe_yy1_0,axe_yy1_1,axe_xx1_0;896;axe_out_channels2_0,axe_yy2_0,axe_yy2_1,axe_xx2_0;448;F:1, Y:2, C:1, Y:4, X:112, W:3, W:1, H:3, X:1, Y:9, C:32, F:32, ;118.64862012863159
52;0;MobilNet_01;0.24478150000000004;0.0009916434086908433;2;axe_yy1_1,axe_xx1_0;560;axe_yy2_1,axe_xx2_0;112;F:1, Y:2, C:1, Y:5, X:112, W:3, W:1, H:3, X:1, Y:9, C:32, F:32, ;119.80043458938599
52;1;MobilNet_01;0.1816403;0.0006101671983972913;2;axe_out_channels1_0,axe_yy1_0,axe_yy1_1,axe_xx1_0;1120;axe_out_channels2_0,axe_yy2_0,axe_yy2_1,axe_xx2_0;224;F:1, Y:2, C:1, Y:5, X:112, W:3, W:1, H:3, X:1, Y:9, C:32, F:32, ;120.93199443817139
53;0;MobilNet_01;0.24750250000000001;0.0012512781665161427;2;axe_yy1_1,axe_xx1_0;224;axe_yy2_1,axe_xx2_0;224;F:1, Y:5, C:1, Y:2, X:112, W:3, W:1, H:3, X:1, Y:9, C:32, F:32, ;122.07949757575989
53;1;MobilNet_01;0.1811323;0.0007323867898863312;2;axe_out_channels1_0,axe_yy1_0,axe_yy1_1,axe_xx1_0;1120;axe_out_channels2_0,axe_yy2_0,axe_yy2_1,axe_xx2_0;224;F:1, Y:5, C:1, Y:2, X:112, W:3, W:1, H:3, X:1, Y:9, C:32, F:32, ;123.20847630500793
54;0;MobilNet_01;0.2567837;0.0005835380107585116;2;axe_yy1_1,axe_xx1_0;560;axe_yy2_1,axe_xx2_0;896;F:1, Y:1, C:1, Y:5, X:112, H:3, W:3, W:1, H:1, X:1, Y:8, C:32, F:32, ;124.34637308120728
54;1;MobilNet_01;0.20688650000000003;0.0004658526054451162;2;axe_out_channels1_0,axe_yy1_0,axe_yy1_1,axe_xx1_0;560;axe_out_channels2_0,axe_yy2_0,axe_yy2_1,axe_xx2_0;896;F:1, Y:1, C:1, Y:5, X:112, H:3, W:3, W:1, H:1, X:1, Y:8, C:32, F:32, ;125.47781348228455
55;0;MobilNet_01;0.3313327999999999;0.0017531417968892217;2;axe_yy1_1,axe_xx1_0;112;axe_yy2_1,axe_xx2_0;112;F:1, Y:5, C:1, Y:1, X:112, H:3, W:3, W:1, H:1, X:1, Y:8, C:32, F:32, ;126.6677930355072
55;1;MobilNet_01;0.20748950000000002;0.00048552965923823947;2;axe_out_channels1_0,axe_yy1_0,axe_yy1_1,axe_xx1_0;560;axe_out_channels2_0,axe_yy2_0,axe_yy2_1,axe_xx2_0;896;F:1, Y:5, C:1, Y:1, X:112, H:3, W:3, W:1, H:1, X:1, Y:8, C:32, F:32, ;127.79760479927063
56;0;MobilNet_01;0.2448175;0.0015406279401594676;1;axe_yy1_0,axe_out_channels1_0,axe_yy1_1,axe_xx1_0;64;;;Y:1, F:2, Y:8, X:4, W:3, C:1, X:28, W:1, H:3, X:1, Y:14, C:32, F:16, ;128.80873250961304
56;1;MobilNet_01;0.14860270000000003;0.0021806534364726543;1;axe_yy1_0,axe_out_channels1_0,axe_yy1_1,axe_xx1_0,axe_xx1_1;1792;;;Y:1, F:2, Y:8, X:4, W:3, C:1, X:28, W:1, H:3, X:1, Y:14, C:32, F:16, ;129.77227234840393
57;0;MobilNet_01;0.2470845;0.0016014890102651334;1;axe_yy1_0,axe_out_channels1_0,axe_yy1_1,axe_xx1_0;64;;;Y:2, F:2, Y:4, X:4, W:3, C:1, X:28, W:1, H:3, X:1, Y:14, C:32, F:16, ;130.7551863193512
57;1;MobilNet_01;0.1530174;0.002474884571045682;1;axe_yy1_0,axe_out_channels1_0,axe_yy1_1,axe_xx1_0,axe_xx1_1;1792;;;Y:2, F:2, Y:4, X:4, W:3, C:1, X:28, W:1, H:3, X:1, Y:14, C:32, F:16, ;131.72956085205078
58;0;MobilNet_01;0.2484252;0.0018638894173206785;1;axe_yy1_0,axe_out_channels1_0,axe_yy1_1,axe_xx1_0;64;;;Y:4, F:2, Y:2, X:4, W:3, C:1, X:28, W:1, H:3, X:1, Y:14, C:32, F:16, ;132.71196341514587
58;1;MobilNet_01;0.15316860000000002;0.0015903377125629638;1;axe_yy1_0,axe_out_channels1_0,axe_yy1_1,axe_xx1_0,axe_xx1_1;1792;;;Y:4, F:2, Y:2, X:4, W:3, C:1, X:28, W:1, H:3, X:1, Y:14, C:32, F:16, ;133.68248510360718
59;0;MobilNet_01;0.23404799999999998;0.0019816991699044555;1;axe_yy1_0,axe_out_channels1_0,axe_yy1_1,axe_xx1_0;64;;;Y:8, F:2, Y:1, X:4, W:3, C:1, X:28, W:1, H:3, X:1, Y:14, C:32, F:16, ;134.66461277008057
59;1;MobilNet_01;0.16345600000000002;0.002025086022864215;1;axe_yy1_0,axe_out_channels1_0,axe_yy1_1,axe_xx1_0,axe_xx1_1;1792;;;Y:8, F:2, Y:1, X:4, W:3, C:1, X:28, W:1, H:3, X:1, Y:14, C:32, F:16, ;135.62942028045654
60;0;MobilNet_01;0.2351563;0.0016528131806105583;1;axe_yy1_0,axe_out_channels1_0,axe_yy1_1,axe_xx1_0;112;;;Y:1, F:2, Y:8, X:7, W:3, C:1, X:16, W:1, H:3, X:1, Y:14, C:32, F:16, ;136.6237874031067
60;1;MobilNet_01;0.1465126;0.0014146146613123985;1;axe_yy1_0,axe_out_channels1_0,axe_yy1_1,axe_xx1_0,axe_xx1_1;1792;;;Y:1, F:2, Y:8, X:7, W:3, C:1, X:16, W:1, H:3, X:1, Y:14, C:32, F:16, ;137.59172296524048
61;0;MobilNet_01;0.23794089999999998;0.0028522680957441633;1;axe_yy1_0,axe_out_channels1_0,axe_yy1_1,axe_xx1_0;112;;;Y:2, F:2, Y:4, X:7, W:3, C:1, X:16, W:1, H:3, X:1, Y:14, C:32, F:16, ;138.57836437225342
61;1;MobilNet_01;0.15235890000000002;0.001824735731551279;1;axe_yy1_0,axe_out_channels1_0,axe_yy1_1,axe_xx1_0,axe_xx1_1;1792;;;Y:2, F:2, Y:4, X:7, W:3, C:1, X:16, W:1, H:3, X:1, Y:14, C:32, F:16, ;139.54612159729004
62;0;MobilNet_01;0.2410628;0.0024507009935934754;1;axe_yy1_0,axe_out_channels1_0,axe_yy1_1,axe_xx1_0;112;;;Y:4, F:2, Y:2, X:7, W:3, C:1, X:16, W:1, H:3, X:1, Y:14, C:32, F:16, ;140.5325300693512
62;1;MobilNet_01;0.1537038;0.0012936354045866285;1;axe_yy1_0,axe_out_channels1_0,axe_yy1_1,axe_xx1_0,axe_xx1_1;1792;;;Y:4, F:2, Y:2, X:7, W:3, C:1, X:16, W:1, H:3, X:1, Y:14, C:32, F:16, ;141.4979968070984
63;0;MobilNet_01;0.24719480000000002;0.010255057423534985;1;axe_yy1_0,axe_out_channels1_0,axe_yy1_1,axe_xx1_0;112;;;Y:8, F:2, Y:1, X:7, W:3, C:1, X:16, W:1, H:3, X:1, Y:14, C:32, F:16, ;142.4769537448883
63;1;MobilNet_01;0.1656108;0.0018055966216184635;1;axe_yy1_0,axe_out_channels1_0,axe_yy1_1,axe_xx1_0,axe_xx1_1;1792;;;Y:8, F:2, Y:1, X:7, W:3, C:1, X:16, W:1, H:3, X:1, Y:14, C:32, F:16, ;143.44087743759155
64;0;MobilNet_01;0.2298051;0.001761461748094458;1;axe_yy1_0,axe_out_channels1_0,axe_yy1_1,axe_xx1_0;128;;;Y:1, F:2, Y:8, X:8, W:3, C:1, X:14, W:1, H:3, X:1, Y:14, C:32, F:16, ;144.43278670310974
64;1;MobilNet_01;0.1476062;0.001459143365129012;1;axe_yy1_0,axe_out_channels1_0,axe_yy1_1,axe_xx1_0,axe_xx1_1;1792;;;Y:1, F:2, Y:8, X:8, W:3, C:1, X:14, W:1, H:3, X:1, Y:14, C:32, F:16, ;145.40061831474304
65;0;MobilNet_01;0.23685970000000003;0.0016198361676416542;1;axe_yy1_0,axe_out_channels1_0,axe_yy1_1,axe_xx1_0;128;;;Y:2, F:2, Y:4, X:8, W:3, C:1, X:14, W:1, H:3, X:1, Y:14, C:32, F:16, ;146.38725328445435
65;1;MobilNet_01;0.1513602;0.001517855974722239;1;axe_yy1_0,axe_out_channels1_0,axe_yy1_1,axe_xx1_0,axe_xx1_1;1792;;;Y:2, F:2, Y:4, X:8, W:3, C:1, X:14, W:1, H:3, X:1, Y:14, C:32, F:16, ;147.35508060455322
66;0;MobilNet_01;0.23658269999999998;0.0011296067501568906;1;axe_yy1_0,axe_out_channels1_0,axe_yy1_1,axe_xx1_0;128;;;Y:4, F:2, Y:2, X:8, W:3, C:1, X:14, W:1, H:3, X:1, Y:14, C:32, F:16, ;148.34320831298828
66;1;MobilNet_01;0.1527312;0.00204094447744176;1;axe_yy1_0,axe_out_channels1_0,axe_yy1_1,axe_xx1_0,axe_xx1_1;1792;;;Y:4, F:2, Y:2, X:8, W:3, C:1, X:14, W:1, H:3, X:1, Y:14, C:32, F:16, ;149.30699515342712
67;0;MobilNet_01;0.2353771;0.005969834494355766;1;axe_yy1_0,axe_out_channels1_0,axe_yy1_1,axe_xx1_0;128;;;Y:8, F:2, Y:1, X:8, W:3, C:1, X:14, W:1, H:3, X:1, Y:14, C:32, F:16, ;150.288907289505
67;1;MobilNet_01;0.1645569;0.002029537654245424;1;axe_yy1_0,axe_out_channels1_0,axe_yy1_1,axe_xx1_0,axe_xx1_1;1792;;;Y:8, F:2, Y:1, X:8, W:3, C:1, X:14, W:1, H:3, X:1, Y:14, C:32, F:16, ;151.27060914039612
68;0;MobilNet_01;0.22298;0.003310912200587625;1;axe_yy1_0,axe_out_channels1_0,axe_yy1_1,axe_xx1_0;224;;;Y:1, F:2, Y:8, X:14, W:3, C:1, X:8, W:1, H:3, X:1, Y:14, C:32, F:16, ;152.25595688819885
68;1;MobilNet_01;0.1476286;0.001902701984021671;1;axe_yy1_0,axe_out_channels1_0,axe_yy1_1,axe_xx1_0,axe_xx1_1;1792;;;Y:1, F:2, Y:8, X:14, W:3, C:1, X:8, W:1, H:3, X:1, Y:14, C:32, F:16, ;153.21593141555786
69;0;MobilNet_01;0.2258474;0.0036577848815915947;1;axe_yy1_0,axe_out_channels1_0,axe_yy1_1,axe_xx1_0;224;;;Y:2, F:2, Y:4, X:14, W:3, C:1, X:8, W:1, H:3, X:1, Y:14, C:32, F:16, ;154.19097876548767
69;1;MobilNet_01;0.149435;0.0016634636154722509;1;axe_yy1_0,axe_out_channels1_0,axe_yy1_1,axe_xx1_0,axe_xx1_1;1792;;;Y:2, F:2, Y:4, X:14, W:3, C:1, X:8, W:1, H:3, X:1, Y:14, C:32, F:16, ;155.15160822868347
70;0;MobilNet_01;0.2315601;0.001895956827040114;1;axe_yy1_0,axe_out_channels1_0,axe_yy1_1,axe_xx1_0;224;;;Y:4, F:2, Y:2, X:14, W:3, C:1, X:8, W:1, H:3, X:1, Y:14, C:32, F:16, ;156.13371920585632
70;1;MobilNet_01;0.1530426;0.002068015918700812;1;axe_yy1_0,axe_out_channels1_0,axe_yy1_1,axe_xx1_0,axe_xx1_1;1792;;;Y:4, F:2, Y:2, X:14, W:3, C:1, X:8, W:1, H:3, X:1, Y:14, C:32, F:16, ;157.0983407497406
71;0;MobilNet_01;0.22226369999999998;0.00513672711071943;1;axe_yy1_0,axe_out_channels1_0,axe_yy1_1,axe_xx1_0;224;;;Y:8, F:2, Y:1, X:14, W:3, C:1, X:8, W:1, H:3, X:1, Y:14, C:32, F:16, ;158.07180786132812
71;1;MobilNet_01;0.16605899999999998;0.0021683820696546995;1;axe_yy1_0,axe_out_channels1_0,axe_yy1_1,axe_xx1_0,axe_xx1_1;1792;;;Y:8, F:2, Y:1, X:14, W:3, C:1, X:8, W:1, H:3, X:1, Y:14, C:32, F:16, ;159.024893283844
72;0;MobilNet_01;0.22269699999999998;0.001806525504940353;1;axe_yy1_0,axe_out_channels1_0,axe_yy1_1,axe_xx1_0;256;;;Y:1, F:2, Y:8, X:16, W:3, C:1, X:7, W:1, H:3, X:1, Y:14, C:32, F:16, ;160.00104451179504
72;1;MobilNet_01;0.1464978;0.0019286997589049453;1;axe_yy1_0,axe_out_channels1_0,axe_yy1_1,axe_xx1_0,axe_xx1_1;1792;;;Y:1, F:2, Y:8, X:16, W:3, C:1, X:7, W:1, H:3, X:1, Y:14, C:32, F:16, ;160.9556155204773
73;0;MobilNet_01;0.22180819999999998;0.0021318328639928614;1;axe_yy1_0,axe_out_channels1_0,axe_yy1_1,axe_xx1_0;256;;;Y:2, F:2, Y:4, X:16, W:3, C:1, X:7, W:1, H:3, X:1, Y:14, C:32, F:16, ;161.9262993335724
73;1;MobilNet_01;0.1511989;0.0020384271608276778;1;axe_yy1_0,axe_out_channels1_0,axe_yy1_1,axe_xx1_0,axe_xx1_1;1792;;;Y:2, F:2, Y:4, X:16, W:3, C:1, X:7, W:1, H:3, X:1, Y:14, C:32, F:16, ;162.88264989852905
74;0;MobilNet_01;0.22533550000000005;0.0030323989265926064;1;axe_yy1_0,axe_out_channels1_0,axe_yy1_1,axe_xx1_0;256;;;Y:4, F:2, Y:2, X:16, W:3, C:1, X:7, W:1, H:3, X:1, Y:14, C:32, F:16, ;163.85601496696472
74;1;MobilNet_01;0.15259170000000002;0.001994520345847588;1;axe_yy1_0,axe_out_channels1_0,axe_yy1_1,axe_xx1_0,axe_xx1_1;1792;;;Y:4, F:2, Y:2, X:16, W:3, C:1, X:7, W:1, H:3, X:1, Y:14, C:32, F:16, ;164.81473112106323
75;0;MobilNet_01;0.2166434;0.005544815978912198;1;axe_yy1_0,axe_out_channels1_0,axe_yy1_1,axe_xx1_0;256;;;Y:8, F:2, Y:1, X:16, W:3, C:1, X:7, W:1, H:3, X:1, Y:14, C:32, F:16, ;165.7863380908966
75;1;MobilNet_01;0.1638407;0.002017368833406524;1;axe_yy1_0,axe_out_channels1_0,axe_yy1_1,axe_xx1_0,axe_xx1_1;1792;;;Y:8, F:2, Y:1, X:16, W:3, C:1, X:7, W:1, H:3, X:1, Y:14, C:32, F:16, ;166.7462396621704
76;0;MobilNet_01;0.20027460000000002;0.0013599287628401717;1;axe_yy1_0,axe_out_channels1_0,axe_yy1_1,axe_xx1_0;448;;;Y:1, F:2, Y:8, X:28, W:3, C:1, X:4, W:1, H:3, X:1, Y:14, C:32, F:16, ;167.72870326042175
76;1;MobilNet_01;0.1466195;0.001984574425412167;1;axe_yy1_0,axe_out_channels1_0,axe_yy1_1,axe_xx1_0,axe_xx1_1;1792;;;Y:1, F:2, Y:8, X:28, W:3, C:1, X:4, W:1, H:3, X:1, Y:14, C:32, F:16, ;168.6828682422638
77;0;MobilNet_01;0.20169829999999997;0.002915571129298683;1;axe_yy1_0,axe_out_channels1_0,axe_yy1_1,axe_xx1_0;448;;;Y:2, F:2, Y:4, X:28, W:3, C:1, X:4, W:1, H:3, X:1, Y:14, C:32, F:16, ;169.67170524597168
77;1;MobilNet_01;0.15047139999999998;0.0018263104445849355;1;axe_yy1_0,axe_out_channels1_0,axe_yy1_1,axe_xx1_0,axe_xx1_1;1792;;;Y:2, F:2, Y:4, X:28, W:3, C:1, X:4, W:1, H:3, X:1, Y:14, C:32, F:16, ;170.62562656402588
78;0;MobilNet_01;0.20287409999999997;0.002444158973962207;1;axe_yy1_0,axe_out_channels1_0,axe_yy1_1,axe_xx1_0;448;;;Y:4, F:2, Y:2, X:28, W:3, C:1, X:4, W:1, H:3, X:1, Y:14, C:32, F:16, ;171.6084976196289
78;1;MobilNet_01;0.1509271;0.0009376203336105698;1;axe_yy1_0,axe_out_channels1_0,axe_yy1_1,axe_xx1_0,axe_xx1_1;1792;;;Y:4, F:2, Y:2, X:28, W:3, C:1, X:4, W:1, H:3, X:1, Y:14, C:32, F:16, ;172.56501817703247
79;0;MobilNet_01;0.1988248;0.004679062316319368;1;axe_yy1_0,axe_out_channels1_0,axe_yy1_1,axe_xx1_0;448;;;Y:8, F:2, Y:1, X:28, W:3, C:1, X:4, W:1, H:3, X:1, Y:14, C:32, F:16, ;173.54532098770142
79;1;MobilNet_01;0.1633233;0.003111777018039687;1;axe_yy1_0,axe_out_channels1_0,axe_yy1_1,axe_xx1_0,axe_xx1_1;1792;;;Y:8, F:2, Y:1, X:28, W:3, C:1, X:4, W:1, H:3, X:1, Y:14, C:32, F:16, ;174.49984574317932
80;0;MobilNet_01;0.179839;0.0061808580472293585;1;axe_yy1_0,axe_out_channels1_0,axe_yy1_1,axe_xx1_0;896;;;Y:1, F:2, Y:8, X:56, W:3, C:1, X:2, W:1, H:3, X:1, Y:14, C:32, F:16, ;175.466237783432
80;1;MobilNet_01;0.14733190000000002;0.002524937601209184;1;axe_yy1_0,axe_out_channels1_0,axe_yy1_1,axe_xx1_0,axe_xx1_1;1792;;;Y:1, F:2, Y:8, X:56, W:3, C:1, X:2, W:1, H:3, X:1, Y:14, C:32, F:16, ;176.42590975761414
81;0;MobilNet_01;0.18166670000000001;0.004567960859070494;1;axe_yy1_0,axe_out_channels1_0,axe_yy1_1,axe_xx1_0;896;;;Y:2, F:2, Y:4, X:56, W:3, C:1, X:2, W:1, H:3, X:1, Y:14, C:32, F:16, ;177.3914816379547
81;1;MobilNet_01;0.15144249999999998;0.0009930222807168064;1;axe_yy1_0,axe_out_channels1_0,axe_yy1_1,axe_xx1_0,axe_xx1_1;1792;;;Y:2, F:2, Y:4, X:56, W:3, C:1, X:2, W:1, H:3, X:1, Y:14, C:32, F:16, ;178.35043454170227
82;0;MobilNet_01;0.18387030000000001;0.0033653576347841526;1;axe_yy1_0,axe_out_channels1_0,axe_yy1_1,axe_xx1_0;896;;;Y:4, F:2, Y:2, X:56, W:3, C:1, X:2, W:1, H:3, X:1, Y:14, C:32, F:16, ;179.32139325141907
82;1;MobilNet_01;0.1494945;0.0010551156571674974;1;axe_yy1_0,axe_out_channels1_0,axe_yy1_1,axe_xx1_0,axe_xx1_1;1792;;;Y:4, F:2, Y:2, X:56, W:3, C:1, X:2, W:1, H:3, X:1, Y:14, C:32, F:16, ;180.27561688423157
83;0;MobilNet_01;0.1866382;0.0056845241982069195;1;axe_yy1_0,axe_out_channels1_0,axe_yy1_1,axe_xx1_0;896;;;Y:8, F:2, Y:1, X:56, W:3, C:1, X:2, W:1, H:3, X:1, Y:14, C:32, F:16, ;181.2438099384308
83;1;MobilNet_01;0.1619503;0.002724851740920957;1;axe_yy1_0,axe_out_channels1_0,axe_yy1_1,axe_xx1_0,axe_xx1_1;1792;;;Y:8, F:2, Y:1, X:56, W:3, C:1, X:2, W:1, H:3, X:1, Y:14, C:32, F:16, ;182.20121693611145
84;0;MobilNet_01;0.14740289999999998;0.0027399637753079886;1;axe_yy1_0,axe_out_channels1_0,axe_yy1_1,axe_xx1_0;1792;;;Y:1, F:2, Y:8, X:112, W:3, C:1, X:1, W:1, H:3, X:1, Y:14, C:32, F:16, ;183.1531150341034
84;1;MobilNet_01;0.14781720000000004;0.0024291314003157547;1;axe_yy1_0,axe_out_channels1_0,axe_yy1_1,axe_xx1_0,axe_xx1_1;1792;;;Y:1, F:2, Y:8, X:112, W:3, C:1, X:1, W:1, H:3, X:1, Y:14, C:32, F:16, ;184.10595655441284
85;0;MobilNet_01;0.15161240000000004;0.002178902668776193;1;axe_yy1_0,axe_out_channels1_0,axe_yy1_1,axe_xx1_0;1792;;;Y:2, F:2, Y:4, X:112, W:3, C:1, X:1, W:1, H:3, X:1, Y:14, C:32, F:16, ;185.05779647827148
85;1;MobilNet_01;0.1505004;0.001823595141471919;1;axe_yy1_0,axe_out_channels1_0,axe_yy1_1,axe_xx1_0,axe_xx1_1;1792;;;Y:2, F:2, Y:4, X:112, W:3, C:1, X:1, W:1, H:3, X:1, Y:14, C:32, F:16, ;186.01143503189087
86;0;MobilNet_01;0.15205280000000002;0.0015515667436497885;1;axe_yy1_0,axe_out_channels1_0,axe_yy1_1,axe_xx1_0;1792;;;Y:4, F:2, Y:2, X:112, W:3, C:1, X:1, W:1, H:3, X:1, Y:14, C:32, F:16, ;186.96369576454163
86;1;MobilNet_01;0.15024869999999996;0.001906206287367661;1;axe_yy1_0,axe_out_channels1_0,axe_yy1_1,axe_xx1_0,axe_xx1_1;1792;;;Y:4, F:2, Y:2, X:112, W:3, C:1, X:1, W:1, H:3, X:1, Y:14, C:32, F:16, ;187.9184455871582
87;0;MobilNet_01;0.1633141;0.0009389057939963924;1;axe_yy1_0,axe_out_channels1_0,axe_yy1_1,axe_xx1_0;1792;;;Y:8, F:2, Y:1, X:112, W:3, C:1, X:1, W:1, H:3, X:1, Y:14, C:32, F:16, ;188.8703169822693
87;1;MobilNet_01;0.163241;0.002232532328993247;1;axe_yy1_0,axe_out_channels1_0,axe_yy1_1,axe_xx1_0,axe_xx1_1;1792;;;Y:8, F:2, Y:1, X:112, W:3, C:1, X:1, W:1, H:3, X:1, Y:14, C:32, F:16, ;189.82083106040955
88;0;MobilNet_01;0.3342683;0.002209239102043952;1;axe_yy1_0,axe_out_channels1_0,axe_yy1_1,axe_xx1_0;64;;;Y:1, F:2, Y:8, X:4, W:3, C:2, X:28, W:1, H:3, X:1, Y:14, C:16, F:16, ;190.8023760318756
88;1;MobilNet_01;0.15326220000000002;0.0017832062023220951;1;axe_yy1_0,axe_out_channels1_0,axe_yy1_1,axe_xx1_0,axe_xx1_1;1792;;;Y:1, F:2, Y:8, X:4, W:3, C:2, X:28, W:1, H:3, X:1, Y:14, C:16, F:16, ;191.7660310268402
89;0;MobilNet_01;0.3423309;0.002636274092350796;1;axe_yy1_0,axe_out_channels1_0,axe_yy1_1,axe_xx1_0;64;;;Y:2, F:2, Y:4, X:4, W:3, C:2, X:28, W:1, H:3, X:1, Y:14, C:16, F:16, ;192.7395737171173
89;1;MobilNet_01;0.15756030000000001;0.0028297419334631924;1;axe_yy1_0,axe_out_channels1_0,axe_yy1_1,axe_xx1_0,axe_xx1_1;1792;;;Y:2, F:2, Y:4, X:4, W:3, C:2, X:28, W:1, H:3, X:1, Y:14, C:16, F:16, ;193.70473647117615
90;0;MobilNet_01;0.3441179;0.0016973611548518623;1;axe_yy1_0,axe_out_channels1_0,axe_yy1_1,axe_xx1_0;64;;;Y:4, F:2, Y:2, X:4, W:3, C:2, X:28, W:1, H:3, X:1, Y:14, C:16, F:16, ;194.68358063697815
90;1;MobilNet_01;0.15771430000000003;0.00176812143530924;1;axe_yy1_0,axe_out_channels1_0,axe_yy1_1,axe_xx1_0,axe_xx1_1;1792;;;Y:4, F:2, Y:2, X:4, W:3, C:2, X:28, W:1, H:3, X:1, Y:14, C:16, F:16, ;195.65112113952637
91;0;MobilNet_01;0.33536630000000006;0.010257399495486161;1;axe_yy1_0,axe_out_channels1_0,axe_yy1_1,axe_xx1_0;64;;;Y:8, F:2, Y:1, X:4, W:3, C:2, X:28, W:1, H:3, X:1, Y:14, C:16, F:16, ;196.62723350524902
91;1;MobilNet_01;0.17173560000000002;0.002552516217382374;1;axe_yy1_0,axe_out_channels1_0,axe_yy1_1,axe_xx1_0,axe_xx1_1;1792;;;Y:8, F:2, Y:1, X:4, W:3, C:2, X:28, W:1, H:3, X:1, Y:14, C:16, F:16, ;197.59431099891663
92;0;MobilNet_01;0.3392182;0.0058002692489228565;1;axe_yy1_0,axe_out_channels1_0,axe_yy1_1,axe_xx1_0;112;;;Y:1, F:2, Y:8, X:7, W:3, C:2, X:16, W:1, H:3, X:1, Y:14, C:16, F:16, ;198.58092665672302
92;1;MobilNet_01;0.1521726;0.0011568933572287424;1;axe_yy1_0,axe_out_channels1_0,axe_yy1_1,axe_xx1_0,axe_xx1_1;1792;;;Y:1, F:2, Y:8, X:7, W:3, C:2, X:16, W:1, H:3, X:1, Y:14, C:16, F:16, ;199.54482889175415
93;0;MobilNet_01;0.3386573;0.004184045507639698;1;axe_yy1_0,axe_out_channels1_0,axe_yy1_1,axe_xx1_0;112;;;Y:2, F:2, Y:4, X:7, W:3, C:2, X:16, W:1, H:3, X:1, Y:14, C:16, F:16, ;200.52994322776794
93;1;MobilNet_01;0.1582207;0.0015951055795777281;1;axe_yy1_0,axe_out_channels1_0,axe_yy1_1,axe_xx1_0,axe_xx1_1;1792;;;Y:2, F:2, Y:4, X:7, W:3, C:2, X:16, W:1, H:3, X:1, Y:14, C:16, F:16, ;201.49204182624817
94;0;MobilNet_01;0.34221549999999995;0.006052586393435458;1;axe_yy1_0,axe_out_channels1_0,axe_yy1_1,axe_xx1_0;112;;;Y:4, F:2, Y:2, X:7, W:3, C:2, X:16, W:1, H:3, X:1, Y:14, C:16, F:16, ;202.47852635383606
94;1;MobilNet_01;0.1574022;0.00046686524822479354;1;axe_yy1_0,axe_out_channels1_0,axe_yy1_1,axe_xx1_0,axe_xx1_1;1792;;;Y:4, F:2, Y:2, X:7, W:3, C:2, X:16, W:1, H:3, X:1, Y:14, C:16, F:16, ;203.44095611572266
95;0;MobilNet_01;0.36222829999999995;0.013647355568387587;1;axe_yy1_0,axe_out_channels1_0,axe_yy1_1,axe_xx1_0;112;;;Y:8, F:2, Y:1, X:7, W:3, C:2, X:16, W:1, H:3, X:1, Y:14, C:16, F:16, ;204.42209839820862
95;1;MobilNet_01;0.1746098;0.0029627880383179665;1;axe_yy1_0,axe_out_channels1_0,axe_yy1_1,axe_xx1_0,axe_xx1_1;1792;;;Y:8, F:2, Y:1, X:7, W:3, C:2, X:16, W:1, H:3, X:1, Y:14, C:16, F:16, ;205.38654923439026
96;0;MobilNet_01;0.3299801;0.006241265760244473;1;axe_yy1_0,axe_out_channels1_0,axe_yy1_1,axe_xx1_0;128;;;Y:1, F:2, Y:8, X:8, W:3, C:2, X:14, W:1, H:3, X:1, Y:14, C:16, F:16, ;206.37441658973694
96;1;MobilNet_01;0.153594;0.0016040218826437413;1;axe_yy1_0,axe_out_channels1_0,axe_yy1_1,axe_xx1_0,axe_xx1_1;1792;;;Y:1, F:2, Y:8, X:8, W:3, C:2, X:14, W:1, H:3, X:1, Y:14, C:16, F:16, ;207.3414556980133
97;0;MobilNet_01;0.33559669999999997;0.004484736671199315;1;axe_yy1_0,axe_out_channels1_0,axe_yy1_1,axe_xx1_0;128;;;Y:2, F:2, Y:4, X:8, W:3, C:2, X:14, W:1, H:3, X:1, Y:14, C:16, F:16, ;208.3267867565155
97;1;MobilNet_01;0.15761050000000001;0.001844191977533787;1;axe_yy1_0,axe_out_channels1_0,axe_yy1_1,axe_xx1_0,axe_xx1_1;1792;;;Y:2, F:2, Y:4, X:8, W:3, C:2, X:14, W:1, H:3, X:1, Y:14, C:16, F:16, ;209.29294061660767
98;0;MobilNet_01;0.33976910000000005;0.003960951159759481;1;axe_yy1_0,axe_out_channels1_0,axe_yy1_1,axe_xx1_0;128;;;Y:4, F:2, Y:2, X:8, W:3, C:2, X:14, W:1, H:3, X:1, Y:14, C:16, F:16, ;210.27968001365662
98;1;MobilNet_01;0.1590509;0.002296186423180838;1;axe_yy1_0,axe_out_channels1_0,axe_yy1_1,axe_xx1_0,axe_xx1_1;1792;;;Y:4, F:2, Y:2, X:8, W:3, C:2, X:14, W:1, H:3, X:1, Y:14, C:16, F:16, ;211.24725770950317
99;0;MobilNet_01;0.33745169999999997;0.008861544042095602;1;axe_yy1_0,axe_out_channels1_0,axe_yy1_1,axe_xx1_0;128;;;Y:8, F:2, Y:1, X:8, W:3, C:2, X:14, W:1, H:3, X:1, Y:14, C:16, F:16, ;212.24626231193542
99;1;MobilNet_01;0.17222120000000002;0.0015245143357804176;1;axe_yy1_0,axe_out_channels1_0,axe_yy1_1,axe_xx1_0,axe_xx1_1;1792;;;Y:8, F:2, Y:1, X:8, W:3, C:2, X:14, W:1, H:3, X:1, Y:14, C:16, F:16, ;213.2163050174713
100;0;MobilNet_01;0.30653410000000003;0.00441464484301964;1;axe_yy1_0,axe_out_channels1_0,axe_yy1_1,axe_xx1_0;224;;;Y:1, F:2, Y:8, X:14, W:3, C:2, X:8, W:1, H:3, X:1, Y:14, C:16, F:16, ;214.1911962032318
100;1;MobilNet_01;0.1534317;0.0018799628214408956;1;axe_yy1_0,axe_out_channels1_0,axe_yy1_1,axe_xx1_0,axe_xx1_1;1792;;;Y:1, F:2, Y:8, X:14, W:3, C:2, X:8, W:1, H:3, X:1, Y:14, C:16, F:16, ;215.15842366218567
101;0;MobilNet_01;0.3064929;0.003177646533206618;1;axe_yy1_0,axe_out_channels1_0,axe_yy1_1,axe_xx1_0;224;;;Y:2, F:2, Y:4, X:14, W:3, C:2, X:8, W:1, H:3, X:1, Y:14, C:16, F:16, ;216.1395616531372
101;1;MobilNet_01;0.1569654;0.0028983697555694946;1;axe_yy1_0,axe_out_channels1_0,axe_yy1_1,axe_xx1_0,axe_xx1_1;1792;;;Y:2, F:2, Y:4, X:14, W:3, C:2, X:8, W:1, H:3, X:1, Y:14, C:16, F:16, ;217.10395050048828
102;0;MobilNet_01;0.30128809999999995;0.004285285811938328;1;axe_yy1_0,axe_out_channels1_0,axe_yy1_1,axe_xx1_0;224;;;Y:4, F:2, Y:2, X:14, W:3, C:2, X:8, W:1, H:3, X:1, Y:14, C:16, F:16, ;218.0883719921112
102;1;MobilNet_01;0.1583118;0.0009981245212898;1;axe_yy1_0,axe_out_channels1_0,axe_yy1_1,axe_xx1_0,axe_xx1_1;1792;;;Y:4, F:2, Y:2, X:14, W:3, C:2, X:8, W:1, H:3, X:1, Y:14, C:16, F:16, ;219.05557370185852
103;0;MobilNet_01;0.2893264;0.008916075203810256;1;axe_yy1_0,axe_out_channels1_0,axe_yy1_1,axe_xx1_0;224;;;Y:8, F:2, Y:1, X:14, W:3, C:2, X:8, W:1, H:3, X:1, Y:14, C:16, F:16, ;220.03213667869568
103;1;MobilNet_01;0.17212699999999997;0.0022474674191186833;1;axe_yy1_0,axe_out_channels1_0,axe_yy1_1,axe_xx1_0,axe_xx1_1;1792;;;Y:8, F:2, Y:1, X:14, W:3, C:2, X:8, W:1, H:3, X:1, Y:14, C:16, F:16, ;220.99795508384705
104;0;MobilNet_01;0.2952058;0.004109253236294877;1;axe_yy1_0,axe_out_channels1_0,axe_yy1_1,axe_xx1_0;256;;;Y:1, F:2, Y:8, X:16, W:3, C:2, X:7, W:1, H:3, X:1, Y:14, C:16, F:16, ;221.97496032714844
104;1;MobilNet_01;0.15273209999999998;0.0011671062033936786;1;axe_yy1_0,axe_out_channels1_0,axe_yy1_1,axe_xx1_0,axe_xx1_1;1792;;;Y:1, F:2, Y:8, X:16, W:3, C:2, X:7, W:1, H:3, X:1, Y:14, C:16, F:16, ;222.9644193649292
105;0;MobilNet_01;0.29748300000000005;0.00563852423955062;1;axe_yy1_0,axe_out_channels1_0,axe_yy1_1,axe_xx1_0;256;;;Y:2, F:2, Y:4, X:16, W:3, C:2, X:7, W:1, H:3, X:1, Y:14, C:16, F:16, ;223.94065833091736
105;1;MobilNet_01;0.15731389999999998;0.001099983949882903;1;axe_yy1_0,axe_out_channels1_0,axe_yy1_1,axe_xx1_0,axe_xx1_1;1792;;;Y:2, F:2, Y:4, X:16, W:3, C:2, X:7, W:1, H:3, X:1, Y:14, C:16, F:16, ;224.9056520462036
106;0;MobilNet_01;0.2990228;0.00351835182436321;1;axe_yy1_0,axe_out_channels1_0,axe_yy1_1,axe_xx1_0;256;;;Y:4, F:2, Y:2, X:16, W:3, C:2, X:7, W:1, H:3, X:1, Y:14, C:16, F:16, ;225.88091683387756
106;1;MobilNet_01;0.1571969;0.0013363099528178293;1;axe_yy1_0,axe_out_channels1_0,axe_yy1_1,axe_xx1_0,axe_xx1_1;1792;;;Y:4, F:2, Y:2, X:16, W:3, C:2, X:7, W:1, H:3, X:1, Y:14, C:16, F:16, ;226.84573125839233
107;0;MobilNet_01;0.27204569999999995;0.008139573773238982;1;axe_yy1_0,axe_out_channels1_0,axe_yy1_1,axe_xx1_0;256;;;Y:8, F:2, Y:1, X:16, W:3, C:2, X:7, W:1, H:3, X:1, Y:14, C:16, F:16, ;227.81828546524048
107;1;MobilNet_01;0.1721321;0.0017973067323080938;1;axe_yy1_0,axe_out_channels1_0,axe_yy1_1,axe_xx1_0,axe_xx1_1;1792;;;Y:8, F:2, Y:1, X:16, W:3, C:2, X:7, W:1, H:3, X:1, Y:14, C:16, F:16, ;228.7847135066986
108;0;MobilNet_01;0.23798690000000003;0.004607283460999554;1;axe_yy1_0,axe_out_channels1_0,axe_yy1_1,axe_xx1_0;448;;;Y:1, F:2, Y:8, X:28, W:3, C:2, X:4, W:1, H:3, X:1, Y:14, C:16, F:16, ;229.76834106445312
108;1;MobilNet_01;0.15377020000000002;0.0007657594661510861;1;axe_yy1_0,axe_out_channels1_0,axe_yy1_1,axe_xx1_0,axe_xx1_1;1792;;;Y:1, F:2, Y:8, X:28, W:3, C:2, X:4, W:1, H:3, X:1, Y:14, C:16, F:16, ;230.73250579833984
109;0;MobilNet_01;0.23093329999999995;0.003537943528379158;1;axe_yy1_0,axe_out_channels1_0,axe_yy1_1,axe_xx1_0;448;;;Y:2, F:2, Y:4, X:28, W:3, C:2, X:4, W:1, H:3, X:1, Y:14, C:16, F:16, ;231.72205781936646
109;1;MobilNet_01;0.1563214;0.00120317348707491;1;axe_yy1_0,axe_out_channels1_0,axe_yy1_1,axe_xx1_0,axe_xx1_1;1792;;;Y:2, F:2, Y:4, X:28, W:3, C:2, X:4, W:1, H:3, X:1, Y:14, C:16, F:16, ;232.6869819164276
110;0;MobilNet_01;0.23480380000000003;0.004971720362208637;1;axe_yy1_0,axe_out_channels1_0,axe_yy1_1,axe_xx1_0;448;;;Y:4, F:2, Y:2, X:28, W:3, C:2, X:4, W:1, H:3, X:1, Y:14, C:16, F:16, ;233.6802041530609
110;1;MobilNet_01;0.15940769999999999;0.0016040819835656812;1;axe_yy1_0,axe_out_channels1_0,axe_yy1_1,axe_xx1_0,axe_xx1_1;1792;;;Y:4, F:2, Y:2, X:28, W:3, C:2, X:4, W:1, H:3, X:1, Y:14, C:16, F:16, ;234.64401078224182
111;0;MobilNet_01;0.22621760000000002;0.004817834932830308;1;axe_yy1_0,axe_out_channels1_0,axe_yy1_1,axe_xx1_0;448;;;Y:8, F:2, Y:1, X:28, W:3, C:2, X:4, W:1, H:3, X:1, Y:14, C:16, F:16, ;235.63032031059265
111;1;MobilNet_01;0.1709676;0.0012630076959385481;1;axe_yy1_0,axe_out_channels1_0,axe_yy1_1,axe_xx1_0,axe_xx1_1;1792;;;Y:8, F:2, Y:1, X:28, W:3, C:2, X:4, W:1, H:3, X:1, Y:14, C:16, F:16, ;236.59687495231628
112;0;MobilNet_01;0.1843851;0.003646010544417;1;axe_yy1_0,axe_out_channels1_0,axe_yy1_1,axe_xx1_0;896;;;Y:1, F:2, Y:8, X:56, W:3, C:2, X:2, W:1, H:3, X:1, Y:14, C:16, F:16, ;237.56475591659546
112;1;MobilNet_01;0.1525904;0.0012085067811146055;1;axe_yy1_0,axe_out_channels1_0,axe_yy1_1,axe_xx1_0,axe_xx1_1;1792;;;Y:1, F:2, Y:8, X:56, W:3, C:2, X:2, W:1, H:3, X:1, Y:14, C:16, F:16, ;238.5305962562561
113;0;MobilNet_01;0.18741359999999999;0.005005042661156843;1;axe_yy1_0,axe_out_channels1_0,axe_yy1_1,axe_xx1_0;896;;;Y:2, F:2, Y:4, X:56, W:3, C:2, X:2, W:1, H:3, X:1, Y:14, C:16, F:16, ;239.50619435310364
113;1;MobilNet_01;0.1587346;0.0016775020238437909;1;axe_yy1_0,axe_out_channels1_0,axe_yy1_1,axe_xx1_0,axe_xx1_1;1792;;;Y:2, F:2, Y:4, X:56, W:3, C:2, X:2, W:1, H:3, X:1, Y:14, C:16, F:16, ;240.46927094459534
114;0;MobilNet_01;0.1907947;0.00542745421076954;1;axe_yy1_0,axe_out_channels1_0,axe_yy1_1,axe_xx1_0;896;;;Y:4, F:2, Y:2, X:56, W:3, C:2, X:2, W:1, H:3, X:1, Y:14, C:16, F:16, ;241.4440836906433
114;1;MobilNet_01;0.15843590000000002;0.0027070119486252756;1;axe_yy1_0,axe_out_channels1_0,axe_yy1_1,axe_xx1_0,axe_xx1_1;1792;;;Y:4, F:2, Y:2, X:56, W:3, C:2, X:2, W:1, H:3, X:1, Y:14, C:16, F:16, ;242.41208386421204
115;0;MobilNet_01;0.1996245;0.004856849251315094;1;axe_yy1_0,axe_out_channels1_0,axe_yy1_1,axe_xx1_0;896;;;Y:8, F:2, Y:1, X:56, W:3, C:2, X:2, W:1, H:3, X:1, Y:14, C:16, F:16, ;243.3840160369873
115;1;MobilNet_01;0.1723884;0.002166723111059649;1;axe_yy1_0,axe_out_channels1_0,axe_yy1_1,axe_xx1_0,axe_xx1_1;1792;;;Y:8, F:2, Y:1, X:56, W:3, C:2, X:2, W:1, H:3, X:1, Y:14, C:16, F:16, ;244.35105419158936
116;0;MobilNet_01;0.15331900000000004;0.0009855449254092864;1;axe_yy1_0,axe_out_channels1_0,axe_yy1_1,axe_xx1_0;1792;;;Y:1, F:2, Y:8, X:112, W:3, C:2, X:1, W:1, H:3, X:1, Y:14, C:16, F:16, ;245.31754207611084
116;1;MobilNet_01;0.1527209;0.0014089589383654867;1;axe_yy1_0,axe_out_channels1_0,axe_yy1_1,axe_xx1_0,axe_xx1_1;1792;;;Y:1, F:2, Y:8, X:112, W:3, C:2, X:1, W:1, H:3, X:1, Y:14, C:16, F:16, ;246.28174376487732
117;0;MobilNet_01;0.1564683;0.001876102718403231;1;axe_yy1_0,axe_out_channels1_0,axe_yy1_1,axe_xx1_0;1792;;;Y:2, F:2, Y:4, X:112, W:3, C:2, X:1, W:1, H:3, X:1, Y:14, C:16, F:16, ;247.24443244934082
117;1;MobilNet_01;0.1563659;0.0014366693043285908;1;axe_yy1_0,axe_out_channels1_0,axe_yy1_1,axe_xx1_0,axe_xx1_1;1792;;;Y:2, F:2, Y:4, X:112, W:3, C:2, X:1, W:1, H:3, X:1, Y:14, C:16, F:16, ;248.20977449417114
118;0;MobilNet_01;0.1589684;0.0025662708430717147;1;axe_yy1_0,axe_out_channels1_0,axe_yy1_1,axe_xx1_0;1792;;;Y:4, F:2, Y:2, X:112, W:3, C:2, X:1, W:1, H:3, X:1, Y:14, C:16, F:16, ;249.17258262634277
118;1;MobilNet_01;0.15816590000000003;0.001479903135343663;1;axe_yy1_0,axe_out_channels1_0,axe_yy1_1,axe_xx1_0,axe_xx1_1;1792;;;Y:4, F:2, Y:2, X:112, W:3, C:2, X:1, W:1, H:3, X:1, Y:14, C:16, F:16, ;250.13515782356262
119;0;MobilNet_01;0.1732042;0.0015838751718490888;1;axe_yy1_0,axe_out_channels1_0,axe_yy1_1,axe_xx1_0;1792;;;Y:8, F:2, Y:1, X:112, W:3, C:2, X:1, W:1, H:3, X:1, Y:14, C:16, F:16, ;251.101416349411
119;1;MobilNet_01;0.169869;0.0014893208519321795;1;axe_yy1_0,axe_out_channels1_0,axe_yy1_1,axe_xx1_0,axe_xx1_1;1792;;;Y:8, F:2, Y:1, X:112, W:3, C:2, X:1, W:1, H:3, X:1, Y:14, C:16, F:16, ;252.06628799438477
120;0;MobilNet_01;0.5476882000000001;0.008180050241899488;1;axe_yy1_0,axe_out_channels1_0,axe_yy1_1,axe_xx1_0;64;;;Y:1, F:2, Y:8, X:4, W:3, C:4, X:28, W:1, H:3, X:1, Y:14, C:8, F:16, ;253.05955815315247
120;1;MobilNet_01;0.16476300000000005;0.002267614341108289;1;axe_yy1_0,axe_out_channels1_0,axe_yy1_1,axe_xx1_0,axe_xx1_1;1792;;;Y:1, F:2, Y:8, X:4, W:3, C:4, X:28, W:1, H:3, X:1, Y:14, C:8, F:16, ;254.02570056915283
121;0;MobilNet_01;0.5528735;0.006608583649315482;1;axe_yy1_0,axe_out_channels1_0,axe_yy1_1,axe_xx1_0;64;;;Y:2, F:2, Y:4, X:4, W:3, C:4, X:28, W:1, H:3, X:1, Y:14, C:8, F:16, ;255.01730179786682
121;1;MobilNet_01;0.171425;0.001408911991573638;1;axe_yy1_0,axe_out_channels1_0,axe_yy1_1,axe_xx1_0,axe_xx1_1;1792;;;Y:2, F:2, Y:4, X:4, W:3, C:4, X:28, W:1, H:3, X:1, Y:14, C:8, F:16, ;255.98156118392944
122;0;MobilNet_01;0.5604743;0.011857385100012543;1;axe_yy1_0,axe_out_channels1_0,axe_yy1_1,axe_xx1_0;64;;;Y:4, F:2, Y:2, X:4, W:3, C:4, X:28, W:1, H:3, X:1, Y:14, C:8, F:16, ;256.97312664985657
122;1;MobilNet_01;0.17246620000000001;0.0024419700571464797;1;axe_yy1_0,axe_out_channels1_0,axe_yy1_1,axe_xx1_0,axe_xx1_1;1792;;;Y:4, F:2, Y:2, X:4, W:3, C:4, X:28, W:1, H:3, X:1, Y:14, C:8, F:16, ;257.9370148181915
123;0;MobilNet_01;0.5772132999999999;0.010513759156933382;1;axe_yy1_0,axe_out_channels1_0,axe_yy1_1,axe_xx1_0;64;;;Y:8, F:2, Y:1, X:4, W:3, C:4, X:28, W:1, H:3, X:1, Y:14, C:8, F:16, ;258.9299964904785
123;1;MobilNet_01;0.1837474;0.002612746914647494;1;axe_yy1_0,axe_out_channels1_0,axe_yy1_1,axe_xx1_0,axe_xx1_1;1792;;;Y:8, F:2, Y:1, X:4, W:3, C:4, X:28, W:1, H:3, X:1, Y:14, C:8, F:16, ;259.8931694030762
124;0;MobilNet_01;0.5432889000000001;0.010348211328050872;1;axe_yy1_0,axe_out_channels1_0,axe_yy1_1,axe_xx1_0;112;;;Y:1, F:2, Y:8, X:7, W:3, C:4, X:16, W:1, H:3, X:1, Y:14, C:8, F:16, ;260.89102149009705
124;1;MobilNet_01;0.16607870000000002;0.0017317372231375032;1;axe_yy1_0,axe_out_channels1_0,axe_yy1_1,axe_xx1_0,axe_xx1_1;1792;;;Y:1, F:2, Y:8, X:7, W:3, C:4, X:16, W:1, H:3, X:1, Y:14, C:8, F:16, ;261.85799407958984
125;0;MobilNet_01;0.5345038;0.010618307782316339;1;axe_yy1_0,axe_out_channels1_0,axe_yy1_1,axe_xx1_0;112;;;Y:2, F:2, Y:4, X:7, W:3, C:4, X:16, W:1, H:3, X:1, Y:14, C:8, F:16, ;262.85733675956726
125;1;MobilNet_01;0.17264770000000002;0.001006657742234174;1;axe_yy1_0,axe_out_channels1_0,axe_yy1_1,axe_xx1_0,axe_xx1_1;1792;;;Y:2, F:2, Y:4, X:7, W:3, C:4, X:16, W:1, H:3, X:1, Y:14, C:8, F:16, ;263.8224904537201
126;0;MobilNet_01;0.5370698;0.009712588736274175;1;axe_yy1_0,axe_out_channels1_0,axe_yy1_1,axe_xx1_0;112;;;Y:4, F:2, Y:2, X:7, W:3, C:4, X:16, W:1, H:3, X:1, Y:14, C:8, F:16, ;264.82671213150024
126;1;MobilNet_01;0.1770532;0.0022308148197463613;1;axe_yy1_0,axe_out_channels1_0,axe_yy1_1,axe_xx1_0,axe_xx1_1;1792;;;Y:4, F:2, Y:2, X:7, W:3, C:4, X:16, W:1, H:3, X:1, Y:14, C:8, F:16, ;265.79427766799927
127;0;MobilNet_01;0.6337663000000001;0.009306712255678676;1;axe_yy1_0,axe_out_channels1_0,axe_yy1_1,axe_xx1_0;112;;;Y:8, F:2, Y:1, X:7, W:3, C:4, X:16, W:1, H:3, X:1, Y:14, C:8, F:16, ;266.7896420955658
127;1;MobilNet_01;0.1858309;0.0024014859337501845;1;axe_yy1_0,axe_out_channels1_0,axe_yy1_1,axe_xx1_0,axe_xx1_1;1792;;;Y:8, F:2, Y:1, X:7, W:3, C:4, X:16, W:1, H:3, X:1, Y:14, C:8, F:16, ;267.75145959854126
128;0;MobilNet_01;0.5206289000000001;0.012364447577227227;1;axe_yy1_0,axe_out_channels1_0,axe_yy1_1,axe_xx1_0;128;;;Y:1, F:2, Y:8, X:8, W:3, C:4, X:14, W:1, H:3, X:1, Y:14, C:8, F:16, ;268.75236654281616
128;1;MobilNet_01;0.1649348;0.0017449538561234215;1;axe_yy1_0,axe_out_channels1_0,axe_yy1_1,axe_xx1_0,axe_xx1_1;1792;;;Y:1, F:2, Y:8, X:8, W:3, C:4, X:14, W:1, H:3, X:1, Y:14, C:8, F:16, ;269.71493792533875
129;0;MobilNet_01;0.5204723;0.00793321080080441;1;axe_yy1_0,axe_out_channels1_0,axe_yy1_1,axe_xx1_0;128;;;Y:2, F:2, Y:4, X:8, W:3, C:4, X:14, W:1, H:3, X:1, Y:14, C:8, F:16, ;270.7185435295105
129;1;MobilNet_01;0.1717184;0.001151696331504098;1;axe_yy1_0,axe_out_channels1_0,axe_yy1_1,axe_xx1_0,axe_xx1_1;1792;;;Y:2, F:2, Y:4, X:8, W:3, C:4, X:14, W:1, H:3, X:1, Y:14, C:8, F:16, ;271.68729186058044
130;0;MobilNet_01;0.5254054;0.007762934898606311;1;axe_yy1_0,axe_out_channels1_0,axe_yy1_1,axe_xx1_0;128;;;Y:4, F:2, Y:2, X:8, W:3, C:4, X:14, W:1, H:3, X:1, Y:14, C:8, F:16, ;272.6847016811371
130;1;MobilNet_01;0.1750924;0.0022168708216763625;1;axe_yy1_0,axe_out_channels1_0,axe_yy1_1,axe_xx1_0,axe_xx1_1;1792;;;Y:4, F:2, Y:2, X:8, W:3, C:4, X:14, W:1, H:3, X:1, Y:14, C:8, F:16, ;273.65038108825684
131;0;MobilNet_01;0.5810235;0.012535139019971038;1;axe_yy1_0,axe_out_channels1_0,axe_yy1_1,axe_xx1_0;128;;;Y:8, F:2, Y:1, X:8, W:3, C:4, X:14, W:1, H:3, X:1, Y:14, C:8, F:16, ;274.65145206451416
131;1;MobilNet_01;0.18396310000000002;0.0023992160573820796;1;axe_yy1_0,axe_out_channels1_0,axe_yy1_1,axe_xx1_0,axe_xx1_1;1792;;;Y:8, F:2, Y:1, X:8, W:3, C:4, X:14, W:1, H:3, X:1, Y:14, C:8, F:16, ;275.612300157547
132;0;MobilNet_01;0.4515431;0.007095297843642646;1;axe_yy1_0,axe_out_channels1_0,axe_yy1_1,axe_xx1_0;224;;;Y:1, F:2, Y:8, X:14, W:3, C:4, X:8, W:1, H:3, X:1, Y:14, C:8, F:16, ;276.5966536998749
132;1;MobilNet_01;0.1633934;0.0010867545445039548;1;axe_yy1_0,axe_out_channels1_0,axe_yy1_1,axe_xx1_0,axe_xx1_1;1792;;;Y:1, F:2, Y:8, X:14, W:3, C:4, X:8, W:1, H:3, X:1, Y:14, C:8, F:16, ;277.57450556755066
133;0;MobilNet_01;0.4424426;0.006257644751821565;1;axe_yy1_0,axe_out_channels1_0,axe_yy1_1,axe_xx1_0;224;;;Y:2, F:2, Y:4, X:14, W:3, C:4, X:8, W:1, H:3, X:1, Y:14, C:8, F:16, ;278.57297444343567
133;1;MobilNet_01;0.17229440000000001;0.0029244760624768263;1;axe_yy1_0,axe_out_channels1_0,axe_yy1_1,axe_xx1_0,axe_xx1_1;1792;;;Y:2, F:2, Y:4, X:14, W:3, C:4, X:8, W:1, H:3, X:1, Y:14, C:8, F:16, ;279.53728199005127
134;0;MobilNet_01;0.43916510000000003;0.008889912456824316;1;axe_yy1_0,axe_out_channels1_0,axe_yy1_1,axe_xx1_0;224;;;Y:4, F:2, Y:2, X:14, W:3, C:4, X:8, W:1, H:3, X:1, Y:14, C:8, F:16, ;280.5287141799927
134;1;MobilNet_01;0.1717988;0.0019403980931757348;1;axe_yy1_0,axe_out_channels1_0,axe_yy1_1,axe_xx1_0,axe_xx1_1;1792;;;Y:4, F:2, Y:2, X:14, W:3, C:4, X:8, W:1, H:3, X:1, Y:14, C:8, F:16, ;281.4947826862335
135;0;MobilNet_01;0.46781619999999996;0.02628889450243201;1;axe_yy1_0,axe_out_channels1_0,axe_yy1_1,axe_xx1_0;224;;;Y:8, F:2, Y:1, X:14, W:3, C:4, X:8, W:1, H:3, X:1, Y:14, C:8, F:16, ;282.4895513057709
135;1;MobilNet_01;0.183563;0.0013916929977548875;1;axe_yy1_0,axe_out_channels1_0,axe_yy1_1,axe_xx1_0,axe_xx1_1;1792;;;Y:8, F:2, Y:1, X:14, W:3, C:4, X:8, W:1, H:3, X:1, Y:14, C:8, F:16, ;283.4516398906708
136;0;MobilNet_01;0.42591409999999996;0.007810424398840301;1;axe_yy1_0,axe_out_channels1_0,axe_yy1_1,axe_xx1_0;256;;;Y:1, F:2, Y:8, X:16, W:3, C:4, X:7, W:1, H:3, X:1, Y:14, C:8, F:16, ;284.4459629058838
136;1;MobilNet_01;0.16416609999999998;0.001545116464865993;1;axe_yy1_0,axe_out_channels1_0,axe_yy1_1,axe_xx1_0,axe_xx1_1;1792;;;Y:1, F:2, Y:8, X:16, W:3, C:4, X:7, W:1, H:3, X:1, Y:14, C:8, F:16, ;285.4099578857422
137;0;MobilNet_01;0.4314470999999999;0.008458689596503706;1;axe_yy1_0,axe_out_channels1_0,axe_yy1_1,axe_xx1_0;256;;;Y:2, F:2, Y:4, X:16, W:3, C:4, X:7, W:1, H:3, X:1, Y:14, C:8, F:16, ;286.3941352367401
137;1;MobilNet_01;0.1721066;0.0024130792030101268;1;axe_yy1_0,axe_out_channels1_0,axe_yy1_1,axe_xx1_0,axe_xx1_1;1792;;;Y:2, F:2, Y:4, X:16, W:3, C:4, X:7, W:1, H:3, X:1, Y:14, C:8, F:16, ;287.35650634765625
138;0;MobilNet_01;0.428711;0.004145758362471208;1;axe_yy1_0,axe_out_channels1_0,axe_yy1_1,axe_xx1_0;256;;;Y:4, F:2, Y:2, X:16, W:3, C:4, X:7, W:1, H:3, X:1, Y:14, C:8, F:16, ;288.3436236381531
138;1;MobilNet_01;0.1758695;0.0031767547040966212;1;axe_yy1_0,axe_out_channels1_0,axe_yy1_1,axe_xx1_0,axe_xx1_1;1792;;;Y:4, F:2, Y:2, X:16, W:3, C:4, X:7, W:1, H:3, X:1, Y:14, C:8, F:16, ;289.31101059913635
139;0;MobilNet_01;0.4325461;0.009933204381769254;1;axe_yy1_0,axe_out_channels1_0,axe_yy1_1,axe_xx1_0;256;;;Y:8, F:2, Y:1, X:16, W:3, C:4, X:7, W:1, H:3, X:1, Y:14, C:8, F:16, ;290.3001959323883
139;1;MobilNet_01;0.1826469;0.0016681172890417458;1;axe_yy1_0,axe_out_channels1_0,axe_yy1_1,axe_xx1_0,axe_xx1_1;1792;;;Y:8, F:2, Y:1, X:16, W:3, C:4, X:7, W:1, H:3, X:1, Y:14, C:8, F:16, ;291.2645945549011
140;0;MobilNet_01;0.3222672999999999;0.0071300816131373915;1;axe_yy1_0,axe_out_channels1_0,axe_yy1_1,axe_xx1_0;448;;;Y:1, F:2, Y:8, X:28, W:3, C:4, X:4, W:1, H:3, X:1, Y:14, C:8, F:16, ;292.2557866573334
140;1;MobilNet_01;0.16612239999999998;0.002284999264770129;1;axe_yy1_0,axe_out_channels1_0,axe_yy1_1,axe_xx1_0,axe_xx1_1;1792;;;Y:1, F:2, Y:8, X:28, W:3, C:4, X:4, W:1, H:3, X:1, Y:14, C:8, F:16, ;293.2201473712921
141;0;MobilNet_01;0.3124061000000001;0.00844781708431238;1;axe_yy1_0,axe_out_channels1_0,axe_yy1_1,axe_xx1_0;448;;;Y:2, F:2, Y:4, X:28, W:3, C:4, X:4, W:1, H:3, X:1, Y:14, C:8, F:16, ;294.2215197086334
141;1;MobilNet_01;0.1716426;0.0027630346070941646;1;axe_yy1_0,axe_out_channels1_0,axe_yy1_1,axe_xx1_0,axe_xx1_1;1792;;;Y:2, F:2, Y:4, X:28, W:3, C:4, X:4, W:1, H:3, X:1, Y:14, C:8, F:16, ;295.18778109550476
142;0;MobilNet_01;0.3079866;0.007130287276120091;1;axe_yy1_0,axe_out_channels1_0,axe_yy1_1,axe_xx1_0;448;;;Y:4, F:2, Y:2, X:28, W:3, C:4, X:4, W:1, H:3, X:1, Y:14, C:8, F:16, ;296.18930888175964
142;1;MobilNet_01;0.1732799;0.0021055054713773583;1;axe_yy1_0,axe_out_channels1_0,axe_yy1_1,axe_xx1_0,axe_xx1_1;1792;;;Y:4, F:2, Y:2, X:28, W:3, C:4, X:4, W:1, H:3, X:1, Y:14, C:8, F:16, ;297.1546194553375
143;0;MobilNet_01;0.3214591;0.015900164429652912;1;axe_yy1_0,axe_out_channels1_0,axe_yy1_1,axe_xx1_0;448;;;Y:8, F:2, Y:1, X:28, W:3, C:4, X:4, W:1, H:3, X:1, Y:14, C:8, F:16, ;298.1541829109192
143;1;MobilNet_01;0.18294950000000001;0.0013199914583056967;1;axe_yy1_0,axe_out_channels1_0,axe_yy1_1,axe_xx1_0,axe_xx1_1;1792;;;Y:8, F:2, Y:1, X:28, W:3, C:4, X:4, W:1, H:3, X:1, Y:14, C:8, F:16, ;299.11480474472046
144;0;MobilNet_01;0.2081375;0.005120351692022727;1;axe_yy1_0,axe_out_channels1_0,axe_yy1_1,axe_xx1_0;896;;;Y:1, F:2, Y:8, X:56, W:3, C:4, X:2, W:1, H:3, X:1, Y:14, C:8, F:16, ;300.0952594280243
144;1;MobilNet_01;0.1674393;0.0016160903471031586;1;axe_yy1_0,axe_out_channels1_0,axe_yy1_1,axe_xx1_0,axe_xx1_1;1792;;;Y:1, F:2, Y:8, X:56, W:3, C:4, X:2, W:1, H:3, X:1, Y:14, C:8, F:16, ;301.05791306495667
145;0;MobilNet_01;0.21534069999999997;0.0040430956469022635;1;axe_yy1_0,axe_out_channels1_0,axe_yy1_1,axe_xx1_0;896;;;Y:2, F:2, Y:4, X:56, W:3, C:4, X:2, W:1, H:3, X:1, Y:14, C:8, F:16, ;302.0382912158966
145;1;MobilNet_01;0.17313119999999999;0.0019523478071286392;1;axe_yy1_0,axe_out_channels1_0,axe_yy1_1,axe_xx1_0,axe_xx1_1;1792;;;Y:2, F:2, Y:4, X:56, W:3, C:4, X:2, W:1, H:3, X:1, Y:14, C:8, F:16, ;303.0063614845276
146;0;MobilNet_01;0.222103;0.0042301314636781625;1;axe_yy1_0,axe_out_channels1_0,axe_yy1_1,axe_xx1_0;896;;;Y:4, F:2, Y:2, X:56, W:3, C:4, X:2, W:1, H:3, X:1, Y:14, C:8, F:16, ;303.985737323761
146;1;MobilNet_01;0.1735941;0.0019700886502896286;1;axe_yy1_0,axe_out_channels1_0,axe_yy1_1,axe_xx1_0,axe_xx1_1;1792;;;Y:4, F:2, Y:2, X:56, W:3, C:4, X:2, W:1, H:3, X:1, Y:14, C:8, F:16, ;304.95483469963074
147;0;MobilNet_01;0.22684449999999998;0.010982919550374571;1;axe_yy1_0,axe_out_channels1_0,axe_yy1_1,axe_xx1_0;896;;;Y:8, F:2, Y:1, X:56, W:3, C:4, X:2, W:1, H:3, X:1, Y:14, C:8, F:16, ;305.9357199668884
147;1;MobilNet_01;0.1866368;0.0031633712333521673;1;axe_yy1_0,axe_out_channels1_0,axe_yy1_1,axe_xx1_0,axe_xx1_1;1792;;;Y:8, F:2, Y:1, X:56, W:3, C:4, X:2, W:1, H:3, X:1, Y:14, C:8, F:16, ;306.8984444141388
148;0;MobilNet_01;0.1662662;0.0016143003933592978;1;axe_yy1_0,axe_out_channels1_0,axe_yy1_1,axe_xx1_0;1792;;;Y:1, F:2, Y:8, X:112, W:3, C:4, X:1, W:1, H:3, X:1, Y:14, C:8, F:16, ;307.8632667064667
148;1;MobilNet_01;0.16603120000000002;0.003288247095338185;1;axe_yy1_0,axe_out_channels1_0,axe_yy1_1,axe_xx1_0,axe_xx1_1;1792;;;Y:1, F:2, Y:8, X:112, W:3, C:4, X:1, W:1, H:3, X:1, Y:14, C:8, F:16, ;308.8286190032959
149;0;MobilNet_01;0.17390840000000002;0.002583510836052367;1;axe_yy1_0,axe_out_channels1_0,axe_yy1_1,axe_xx1_0;1792;;;Y:2, F:2, Y:4, X:112, W:3, C:4, X:1, W:1, H:3, X:1, Y:14, C:8, F:16, ;309.7938828468323
149;1;MobilNet_01;0.17097079999999998;0.0032031939935008662;1;axe_yy1_0,axe_out_channels1_0,axe_yy1_1,axe_xx1_0,axe_xx1_1;1792;;;Y:2, F:2, Y:4, X:112, W:3, C:4, X:1, W:1, H:3, X:1, Y:14, C:8, F:16, ;310.75962114334106
150;0;MobilNet_01;0.17512319999999998;0.0015964862542471234;1;axe_yy1_0,axe_out_channels1_0,axe_yy1_1,axe_xx1_0;1792;;;Y:4, F:2, Y:2, X:112, W:3, C:4, X:1, W:1, H:3, X:1, Y:14, C:8, F:16, ;311.72021102905273
150;1;MobilNet_01;0.1744483;0.0018657075896291997;1;axe_yy1_0,axe_out_channels1_0,axe_yy1_1,axe_xx1_0,axe_xx1_1;1792;;;Y:4, F:2, Y:2, X:112, W:3, C:4, X:1, W:1, H:3, X:1, Y:14, C:8, F:16, ;312.68392157554626
151;0;MobilNet_01;0.18290040000000002;0.0008109753633742468;1;axe_yy1_0,axe_out_channels1_0,axe_yy1_1,axe_xx1_0;1792;;;Y:8, F:2, Y:1, X:112, W:3, C:4, X:1, W:1, H:3, X:1, Y:14, C:8, F:16, ;313.64270424842834
151;1;MobilNet_01;0.1852067;0.002380268894473908;1;axe_yy1_0,axe_out_channels1_0,axe_yy1_1,axe_xx1_0,axe_xx1_1;1792;;;Y:8, F:2, Y:1, X:112, W:3, C:4, X:1, W:1, H:3, X:1, Y:14, C:8, F:16, ;314.606317281723
152;0;MobilNet_01;0.2628031;0.0011573013825274664;2;axe_yy1_0,axe_out_channels1_0,axe_yy1_1,axe_xx1_0;40;axe_yy2_0,axe_out_channels2_0,axe_yy2_1,axe_xx2_0;32;Y:1, F:2, Y:5, X:4, W:3, C:1, X:28, W:1, H:3, X:1, Y:12, C:32, F:16, ;315.7097821235657
152;1;MobilNet_01;0.1842784;0.0007816177070665629;2;axe_yy1_0,axe_out_channels1_0,axe_yy1_1,axe_xx1_0,axe_xx1_1;1120;axe_yy2_0,axe_out_channels2_0,axe_yy2_1,axe_xx2_0,axe_xx2_1;896;Y:1, F:2, Y:5, X:4, W:3, C:1, X:28, W:1, H:3, X:1, Y:12, C:32, F:16, ;316.8031942844391
153;0;MobilNet_01;0.25875879999999996;0.0012782748374273781;2;axe_yy1_0,axe_out_channels1_0,axe_yy1_1,axe_xx1_0;40;axe_yy2_0,axe_out_channels2_0,axe_yy2_1,axe_xx2_0;32;Y:5, F:2, Y:1, X:4, W:3, C:1, X:28, W:1, H:3, X:1, Y:12, C:32, F:16, ;317.91358160972595
153;1;MobilNet_01;0.1924714;0.0011246219097990249;2;axe_yy1_0,axe_out_channels1_0,axe_yy1_1,axe_xx1_0,axe_xx1_1;1120;axe_yy2_0,axe_out_channels2_0,axe_yy2_1,axe_xx2_0,axe_xx2_1;896;Y:5, F:2, Y:1, X:4, W:3, C:1, X:28, W:1, H:3, X:1, Y:12, C:32, F:16, ;319.006308555603
154;0;MobilNet_01;0.3461031;0.002628281508895116;2;axe_yy1_0,axe_out_channels1_0,axe_yy1_1,axe_xx1_0;70;axe_yy2_0,axe_out_channels2_0,axe_yy2_1,axe_xx2_0;56;Y:1, F:2, Y:5, X:7, W:3, C:1, X:16, W:1, H:3, X:1, Y:12, C:32, F:16, ;320.1680212020874
154;1;MobilNet_01;0.18408490000000002;0.0007491403673544778;2;axe_yy1_0,axe_out_channels1_0,axe_yy1_1,axe_xx1_0,axe_xx1_1;1120;axe_yy2_0,axe_out_channels2_0,axe_yy2_1,axe_xx2_0,axe_xx2_1;896;Y:1, F:2, Y:5, X:7, W:3, C:1, X:16, W:1, H:3, X:1, Y:12, C:32, F:16, ;321.2565562725067
155;0;MobilNet_01;0.23460940000000002;0.0017445720506760404;2;axe_yy1_0,axe_out_channels1_0,axe_yy1_1,axe_xx1_0;70;axe_yy2_0,axe_out_channels2_0,axe_yy2_1,axe_xx2_0;56;Y:5, F:2, Y:1, X:7, W:3, C:1, X:16, W:1, H:3, X:1, Y:12, C:32, F:16, ;322.3920772075653
155;1;MobilNet_01;0.1908456;0.00047478673106985135;2;axe_yy1_0,axe_out_channels1_0,axe_yy1_1,axe_xx1_0,axe_xx1_1;1120;axe_yy2_0,axe_out_channels2_0,axe_yy2_1,axe_xx2_0,axe_xx2_1;896;Y:5, F:2, Y:1, X:7, W:3, C:1, X:16, W:1, H:3, X:1, Y:12, C:32, F:16, ;323.4815638065338
156;0;MobilNet_01;0.25611209999999995;0.0006850934899705247;2;axe_yy1_0,axe_out_channels1_0,axe_yy1_1,axe_xx1_0;80;axe_yy2_0,axe_out_channels2_0,axe_yy2_1,axe_xx2_0;64;Y:1, F:2, Y:5, X:8, W:3, C:1, X:14, W:1, H:3, X:1, Y:12, C:32, F:16, ;324.62163162231445
156;1;MobilNet_01;0.1845705;0.0006604100620069371;2;axe_yy1_0,axe_out_channels1_0,axe_yy1_1,axe_xx1_0,axe_xx1_1;1120;axe_yy2_0,axe_out_channels2_0,axe_yy2_1,axe_xx2_0,axe_xx2_1;896;Y:1, F:2, Y:5, X:8, W:3, C:1, X:14, W:1, H:3, X:1, Y:12, C:32, F:16, ;325.7309522628784
157;0;MobilNet_01;0.23804759999999997;0.0010393674230030545;2;axe_yy1_0,axe_out_channels1_0,axe_yy1_1,axe_xx1_0;80;axe_yy2_0,axe_out_channels2_0,axe_yy2_1,axe_xx2_0;64;Y:5, F:2, Y:1, X:8, W:3, C:1, X:14, W:1, H:3, X:1, Y:12, C:32, F:16, ;326.8649711608887
157;1;MobilNet_01;0.19156040000000002;0.0004986233448205133;2;axe_yy1_0,axe_out_channels1_0,axe_yy1_1,axe_xx1_0,axe_xx1_1;1120;axe_yy2_0,axe_out_channels2_0,axe_yy2_1,axe_xx2_0,axe_xx2_1;896;Y:5, F:2, Y:1, X:8, W:3, C:1, X:14, W:1, H:3, X:1, Y:12, C:32, F:16, ;327.95746541023254
158;0;MobilNet_01;0.2282115;0.0007015819624249193;2;axe_yy1_0,axe_out_channels1_0,axe_yy1_1,axe_xx1_0;140;axe_yy2_0,axe_out_channels2_0,axe_yy2_1,axe_xx2_0;112;Y:1, F:2, Y:5, X:14, W:3, C:1, X:8, W:1, H:3, X:1, Y:12, C:32, F:16, ;329.09584641456604
158;1;MobilNet_01;0.1839535;0.00087477737167807;2;axe_yy1_0,axe_out_channels1_0,axe_yy1_1,axe_xx1_0,axe_xx1_1;1120;axe_yy2_0,axe_out_channels2_0,axe_yy2_1,axe_xx2_0,axe_xx2_1;896;Y:1, F:2, Y:5, X:14, W:3, C:1, X:8, W:1, H:3, X:1, Y:12, C:32, F:16, ;330.1844279766083
159;0;MobilNet_01;0.23210260000000002;0.0012290743020663948;2;axe_yy1_0,axe_out_channels1_0,axe_yy1_1,axe_xx1_0;140;axe_yy2_0,axe_out_channels2_0,axe_yy2_1,axe_xx2_0;112;Y:5, F:2, Y:1, X:14, W:3, C:1, X:8, W:1, H:3, X:1, Y:12, C:32, F:16, ;331.298907995224
159;1;MobilNet_01;0.19164750000000003;0.0009209220651064905;2;axe_yy1_0,axe_out_channels1_0,axe_yy1_1,axe_xx1_0,axe_xx1_1;1120;axe_yy2_0,axe_out_channels2_0,axe_yy2_1,axe_xx2_0,axe_xx2_1;896;Y:5, F:2, Y:1, X:14, W:3, C:1, X:8, W:1, H:3, X:1, Y:12, C:32, F:16, ;332.3918704986572
160;0;MobilNet_01;0.24938089999999996;0.0010935397980869198;2;axe_yy1_0,axe_out_channels1_0,axe_yy1_1,axe_xx1_0;160;axe_yy2_0,axe_out_channels2_0,axe_yy2_1,axe_xx2_0;128;Y:1, F:2, Y:5, X:16, W:3, C:1, X:7, W:1, H:3, X:1, Y:12, C:32, F:16, ;333.5124909877777
160;1;MobilNet_01;0.1854047;0.0008807782978706943;2;axe_yy1_0,axe_out_channels1_0,axe_yy1_1,axe_xx1_0,axe_xx1_1;1120;axe_yy2_0,axe_out_channels2_0,axe_yy2_1,axe_xx2_0,axe_xx2_1;896;Y:1, F:2, Y:5, X:16, W:3, C:1, X:7, W:1, H:3, X:1, Y:12, C:32, F:16, ;334.60058784484863
161;0;MobilNet_01;0.2280064;0.001310622310202292;2;axe_yy1_0,axe_out_channels1_0,axe_yy1_1,axe_xx1_0;160;axe_yy2_0,axe_out_channels2_0,axe_yy2_1,axe_xx2_0;128;Y:5, F:2, Y:1, X:16, W:3, C:1, X:7, W:1, H:3, X:1, Y:12, C:32, F:16, ;335.7113175392151
161;1;MobilNet_01;0.1916934;0.0011412063091308226;2;axe_yy1_0,axe_out_channels1_0,axe_yy1_1,axe_xx1_0,axe_xx1_1;1120;axe_yy2_0,axe_out_channels2_0,axe_yy2_1,axe_xx2_0,axe_xx2_1;896;Y:5, F:2, Y:1, X:16, W:3, C:1, X:7, W:1, H:3, X:1, Y:12, C:32, F:16, ;336.8045346736908
162;0;MobilNet_01;0.2206117;0.0006666342400447213;2;axe_yy1_0,axe_out_channels1_0,axe_yy1_1,axe_xx1_0;280;axe_yy2_0,axe_out_channels2_0,axe_yy2_1,axe_xx2_0;224;Y:1, F:2, Y:5, X:28, W:3, C:1, X:4, W:1, H:3, X:1, Y:12, C:32, F:16, ;337.944705247879
162;1;MobilNet_01;0.1844121;0.001119777696688049;2;axe_yy1_0,axe_out_channels1_0,axe_yy1_1,axe_xx1_0,axe_xx1_1;1120;axe_yy2_0,axe_out_channels2_0,axe_yy2_1,axe_xx2_0,axe_xx2_1;896;Y:1, F:2, Y:5, X:28, W:3, C:1, X:4, W:1, H:3, X:1, Y:12, C:32, F:16, ;339.0420548915863
163;0;MobilNet_01;0.22691369999999997;0.0008236178786306185;2;axe_yy1_0,axe_out_channels1_0,axe_yy1_1,axe_xx1_0;280;axe_yy2_0,axe_out_channels2_0,axe_yy2_1,axe_xx2_0;224;Y:5, F:2, Y:1, X:28, W:3, C:1, X:4, W:1, H:3, X:1, Y:12, C:32, F:16, ;340.1971971988678
163;1;MobilNet_01;0.192147;0.0006052782831062063;2;axe_yy1_0,axe_out_channels1_0,axe_yy1_1,axe_xx1_0,axe_xx1_1;1120;axe_yy2_0,axe_out_channels2_0,axe_yy2_1,axe_xx2_0,axe_xx2_1;896;Y:5, F:2, Y:1, X:28, W:3, C:1, X:4, W:1, H:3, X:1, Y:12, C:32, F:16, ;341.2938902378082
164;0;MobilNet_01;0.23166490000000003;0.0013455683148766533;2;axe_yy1_0,axe_out_channels1_0,axe_yy1_1,axe_xx1_0;560;axe_yy2_0,axe_out_channels2_0,axe_yy2_1,axe_xx2_0;448;Y:1, F:2, Y:5, X:56, W:3, C:1, X:2, W:1, H:3, X:1, Y:12, C:32, F:16, ;342.4339883327484
164;1;MobilNet_01;0.1849507;0.0008662021761690567;2;axe_yy1_0,axe_out_channels1_0,axe_yy1_1,axe_xx1_0,axe_xx1_1;1120;axe_yy2_0,axe_out_channels2_0,axe_yy2_1,axe_xx2_0,axe_xx2_1;896;Y:1, F:2, Y:5, X:56, W:3, C:1, X:2, W:1, H:3, X:1, Y:12, C:32, F:16, ;343.5290312767029
165;0;MobilNet_01;0.2297578;0.0011633719783457036;2;axe_yy1_0,axe_out_channels1_0,axe_yy1_1,axe_xx1_0;560;axe_yy2_0,axe_out_channels2_0,axe_yy2_1,axe_xx2_0;448;Y:5, F:2, Y:1, X:56, W:3, C:1, X:2, W:1, H:3, X:1, Y:12, C:32, F:16, ;344.6662061214447
165;1;MobilNet_01;0.19165099999999996;0.0007243905024225506;2;axe_yy1_0,axe_out_channels1_0,axe_yy1_1,axe_xx1_0,axe_xx1_1;1120;axe_yy2_0,axe_out_channels2_0,axe_yy2_1,axe_xx2_0,axe_xx2_1;896;Y:5, F:2, Y:1, X:56, W:3, C:1, X:2, W:1, H:3, X:1, Y:12, C:32, F:16, ;345.75742959976196
166;0;MobilNet_01;0.18202110000000002;0.0008497535466239657;2;axe_yy1_0,axe_out_channels1_0,axe_yy1_1,axe_xx1_0;1120;axe_yy2_0,axe_out_channels2_0,axe_yy2_1,axe_xx2_0;896;Y:1, F:2, Y:5, X:112, W:3, C:1, X:1, W:1, H:3, X:1, Y:12, C:32, F:16, ;346.8644828796387
166;1;MobilNet_01;0.18178129999999998;0.0005817178095949946;2;axe_yy1_0,axe_out_channels1_0,axe_yy1_1,axe_xx1_0,axe_xx1_1;1120;axe_yy2_0,axe_out_channels2_0,axe_yy2_1,axe_xx2_0,axe_xx2_1;896;Y:1, F:2, Y:5, X:112, W:3, C:1, X:1, W:1, H:3, X:1, Y:12, C:32, F:16, ;347.960462808609
167;0;MobilNet_01;0.1893941;0.0006846700592256071;2;axe_yy1_0,axe_out_channels1_0,axe_yy1_1,axe_xx1_0;1120;axe_yy2_0,axe_out_channels2_0,axe_yy2_1,axe_xx2_0;896;Y:5, F:2, Y:1, X:112, W:3, C:1, X:1, W:1, H:3, X:1, Y:12, C:32, F:16, ;349.0478866100311
167;1;MobilNet_01;0.1884786;0.0008784411420237521;2;axe_yy1_0,axe_out_channels1_0,axe_yy1_1,axe_xx1_0,axe_xx1_1;1120;axe_yy2_0,axe_out_channels2_0,axe_yy2_1,axe_xx2_0,axe_xx2_1;896;Y:5, F:2, Y:1, X:112, W:3, C:1, X:1, W:1, H:3, X:1, Y:12, C:32, F:16, ;350.1362373828888
168;0;MobilNet_01;0.7359712;0.003512918126002932;2;axe_yy1_0,axe_out_channels1_0,axe_yy1_1,axe_xx1_0;56;axe_xx2_1;28;Y:1, F:2, Y:7, X:4, W:3, C:1, X:28, W:1, H:3, X:1, Y:12, C:32, F:16, ;351.3274784088135
168;1;MobilNet_01;0.18366000000000002;0.00031881467971222157;2;axe_yy1_0,axe_out_channels1_0,axe_yy1_1,axe_xx1_0,axe_xx1_1;1568;axe_yy2_0,axe_out_channels2_0,axe_yy2_1,axe_xx2_0,axe_xx2_1;448;Y:1, F:2, Y:7, X:4, W:3, C:1, X:28, W:1, H:3, X:1, Y:12, C:32, F:16, ;352.4462535381317
169;0;MobilNet_01;0.746705;0.003112022718426066;2;axe_yy1_0,axe_out_channels1_0,axe_yy1_1,axe_xx1_0;56;axe_xx2_1;28;Y:7, F:2, Y:1, X:4, W:3, C:1, X:28, W:1, H:3, X:1, Y:12, C:32, F:16, ;353.6356191635132
169;1;MobilNet_01;0.1987988;0.00098991613786219;2;axe_yy1_0,axe_out_channels1_0,axe_yy1_1,axe_xx1_0,axe_xx1_1;1568;axe_yy2_0,axe_out_channels2_0,axe_yy2_1,axe_xx2_0,axe_xx2_1;448;Y:7, F:2, Y:1, X:4, W:3, C:1, X:28, W:1, H:3, X:1, Y:12, C:32, F:16, ;354.753479719162
170;0;MobilNet_01;0.36494440000000006;0.0013971655735810187;2;axe_yy1_0,axe_out_channels1_0,axe_yy1_1,axe_xx1_0;98;axe_yy2_0,axe_out_channels2_0,axe_yy2_1,axe_xx2_0;28;Y:1, F:2, Y:7, X:7, W:3, C:1, X:16, W:1, H:3, X:1, Y:12, C:32, F:16, ;355.91421604156494
170;1;MobilNet_01;0.1837186;0.0006194914365832673;2;axe_yy1_0,axe_out_channels1_0,axe_yy1_1,axe_xx1_0,axe_xx1_1;1568;axe_yy2_0,axe_out_channels2_0,axe_yy2_1,axe_xx2_0,axe_xx2_1;448;Y:1, F:2, Y:7, X:7, W:3, C:1, X:16, W:1, H:3, X:1, Y:12, C:32, F:16, ;357.035560131073
171;0;MobilNet_01;0.34601240000000005;0.004299250985927671;2;axe_yy1_0,axe_out_channels1_0,axe_yy1_1,axe_xx1_0;98;axe_yy2_0,axe_out_channels2_0,axe_yy2_1,axe_xx2_0;28;Y:7, F:2, Y:1, X:7, W:3, C:1, X:16, W:1, H:3, X:1, Y:12, C:32, F:16, ;358.18773436546326
171;1;MobilNet_01;0.1951929;0.0006448419108587762;2;axe_yy1_0,axe_out_channels1_0,axe_yy1_1,axe_xx1_0,axe_xx1_1;1568;axe_yy2_0,axe_out_channels2_0,axe_yy2_1,axe_xx2_0,axe_xx2_1;448;Y:7, F:2, Y:1, X:7, W:3, C:1, X:16, W:1, H:3, X:1, Y:12, C:32, F:16, ;359.30025243759155
172;0;MobilNet_01;0.2522876;0.00047609036957282967;2;axe_yy1_0,axe_out_channels1_0,axe_yy1_1,axe_xx1_0;112;axe_yy2_0,axe_out_channels2_0,axe_yy2_1,axe_xx2_0;32;Y:1, F:2, Y:7, X:8, W:3, C:1, X:14, W:1, H:3, X:1, Y:12, C:32, F:16, ;360.46082067489624
172;1;MobilNet_01;0.18383929999999998;0.0004481758694976754;2;axe_yy1_0,axe_out_channels1_0,axe_yy1_1,axe_xx1_0,axe_xx1_1;1568;axe_yy2_0,axe_out_channels2_0,axe_yy2_1,axe_xx2_0,axe_xx2_1;448;Y:1, F:2, Y:7, X:8, W:3, C:1, X:14, W:1, H:3, X:1, Y:12, C:32, F:16, ;361.57590079307556
173;0;MobilNet_01;0.25062979999999996;0.003033959551477245;2;axe_yy1_0,axe_out_channels1_0,axe_yy1_1,axe_xx1_0;112;axe_yy2_0,axe_out_channels2_0,axe_yy2_1,axe_xx2_0;32;Y:7, F:2, Y:1, X:8, W:3, C:1, X:14, W:1, H:3, X:1, Y:12, C:32, F:16, ;362.73029017448425
173;1;MobilNet_01;0.19432629999999998;0.0008325027387342318;2;axe_yy1_0,axe_out_channels1_0,axe_yy1_1,axe_xx1_0,axe_xx1_1;1568;axe_yy2_0,axe_out_channels2_0,axe_yy2_1,axe_xx2_0,axe_xx2_1;448;Y:7, F:2, Y:1, X:8, W:3, C:1, X:14, W:1, H:3, X:1, Y:12, C:32, F:16, ;363.86179518699646
174;0;MobilNet_01;0.2397548;0.0010378756958325929;2;axe_yy1_0,axe_out_channels1_0,axe_yy1_1,axe_xx1_0;196;axe_yy2_0,axe_out_channels2_0,axe_yy2_1,axe_xx2_0;56;Y:1, F:2, Y:7, X:14, W:3, C:1, X:8, W:1, H:3, X:1, Y:12, C:32, F:16, ;365.0031361579895
174;1;MobilNet_01;0.1830078;0.000646748297253267;2;axe_yy1_0,axe_out_channels1_0,axe_yy1_1,axe_xx1_0,axe_xx1_1;1568;axe_yy2_0,axe_out_channels2_0,axe_yy2_1,axe_xx2_0,axe_xx2_1;448;Y:1, F:2, Y:7, X:14, W:3, C:1, X:8, W:1, H:3, X:1, Y:12, C:32, F:16, ;366.11611461639404
175;0;MobilNet_01;0.26869299999999996;0.008651607665630705;2;axe_yy1_0,axe_out_channels1_0,axe_yy1_1,axe_xx1_0;196;axe_yy2_0,axe_out_channels2_0,axe_yy2_1,axe_xx2_0;56;Y:7, F:2, Y:1, X:14, W:3, C:1, X:8, W:1, H:3, X:1, Y:12, C:32, F:16, ;367.25415873527527
175;1;MobilNet_01;0.19352299999999997;0.0005638081233895142;2;axe_yy1_0,axe_out_channels1_0,axe_yy1_1,axe_xx1_0,axe_xx1_1;1568;axe_yy2_0,axe_out_channels2_0,axe_yy2_1,axe_xx2_0,axe_xx2_1;448;Y:7, F:2, Y:1, X:14, W:3, C:1, X:8, W:1, H:3, X:1, Y:12, C:32, F:16, ;368.3669641017914
176;0;MobilNet_01;0.24404429999999996;0.000776100773095868;2;axe_yy1_0,axe_out_channels1_0,axe_yy1_1,axe_xx1_0;224;axe_yy2_0,axe_out_channels2_0,axe_yy2_1,axe_xx2_0;64;Y:1, F:2, Y:7, X:16, W:3, C:1, X:7, W:1, H:3, X:1, Y:12, C:32, F:16, ;369.5128290653229
176;1;MobilNet_01;0.18438210000000002;0.0006369107394290018;2;axe_yy1_0,axe_out_channels1_0,axe_yy1_1,axe_xx1_0,axe_xx1_1;1568;axe_yy2_0,axe_out_channels2_0,axe_yy2_1,axe_xx2_0,axe_xx2_1;448;Y:1, F:2, Y:7, X:16, W:3, C:1, X:7, W:1, H:3, X:1, Y:12, C:32, F:16, ;370.6222107410431
177;0;MobilNet_01;0.2346463;0.0030855626083422807;2;axe_yy1_0,axe_out_channels1_0,axe_yy1_1,axe_xx1_0;224;axe_yy2_0,axe_out_channels2_0,axe_yy2_1,axe_xx2_0;64;Y:7, F:2, Y:1, X:16, W:3, C:1, X:7, W:1, H:3, X:1, Y:12, C:32, F:16, ;371.7591292858124
177;1;MobilNet_01;0.19414119999999996;0.0009982187936519755;2;axe_yy1_0,axe_out_channels1_0,axe_yy1_1,axe_xx1_0,axe_xx1_1;1568;axe_yy2_0,axe_out_channels2_0,axe_yy2_1,axe_xx2_0,axe_xx2_1;448;Y:7, F:2, Y:1, X:16, W:3, C:1, X:7, W:1, H:3, X:1, Y:12, C:32, F:16, ;372.87330293655396
178;0;MobilNet_01;0.21886440000000001;0.000729568667090352;2;axe_yy1_0,axe_out_channels1_0,axe_yy1_1,axe_xx1_0;392;axe_yy2_0,axe_out_channels2_0,axe_yy2_1,axe_xx2_0;112;Y:1, F:2, Y:7, X:28, W:3, C:1, X:4, W:1, H:3, X:1, Y:12, C:32, F:16, ;374.0321035385132
178;1;MobilNet_01;0.1835446;0.0006695661580456528;2;axe_yy1_0,axe_out_channels1_0,axe_yy1_1,axe_xx1_0,axe_xx1_1;1568;axe_yy2_0,axe_out_channels2_0,axe_yy2_1,axe_xx2_0,axe_xx2_1;448;Y:1, F:2, Y:7, X:28, W:3, C:1, X:4, W:1, H:3, X:1, Y:12, C:32, F:16, ;375.1367313861847
179;0;MobilNet_01;0.22145610000000002;0.0006170170905250528;2;axe_yy1_0,axe_out_channels1_0,axe_yy1_1,axe_xx1_0;392;axe_yy2_0,axe_out_channels2_0,axe_yy2_1,axe_xx2_0;112;Y:7, F:2, Y:1, X:28, W:3, C:1, X:4, W:1, H:3, X:1, Y:12, C:32, F:16, ;376.29261088371277
179;1;MobilNet_01;0.1937509;0.0009082649888661394;2;axe_yy1_0,axe_out_channels1_0,axe_yy1_1,axe_xx1_0,axe_xx1_1;1568;axe_yy2_0,axe_out_channels2_0,axe_yy2_1,axe_xx2_0,axe_xx2_1;448;Y:7, F:2, Y:1, X:28, W:3, C:1, X:4, W:1, H:3, X:1, Y:12, C:32, F:16, ;377.400328874588
180;0;MobilNet_01;0.21255039999999997;0.0017386635787293649;2;axe_yy1_0,axe_out_channels1_0,axe_yy1_1,axe_xx1_0;784;axe_yy2_0,axe_out_channels2_0,axe_yy2_1,axe_xx2_0;224;Y:1, F:2, Y:7, X:56, W:3, C:1, X:2, W:1, H:3, X:1, Y:12, C:32, F:16, ;378.540798664093
180;1;MobilNet_01;0.18319219999999997;0.0005283850489936292;2;axe_yy1_0,axe_out_channels1_0,axe_yy1_1,axe_xx1_0,axe_xx1_1;1568;axe_yy2_0,axe_out_channels2_0,axe_yy2_1,axe_xx2_0,axe_xx2_1;448;Y:1, F:2, Y:7, X:56, W:3, C:1, X:2, W:1, H:3, X:1, Y:12, C:32, F:16, ;379.6479272842407
181;0;MobilNet_01;0.21749340000000003;0.0011612294519172384;2;axe_yy1_0,axe_out_channels1_0,axe_yy1_1,axe_xx1_0;784;axe_yy2_0,axe_out_channels2_0,axe_yy2_1,axe_xx2_0;224;Y:7, F:2, Y:1, X:56, W:3, C:1, X:2, W:1, H:3, X:1, Y:12, C:32, F:16, ;380.7899694442749
181;1;MobilNet_01;0.1943427;0.0005114721986579462;2;axe_yy1_0,axe_out_channels1_0,axe_yy1_1,axe_xx1_0,axe_xx1_1;1568;axe_yy2_0,axe_out_channels2_0,axe_yy2_1,axe_xx2_0,axe_xx2_1;448;Y:7, F:2, Y:1, X:56, W:3, C:1, X:2, W:1, H:3, X:1, Y:12, C:32, F:16, ;381.89414286613464
182;0;MobilNet_01;0.1831828;0.0002857039726710187;2;axe_yy1_0,axe_out_channels1_0,axe_yy1_1,axe_xx1_0;1568;axe_yy2_0,axe_out_channels2_0,axe_yy2_1,axe_xx2_0;448;Y:1, F:2, Y:7, X:112, W:3, C:1, X:1, W:1, H:3, X:1, Y:12, C:32, F:16, ;383.0057907104492
182;1;MobilNet_01;0.1831472;0.0009383731453957898;2;axe_yy1_0,axe_out_channels1_0,axe_yy1_1,axe_xx1_0,axe_xx1_1;1568;axe_yy2_0,axe_out_channels2_0,axe_yy2_1,axe_xx2_0,axe_xx2_1;448;Y:1, F:2, Y:7, X:112, W:3, C:1, X:1, W:1, H:3, X:1, Y:12, C:32, F:16, ;384.1343660354614
183;0;MobilNet_01;0.19363629999999998;0.000731923500100927;2;axe_yy1_0,axe_out_channels1_0,axe_yy1_1,axe_xx1_0;1568;axe_yy2_0,axe_out_channels2_0,axe_yy2_1,axe_xx2_0;448;Y:7, F:2, Y:1, X:112, W:3, C:1, X:1, W:1, H:3, X:1, Y:12, C:32, F:16, ;385.24733304977417
183;1;MobilNet_01;0.193784;0.0008708820815701672;2;axe_yy1_0,axe_out_channels1_0,axe_yy1_1,axe_xx1_0,axe_xx1_1;1568;axe_yy2_0,axe_out_channels2_0,axe_yy2_1,axe_xx2_0,axe_xx2_1;448;Y:7, F:2, Y:1, X:112, W:3, C:1, X:1, W:1, H:3, X:1, Y:12, C:32, F:16, ;386.37210154533386
184;0;MobilNet_01;0.31542329999999996;0.0009391045788409408;2;axe_yy1_0,axe_out_channels1_0,axe_yy1_1,axe_xx1_0;40;axe_yy2_0,axe_out_channels2_0,axe_yy2_1,axe_xx2_0;32;Y:1, F:2, Y:5, X:4, W:3, C:2, X:28, W:1, H:3, X:1, Y:12, C:16, F:16, ;387.50780510902405
184;1;MobilNet_01;0.1877194;0.0007121549269646302;2;axe_yy1_0,axe_out_channels1_0,axe_yy1_1,axe_xx1_0,axe_xx1_1;1120;axe_yy2_0,axe_out_channels2_0,axe_yy2_1,axe_xx2_0,axe_xx2_1;896;Y:1, F:2, Y:5, X:4, W:3, C:2, X:28, W:1, H:3, X:1, Y:12, C:16, F:16, ;388.6197319030762
185;0;MobilNet_01;0.30907049999999997;0.001769391208862531;2;axe_yy1_0,axe_out_channels1_0,axe_yy1_1,axe_xx1_0;40;axe_yy2_0,axe_out_channels2_0,axe_yy2_1,axe_xx2_0;32;Y:5, F:2, Y:1, X:4, W:3, C:2, X:28, W:1, H:3, X:1, Y:12, C:16, F:16, ;389.74173378944397
185;1;MobilNet_01;0.1935613;0.0012843693432965514;2;axe_yy1_0,axe_out_channels1_0,axe_yy1_1,axe_xx1_0,axe_xx1_1;1120;axe_yy2_0,axe_out_channels2_0,axe_yy2_1,axe_xx2_0,axe_xx2_1;896;Y:5, F:2, Y:1, X:4, W:3, C:2, X:28, W:1, H:3, X:1, Y:12, C:16, F:16, ;390.8503346443176
186;0;MobilNet_01;0.5100143;0.003958149291019725;2;axe_yy1_0,axe_out_channels1_0,axe_yy1_1,axe_xx1_0;70;axe_yy2_0,axe_out_channels2_0,axe_yy2_1,axe_xx2_0;56;Y:1, F:2, Y:5, X:7, W:3, C:2, X:16, W:1, H:3, X:1, Y:12, C:16, F:16, ;392.0180501937866
186;1;MobilNet_01;0.1871793;0.0006390713653419241;2;axe_yy1_0,axe_out_channels1_0,axe_yy1_1,axe_xx1_0,axe_xx1_1;1120;axe_yy2_0,axe_out_channels2_0,axe_yy2_1,axe_xx2_0,axe_xx2_1;896;Y:1, F:2, Y:5, X:7, W:3, C:2, X:16, W:1, H:3, X:1, Y:12, C:16, F:16, ;393.1330215930939
187;0;MobilNet_01;0.2555878;0.005041818437825777;2;axe_yy1_0,axe_out_channels1_0,axe_yy1_1,axe_xx1_0;70;axe_yy2_0,axe_out_channels2_0,axe_yy2_1,axe_xx2_0;56;Y:5, F:2, Y:1, X:7, W:3, C:2, X:16, W:1, H:3, X:1, Y:12, C:16, F:16, ;394.2828929424286
187;1;MobilNet_01;0.1927543;0.0009273382392633236;2;axe_yy1_0,axe_out_channels1_0,axe_yy1_1,axe_xx1_0,axe_xx1_1;1120;axe_yy2_0,axe_out_channels2_0,axe_yy2_1,axe_xx2_0,axe_xx2_1;896;Y:5, F:2, Y:1, X:7, W:3, C:2, X:16, W:1, H:3, X:1, Y:12, C:16, F:16, ;395.3931908607483
188;0;MobilNet_01;0.32852819999999994;0.0007048261913408174;2;axe_yy1_0,axe_out_channels1_0,axe_yy1_1,axe_xx1_0;80;axe_yy2_0,axe_out_channels2_0,axe_yy2_1,axe_xx2_0;64;Y:1, F:2, Y:5, X:8, W:3, C:2, X:14, W:1, H:3, X:1, Y:12, C:16, F:16, ;396.5637810230255
188;1;MobilNet_01;0.1872619;0.0007230845662852983;2;axe_yy1_0,axe_out_channels1_0,axe_yy1_1,axe_xx1_0,axe_xx1_1;1120;axe_yy2_0,axe_out_channels2_0,axe_yy2_1,axe_xx2_0,axe_xx2_1;896;Y:1, F:2, Y:5, X:8, W:3, C:2, X:14, W:1, H:3, X:1, Y:12, C:16, F:16, ;397.6653821468353
189;0;MobilNet_01;0.2860359;0.0014809099533732591;2;axe_yy1_0,axe_out_channels1_0,axe_yy1_1,axe_xx1_0;80;axe_yy2_0,axe_out_channels2_0,axe_yy2_1,axe_xx2_0;64;Y:5, F:2, Y:1, X:8, W:3, C:2, X:14, W:1, H:3, X:1, Y:12, C:16, F:16, ;398.81140208244324
189;1;MobilNet_01;0.1932168;0.001187121965090359;2;axe_yy1_0,axe_out_channels1_0,axe_yy1_1,axe_xx1_0,axe_xx1_1;1120;axe_yy2_0,axe_out_channels2_0,axe_yy2_1,axe_xx2_0,axe_xx2_1;896;Y:5, F:2, Y:1, X:8, W:3, C:2, X:14, W:1, H:3, X:1, Y:12, C:16, F:16, ;399.9134123325348
190;0;MobilNet_01;0.26807689999999995;0.001359845686098242;2;axe_yy1_0,axe_out_channels1_0,axe_yy1_1,axe_xx1_0;140;axe_yy2_0,axe_out_channels2_0,axe_yy2_1,axe_xx2_0;112;Y:1, F:2, Y:5, X:14, W:3, C:2, X:8, W:1, H:3, X:1, Y:12, C:16, F:16, ;401.0555770397186
190;1;MobilNet_01;0.1877785;0.0008175556555978381;2;axe_yy1_0,axe_out_channels1_0,axe_yy1_1,axe_xx1_0,axe_xx1_1;1120;axe_yy2_0,axe_out_channels2_0,axe_yy2_1,axe_xx2_0,axe_xx2_1;896;Y:1, F:2, Y:5, X:14, W:3, C:2, X:8, W:1, H:3, X:1, Y:12, C:16, F:16, ;402.16141843795776
191;0;MobilNet_01;0.26915330000000004;0.0012287702022754311;2;axe_yy1_0,axe_out_channels1_0,axe_yy1_1,axe_xx1_0;140;axe_yy2_0,axe_out_channels2_0,axe_yy2_1,axe_xx2_0;112;Y:5, F:2, Y:1, X:14, W:3, C:2, X:8, W:1, H:3, X:1, Y:12, C:16, F:16, ;403.29681968688965
191;1;MobilNet_01;0.19290259999999998;0.0008600152556786399;2;axe_yy1_0,axe_out_channels1_0,axe_yy1_1,axe_xx1_0,axe_xx1_1;1120;axe_yy2_0,axe_out_channels2_0,axe_yy2_1,axe_xx2_0,axe_xx2_1;896;Y:5, F:2, Y:1, X:14, W:3, C:2, X:8, W:1, H:3, X:1, Y:12, C:16, F:16, ;404.4142355918884
192;0;MobilNet_01;0.3100305;0.0013136851411201986;2;axe_yy1_0,axe_out_channels1_0,axe_yy1_1,axe_xx1_0;160;axe_yy2_0,axe_out_channels2_0,axe_yy2_1,axe_xx2_0;128;Y:1, F:2, Y:5, X:16, W:3, C:2, X:7, W:1, H:3, X:1, Y:12, C:16, F:16, ;405.5723192691803
192;1;MobilNet_01;0.1870689;0.0004420614097611314;2;axe_yy1_0,axe_out_channels1_0,axe_yy1_1,axe_xx1_0,axe_xx1_1;1120;axe_yy2_0,axe_out_channels2_0,axe_yy2_1,axe_xx2_0,axe_xx2_1;896;Y:1, F:2, Y:5, X:16, W:3, C:2, X:7, W:1, H:3, X:1, Y:12, C:16, F:16, ;406.68064308166504
193;0;MobilNet_01;0.2643982;0.0013230839580313835;2;axe_yy1_0,axe_out_channels1_0,axe_yy1_1,axe_xx1_0;160;axe_yy2_0,axe_out_channels2_0,axe_yy2_1,axe_xx2_0;128;Y:5, F:2, Y:1, X:16, W:3, C:2, X:7, W:1, H:3, X:1, Y:12, C:16, F:16, ;407.8059251308441
193;1;MobilNet_01;0.1922139;0.0004683969363691492;2;axe_yy1_0,axe_out_channels1_0,axe_yy1_1,axe_xx1_0,axe_xx1_1;1120;axe_yy2_0,axe_out_channels2_0,axe_yy2_1,axe_xx2_0,axe_xx2_1;896;Y:5, F:2, Y:1, X:16, W:3, C:2, X:7, W:1, H:3, X:1, Y:12, C:16, F:16, ;408.90976548194885
194;0;MobilNet_01;0.2425773;0.002268661810407187;2;axe_yy1_0,axe_out_channels1_0,axe_yy1_1,axe_xx1_0;280;axe_yy2_0,axe_out_channels2_0,axe_yy2_1,axe_xx2_0;224;Y:1, F:2, Y:5, X:28, W:3, C:2, X:4, W:1, H:3, X:1, Y:12, C:16, F:16, ;410.0754234790802
194;1;MobilNet_01;0.187547;0.001226170461232859;2;axe_yy1_0,axe_out_channels1_0,axe_yy1_1,axe_xx1_0,axe_xx1_1;1120;axe_yy2_0,axe_out_channels2_0,axe_yy2_1,axe_xx2_0,axe_xx2_1;896;Y:1, F:2, Y:5, X:28, W:3, C:2, X:4, W:1, H:3, X:1, Y:12, C:16, F:16, ;411.1816625595093
195;0;MobilNet_01;0.24960520000000003;0.0009008132769891884;2;axe_yy1_0,axe_out_channels1_0,axe_yy1_1,axe_xx1_0;280;axe_yy2_0,axe_out_channels2_0,axe_yy2_1,axe_xx2_0;224;Y:5, F:2, Y:1, X:28, W:3, C:2, X:4, W:1, H:3, X:1, Y:12, C:16, F:16, ;412.3404402732849
195;1;MobilNet_01;0.1926548;0.0005801094379511555;2;axe_yy1_0,axe_out_channels1_0,axe_yy1_1,axe_xx1_0,axe_xx1_1;1120;axe_yy2_0,axe_out_channels2_0,axe_yy2_1,axe_xx2_0,axe_xx2_1;896;Y:5, F:2, Y:1, X:28, W:3, C:2, X:4, W:1, H:3, X:1, Y:12, C:16, F:16, ;413.44257736206055
196;0;MobilNet_01;0.24267599999999998;0.0024695225449466855;2;axe_yy1_0,axe_out_channels1_0,axe_yy1_1,axe_xx1_0;560;axe_yy2_0,axe_out_channels2_0,axe_yy2_1,axe_xx2_0;448;Y:1, F:2, Y:5, X:56, W:3, C:2, X:2, W:1, H:3, X:1, Y:12, C:16, F:16, ;414.5811324119568
196;1;MobilNet_01;0.1868428;0.0007665045074883715;2;axe_yy1_0,axe_out_channels1_0,axe_yy1_1,axe_xx1_0,axe_xx1_1;1120;axe_yy2_0,axe_out_channels2_0,axe_yy2_1,axe_xx2_0,axe_xx2_1;896;Y:1, F:2, Y:5, X:56, W:3, C:2, X:2, W:1, H:3, X:1, Y:12, C:16, F:16, ;415.68678164482117
197;0;MobilNet_01;0.2336063;0.0022506732348344044;2;axe_yy1_0,axe_out_channels1_0,axe_yy1_1,axe_xx1_0;560;axe_yy2_0,axe_out_channels2_0,axe_yy2_1,axe_xx2_0;448;Y:5, F:2, Y:1, X:56, W:3, C:2, X:2, W:1, H:3, X:1, Y:12, C:16, F:16, ;416.8267343044281
197;1;MobilNet_01;0.1922633;0.0011802052406255472;2;axe_yy1_0,axe_out_channels1_0,axe_yy1_1,axe_xx1_0,axe_xx1_1;1120;axe_yy2_0,axe_out_channels2_0,axe_yy2_1,axe_xx2_0,axe_xx2_1;896;Y:5, F:2, Y:1, X:56, W:3, C:2, X:2, W:1, H:3, X:1, Y:12, C:16, F:16, ;417.9337010383606
198;0;MobilNet_01;0.18673299999999998;0.0009882040275165846;2;axe_yy1_0,axe_out_channels1_0,axe_yy1_1,axe_xx1_0;1120;axe_yy2_0,axe_out_channels2_0,axe_yy2_1,axe_xx2_0;896;Y:1, F:2, Y:5, X:112, W:3, C:2, X:1, W:1, H:3, X:1, Y:12, C:16, F:16, ;419.04511761665344
198;1;MobilNet_01;0.1866329;0.0007843999553799047;2;axe_yy1_0,axe_out_channels1_0,axe_yy1_1,axe_xx1_0,axe_xx1_1;1120;axe_yy2_0,axe_out_channels2_0,axe_yy2_1,axe_xx2_0,axe_xx2_1;896;Y:1, F:2, Y:5, X:112, W:3, C:2, X:1, W:1, H:3, X:1, Y:12, C:16, F:16, ;420.1502890586853
199;0;MobilNet_01;0.1940178;0.0010929373083576142;2;axe_yy1_0,axe_out_channels1_0,axe_yy1_1,axe_xx1_0;1120;axe_yy2_0,axe_out_channels2_0,axe_yy2_1,axe_xx2_0;896;Y:5, F:2, Y:1, X:112, W:3, C:2, X:1, W:1, H:3, X:1, Y:12, C:16, F:16, ;421.26016116142273
199;1;MobilNet_01;0.193249;0.0010365272789463807;2;axe_yy1_0,axe_out_channels1_0,axe_yy1_1,axe_xx1_0,axe_xx1_1;1120;axe_yy2_0,axe_out_channels2_0,axe_yy2_1,axe_xx2_0,axe_xx2_1;896;Y:5, F:2, Y:1, X:112, W:3, C:2, X:1, W:1, H:3, X:1, Y:12, C:16, F:16, ;422.3642256259918
