IdRun;MethodParallelization;NameConv;Time(ms);std;NbMicroKernel;AxeFuse1;SizeAxeFuse1;AxeFuse2;SizeAxeFuse2;Schema;Time_search(3.8216636180877686)
0;0;MobilNet_03;5.2176610000000005;0.015546786542562233;1;axe_xx1_2;56;;;X:1, Y:7, X:1, F:4, C:8, W:3, X:56, H:3, W:1, H:1, X:1, Y:8, C:16, F:32, ;5.746582746505737
0;1;MobilNet_03;0.6296254000000001;0.004499424123151762;1;axe_xx1_0,axe_yy1_0,axe_xx1_1,axe_out_channels1_0,axe_xx1_2;1568;;;X:1, Y:7, X:1, F:4, C:8, W:3, X:56, H:3, W:1, H:1, X:1, Y:8, C:16, F:32, ;7.463011980056763
1;0;MobilNet_03;1.1971516999999998;0.016159094399439602;1;axe_xx1_0,axe_yy1_0,axe_xx1_1,axe_out_channels1_0;32;;;X:1, Y:4, X:2, F:4, C:8, W:3, X:28, H:3, W:1, H:1, X:1, Y:14, C:16, F:32, ;9.212997198104858
1;1;MobilNet_03;0.7054539999999999;0.006441416940394393;1;axe_xx1_0,axe_yy1_0,axe_xx1_1,axe_out_channels1_0,axe_xx1_2;896;;;X:1, Y:4, X:2, F:4, C:8, W:3, X:28, H:3, W:1, H:1, X:1, Y:14, C:16, F:32, ;10.944413900375366
2;0;MobilNet_03;1.1927094999999999;0.018970823900136765;1;axe_xx1_0,axe_yy1_0,axe_xx1_1,axe_out_channels1_0;32;;;X:2, Y:4, X:1, F:4, C:8, W:3, X:28, H:3, W:1, H:1, X:1, Y:14, C:16, F:32, ;12.692490339279175
2;1;MobilNet_03;0.7008715000000001;0.006721298643119508;1;axe_xx1_0,axe_yy1_0,axe_xx1_1,axe_out_channels1_0,axe_xx1_2;896;;;X:2, Y:4, X:1, F:4, C:8, W:3, X:28, H:3, W:1, H:1, X:1, Y:14, C:16, F:32, ;14.42173981666565
3;0;MobilNet_03;0.7771618;0.005244083443272058;1;axe_yy1_0,axe_xx1_0,axe_out_channels1_0;32;;;Y:8, X:2, F:2, C:8, W:3, X:28, H:3, W:1, H:1, X:1, Y:7, C:16, F:64, ;16.14793825149536
3;1;MobilNet_03;1.9979103999999999;0.009191126298773179;1;axe_yy1_0,axe_xx1_0,axe_out_channels1_0,axe_xx1_1;896;;;Y:8, X:2, F:2, C:8, W:3, X:28, H:3, W:1, H:1, X:1, Y:7, C:16, F:64, ;17.92014503479004
4;0;MobilNet_03;1.8228883000000002;0.018300474644391072;1;axe_yy1_0,axe_xx1_0,axe_out_channels1_0;32;;;Y:8, X:2, F:2, C:8, W:3, X:28, W:1, H:3, X:1, Y:7, C:16, F:64, ;19.70478367805481
4;1;MobilNet_03;1.4750818;0.010792585119423367;1;axe_yy1_0,axe_xx1_0,axe_out_channels1_0,axe_xx1_1;896;;;Y:8, X:2, F:2, C:8, W:3, X:28, W:1, H:3, X:1, Y:7, C:16, F:64, ;21.4774272441864
5;0;MobilNet_03;0.6994702;0.0008709715035521881;1;axe_xx1_0,axe_yy1_0,axe_xx1_1,axe_out_channels1_0;56;;;X:1, Y:7, X:2, F:4, C:4, W:3, X:28, H:3, W:1, H:1, X:1, Y:8, C:32, F:32, ;23.20970892906189
5;1;MobilNet_03;0.5906114;0.0018691863577503332;1;axe_xx1_0,axe_yy1_0,axe_xx1_1,axe_out_channels1_0,axe_xx1_2;1568;;;X:1, Y:7, X:2, F:4, C:4, W:3, X:28, H:3, W:1, H:1, X:1, Y:8, C:32, F:32, ;24.9309561252594
6;0;MobilNet_03;0.7402331;0.00517602162765959;1;axe_xx1_0,axe_yy1_0,axe_xx1_1,axe_out_channels1_0;56;;;X:2, Y:7, X:1, F:4, C:4, W:3, X:28, H:3, W:1, H:1, X:1, Y:8, C:32, F:32, ;26.698853015899658
6;1;MobilNet_03;0.5955521;0.0026295927612465138;1;axe_xx1_0,axe_yy1_0,axe_xx1_1,axe_out_channels1_0,axe_xx1_2;1568;;;X:2, Y:7, X:1, F:4, C:4, W:3, X:28, H:3, W:1, H:1, X:1, Y:8, C:32, F:32, ;28.415677070617676
7;0;MobilNet_03;0.7574658999999999;0.004501828549600686;1;axe_xx1_0,axe_yy1_0,axe_xx1_1,axe_out_channels1_0;56;;;X:1, Y:7, X:2, F:4, C:8, W:3, X:28, H:3, W:1, H:1, X:1, Y:8, C:16, F:32, ;30.14632296562195
7;1;MobilNet_03;0.6187129;0.0035789202128575044;1;axe_xx1_0,axe_yy1_0,axe_xx1_1,axe_out_channels1_0,axe_xx1_2;1568;;;X:1, Y:7, X:2, F:4, C:8, W:3, X:28, H:3, W:1, H:1, X:1, Y:8, C:16, F:32, ;31.86848258972168
8;0;MobilNet_03;0.8490755;0.011988126769850223;1;axe_xx1_0,axe_yy1_0,axe_xx1_1,axe_out_channels1_0;56;;;X:2, Y:7, X:1, F:4, C:8, W:3, X:28, H:3, W:1, H:1, X:1, Y:8, C:16, F:32, ;33.60078239440918
8;1;MobilNet_03;0.6240884999999999;0.004052765728487147;1;axe_xx1_0,axe_yy1_0,axe_xx1_1,axe_out_channels1_0,axe_xx1_2;1568;;;X:2, Y:7, X:1, F:4, C:8, W:3, X:28, H:3, W:1, H:1, X:1, Y:8, C:16, F:32, ;35.32071781158447
9;0;MobilNet_03;0.5975385;0.0022934817745079283;1;axe_yy1_0,axe_xx1_0,axe_out_channels1_0;32;;;Y:8, X:2, F:2, C:2, H:3, X:28, W:3, H:1, X:1, Y:7, C:64, F:64, ;37.06479096412659
9;1;MobilNet_03;0.6307915;0.00474309686281019;1;axe_yy1_0,axe_xx1_0,axe_out_channels1_0,axe_xx1_1;896;;;Y:8, X:2, F:2, C:2, H:3, X:28, W:3, H:1, X:1, Y:7, C:64, F:64, ;38.805527448654175
10;0;MobilNet_03;5.8241727999999995;0.008909926349863947;1;axe_xx1_1;56;;;F:1, F:1, X:1, Y:4, F:8, C:8, W:3, X:56, W:1, H:3, X:1, Y:14, C:16, F:16, ;40.77401781082153
10;1;MobilNet_03;0.5190583999999999;0.0034708005474241746;1;axe_out_channels1_0,axe_out_channels1_1,axe_xx1_0,axe_yy1_0,axe_out_channels1_2,axe_xx1_1;1792;;;F:1, F:1, X:1, Y:4, F:8, C:8, W:3, X:56, W:1, H:3, X:1, Y:14, C:16, F:16, ;42.49521088600159
11;0;MobilNet_03;5.8252203;0.013093609411082894;1;axe_xx1_1;56;;;F:1, F:2, X:1, Y:4, F:4, C:8, W:3, X:56, W:1, H:3, X:1, Y:14, C:16, F:16, ;44.46609282493591
11;1;MobilNet_03;0.5305943000000001;0.00789735094889421;1;axe_out_channels1_0,axe_out_channels1_1,axe_xx1_0,axe_yy1_0,axe_out_channels1_2,axe_xx1_1;1792;;;F:1, F:2, X:1, Y:4, F:4, C:8, W:3, X:56, W:1, H:3, X:1, Y:14, C:16, F:16, ;46.186116218566895
12;0;MobilNet_03;5.8331606;0.0101857152836707;1;axe_xx1_1;56;;;F:1, F:4, X:1, Y:4, F:2, C:8, W:3, X:56, W:1, H:3, X:1, Y:14, C:16, F:16, ;48.14634156227112
12;1;MobilNet_03;0.5163963;0.0014882077845516282;1;axe_out_channels1_0,axe_out_channels1_1,axe_xx1_0,axe_yy1_0,axe_out_channels1_2,axe_xx1_1;1792;;;F:1, F:4, X:1, Y:4, F:2, C:8, W:3, X:56, W:1, H:3, X:1, Y:14, C:16, F:16, ;49.8662166595459
13;0;MobilNet_03;5.8398944;0.007148471307909274;1;axe_xx1_1;56;;;F:1, F:8, X:1, Y:4, F:1, C:8, W:3, X:56, W:1, H:3, X:1, Y:14, C:16, F:16, ;51.83466196060181
13;1;MobilNet_03;0.5269649;0.002821870069652377;1;axe_out_channels1_0,axe_out_channels1_1,axe_xx1_0,axe_yy1_0,axe_out_channels1_2,axe_xx1_1;1792;;;F:1, F:8, X:1, Y:4, F:1, C:8, W:3, X:56, W:1, H:3, X:1, Y:14, C:16, F:16, ;53.55238604545593
14;0;MobilNet_03;5.829430299999999;0.0038252449084993615;1;axe_xx1_1;56;;;F:2, F:1, X:1, Y:4, F:4, C:8, W:3, X:56, W:1, H:3, X:1, Y:14, C:16, F:16, ;55.518659830093384
14;1;MobilNet_03;0.539215;0.002998527271845283;1;axe_out_channels1_0,axe_out_channels1_1,axe_xx1_0,axe_yy1_0,axe_out_channels1_2,axe_xx1_1;1792;;;F:2, F:1, X:1, Y:4, F:4, C:8, W:3, X:56, W:1, H:3, X:1, Y:14, C:16, F:16, ;57.23946261405945
15;0;MobilNet_03;5.8596236;0.007747516211018785;1;axe_xx1_1;56;;;F:2, F:2, X:1, Y:4, F:2, C:8, W:3, X:56, W:1, H:3, X:1, Y:14, C:16, F:16, ;59.21879506111145
15;1;MobilNet_03;0.5376758999999999;0.0077065412793288855;1;axe_out_channels1_0,axe_out_channels1_1,axe_xx1_0,axe_yy1_0,axe_out_channels1_2,axe_xx1_1;1792;;;F:2, F:2, X:1, Y:4, F:2, C:8, W:3, X:56, W:1, H:3, X:1, Y:14, C:16, F:16, ;60.937814235687256
16;0;MobilNet_03;5.8478075;0.008900591230362211;1;axe_xx1_1;56;;;F:2, F:4, X:1, Y:4, F:1, C:8, W:3, X:56, W:1, H:3, X:1, Y:14, C:16, F:16, ;62.908753633499146
16;1;MobilNet_03;0.5398391;0.014650405847279457;1;axe_out_channels1_0,axe_out_channels1_1,axe_xx1_0,axe_yy1_0,axe_out_channels1_2,axe_xx1_1;1792;;;F:2, F:4, X:1, Y:4, F:1, C:8, W:3, X:56, W:1, H:3, X:1, Y:14, C:16, F:16, ;64.62458753585815
17;0;MobilNet_03;5.8382629999999995;0.009539426303504534;1;axe_xx1_1;56;;;F:4, F:1, X:1, Y:4, F:2, C:8, W:3, X:56, W:1, H:3, X:1, Y:14, C:16, F:16, ;66.58155846595764
17;1;MobilNet_03;0.5403141;0.007100010893653615;1;axe_out_channels1_0,axe_out_channels1_1,axe_xx1_0,axe_yy1_0,axe_out_channels1_2,axe_xx1_1;1792;;;F:4, F:1, X:1, Y:4, F:2, C:8, W:3, X:56, W:1, H:3, X:1, Y:14, C:16, F:16, ;68.30351948738098
18;0;MobilNet_03;5.845663;0.004631885080612597;1;axe_xx1_1;56;;;F:4, F:2, X:1, Y:4, F:1, C:8, W:3, X:56, W:1, H:3, X:1, Y:14, C:16, F:16, ;70.27382755279541
18;1;MobilNet_03;0.5290045000000001;0.003211052763502941;1;axe_out_channels1_0,axe_out_channels1_1,axe_xx1_0,axe_yy1_0,axe_out_channels1_2,axe_xx1_1;1792;;;F:4, F:2, X:1, Y:4, F:1, C:8, W:3, X:56, W:1, H:3, X:1, Y:14, C:16, F:16, ;71.99125790596008
19;0;MobilNet_03;5.8508006;0.009475520262233647;1;axe_xx1_1;56;;;F:8, F:1, X:1, Y:4, F:1, C:8, W:3, X:56, W:1, H:3, X:1, Y:14, C:16, F:16, ;73.95648956298828
19;1;MobilNet_03;0.5308778000000001;0.008308823091148334;1;axe_out_channels1_0,axe_out_channels1_1,axe_xx1_0,axe_yy1_0,axe_out_channels1_2,axe_xx1_1;1792;;;F:8, F:1, X:1, Y:4, F:1, C:8, W:3, X:56, W:1, H:3, X:1, Y:14, C:16, F:16, ;75.67204928398132
20;0;MobilNet_03;1.1357465;0.0010319908187575721;1;axe_xx1_1;56;;;Y:8, X:1, F:2, C:1, H:3, X:56, W:3, H:1, X:1, Y:7, C:128, F:64, ;77.4383647441864
20;1;MobilNet_03;0.7600021;0.007844277333827516;1;axe_yy1_0,axe_xx1_0,axe_out_channels1_0,axe_xx1_1;896;;;Y:8, X:1, F:2, C:1, H:3, X:56, W:3, H:1, X:1, Y:7, C:128, F:64, ;79.17878651618958
21;0;MobilNet_03;0.6464655;0.0024963794282921144;1;axe_xx1_0,axe_yy1_0,axe_xx1_1,axe_out_channels1_0;64;;;X:1, Y:4, X:4, F:4, C:4, W:3, X:14, H:3, W:1, H:1, X:1, Y:14, C:32, F:32, ;80.90576004981995
21;1;MobilNet_03;0.6089732000000001;0.005151362340197008;1;axe_xx1_0,axe_yy1_0,axe_xx1_1,axe_out_channels1_0,axe_xx1_2;896;;;X:1, Y:4, X:4, F:4, C:4, W:3, X:14, H:3, W:1, H:1, X:1, Y:14, C:32, F:32, ;82.63685965538025
22;0;MobilNet_03;0.6441806999999999;0.0020495106269546298;1;axe_xx1_0,axe_yy1_0,axe_xx1_1,axe_out_channels1_0;64;;;X:2, Y:4, X:2, F:4, C:4, W:3, X:14, H:3, W:1, H:1, X:1, Y:14, C:32, F:32, ;84.36840057373047
22;1;MobilNet_03;0.6126018999999999;0.0033561052560966993;1;axe_xx1_0,axe_yy1_0,axe_xx1_1,axe_out_channels1_0,axe_xx1_2;896;;;X:2, Y:4, X:2, F:4, C:4, W:3, X:14, H:3, W:1, H:1, X:1, Y:14, C:32, F:32, ;86.09415292739868
23;0;MobilNet_03;0.6796992;0.0039536568338690925;1;axe_xx1_0,axe_yy1_0,axe_xx1_1,axe_out_channels1_0;64;;;X:4, Y:4, X:1, F:4, C:4, W:3, X:14, H:3, W:1, H:1, X:1, Y:14, C:32, F:32, ;87.82812452316284
23;1;MobilNet_03;0.6140864;0.001212162134369826;1;axe_xx1_0,axe_yy1_0,axe_xx1_1,axe_out_channels1_0,axe_xx1_2;896;;;X:4, Y:4, X:1, F:4, C:4, W:3, X:14, H:3, W:1, H:1, X:1, Y:14, C:32, F:32, ;89.55292916297913
24;0;MobilNet_03;0.7340087000000001;0.006378878428846258;1;axe_xx1_0,axe_yy1_0,axe_xx1_1,axe_out_channels1_0;64;;;X:1, Y:4, X:4, F:4, C:8, W:3, X:14, H:3, W:1, H:1, X:1, Y:14, C:16, F:32, ;91.28421592712402
24;1;MobilNet_03;0.6669813;0.0018247330243079103;1;axe_xx1_0,axe_yy1_0,axe_xx1_1,axe_out_channels1_0,axe_xx1_2;896;;;X:1, Y:4, X:4, F:4, C:8, W:3, X:14, H:3, W:1, H:1, X:1, Y:14, C:16, F:32, ;93.0119514465332
25;0;MobilNet_03;0.7177108000000001;0.0033917502207562525;1;axe_xx1_0,axe_yy1_0,axe_xx1_1,axe_out_channels1_0;64;;;X:2, Y:4, X:2, F:4, C:8, W:3, X:14, H:3, W:1, H:1, X:1, Y:14, C:16, F:32, ;94.7435655593872
25;1;MobilNet_03;0.6683719000000001;0.003310841749464923;1;axe_xx1_0,axe_yy1_0,axe_xx1_1,axe_out_channels1_0,axe_xx1_2;896;;;X:2, Y:4, X:2, F:4, C:8, W:3, X:14, H:3, W:1, H:1, X:1, Y:14, C:16, F:32, ;96.47108387947083
26;0;MobilNet_03;0.7903368000000002;0.006514414936124335;1;axe_xx1_0,axe_yy1_0,axe_xx1_1,axe_out_channels1_0;64;;;X:4, Y:4, X:1, F:4, C:8, W:3, X:14, H:3, W:1, H:1, X:1, Y:14, C:16, F:32, ;98.20200967788696
26;1;MobilNet_03;0.6759900000000001;0.004991122098286117;1;axe_xx1_0,axe_yy1_0,axe_xx1_1,axe_out_channels1_0,axe_xx1_2;896;;;X:4, Y:4, X:1, F:4, C:8, W:3, X:14, H:3, W:1, H:1, X:1, Y:14, C:16, F:32, ;99.93228960037231
27;0;MobilNet_03;1.220257;0.003354752897010463;1;axe_xx1_1;56;;;Y:14, X:1, F:2, C:1, H:3, X:56, W:3, H:1, X:1, Y:4, C:128, F:64, ;101.67899918556213
27;1;MobilNet_03;0.49430559999999996;0.001400836621451625;1;axe_yy1_0,axe_xx1_0,axe_out_channels1_0,axe_xx1_1;1568;;;Y:14, X:1, F:2, C:1, H:3, X:56, W:3, H:1, X:1, Y:4, C:128, F:64, ;103.37401866912842
28;0;MobilNet_03;0.5910934000000001;0.0014966308963802486;1;axe_yy1_0,axe_xx1_0,axe_out_channels1_0;32;;;Y:8, X:2, F:2, C:1, H:3, X:28, W:3, H:1, X:1, Y:7, C:128, F:64, ;105.11380743980408
28;1;MobilNet_03;0.6840607999999999;0.0009005594705515141;1;axe_yy1_0,axe_xx1_0,axe_out_channels1_0,axe_xx1_1;896;;;Y:8, X:2, F:2, C:1, H:3, X:28, W:3, H:1, X:1, Y:7, C:128, F:64, ;106.85728335380554
29;0;MobilNet_03;0.6023408;0.002412502219688109;2;axe_out_channels1_0,axe_out_channels1_1,axe_xx1_0,axe_yy1_0,axe_out_channels1_2;1344;axe_out_channels2_0,axe_out_channels2_1,axe_xx2_0,axe_yy2_0,axe_out_channels2_2;896;F:1, F:8, X:56, Y:3, F:1, C:1, W:3, X:1, W:1, H:3, X:1, Y:10, C:128, F:16, ;108.9707419872284
29;1;MobilNet_03;0.6003504;0.0020348991719493087;2;axe_out_channels1_0,axe_out_channels1_1,axe_xx1_0,axe_yy1_0,axe_out_channels1_2,axe_xx1_1;1344;axe_out_channels2_0,axe_out_channels2_1,axe_xx2_0,axe_yy2_0,axe_out_channels2_2,axe_xx2_1;896;F:1, F:8, X:56, Y:3, F:1, C:1, W:3, X:1, W:1, H:3, X:1, Y:10, C:128, F:16, ;111.07203125953674
30;0;MobilNet_03;0.5996229;0.0018493453679613255;2;axe_out_channels1_0,axe_out_channels1_1,axe_xx1_0,axe_yy1_0,axe_out_channels1_2;1344;axe_out_channels2_0,axe_out_channels2_1,axe_xx2_0,axe_yy2_0,axe_out_channels2_2;896;F:2, F:4, X:56, Y:3, F:1, C:1, W:3, X:1, W:1, H:3, X:1, Y:10, C:128, F:16, ;113.17687630653381
30;1;MobilNet_03;0.5979156999999999;0.0014393601390896072;2;axe_out_channels1_0,axe_out_channels1_1,axe_xx1_0,axe_yy1_0,axe_out_channels1_2,axe_xx1_1;1344;axe_out_channels2_0,axe_out_channels2_1,axe_xx2_0,axe_yy2_0,axe_out_channels2_2,axe_xx2_1;896;F:2, F:4, X:56, Y:3, F:1, C:1, W:3, X:1, W:1, H:3, X:1, Y:10, C:128, F:16, ;115.2803361415863
31;0;MobilNet_03;0.6008188999999999;0.0025858532228260757;2;axe_out_channels1_0,axe_out_channels1_1,axe_xx1_0,axe_yy1_0,axe_out_channels1_2;1344;axe_out_channels2_0,axe_out_channels2_1,axe_xx2_0,axe_yy2_0,axe_out_channels2_2;896;F:4, F:2, X:56, Y:3, F:1, C:1, W:3, X:1, W:1, H:3, X:1, Y:10, C:128, F:16, ;117.38676309585571
31;1;MobilNet_03;0.5810207000000001;0.003424324139155047;2;axe_out_channels1_0,axe_out_channels1_1,axe_xx1_0,axe_yy1_0,axe_out_channels1_2,axe_xx1_1;1344;axe_out_channels2_0,axe_out_channels2_1,axe_xx2_0,axe_yy2_0,axe_out_channels2_2,axe_xx2_1;896;F:4, F:2, X:56, Y:3, F:1, C:1, W:3, X:1, W:1, H:3, X:1, Y:10, C:128, F:16, ;119.4855751991272
32;0;MobilNet_03;0.6022042000000001;0.00330134169088873;2;axe_out_channels1_0,axe_out_channels1_1,axe_xx1_0,axe_yy1_0,axe_out_channels1_2;1344;axe_out_channels2_0,axe_out_channels2_1,axe_xx2_0,axe_yy2_0,axe_out_channels2_2;896;F:8, F:1, X:56, Y:3, F:1, C:1, W:3, X:1, W:1, H:3, X:1, Y:10, C:128, F:16, ;121.58669590950012
32;1;MobilNet_03;0.5865904;0.0015955841688861153;2;axe_out_channels1_0,axe_out_channels1_1,axe_xx1_0,axe_yy1_0,axe_out_channels1_2,axe_xx1_1;1344;axe_out_channels2_0,axe_out_channels2_1,axe_xx2_0,axe_yy2_0,axe_out_channels2_2,axe_xx2_1;896;F:8, F:1, X:56, Y:3, F:1, C:1, W:3, X:1, W:1, H:3, X:1, Y:10, C:128, F:16, ;123.68919634819031
33;0;MobilNet_03;0.5866849999999999;0.0031855311644999025;2;axe_out_channels1_0,axe_out_channels1_1,axe_xx1_0,axe_yy1_0,axe_out_channels1_2;1344;axe_out_channels2_0,axe_out_channels2_1,axe_xx2_0,axe_yy2_0,axe_out_channels2_2;896;F:1, F:8, X:56, Y:3, F:1, C:2, W:3, X:1, W:1, H:3, X:1, Y:10, C:64, F:16, ;125.8201220035553
33;1;MobilNet_03;0.5843856;0.002076947673871436;2;axe_out_channels1_0,axe_out_channels1_1,axe_xx1_0,axe_yy1_0,axe_out_channels1_2,axe_xx1_1;1344;axe_out_channels2_0,axe_out_channels2_1,axe_xx2_0,axe_yy2_0,axe_out_channels2_2,axe_xx2_1;896;F:1, F:8, X:56, Y:3, F:1, C:2, W:3, X:1, W:1, H:3, X:1, Y:10, C:64, F:16, ;127.94447326660156
34;0;MobilNet_03;0.5841902;0.002307298368222027;2;axe_out_channels1_0,axe_out_channels1_1,axe_xx1_0,axe_yy1_0,axe_out_channels1_2;1344;axe_out_channels2_0,axe_out_channels2_1,axe_xx2_0,axe_yy2_0,axe_out_channels2_2;896;F:2, F:4, X:56, Y:3, F:1, C:2, W:3, X:1, W:1, H:3, X:1, Y:10, C:64, F:16, ;130.07536697387695
34;1;MobilNet_03;0.5918833;0.0028552642627259583;2;axe_out_channels1_0,axe_out_channels1_1,axe_xx1_0,axe_yy1_0,axe_out_channels1_2,axe_xx1_1;1344;axe_out_channels2_0,axe_out_channels2_1,axe_xx2_0,axe_yy2_0,axe_out_channels2_2,axe_xx2_1;896;F:2, F:4, X:56, Y:3, F:1, C:2, W:3, X:1, W:1, H:3, X:1, Y:10, C:64, F:16, ;132.19953632354736
35;0;MobilNet_03;0.5846391000000001;0.0028503693602759755;2;axe_out_channels1_0,axe_out_channels1_1,axe_xx1_0,axe_yy1_0,axe_out_channels1_2;1344;axe_out_channels2_0,axe_out_channels2_1,axe_xx2_0,axe_yy2_0,axe_out_channels2_2;896;F:4, F:2, X:56, Y:3, F:1, C:2, W:3, X:1, W:1, H:3, X:1, Y:10, C:64, F:16, ;134.32293128967285
35;1;MobilNet_03;0.5872596999999999;0.0022873137541666623;2;axe_out_channels1_0,axe_out_channels1_1,axe_xx1_0,axe_yy1_0,axe_out_channels1_2,axe_xx1_1;1344;axe_out_channels2_0,axe_out_channels2_1,axe_xx2_0,axe_yy2_0,axe_out_channels2_2,axe_xx2_1;896;F:4, F:2, X:56, Y:3, F:1, C:2, W:3, X:1, W:1, H:3, X:1, Y:10, C:64, F:16, ;136.44855427742004
36;0;MobilNet_03;0.5869564;0.004502939422199696;2;axe_out_channels1_0,axe_out_channels1_1,axe_xx1_0,axe_yy1_0,axe_out_channels1_2;1344;axe_out_channels2_0,axe_out_channels2_1,axe_xx2_0,axe_yy2_0,axe_out_channels2_2;896;F:8, F:1, X:56, Y:3, F:1, C:2, W:3, X:1, W:1, H:3, X:1, Y:10, C:64, F:16, ;138.57876539230347
36;1;MobilNet_03;0.5870171;0.001882985260165342;2;axe_out_channels1_0,axe_out_channels1_1,axe_xx1_0,axe_yy1_0,axe_out_channels1_2,axe_xx1_1;1344;axe_out_channels2_0,axe_out_channels2_1,axe_xx2_0,axe_yy2_0,axe_out_channels2_2,axe_xx2_1;896;F:8, F:1, X:56, Y:3, F:1, C:2, W:3, X:1, W:1, H:3, X:1, Y:10, C:64, F:16, ;140.70496773719788
37;0;MobilNet_03;1.5538613;0.005090336080260301;2;axe_xx1_0,axe_yy1_0,axe_xx1_1,axe_out_channels1_0;40;axe_xx2_2;28;X:1, Y:5, X:2, F:4, C:4, W:3, X:28, H:3, W:1, H:1, X:1, Y:9, C:32, F:32, ;142.8951370716095
37;1;MobilNet_03;0.6568964;0.0017470712750199985;2;axe_xx1_0,axe_yy1_0,axe_xx1_1,axe_out_channels1_0,axe_xx1_2;1120;axe_xx2_0,axe_yy2_0,axe_xx2_1,axe_out_channels2_0,axe_xx2_2;224;X:1, Y:5, X:2, F:4, C:4, W:3, X:28, H:3, W:1, H:1, X:1, Y:9, C:32, F:32, ;145.0149278640747
38;0;MobilNet_03;1.5450507;0.004809344717318574;2;axe_xx1_0,axe_yy1_0,axe_xx1_1,axe_out_channels1_0;40;axe_xx2_2;28;X:2, Y:5, X:1, F:4, C:4, W:3, X:28, H:3, W:1, H:1, X:1, Y:9, C:32, F:32, ;147.19282722473145
38;1;MobilNet_03;0.6579013;0.0021940083887715587;2;axe_xx1_0,axe_yy1_0,axe_xx1_1,axe_out_channels1_0,axe_xx1_2;1120;axe_xx2_0,axe_yy2_0,axe_xx2_1,axe_out_channels2_0,axe_xx2_2;224;X:2, Y:5, X:1, F:4, C:4, W:3, X:28, H:3, W:1, H:1, X:1, Y:9, C:32, F:32, ;149.31292629241943
39;0;MobilNet_03;0.5960419;0.008661686411432811;2;axe_out_channels1_0,axe_out_channels1_1,axe_xx1_0,axe_yy1_0,axe_out_channels1_2;1344;axe_out_channels2_0,axe_out_channels2_1,axe_xx2_0,axe_yy2_0,axe_out_channels2_2;896;F:1, F:8, X:56, Y:3, F:1, C:4, W:3, X:1, W:1, H:3, X:1, Y:10, C:32, F:16, ;151.42098236083984
39;1;MobilNet_03;0.5986415;0.005822023621559782;2;axe_out_channels1_0,axe_out_channels1_1,axe_xx1_0,axe_yy1_0,axe_out_channels1_2,axe_xx1_1;1344;axe_out_channels2_0,axe_out_channels2_1,axe_xx2_0,axe_yy2_0,axe_out_channels2_2,axe_xx2_1;896;F:1, F:8, X:56, Y:3, F:1, C:4, W:3, X:1, W:1, H:3, X:1, Y:10, C:32, F:16, ;153.5322892665863
40;0;MobilNet_03;0.5950733;0.006096045620728226;2;axe_out_channels1_0,axe_out_channels1_1,axe_xx1_0,axe_yy1_0,axe_out_channels1_2;1344;axe_out_channels2_0,axe_out_channels2_1,axe_xx2_0,axe_yy2_0,axe_out_channels2_2;896;F:2, F:4, X:56, Y:3, F:1, C:4, W:3, X:1, W:1, H:3, X:1, Y:10, C:32, F:16, ;155.64153861999512
40;1;MobilNet_03;0.59524;0.009448251002169679;2;axe_out_channels1_0,axe_out_channels1_1,axe_xx1_0,axe_yy1_0,axe_out_channels1_2,axe_xx1_1;1344;axe_out_channels2_0,axe_out_channels2_1,axe_xx2_0,axe_yy2_0,axe_out_channels2_2,axe_xx2_1;896;F:2, F:4, X:56, Y:3, F:1, C:4, W:3, X:1, W:1, H:3, X:1, Y:10, C:32, F:16, ;157.7533860206604
41;0;MobilNet_03;0.5966212000000001;0.003317866537400203;2;axe_out_channels1_0,axe_out_channels1_1,axe_xx1_0,axe_yy1_0,axe_out_channels1_2;1344;axe_out_channels2_0,axe_out_channels2_1,axe_xx2_0,axe_yy2_0,axe_out_channels2_2;896;F:4, F:2, X:56, Y:3, F:1, C:4, W:3, X:1, W:1, H:3, X:1, Y:10, C:32, F:16, ;159.86667585372925
41;1;MobilNet_03;0.5963611;0.003972267348756873;2;axe_out_channels1_0,axe_out_channels1_1,axe_xx1_0,axe_yy1_0,axe_out_channels1_2,axe_xx1_1;1344;axe_out_channels2_0,axe_out_channels2_1,axe_xx2_0,axe_yy2_0,axe_out_channels2_2,axe_xx2_1;896;F:4, F:2, X:56, Y:3, F:1, C:4, W:3, X:1, W:1, H:3, X:1, Y:10, C:32, F:16, ;161.97730708122253
42;0;MobilNet_03;0.5962126;0.007015136680065493;2;axe_out_channels1_0,axe_out_channels1_1,axe_xx1_0,axe_yy1_0,axe_out_channels1_2;1344;axe_out_channels2_0,axe_out_channels2_1,axe_xx2_0,axe_yy2_0,axe_out_channels2_2;896;F:8, F:1, X:56, Y:3, F:1, C:4, W:3, X:1, W:1, H:3, X:1, Y:10, C:32, F:16, ;164.09121561050415
42;1;MobilNet_03;0.5965708;0.0027803656522119376;2;axe_out_channels1_0,axe_out_channels1_1,axe_xx1_0,axe_yy1_0,axe_out_channels1_2,axe_xx1_1;1344;axe_out_channels2_0,axe_out_channels2_1,axe_xx2_0,axe_yy2_0,axe_out_channels2_2,axe_xx2_1;896;F:8, F:1, X:56, Y:3, F:1, C:4, W:3, X:1, W:1, H:3, X:1, Y:10, C:32, F:16, ;166.1991744041443
43;0;MobilNet_03;1.4539335;0.0243214714861169;2;axe_xx1_0,axe_yy1_0,axe_xx1_1,axe_out_channels1_0;40;axe_xx2_2;28;X:1, Y:5, X:2, F:4, C:4, W:3, X:28, W:1, H:3, X:1, Y:9, C:32, F:32, ;168.39502549171448
43;1;MobilNet_03;0.5667077;0.004190454869104312;2;axe_xx1_0,axe_yy1_0,axe_xx1_1,axe_out_channels1_0,axe_xx1_2;1120;axe_xx2_0,axe_yy2_0,axe_xx2_1,axe_out_channels2_0,axe_xx2_2;224;X:1, Y:5, X:2, F:4, C:4, W:3, X:28, W:1, H:3, X:1, Y:9, C:32, F:32, ;170.5330913066864
44;0;MobilNet_03;1.4392672999999998;0.020067148965660274;2;axe_xx1_0,axe_yy1_0,axe_xx1_1,axe_out_channels1_0;40;axe_xx2_2;28;X:2, Y:5, X:1, F:4, C:4, W:3, X:28, W:1, H:3, X:1, Y:9, C:32, F:32, ;172.7338902950287
44;1;MobilNet_03;0.5665043999999999;0.0047688039422899295;2;axe_xx1_0,axe_yy1_0,axe_xx1_1,axe_out_channels1_0,axe_xx1_2;1120;axe_xx2_0,axe_yy2_0,axe_xx2_1,axe_out_channels2_0,axe_xx2_2;224;X:2, Y:5, X:1, F:4, C:4, W:3, X:28, W:1, H:3, X:1, Y:9, C:32, F:32, ;174.871661901474
45;0;MobilNet_03;0.6877323;0.007623957752375072;1;axe_out_channels1_0,axe_out_channels1_1,axe_xx1_0,axe_yy1_0,axe_out_channels1_2;64;;;F:1, F:1, X:2, Y:4, F:8, C:4, W:3, X:28, W:1, H:3, X:1, Y:14, C:32, F:16, ;176.60116958618164
45;1;MobilNet_03;0.4879595;0.003568998493975592;1;axe_out_channels1_0,axe_out_channels1_1,axe_xx1_0,axe_yy1_0,axe_out_channels1_2,axe_xx1_1;1792;;;F:1, F:1, X:2, Y:4, F:8, C:4, W:3, X:28, W:1, H:3, X:1, Y:14, C:32, F:16, ;178.32238793373108
46;0;MobilNet_03;0.5893693000000001;0.003915155732534772;1;axe_out_channels1_0,axe_out_channels1_1,axe_xx1_0,axe_yy1_0,axe_out_channels1_2;64;;;F:1, F:2, X:2, Y:4, F:4, C:4, W:3, X:28, W:1, H:3, X:1, Y:14, C:32, F:16, ;180.0496530532837
46;1;MobilNet_03;0.49024889999999993;0.010425999342509071;1;axe_out_channels1_0,axe_out_channels1_1,axe_xx1_0,axe_yy1_0,axe_out_channels1_2,axe_xx1_1;1792;;;F:1, F:2, X:2, Y:4, F:4, C:4, W:3, X:28, W:1, H:3, X:1, Y:14, C:32, F:16, ;181.76780080795288
47;0;MobilNet_03;0.6003421;0.0025138156833785577;1;axe_out_channels1_0,axe_out_channels1_1,axe_xx1_0,axe_yy1_0,axe_out_channels1_2;64;;;F:1, F:4, X:2, Y:4, F:2, C:4, W:3, X:28, W:1, H:3, X:1, Y:14, C:32, F:16, ;183.49286079406738
47;1;MobilNet_03;0.5079532;0.0009571259896168392;1;axe_out_channels1_0,axe_out_channels1_1,axe_xx1_0,axe_yy1_0,axe_out_channels1_2,axe_xx1_1;1792;;;F:1, F:4, X:2, Y:4, F:2, C:4, W:3, X:28, W:1, H:3, X:1, Y:14, C:32, F:16, ;185.20881128311157
48;0;MobilNet_03;0.6556355;0.004277979692565183;1;axe_out_channels1_0,axe_out_channels1_1,axe_xx1_0,axe_yy1_0,axe_out_channels1_2;64;;;F:1, F:8, X:2, Y:4, F:1, C:4, W:3, X:28, W:1, H:3, X:1, Y:14, C:32, F:16, ;186.95039987564087
48;1;MobilNet_03;0.5093932;0.001036699937301051;1;axe_out_channels1_0,axe_out_channels1_1,axe_xx1_0,axe_yy1_0,axe_out_channels1_2,axe_xx1_1;1792;;;F:1, F:8, X:2, Y:4, F:1, C:4, W:3, X:28, W:1, H:3, X:1, Y:14, C:32, F:16, ;188.6696434020996
49;0;MobilNet_03;0.6073755999999999;0.008791833462935944;1;axe_out_channels1_0,axe_out_channels1_1,axe_xx1_0,axe_yy1_0,axe_out_channels1_2;64;;;F:2, F:1, X:2, Y:4, F:4, C:4, W:3, X:28, W:1, H:3, X:1, Y:14, C:32, F:16, ;190.39791464805603
49;1;MobilNet_03;0.48506879999999997;0.001480834886136874;1;axe_out_channels1_0,axe_out_channels1_1,axe_xx1_0,axe_yy1_0,axe_out_channels1_2,axe_xx1_1;1792;;;F:2, F:1, X:2, Y:4, F:4, C:4, W:3, X:28, W:1, H:3, X:1, Y:14, C:32, F:16, ;192.12104630470276
50;0;MobilNet_03;0.6022413;0.00393340542151454;1;axe_out_channels1_0,axe_out_channels1_1,axe_xx1_0,axe_yy1_0,axe_out_channels1_2;64;;;F:2, F:2, X:2, Y:4, F:2, C:4, W:3, X:28, W:1, H:3, X:1, Y:14, C:32, F:16, ;193.84585571289062
50;1;MobilNet_03;0.5027857;0.0141460595789075;1;axe_out_channels1_0,axe_out_channels1_1,axe_xx1_0,axe_yy1_0,axe_out_channels1_2,axe_xx1_1;1792;;;F:2, F:2, X:2, Y:4, F:2, C:4, W:3, X:28, W:1, H:3, X:1, Y:14, C:32, F:16, ;195.56589913368225
51;0;MobilNet_03;0.6963213;0.046963828917689396;1;axe_out_channels1_0,axe_out_channels1_1,axe_xx1_0,axe_yy1_0,axe_out_channels1_2;64;;;F:2, F:4, X:2, Y:4, F:1, C:4, W:3, X:28, W:1, H:3, X:1, Y:14, C:32, F:16, ;197.3060338497162
51;1;MobilNet_03;0.5016299;0.0018099713506019891;1;axe_out_channels1_0,axe_out_channels1_1,axe_xx1_0,axe_yy1_0,axe_out_channels1_2,axe_xx1_1;1792;;;F:2, F:4, X:2, Y:4, F:1, C:4, W:3, X:28, W:1, H:3, X:1, Y:14, C:32, F:16, ;199.02784776687622
52;0;MobilNet_03;0.6072153;0.0030246081415614607;1;axe_out_channels1_0,axe_out_channels1_1,axe_xx1_0,axe_yy1_0,axe_out_channels1_2;64;;;F:4, F:1, X:2, Y:4, F:2, C:4, W:3, X:28, W:1, H:3, X:1, Y:14, C:32, F:16, ;200.7552981376648
52;1;MobilNet_03;0.5050096;0.0011780734442300384;1;axe_out_channels1_0,axe_out_channels1_1,axe_xx1_0,axe_yy1_0,axe_out_channels1_2,axe_xx1_1;1792;;;F:4, F:1, X:2, Y:4, F:2, C:4, W:3, X:28, W:1, H:3, X:1, Y:14, C:32, F:16, ;202.47755599021912
53;0;MobilNet_03;0.6675511000000001;0.009266875346631146;1;axe_out_channels1_0,axe_out_channels1_1,axe_xx1_0,axe_yy1_0,axe_out_channels1_2;64;;;F:4, F:2, X:2, Y:4, F:1, C:4, W:3, X:28, W:1, H:3, X:1, Y:14, C:32, F:16, ;204.22281432151794
53;1;MobilNet_03;0.5036336;0.005165322897941605;1;axe_out_channels1_0,axe_out_channels1_1,axe_xx1_0,axe_yy1_0,axe_out_channels1_2,axe_xx1_1;1792;;;F:4, F:2, X:2, Y:4, F:1, C:4, W:3, X:28, W:1, H:3, X:1, Y:14, C:32, F:16, ;205.94017720222473
54;0;MobilNet_03;0.6575349000000001;0.005663803924042568;1;axe_out_channels1_0,axe_out_channels1_1,axe_xx1_0,axe_yy1_0,axe_out_channels1_2;64;;;F:8, F:1, X:2, Y:4, F:1, C:4, W:3, X:28, W:1, H:3, X:1, Y:14, C:32, F:16, ;207.6763346195221
54;1;MobilNet_03;0.5104799999999999;0.0020662849271095313;1;axe_out_channels1_0,axe_out_channels1_1,axe_xx1_0,axe_yy1_0,axe_out_channels1_2,axe_xx1_1;1792;;;F:8, F:1, X:2, Y:4, F:1, C:4, W:3, X:28, W:1, H:3, X:1, Y:14, C:32, F:16, ;209.39033889770508
55;0;MobilNet_03;0.8112107;0.011899006858137353;1;axe_out_channels1_0,axe_out_channels1_1,axe_xx1_0,axe_yy1_0,axe_out_channels1_2;64;;;F:1, F:1, X:2, Y:4, F:8, C:8, W:3, X:28, W:1, H:3, X:1, Y:14, C:16, F:16, ;211.12140679359436
55;1;MobilNet_03;0.5235501;0.010942353800257038;1;axe_out_channels1_0,axe_out_channels1_1,axe_xx1_0,axe_yy1_0,axe_out_channels1_2,axe_xx1_1;1792;;;F:1, F:1, X:2, Y:4, F:8, C:8, W:3, X:28, W:1, H:3, X:1, Y:14, C:16, F:16, ;212.83960437774658
56;0;MobilNet_03;0.6779582;0.01487123675959735;1;axe_out_channels1_0,axe_out_channels1_1,axe_xx1_0,axe_yy1_0,axe_out_channels1_2;64;;;F:1, F:2, X:2, Y:4, F:4, C:8, W:3, X:28, W:1, H:3, X:1, Y:14, C:16, F:16, ;214.56636929512024
56;1;MobilNet_03;0.5207158;0.0024821429370606315;1;axe_out_channels1_0,axe_out_channels1_1,axe_xx1_0,axe_yy1_0,axe_out_channels1_2,axe_xx1_1;1792;;;F:1, F:2, X:2, Y:4, F:4, C:8, W:3, X:28, W:1, H:3, X:1, Y:14, C:16, F:16, ;216.2878932952881
57;0;MobilNet_03;0.7238013999999999;0.0056114724841168;1;axe_out_channels1_0,axe_out_channels1_1,axe_xx1_0,axe_yy1_0,axe_out_channels1_2;64;;;F:1, F:4, X:2, Y:4, F:2, C:8, W:3, X:28, W:1, H:3, X:1, Y:14, C:16, F:16, ;218.01461172103882
57;1;MobilNet_03;0.5144974;0.0064854425014797806;1;axe_out_channels1_0,axe_out_channels1_1,axe_xx1_0,axe_yy1_0,axe_out_channels1_2,axe_xx1_1;1792;;;F:1, F:4, X:2, Y:4, F:2, C:8, W:3, X:28, W:1, H:3, X:1, Y:14, C:16, F:16, ;219.73264408111572
58;0;MobilNet_03;0.7821385999999999;0.028761831976423215;1;axe_out_channels1_0,axe_out_channels1_1,axe_xx1_0,axe_yy1_0,axe_out_channels1_2;64;;;F:1, F:8, X:2, Y:4, F:1, C:8, W:3, X:28, W:1, H:3, X:1, Y:14, C:16, F:16, ;221.47284746170044
58;1;MobilNet_03;0.5269649000000001;0.0037943222701821;1;axe_out_channels1_0,axe_out_channels1_1,axe_xx1_0,axe_yy1_0,axe_out_channels1_2,axe_xx1_1;1792;;;F:1, F:8, X:2, Y:4, F:1, C:8, W:3, X:28, W:1, H:3, X:1, Y:14, C:16, F:16, ;223.1856710910797
59;0;MobilNet_03;0.6763823;0.017020637920183844;1;axe_out_channels1_0,axe_out_channels1_1,axe_xx1_0,axe_yy1_0,axe_out_channels1_2;64;;;F:2, F:1, X:2, Y:4, F:4, C:8, W:3, X:28, W:1, H:3, X:1, Y:14, C:16, F:16, ;224.91161108016968
59;1;MobilNet_03;0.5062792999999999;0.006540981104543869;1;axe_out_channels1_0,axe_out_channels1_1,axe_xx1_0,axe_yy1_0,axe_out_channels1_2,axe_xx1_1;1792;;;F:2, F:1, X:2, Y:4, F:4, C:8, W:3, X:28, W:1, H:3, X:1, Y:14, C:16, F:16, ;226.63051080703735
60;0;MobilNet_03;0.7240881;0.005584154268105421;1;axe_out_channels1_0,axe_out_channels1_1,axe_xx1_0,axe_yy1_0,axe_out_channels1_2;64;;;F:2, F:2, X:2, Y:4, F:2, C:8, W:3, X:28, W:1, H:3, X:1, Y:14, C:16, F:16, ;228.3628339767456
60;1;MobilNet_03;0.5108233;0.006741805485921433;1;axe_out_channels1_0,axe_out_channels1_1,axe_xx1_0,axe_yy1_0,axe_out_channels1_2,axe_xx1_1;1792;;;F:2, F:2, X:2, Y:4, F:2, C:8, W:3, X:28, W:1, H:3, X:1, Y:14, C:16, F:16, ;230.07834339141846
61;0;MobilNet_03;0.7568257;0.013327958778822832;1;axe_out_channels1_0,axe_out_channels1_1,axe_xx1_0,axe_yy1_0,axe_out_channels1_2;64;;;F:2, F:4, X:2, Y:4, F:1, C:8, W:3, X:28, W:1, H:3, X:1, Y:14, C:16, F:16, ;231.83470034599304
61;1;MobilNet_03;0.5300451;0.009345278245723876;1;axe_out_channels1_0,axe_out_channels1_1,axe_xx1_0,axe_yy1_0,axe_out_channels1_2,axe_xx1_1;1792;;;F:2, F:4, X:2, Y:4, F:1, C:8, W:3, X:28, W:1, H:3, X:1, Y:14, C:16, F:16, ;233.5510196685791
62;0;MobilNet_03;0.7276162;0.009416854929327534;1;axe_out_channels1_0,axe_out_channels1_1,axe_xx1_0,axe_yy1_0,axe_out_channels1_2;64;;;F:4, F:1, X:2, Y:4, F:2, C:8, W:3, X:28, W:1, H:3, X:1, Y:14, C:16, F:16, ;235.28057432174683
62;1;MobilNet_03;0.5286173000000001;0.005491819753961334;1;axe_out_channels1_0,axe_out_channels1_1,axe_xx1_0,axe_yy1_0,axe_out_channels1_2,axe_xx1_1;1792;;;F:4, F:1, X:2, Y:4, F:2, C:8, W:3, X:28, W:1, H:3, X:1, Y:14, C:16, F:16, ;236.99543023109436
63;0;MobilNet_03;0.7641917;0.01977205141633007;1;axe_out_channels1_0,axe_out_channels1_1,axe_xx1_0,axe_yy1_0,axe_out_channels1_2;64;;;F:4, F:2, X:2, Y:4, F:1, C:8, W:3, X:28, W:1, H:3, X:1, Y:14, C:16, F:16, ;238.73178124427795
63;1;MobilNet_03;0.5269996000000001;0.002934308375068989;1;axe_out_channels1_0,axe_out_channels1_1,axe_xx1_0,axe_yy1_0,axe_out_channels1_2,axe_xx1_1;1792;;;F:4, F:2, X:2, Y:4, F:1, C:8, W:3, X:28, W:1, H:3, X:1, Y:14, C:16, F:16, ;240.44716668128967
64;0;MobilNet_03;0.7758662000000001;0.031240383092401396;1;axe_out_channels1_0,axe_out_channels1_1,axe_xx1_0,axe_yy1_0,axe_out_channels1_2;64;;;F:8, F:1, X:2, Y:4, F:1, C:8, W:3, X:28, W:1, H:3, X:1, Y:14, C:16, F:16, ;242.1853210926056
64;1;MobilNet_03;0.5361602999999999;0.012410451104210508;1;axe_out_channels1_0,axe_out_channels1_1,axe_xx1_0,axe_yy1_0,axe_out_channels1_2,axe_xx1_1;1792;;;F:8, F:1, X:2, Y:4, F:1, C:8, W:3, X:28, W:1, H:3, X:1, Y:14, C:16, F:16, ;243.90322518348694
65;0;MobilNet_03;0.6264615;0.006590745287901821;1;axe_yy1_0,axe_xx1_0,axe_out_channels1_0;56;;;Y:14, X:2, F:2, C:1, H:3, X:28, W:3, H:1, X:1, Y:4, C:128, F:64, ;245.61219692230225
65;1;MobilNet_03;0.49219409999999997;0.0017365139475397297;1;axe_yy1_0,axe_xx1_0,axe_out_channels1_0,axe_xx1_1;1568;;;Y:14, X:2, F:2, C:1, H:3, X:28, W:3, H:1, X:1, Y:4, C:128, F:64, ;247.30850768089294
66;0;MobilNet_03;0.7688019999999999;0.021857179731154718;1;axe_yy1_0,axe_xx1_0,axe_out_channels1_0;56;;;Y:14, X:2, F:2, C:4, H:3, X:28, W:3, H:1, X:1, Y:4, C:32, F:64, ;249.0247025489807
66;1;MobilNet_03;0.5043278;0.00169484889001941;1;axe_yy1_0,axe_xx1_0,axe_out_channels1_0,axe_xx1_1;1568;;;Y:14, X:2, F:2, C:4, H:3, X:28, W:3, H:1, X:1, Y:4, C:32, F:64, ;250.72608160972595
67;0;MobilNet_03;1.0173751000000002;0.004509902714028338;2;axe_xx1_1;56;axe_xx2_1;56;Y:7, X:1, F:2, C:1, H:3, X:56, W:3, H:1, X:1, Y:6, C:128, F:64, ;252.92400431632996
67;1;MobilNet_03;0.5973972;0.001934758992743003;2;axe_yy1_0,axe_xx1_0,axe_out_channels1_0,axe_xx1_1;784;axe_yy2_0,axe_xx2_0,axe_out_channels2_0,axe_xx2_1;224;Y:7, X:1, F:2, C:1, H:3, X:56, W:3, H:1, X:1, Y:6, C:128, F:64, ;255.0680112838745
68;0;MobilNet_03;1.0056904;0.008398959747492519;2;axe_xx1_0,axe_yy1_0,axe_xx1_1,axe_out_channels1_0;16;axe_xx2_0,axe_yy2_0,axe_xx2_1,axe_out_channels2_0;48;X:1, Y:1, X:4, F:4, C:4, W:3, X:14, H:3, W:1, H:1, X:1, Y:11, C:32, F:32, ;256.9527096748352
68;1;MobilNet_03;0.9606504000000001;0.011942568670097764;2;axe_xx1_0,axe_yy1_0,axe_xx1_1,axe_out_channels1_0,axe_xx1_2;224;axe_xx2_0,axe_yy2_0,axe_xx2_1,axe_out_channels2_0,axe_xx2_2;672;X:1, Y:1, X:4, F:4, C:4, W:3, X:14, H:3, W:1, H:1, X:1, Y:11, C:32, F:32, ;258.8366436958313
69;0;MobilNet_03;0.9918633;0.003859610266594291;2;axe_xx1_0,axe_yy1_0,axe_xx1_1,axe_out_channels1_0;16;axe_xx2_0,axe_yy2_0,axe_xx2_1,axe_out_channels2_0;48;X:2, Y:1, X:2, F:4, C:4, W:3, X:14, H:3, W:1, H:1, X:1, Y:11, C:32, F:32, ;260.7203166484833
69;1;MobilNet_03;0.9605844000000001;0.015185560939260684;2;axe_xx1_0,axe_yy1_0,axe_xx1_1,axe_out_channels1_0,axe_xx1_2;224;axe_xx2_0,axe_yy2_0,axe_xx2_1,axe_out_channels2_0,axe_xx2_2;672;X:2, Y:1, X:2, F:4, C:4, W:3, X:14, H:3, W:1, H:1, X:1, Y:11, C:32, F:32, ;262.6030533313751
70;0;MobilNet_03;1.009786;0.005919048504616251;2;axe_xx1_0,axe_yy1_0,axe_xx1_1,axe_out_channels1_0;16;axe_xx2_0,axe_yy2_0,axe_xx2_1,axe_out_channels2_0;48;X:4, Y:1, X:1, F:4, C:4, W:3, X:14, H:3, W:1, H:1, X:1, Y:11, C:32, F:32, ;264.48698329925537
70;1;MobilNet_03;0.9517407;0.004811344220693422;2;axe_xx1_0,axe_yy1_0,axe_xx1_1,axe_out_channels1_0,axe_xx1_2;224;axe_xx2_0,axe_yy2_0,axe_xx2_1,axe_out_channels2_0,axe_xx2_2;672;X:4, Y:1, X:1, F:4, C:4, W:3, X:14, H:3, W:1, H:1, X:1, Y:11, C:32, F:32, ;266.36846566200256
71;0;MobilNet_03;1.0815996;0.0029937134198182854;2;axe_xx1_1;56;axe_xx2_1;56;Y:7, X:1, F:2, C:1, H:3, X:56, W:3, H:1, X:1, Y:5, C:128, F:64, ;268.5470242500305
71;1;MobilNet_03;0.6267543;0.0010975697745473853;2;axe_yy1_0,axe_xx1_0,axe_out_channels1_0,axe_xx1_1;784;axe_yy2_0,axe_xx2_0,axe_out_channels2_0,axe_xx2_1;336;Y:7, X:1, F:2, C:1, H:3, X:56, W:3, H:1, X:1, Y:5, C:128, F:64, ;270.6793587207794
72;0;MobilNet_03;1.1570339;0.0030764087651025743;2;axe_xx1_1;56;axe_xx2_1;56;Y:7, X:1, F:2, C:1, H:3, X:56, W:3, H:1, X:1, Y:4, C:128, F:64, ;272.858681678772
72;1;MobilNet_03;0.6644229;0.0030909455656805;2;axe_yy1_0,axe_xx1_0,axe_out_channels1_0,axe_xx1_1;784;axe_yy2_0,axe_xx2_0,axe_out_channels2_0,axe_xx2_1;448;Y:7, X:1, F:2, C:1, H:3, X:56, W:3, H:1, X:1, Y:4, C:128, F:64, ;274.9848232269287
73;0;MobilNet_03;1.0046072;0.004037791123869539;2;axe_yy1_0,axe_xx1_0,axe_out_channels1_0;28;axe_xx2_1;28;Y:7, X:2, F:2, C:2, H:3, X:28, W:3, H:1, X:1, Y:6, C:64, F:64, ;277.1816637516022
73;1;MobilNet_03;0.5881382;0.0037953902249966277;2;axe_yy1_0,axe_xx1_0,axe_out_channels1_0,axe_xx1_1;784;axe_yy2_0,axe_xx2_0,axe_out_channels2_0,axe_xx2_1;224;Y:7, X:2, F:2, C:2, H:3, X:28, W:3, H:1, X:1, Y:6, C:64, F:64, ;279.34291768074036
74;0;MobilNet_03;2.8473675999999997;0.0041658382637831115;1;axe_xx1_1;56;;;Y:14, X:1, F:2, C:4, H:3, X:56, W:3, H:1, X:1, Y:4, C:32, F:64, ;281.16420459747314
74;1;MobilNet_03;0.5061891000000001;0.003262872980978537;1;axe_yy1_0,axe_xx1_0,axe_out_channels1_0,axe_xx1_1;1568;;;Y:14, X:1, F:2, C:4, H:3, X:56, W:3, H:1, X:1, Y:4, C:32, F:64, ;282.86785912513733
75;0;MobilNet_03;0.8747133;0.0018930871110437455;2;axe_yy1_0,axe_xx1_0,axe_out_channels1_0;28;axe_xx2_1;28;Y:7, X:2, F:2, C:1, H:3, X:28, W:3, H:1, X:1, Y:6, C:128, F:64, ;285.0543472766876
75;1;MobilNet_03;0.5904773000000001;0.001201629231501977;2;axe_yy1_0,axe_xx1_0,axe_out_channels1_0,axe_xx1_1;784;axe_yy2_0,axe_xx2_0,axe_out_channels2_0,axe_xx2_1;224;Y:7, X:2, F:2, C:1, H:3, X:28, W:3, H:1, X:1, Y:6, C:128, F:64, ;287.2016386985779
76;0;MobilNet_03;0.6325280000000001;0.004425573522155068;1;axe_yy1_0,axe_xx1_0,axe_out_channels1_0;32;;;Y:8, X:2, F:2, C:4, H:3, X:28, W:3, H:1, X:1, Y:7, C:32, F:64, ;288.9422962665558
76;1;MobilNet_03;0.6636312999999999;0.008125225831323099;1;axe_yy1_0,axe_xx1_0,axe_out_channels1_0,axe_xx1_1;896;;;Y:8, X:2, F:2, C:4, H:3, X:28, W:3, H:1, X:1, Y:7, C:32, F:64, ;290.68451714515686
77;0;MobilNet_03;1.2054142;0.004719921732401936;2;axe_yy1_0,axe_xx1_0,axe_out_channels1_0;28;axe_xx2_1;28;Y:7, X:2, F:2, C:2, H:3, X:28, W:3, H:1, X:1, Y:5, C:64, F:64, ;292.8718547821045
77;1;MobilNet_03;0.6021614;0.003161806989681679;2;axe_yy1_0,axe_xx1_0,axe_out_channels1_0,axe_xx1_1;784;axe_yy2_0,axe_xx2_0,axe_out_channels2_0,axe_xx2_1;336;Y:7, X:2, F:2, C:2, H:3, X:28, W:3, H:1, X:1, Y:5, C:64, F:64, ;295.01707339286804
78;0;MobilNet_03;0.5997304999999999;0.0025148712988938503;1;axe_yy1_0,axe_xx1_0,axe_out_channels1_0;64;;;Y:8, X:4, F:2, C:1, H:3, X:14, W:3, H:1, X:1, Y:7, C:128, F:64, ;296.75446224212646
78;1;MobilNet_03;0.6849554999999999;0.0007237347925863617;1;axe_yy1_0,axe_xx1_0,axe_out_channels1_0,axe_xx1_1;896;;;Y:8, X:4, F:2, C:1, H:3, X:14, W:3, H:1, X:1, Y:7, C:128, F:64, ;298.48951148986816
79;0;MobilNet_03;0.6961429;0.002365975124552262;1;axe_yy1_0,axe_xx1_0,axe_out_channels1_0;64;;;Y:8, X:4, F:2, C:4, W:3, X:14, H:3, W:1, H:1, X:1, Y:7, C:32, F:64, ;300.208979845047
79;1;MobilNet_03;1.9022894000000001;0.005434379324265118;1;axe_yy1_0,axe_xx1_0,axe_out_channels1_0,axe_xx1_1;896;;;Y:8, X:4, F:2, C:4, W:3, X:14, H:3, W:1, H:1, X:1, Y:7, C:32, F:64, ;301.969119310379
80;0;MobilNet_03;1.7681546000000001;0.009785424285129378;1;axe_yy1_0,axe_xx1_0,axe_out_channels1_0;64;;;Y:8, X:4, F:2, C:4, W:3, X:14, W:1, H:3, X:1, Y:7, C:32, F:64, ;303.75060200691223
80;1;MobilNet_03;1.4424433;0.00406212028502361;1;axe_yy1_0,axe_xx1_0,axe_out_channels1_0,axe_xx1_1;896;;;Y:8, X:4, F:2, C:4, W:3, X:14, W:1, H:3, X:1, Y:7, C:32, F:64, ;305.51628494262695
81;0;MobilNet_03;0.6579255999999999;0.005978966235061056;1;axe_yy1_0,axe_xx1_0,axe_out_channels1_0;64;;;Y:8, X:4, F:2, C:4, H:3, X:14, W:3, H:1, X:1, Y:7, C:32, F:64, ;307.2546956539154
81;1;MobilNet_03;0.6584492;0.014458501407822308;1;axe_yy1_0,axe_xx1_0,axe_out_channels1_0,axe_xx1_1;896;;;Y:8, X:4, F:2, C:4, H:3, X:14, W:3, H:1, X:1, Y:7, C:32, F:64, ;308.9967429637909
82;0;MobilNet_03;0.8209457;0.006817394385687242;1;axe_yy1_0,axe_xx1_0,axe_out_channels1_0;64;;;Y:8, X:4, F:2, C:8, W:3, X:14, H:3, W:1, H:1, X:1, Y:7, C:16, F:64, ;310.7192544937134
82;1;MobilNet_03;2.0119015;0.005055309214083681;1;axe_yy1_0,axe_xx1_0,axe_out_channels1_0,axe_xx1_1;896;;;Y:8, X:4, F:2, C:8, W:3, X:14, H:3, W:1, H:1, X:1, Y:7, C:16, F:64, ;312.4844329357147
83;0;MobilNet_03;1.8454907999999999;0.02008963879117792;1;axe_yy1_0,axe_xx1_0,axe_out_channels1_0;64;;;Y:8, X:4, F:2, C:8, W:3, X:14, W:1, H:3, X:1, Y:7, C:16, F:64, ;314.2693088054657
83;1;MobilNet_03;1.5065427;0.007946753312517004;1;axe_yy1_0,axe_xx1_0,axe_out_channels1_0,axe_xx1_1;896;;;Y:8, X:4, F:2, C:8, W:3, X:14, W:1, H:3, X:1, Y:7, C:16, F:64, ;316.03316617012024
84;0;MobilNet_03;0.9921192999999999;0.0023431746861896636;2;axe_yy1_0,axe_xx1_0,axe_out_channels1_0;28;axe_xx2_1;28;Y:7, X:2, F:2, C:1, H:3, X:28, W:3, H:1, X:1, Y:5, C:128, F:64, ;318.21167278289795
84;1;MobilNet_03;0.6250473;0.0018086043818370042;2;axe_yy1_0,axe_xx1_0,axe_out_channels1_0,axe_xx1_1;784;axe_yy2_0,axe_xx2_0,axe_out_channels2_0,axe_xx2_1;336;Y:7, X:2, F:2, C:1, H:3, X:28, W:3, H:1, X:1, Y:5, C:128, F:64, ;320.3452899456024
85;0;MobilNet_03;1.1191423999999999;0.001895965833025519;2;axe_yy1_0,axe_xx1_0,axe_out_channels1_0;28;axe_xx2_1;28;Y:7, X:2, F:2, C:1, H:3, X:28, W:3, H:1, X:1, Y:4, C:128, F:64, ;322.52215218544006
85;1;MobilNet_03;0.703375;0.004229712023294279;2;axe_yy1_0,axe_xx1_0,axe_out_channels1_0,axe_xx1_1;784;axe_yy2_0,axe_xx2_0,axe_out_channels2_0,axe_xx2_1;448;Y:7, X:2, F:2, C:1, H:3, X:28, W:3, H:1, X:1, Y:4, C:128, F:64, ;324.66293025016785
86;0;MobilNet_03;0.8747786;0.0036414358486728756;2;axe_xx1_0,axe_yy1_0,axe_xx1_1,axe_out_channels1_0;32;axe_xx2_0,axe_yy2_0,axe_xx2_1,axe_out_channels2_0;48;X:1, Y:2, X:4, F:4, C:4, W:3, X:14, H:3, W:1, H:1, X:1, Y:10, C:32, F:32, ;326.80966663360596
86;1;MobilNet_03;0.6672694;0.0020807969723161345;2;axe_xx1_0,axe_yy1_0,axe_xx1_1,axe_out_channels1_0,axe_xx1_2;448;axe_xx2_0,axe_yy2_0,axe_xx2_1,axe_out_channels2_0,axe_xx2_2;672;X:1, Y:2, X:4, F:4, C:4, W:3, X:14, H:3, W:1, H:1, X:1, Y:10, C:32, F:32, ;328.9369339942932
87;0;MobilNet_03;0.8535686;0.002798114658122491;2;axe_xx1_0,axe_yy1_0,axe_xx1_1,axe_out_channels1_0;32;axe_xx2_0,axe_yy2_0,axe_xx2_1,axe_out_channels2_0;48;X:2, Y:2, X:2, F:4, C:4, W:3, X:14, H:3, W:1, H:1, X:1, Y:10, C:32, F:32, ;331.07353472709656
87;1;MobilNet_03;0.6695142000000001;0.003637606377825944;2;axe_xx1_0,axe_yy1_0,axe_xx1_1,axe_out_channels1_0,axe_xx1_2;448;axe_xx2_0,axe_yy2_0,axe_xx2_1,axe_out_channels2_0,axe_xx2_2;672;X:2, Y:2, X:2, F:4, C:4, W:3, X:14, H:3, W:1, H:1, X:1, Y:10, C:32, F:32, ;333.20399498939514
88;0;MobilNet_03;0.872333;0.0035771998266800795;2;axe_xx1_0,axe_yy1_0,axe_xx1_1,axe_out_channels1_0;32;axe_xx2_0,axe_yy2_0,axe_xx2_1,axe_out_channels2_0;48;X:4, Y:2, X:1, F:4, C:4, W:3, X:14, H:3, W:1, H:1, X:1, Y:10, C:32, F:32, ;335.3374273777008
88;1;MobilNet_03;0.6632861;0.003354740748552717;2;axe_xx1_0,axe_yy1_0,axe_xx1_1,axe_out_channels1_0,axe_xx1_2;448;axe_xx2_0,axe_yy2_0,axe_xx2_1,axe_out_channels2_0,axe_xx2_2;672;X:4, Y:2, X:1, F:4, C:4, W:3, X:14, H:3, W:1, H:1, X:1, Y:10, C:32, F:32, ;337.4600353240967
89;0;MobilNet_03;0.8513349;0.0023101259034952974;2;axe_xx1_0,axe_yy1_0,axe_xx1_1,axe_out_channels1_0;48;axe_xx2_0,axe_yy2_0,axe_xx2_1,axe_out_channels2_0;32;X:1, Y:3, X:4, F:4, C:4, W:3, X:14, H:3, W:1, H:1, X:1, Y:10, C:32, F:32, ;339.6026885509491
89;1;MobilNet_03;0.6628847000000001;0.0023732774405871783;2;axe_xx1_0,axe_yy1_0,axe_xx1_1,axe_out_channels1_0,axe_xx1_2;672;axe_xx2_0,axe_yy2_0,axe_xx2_1,axe_out_channels2_0,axe_xx2_2;448;X:1, Y:3, X:4, F:4, C:4, W:3, X:14, H:3, W:1, H:1, X:1, Y:10, C:32, F:32, ;341.7346398830414
90;0;MobilNet_03;0.8553900000000001;0.003065553816197003;2;axe_xx1_0,axe_yy1_0,axe_xx1_1,axe_out_channels1_0;48;axe_xx2_0,axe_yy2_0,axe_xx2_1,axe_out_channels2_0;32;X:2, Y:3, X:2, F:4, C:4, W:3, X:14, H:3, W:1, H:1, X:1, Y:10, C:32, F:32, ;343.8803985118866
90;1;MobilNet_03;0.6623192;0.0037373657781918997;2;axe_xx1_0,axe_yy1_0,axe_xx1_1,axe_out_channels1_0,axe_xx1_2;672;axe_xx2_0,axe_yy2_0,axe_xx2_1,axe_out_channels2_0,axe_xx2_2;448;X:2, Y:3, X:2, F:4, C:4, W:3, X:14, H:3, W:1, H:1, X:1, Y:10, C:32, F:32, ;346.01460790634155
91;0;MobilNet_03;0.8502087999999999;0.00515543838679119;2;axe_xx1_0,axe_yy1_0,axe_xx1_1,axe_out_channels1_0;48;axe_xx2_0,axe_yy2_0,axe_xx2_1,axe_out_channels2_0;32;X:4, Y:3, X:1, F:4, C:4, W:3, X:14, H:3, W:1, H:1, X:1, Y:10, C:32, F:32, ;348.1544678211212
91;1;MobilNet_03;0.6620003;0.0036185219648359234;2;axe_xx1_0,axe_yy1_0,axe_xx1_1,axe_out_channels1_0,axe_xx1_2;672;axe_xx2_0,axe_yy2_0,axe_xx2_1,axe_out_channels2_0,axe_xx2_2;448;X:4, Y:3, X:1, F:4, C:4, W:3, X:14, H:3, W:1, H:1, X:1, Y:10, C:32, F:32, ;350.28550577163696
92;0;MobilNet_03;0.8003648;0.005208222264842395;2;axe_xx1_0,axe_yy1_0,axe_xx1_1,axe_out_channels1_0;64;axe_xx2_0,axe_yy2_0,axe_xx2_1,axe_out_channels2_0;16;X:1, Y:4, X:4, F:4, C:4, W:3, X:14, H:3, W:1, H:1, X:1, Y:11, C:32, F:32, ;352.41153264045715
92;1;MobilNet_03;0.6617253;0.0037208789028937684;2;axe_xx1_0,axe_yy1_0,axe_xx1_1,axe_out_channels1_0,axe_xx1_2;896;axe_xx2_0,axe_yy2_0,axe_xx2_1,axe_out_channels2_0,axe_xx2_2;224;X:1, Y:4, X:4, F:4, C:4, W:3, X:14, H:3, W:1, H:1, X:1, Y:11, C:32, F:32, ;354.5228385925293
93;0;MobilNet_03;0.8008611000000002;0.0033816665551174583;2;axe_xx1_0,axe_yy1_0,axe_xx1_1,axe_out_channels1_0;64;axe_xx2_0,axe_yy2_0,axe_xx2_1,axe_out_channels2_0;16;X:2, Y:4, X:2, F:4, C:4, W:3, X:14, H:3, W:1, H:1, X:1, Y:11, C:32, F:32, ;356.64910888671875
93;1;MobilNet_03;0.6637621;0.003644540120509009;2;axe_xx1_0,axe_yy1_0,axe_xx1_1,axe_out_channels1_0,axe_xx1_2;896;axe_xx2_0,axe_yy2_0,axe_xx2_1,axe_out_channels2_0,axe_xx2_2;224;X:2, Y:4, X:2, F:4, C:4, W:3, X:14, H:3, W:1, H:1, X:1, Y:11, C:32, F:32, ;358.76862621307373
94;0;MobilNet_03;0.8099826;0.00225814570831911;2;axe_xx1_0,axe_yy1_0,axe_xx1_1,axe_out_channels1_0;64;axe_xx2_0,axe_yy2_0,axe_xx2_1,axe_out_channels2_0;16;X:4, Y:4, X:1, F:4, C:4, W:3, X:14, H:3, W:1, H:1, X:1, Y:11, C:32, F:32, ;360.8947377204895
94;1;MobilNet_03;0.6638995;0.006473713497676598;2;axe_xx1_0,axe_yy1_0,axe_xx1_1,axe_out_channels1_0,axe_xx1_2;896;axe_xx2_0,axe_yy2_0,axe_xx2_1,axe_out_channels2_0,axe_xx2_2;224;X:4, Y:4, X:1, F:4, C:4, W:3, X:14, H:3, W:1, H:1, X:1, Y:11, C:32, F:32, ;363.01308155059814
95;0;MobilNet_03;0.9391439;0.011913379532693485;2;axe_xx1_0,axe_yy1_0,axe_xx1_1,axe_out_channels1_0;32;axe_xx2_0,axe_yy2_0,axe_xx2_1,axe_out_channels2_0;48;X:1, Y:2, X:4, F:4, C:4, W:3, X:14, W:1, H:3, X:1, Y:10, C:32, F:32, ;365.17586278915405
95;1;MobilNet_03;0.6591631;0.012821734613148115;2;axe_xx1_0,axe_yy1_0,axe_xx1_1,axe_out_channels1_0,axe_xx1_2;448;axe_xx2_0,axe_yy2_0,axe_xx2_1,axe_out_channels2_0,axe_xx2_2;672;X:1, Y:2, X:4, F:4, C:4, W:3, X:14, W:1, H:3, X:1, Y:10, C:32, F:32, ;367.32534980773926
96;0;MobilNet_03;0.9276544000000001;0.008130441060606756;2;axe_xx1_0,axe_yy1_0,axe_xx1_1,axe_out_channels1_0;32;axe_xx2_0,axe_yy2_0,axe_xx2_1,axe_out_channels2_0;48;X:2, Y:2, X:2, F:4, C:4, W:3, X:14, W:1, H:3, X:1, Y:10, C:32, F:32, ;369.49257135391235
96;1;MobilNet_03;0.6596463;0.012380643238943612;2;axe_xx1_0,axe_yy1_0,axe_xx1_1,axe_out_channels1_0,axe_xx1_2;448;axe_xx2_0,axe_yy2_0,axe_xx2_1,axe_out_channels2_0,axe_xx2_2;672;X:2, Y:2, X:2, F:4, C:4, W:3, X:14, W:1, H:3, X:1, Y:10, C:32, F:32, ;371.64331221580505
97;0;MobilNet_03;0.9326645999999998;0.002625479582857213;2;axe_xx1_0,axe_yy1_0,axe_xx1_1,axe_out_channels1_0;32;axe_xx2_0,axe_yy2_0,axe_xx2_1,axe_out_channels2_0;48;X:4, Y:2, X:1, F:4, C:4, W:3, X:14, W:1, H:3, X:1, Y:10, C:32, F:32, ;373.8026340007782
97;1;MobilNet_03;0.6699359;0.01956777436220073;2;axe_xx1_0,axe_yy1_0,axe_xx1_1,axe_out_channels1_0,axe_xx1_2;448;axe_xx2_0,axe_yy2_0,axe_xx2_1,axe_out_channels2_0,axe_xx2_2;672;X:4, Y:2, X:1, F:4, C:4, W:3, X:14, W:1, H:3, X:1, Y:10, C:32, F:32, ;375.9586248397827
98;0;MobilNet_03;0.8482359;0.0018146698019198822;2;axe_xx1_0,axe_yy1_0,axe_xx1_1,axe_out_channels1_0;64;axe_xx2_0,axe_yy2_0,axe_xx2_1,axe_out_channels2_0;16;X:1, Y:4, X:4, F:4, C:4, W:3, X:14, W:1, H:3, X:1, Y:11, C:32, F:32, ;378.1241772174835
98;1;MobilNet_03;0.6822536000000001;0.018473809278002223;2;axe_xx1_0,axe_yy1_0,axe_xx1_1,axe_out_channels1_0,axe_xx1_2;896;axe_xx2_0,axe_yy2_0,axe_xx2_1,axe_out_channels2_0,axe_xx2_2;224;X:1, Y:4, X:4, F:4, C:4, W:3, X:14, W:1, H:3, X:1, Y:11, C:32, F:32, ;380.2825973033905
99;0;MobilNet_03;0.8469557;0.0029596618404810933;2;axe_xx1_0,axe_yy1_0,axe_xx1_1,axe_out_channels1_0;64;axe_xx2_0,axe_yy2_0,axe_xx2_1,axe_out_channels2_0;16;X:2, Y:4, X:2, F:4, C:4, W:3, X:14, W:1, H:3, X:1, Y:11, C:32, F:32, ;382.4510862827301
99;1;MobilNet_03;0.6853325;0.018467044486056777;2;axe_xx1_0,axe_yy1_0,axe_xx1_1,axe_out_channels1_0,axe_xx1_2;896;axe_xx2_0,axe_yy2_0,axe_xx2_1,axe_out_channels2_0,axe_xx2_2;224;X:2, Y:4, X:2, F:4, C:4, W:3, X:14, W:1, H:3, X:1, Y:11, C:32, F:32, ;384.6113827228546
100;0;MobilNet_03;0.8724468;0.004380700669984203;2;axe_xx1_0,axe_yy1_0,axe_xx1_1,axe_out_channels1_0;64;axe_xx2_0,axe_yy2_0,axe_xx2_1,axe_out_channels2_0;16;X:4, Y:4, X:1, F:4, C:4, W:3, X:14, W:1, H:3, X:1, Y:11, C:32, F:32, ;386.7754135131836
100;1;MobilNet_03;0.6855779;0.016467076695333645;2;axe_xx1_0,axe_yy1_0,axe_xx1_1,axe_out_channels1_0,axe_xx1_2;896;axe_xx2_0,axe_yy2_0,axe_xx2_1,axe_out_channels2_0,axe_xx2_2;224;X:4, Y:4, X:1, F:4, C:4, W:3, X:14, W:1, H:3, X:1, Y:11, C:32, F:32, ;388.9318480491638
101;0;MobilNet_03;1.4125245;0.0047591977527730546;2;axe_yy1_0,axe_xx1_0,axe_out_channels1_0;28;axe_xx2_1;28;Y:7, X:2, F:2, C:2, H:3, X:28, W:3, H:1, X:1, Y:4, C:64, F:64, ;391.12866854667664
101;1;MobilNet_03;0.7078644;0.010383907821239565;2;axe_yy1_0,axe_xx1_0,axe_out_channels1_0,axe_xx1_1;784;axe_yy2_0,axe_xx2_0,axe_out_channels2_0,axe_xx2_1;448;Y:7, X:2, F:2, C:2, H:3, X:28, W:3, H:1, X:1, Y:4, C:64, F:64, ;393.27167534828186
102;0;MobilNet_03;0.6720013999999999;0.003051748685589958;1;axe_yy1_0,axe_xx1_0,axe_out_channels1_0;56;;;Y:14, X:2, F:2, C:2, H:3, X:28, W:3, H:1, X:1, Y:4, C:64, F:64, ;394.98381304740906
102;1;MobilNet_03;0.5195369999999999;0.005172864718896083;1;axe_yy1_0,axe_xx1_0,axe_out_channels1_0,axe_xx1_1;1568;;;Y:14, X:2, F:2, C:2, H:3, X:28, W:3, H:1, X:1, Y:4, C:64, F:64, ;396.6884117126465
103;0;MobilNet_03;0.5950374;0.0019104268737640798;1;axe_xx1_0,axe_yy1_0,axe_xx1_1,axe_out_channels1_0;112;;;X:1, Y:7, X:4, F:4, C:2, W:3, X:14, H:3, W:1, H:1, X:1, Y:8, C:64, F:32, ;398.4085364341736
103;1;MobilNet_03;0.5695785000000001;0.003471121439823155;1;axe_xx1_0,axe_yy1_0,axe_xx1_1,axe_out_channels1_0,axe_xx1_2;1568;;;X:1, Y:7, X:4, F:4, C:2, W:3, X:14, H:3, W:1, H:1, X:1, Y:8, C:64, F:32, ;400.12136363983154
104;0;MobilNet_03;0.6389033;0.004461564076643957;1;axe_xx1_0,axe_yy1_0,axe_xx1_1,axe_out_channels1_0;112;;;X:2, Y:7, X:2, F:4, C:2, W:3, X:14, H:3, W:1, H:1, X:1, Y:8, C:64, F:32, ;401.84813618659973
104;1;MobilNet_03;0.5731896;0.0015696549429731546;1;axe_xx1_0,axe_yy1_0,axe_xx1_1,axe_out_channels1_0,axe_xx1_2;1568;;;X:2, Y:7, X:2, F:4, C:2, W:3, X:14, H:3, W:1, H:1, X:1, Y:8, C:64, F:32, ;403.5636262893677
105;0;MobilNet_03;0.6027474;0.006446078252705286;1;axe_xx1_0,axe_yy1_0,axe_xx1_1,axe_out_channels1_0;112;;;X:4, Y:7, X:1, F:4, C:2, W:3, X:14, H:3, W:1, H:1, X:1, Y:8, C:64, F:32, ;405.28396010398865
105;1;MobilNet_03;0.5699742999999999;0.0037743875542927507;1;axe_xx1_0,axe_yy1_0,axe_xx1_1,axe_out_channels1_0,axe_xx1_2;1568;;;X:4, Y:7, X:1, F:4, C:2, W:3, X:14, H:3, W:1, H:1, X:1, Y:8, C:64, F:32, ;406.9971389770508
106;0;MobilNet_03;0.617917;0.0019054372201675917;1;axe_xx1_0,axe_yy1_0,axe_xx1_1,axe_out_channels1_0;112;;;X:1, Y:4, X:7, F:4, C:2, W:3, X:8, H:3, W:1, H:1, X:1, Y:14, C:64, F:32, ;408.7348120212555
106;1;MobilNet_03;0.5966394;0.003879986371110069;1;axe_xx1_0,axe_yy1_0,axe_xx1_1,axe_out_channels1_0,axe_xx1_2;896;;;X:1, Y:4, X:7, F:4, C:2, W:3, X:8, H:3, W:1, H:1, X:1, Y:14, C:64, F:32, ;410.4668116569519
107;0;MobilNet_03;0.6255371000000001;0.007379075070088372;1;axe_xx1_0,axe_yy1_0,axe_xx1_1,axe_out_channels1_0;112;;;X:7, Y:4, X:1, F:4, C:2, W:3, X:8, H:3, W:1, H:1, X:1, Y:14, C:64, F:32, ;412.2082381248474
107;1;MobilNet_03;0.6011279;0.0058543979101185134;1;axe_xx1_0,axe_yy1_0,axe_xx1_1,axe_out_channels1_0,axe_xx1_2;896;;;X:7, Y:4, X:1, F:4, C:2, W:3, X:8, H:3, W:1, H:1, X:1, Y:14, C:64, F:32, ;413.9380955696106
108;0;MobilNet_03;0.6338005999999999;0.0035029169045239805;1;axe_xx1_0,axe_yy1_0,axe_xx1_1,axe_out_channels1_0;112;;;X:1, Y:7, X:4, F:4, C:4, W:3, X:14, H:3, W:1, H:1, X:1, Y:8, C:32, F:32, ;415.6629271507263
108;1;MobilNet_03;0.5877755;0.0020962358765177157;1;axe_xx1_0,axe_yy1_0,axe_xx1_1,axe_out_channels1_0,axe_xx1_2;1568;;;X:1, Y:7, X:4, F:4, C:4, W:3, X:14, H:3, W:1, H:1, X:1, Y:8, C:32, F:32, ;417.3782455921173
109;0;MobilNet_03;0.7136685;0.009190647226936745;1;axe_xx1_0,axe_yy1_0,axe_xx1_1,axe_out_channels1_0;112;;;X:2, Y:7, X:2, F:4, C:4, W:3, X:14, H:3, W:1, H:1, X:1, Y:8, C:32, F:32, ;419.1066942214966
109;1;MobilNet_03;0.5940291;0.004051206251229367;1;axe_xx1_0,axe_yy1_0,axe_xx1_1,axe_out_channels1_0,axe_xx1_2;1568;;;X:2, Y:7, X:2, F:4, C:4, W:3, X:14, H:3, W:1, H:1, X:1, Y:8, C:32, F:32, ;420.82199788093567
110;0;MobilNet_03;0.6305075;0.004436591084379971;1;axe_xx1_0,axe_yy1_0,axe_xx1_1,axe_out_channels1_0;112;;;X:4, Y:7, X:1, F:4, C:4, W:3, X:14, H:3, W:1, H:1, X:1, Y:8, C:32, F:32, ;422.5447642803192
110;1;MobilNet_03;0.5948583;0.003157496256529824;1;axe_xx1_0,axe_yy1_0,axe_xx1_1,axe_out_channels1_0,axe_xx1_2;1568;;;X:4, Y:7, X:1, F:4, C:4, W:3, X:14, H:3, W:1, H:1, X:1, Y:8, C:32, F:32, ;424.25967836380005
111;0;MobilNet_03;0.6499349000000001;0.001504059137800117;1;axe_xx1_0,axe_yy1_0,axe_xx1_1,axe_out_channels1_0;112;;;X:1, Y:4, X:7, F:4, C:4, W:3, X:8, H:3, W:1, H:1, X:1, Y:14, C:32, F:32, ;425.9977512359619
111;1;MobilNet_03;0.6271669;0.002138623410046759;1;axe_xx1_0,axe_yy1_0,axe_xx1_1,axe_out_channels1_0,axe_xx1_2;896;;;X:1, Y:4, X:7, F:4, C:4, W:3, X:8, H:3, W:1, H:1, X:1, Y:14, C:32, F:32, ;427.72226881980896
112;0;MobilNet_03;0.6555725;0.004830962745664684;1;axe_xx1_0,axe_yy1_0,axe_xx1_1,axe_out_channels1_0;112;;;X:7, Y:4, X:1, F:4, C:4, W:3, X:8, H:3, W:1, H:1, X:1, Y:14, C:32, F:32, ;429.4698600769043
112;1;MobilNet_03;0.6270714000000001;0.003262388088502041;1;axe_xx1_0,axe_yy1_0,axe_xx1_1,axe_out_channels1_0,axe_xx1_2;896;;;X:7, Y:4, X:1, F:4, C:4, W:3, X:8, H:3, W:1, H:1, X:1, Y:14, C:32, F:32, ;431.19234466552734
113;0;MobilNet_03;0.6965259;0.006939767826808057;1;axe_xx1_0,axe_yy1_0,axe_xx1_1,axe_out_channels1_0;112;;;X:1, Y:7, X:4, F:4, C:8, W:3, X:14, H:3, W:1, H:1, X:1, Y:8, C:16, F:32, ;432.91634941101074
113;1;MobilNet_03;0.608968;0.0050011778012784185;1;axe_xx1_0,axe_yy1_0,axe_xx1_1,axe_out_channels1_0,axe_xx1_2;1568;;;X:1, Y:7, X:4, F:4, C:8, W:3, X:14, H:3, W:1, H:1, X:1, Y:8, C:16, F:32, ;434.6325261592865
114;0;MobilNet_03;0.8378752;0.019175826687785873;1;axe_xx1_0,axe_yy1_0,axe_xx1_1,axe_out_channels1_0;112;;;X:2, Y:7, X:2, F:4, C:8, W:3, X:14, H:3, W:1, H:1, X:1, Y:8, C:16, F:32, ;436.36899042129517
114;1;MobilNet_03;0.6134166;0.002804836080771924;1;axe_xx1_0,axe_yy1_0,axe_xx1_1,axe_out_channels1_0,axe_xx1_2;1568;;;X:2, Y:7, X:2, F:4, C:8, W:3, X:14, H:3, W:1, H:1, X:1, Y:8, C:16, F:32, ;438.08330750465393
115;0;MobilNet_03;0.6861442999999999;0.005909308437541572;1;axe_xx1_0,axe_yy1_0,axe_xx1_1,axe_out_channels1_0;112;;;X:4, Y:7, X:1, F:4, C:8, W:3, X:14, H:3, W:1, H:1, X:1, Y:8, C:16, F:32, ;439.80597138404846
115;1;MobilNet_03;0.6061672;0.0024157911250768296;1;axe_xx1_0,axe_yy1_0,axe_xx1_1,axe_out_channels1_0,axe_xx1_2;1568;;;X:4, Y:7, X:1, F:4, C:8, W:3, X:14, H:3, W:1, H:1, X:1, Y:8, C:16, F:32, ;441.51929998397827
116;0;MobilNet_03;0.7242149;0.002234528650521163;1;axe_xx1_0,axe_yy1_0,axe_xx1_1,axe_out_channels1_0;112;;;X:1, Y:4, X:7, F:4, C:8, W:3, X:8, H:3, W:1, H:1, X:1, Y:14, C:16, F:32, ;443.26003789901733
116;1;MobilNet_03;0.6800583;0.002821004361924999;1;axe_xx1_0,axe_yy1_0,axe_xx1_1,axe_out_channels1_0,axe_xx1_2;896;;;X:1, Y:4, X:7, F:4, C:8, W:3, X:8, H:3, W:1, H:1, X:1, Y:14, C:16, F:32, ;444.9818916320801
117;0;MobilNet_03;0.7247927000000001;0.0034989981723345044;1;axe_xx1_0,axe_yy1_0,axe_xx1_1,axe_out_channels1_0;112;;;X:7, Y:4, X:1, F:4, C:8, W:3, X:8, H:3, W:1, H:1, X:1, Y:14, C:16, F:32, ;446.73101115226746
117;1;MobilNet_03;0.6791447;0.0024624696972754944;1;axe_xx1_0,axe_yy1_0,axe_xx1_1,axe_out_channels1_0,axe_xx1_2;896;;;X:7, Y:4, X:1, F:4, C:8, W:3, X:8, H:3, W:1, H:1, X:1, Y:14, C:16, F:32, ;448.4560549259186
118;0;MobilNet_03;0.7650785;0.009902972253318723;2;axe_out_channels1_0,axe_out_channels1_1,axe_xx1_0,axe_yy1_0,axe_out_channels1_2;32;axe_out_channels2_0,axe_out_channels2_1,axe_xx2_0,axe_yy2_0,axe_out_channels2_2;48;F:1, F:1, X:2, Y:2, F:8, C:4, W:3, X:28, W:1, H:3, X:1, Y:10, C:32, F:16, ;450.57872557640076
118;1;MobilNet_03;0.5807763;0.0018917974019434405;2;axe_out_channels1_0,axe_out_channels1_1,axe_xx1_0,axe_yy1_0,axe_out_channels1_2,axe_xx1_1;896;axe_out_channels2_0,axe_out_channels2_1,axe_xx2_0,axe_yy2_0,axe_out_channels2_2,axe_xx2_1;1344;F:1, F:1, X:2, Y:2, F:8, C:4, W:3, X:28, W:1, H:3, X:1, Y:10, C:32, F:16, ;452.68521761894226
119;0;MobilNet_03;0.7557686;0.008003082920974895;2;axe_out_channels1_0,axe_out_channels1_1,axe_xx1_0,axe_yy1_0,axe_out_channels1_2;32;axe_out_channels2_0,axe_out_channels2_1,axe_xx2_0,axe_yy2_0,axe_out_channels2_2;48;F:1, F:2, X:2, Y:2, F:4, C:4, W:3, X:28, W:1, H:3, X:1, Y:10, C:32, F:16, ;454.8110647201538
119;1;MobilNet_03;0.5706526000000001;0.006362765203903087;2;axe_out_channels1_0,axe_out_channels1_1,axe_xx1_0,axe_yy1_0,axe_out_channels1_2,axe_xx1_1;896;axe_out_channels2_0,axe_out_channels2_1,axe_xx2_0,axe_yy2_0,axe_out_channels2_2,axe_xx2_1;1344;F:1, F:2, X:2, Y:2, F:4, C:4, W:3, X:28, W:1, H:3, X:1, Y:10, C:32, F:16, ;456.9219882488251
120;0;MobilNet_03;0.7027952;0.007276313019654942;2;axe_out_channels1_0,axe_out_channels1_1,axe_xx1_0,axe_yy1_0,axe_out_channels1_2;32;axe_out_channels2_0,axe_out_channels2_1,axe_xx2_0,axe_yy2_0,axe_out_channels2_2;48;F:1, F:4, X:2, Y:2, F:2, C:4, W:3, X:28, W:1, H:3, X:1, Y:10, C:32, F:16, ;459.04462218284607
120;1;MobilNet_03;0.5599677;0.005416555308496359;2;axe_out_channels1_0,axe_out_channels1_1,axe_xx1_0,axe_yy1_0,axe_out_channels1_2,axe_xx1_1;896;axe_out_channels2_0,axe_out_channels2_1,axe_xx2_0,axe_yy2_0,axe_out_channels2_2,axe_xx2_1;1344;F:1, F:4, X:2, Y:2, F:2, C:4, W:3, X:28, W:1, H:3, X:1, Y:10, C:32, F:16, ;461.153493642807
121;0;MobilNet_03;0.7062946999999999;0.022505703072999088;2;axe_out_channels1_0,axe_out_channels1_1,axe_xx1_0,axe_yy1_0,axe_out_channels1_2;32;axe_out_channels2_0,axe_out_channels2_1,axe_xx2_0,axe_yy2_0,axe_out_channels2_2;48;F:1, F:8, X:2, Y:2, F:1, C:4, W:3, X:28, W:1, H:3, X:1, Y:10, C:32, F:16, ;463.29416513442993
121;1;MobilNet_03;0.5703379999999999;0.01001863012592045;2;axe_out_channels1_0,axe_out_channels1_1,axe_xx1_0,axe_yy1_0,axe_out_channels1_2,axe_xx1_1;896;axe_out_channels2_0,axe_out_channels2_1,axe_xx2_0,axe_yy2_0,axe_out_channels2_2,axe_xx2_1;1344;F:1, F:8, X:2, Y:2, F:1, C:4, W:3, X:28, W:1, H:3, X:1, Y:10, C:32, F:16, ;465.3973026275635
122;0;MobilNet_03;0.7493741;0.015642668509240974;2;axe_out_channels1_0,axe_out_channels1_1,axe_xx1_0,axe_yy1_0,axe_out_channels1_2;32;axe_out_channels2_0,axe_out_channels2_1,axe_xx2_0,axe_yy2_0,axe_out_channels2_2;48;F:2, F:1, X:2, Y:2, F:4, C:4, W:3, X:28, W:1, H:3, X:1, Y:10, C:32, F:16, ;467.51905512809753
122;1;MobilNet_03;0.572339;0.005325130214370336;2;axe_out_channels1_0,axe_out_channels1_1,axe_xx1_0,axe_yy1_0,axe_out_channels1_2,axe_xx1_1;896;axe_out_channels2_0,axe_out_channels2_1,axe_xx2_0,axe_yy2_0,axe_out_channels2_2,axe_xx2_1;1344;F:2, F:1, X:2, Y:2, F:4, C:4, W:3, X:28, W:1, H:3, X:1, Y:10, C:32, F:16, ;469.62846541404724
123;0;MobilNet_03;0.703225;0.008558574998210867;2;axe_out_channels1_0,axe_out_channels1_1,axe_xx1_0,axe_yy1_0,axe_out_channels1_2;32;axe_out_channels2_0,axe_out_channels2_1,axe_xx2_0,axe_yy2_0,axe_out_channels2_2;48;F:2, F:2, X:2, Y:2, F:2, C:4, W:3, X:28, W:1, H:3, X:1, Y:10, C:32, F:16, ;471.7481224536896
123;1;MobilNet_03;0.5613899;0.004114994713240803;2;axe_out_channels1_0,axe_out_channels1_1,axe_xx1_0,axe_yy1_0,axe_out_channels1_2,axe_xx1_1;896;axe_out_channels2_0,axe_out_channels2_1,axe_xx2_0,axe_yy2_0,axe_out_channels2_2,axe_xx2_1;1344;F:2, F:2, X:2, Y:2, F:2, C:4, W:3, X:28, W:1, H:3, X:1, Y:10, C:32, F:16, ;473.85462284088135
124;0;MobilNet_03;0.7126088999999999;0.01734353336808851;2;axe_out_channels1_0,axe_out_channels1_1,axe_xx1_0,axe_yy1_0,axe_out_channels1_2;32;axe_out_channels2_0,axe_out_channels2_1,axe_xx2_0,axe_yy2_0,axe_out_channels2_2;48;F:2, F:4, X:2, Y:2, F:1, C:4, W:3, X:28, W:1, H:3, X:1, Y:10, C:32, F:16, ;475.9859495162964
124;1;MobilNet_03;0.5628579;0.0075310022101975375;2;axe_out_channels1_0,axe_out_channels1_1,axe_xx1_0,axe_yy1_0,axe_out_channels1_2,axe_xx1_1;896;axe_out_channels2_0,axe_out_channels2_1,axe_xx2_0,axe_yy2_0,axe_out_channels2_2,axe_xx2_1;1344;F:2, F:4, X:2, Y:2, F:1, C:4, W:3, X:28, W:1, H:3, X:1, Y:10, C:32, F:16, ;478.0897982120514
125;0;MobilNet_03;0.705128;0.010121665880673984;2;axe_out_channels1_0,axe_out_channels1_1,axe_xx1_0,axe_yy1_0,axe_out_channels1_2;32;axe_out_channels2_0,axe_out_channels2_1,axe_xx2_0,axe_yy2_0,axe_out_channels2_2;48;F:4, F:1, X:2, Y:2, F:2, C:4, W:3, X:28, W:1, H:3, X:1, Y:10, C:32, F:16, ;480.21258330345154
125;1;MobilNet_03;0.5619191;0.005446816215919139;2;axe_out_channels1_0,axe_out_channels1_1,axe_xx1_0,axe_yy1_0,axe_out_channels1_2,axe_xx1_1;896;axe_out_channels2_0,axe_out_channels2_1,axe_xx2_0,axe_yy2_0,axe_out_channels2_2,axe_xx2_1;1344;F:4, F:1, X:2, Y:2, F:2, C:4, W:3, X:28, W:1, H:3, X:1, Y:10, C:32, F:16, ;482.32557582855225
126;0;MobilNet_03;0.7186985;0.014936173326859878;2;axe_out_channels1_0,axe_out_channels1_1,axe_xx1_0,axe_yy1_0,axe_out_channels1_2;32;axe_out_channels2_0,axe_out_channels2_1,axe_xx2_0,axe_yy2_0,axe_out_channels2_2;48;F:4, F:2, X:2, Y:2, F:1, C:4, W:3, X:28, W:1, H:3, X:1, Y:10, C:32, F:16, ;484.46188139915466
126;1;MobilNet_03;0.5632296;0.005930812207446781;2;axe_out_channels1_0,axe_out_channels1_1,axe_xx1_0,axe_yy1_0,axe_out_channels1_2,axe_xx1_1;896;axe_out_channels2_0,axe_out_channels2_1,axe_xx2_0,axe_yy2_0,axe_out_channels2_2,axe_xx2_1;1344;F:4, F:2, X:2, Y:2, F:1, C:4, W:3, X:28, W:1, H:3, X:1, Y:10, C:32, F:16, ;486.5758275985718
127;0;MobilNet_03;0.7143368;0.016437761981486408;2;axe_out_channels1_0,axe_out_channels1_1,axe_xx1_0,axe_yy1_0,axe_out_channels1_2;32;axe_out_channels2_0,axe_out_channels2_1,axe_xx2_0,axe_yy2_0,axe_out_channels2_2;48;F:8, F:1, X:2, Y:2, F:1, C:4, W:3, X:28, W:1, H:3, X:1, Y:10, C:32, F:16, ;488.70993304252625
127;1;MobilNet_03;0.5700554;0.005642290371825964;2;axe_out_channels1_0,axe_out_channels1_1,axe_xx1_0,axe_yy1_0,axe_out_channels1_2,axe_xx1_1;896;axe_out_channels2_0,axe_out_channels2_1,axe_xx2_0,axe_yy2_0,axe_out_channels2_2,axe_xx2_1;1344;F:8, F:1, X:2, Y:2, F:1, C:4, W:3, X:28, W:1, H:3, X:1, Y:10, C:32, F:16, ;490.8137381076813
128;0;MobilNet_03;0.7786881;0.011817781969980654;2;axe_out_channels1_0,axe_out_channels1_1,axe_xx1_0,axe_yy1_0,axe_out_channels1_2;48;axe_out_channels2_0,axe_out_channels2_1,axe_xx2_0,axe_yy2_0,axe_out_channels2_2;32;F:1, F:1, X:2, Y:3, F:8, C:4, W:3, X:28, W:1, H:3, X:1, Y:10, C:32, F:16, ;492.9459710121155
128;1;MobilNet_03;0.5841445000000001;0.005526538939517238;2;axe_out_channels1_0,axe_out_channels1_1,axe_xx1_0,axe_yy1_0,axe_out_channels1_2,axe_xx1_1;1344;axe_out_channels2_0,axe_out_channels2_1,axe_xx2_0,axe_yy2_0,axe_out_channels2_2,axe_xx2_1;896;F:1, F:1, X:2, Y:3, F:8, C:4, W:3, X:28, W:1, H:3, X:1, Y:10, C:32, F:16, ;495.0631613731384
129;0;MobilNet_03;0.7775225000000001;0.009351237728236846;2;axe_out_channels1_0,axe_out_channels1_1,axe_xx1_0,axe_yy1_0,axe_out_channels1_2;48;axe_out_channels2_0,axe_out_channels2_1,axe_xx2_0,axe_yy2_0,axe_out_channels2_2;32;F:1, F:2, X:2, Y:3, F:4, C:4, W:3, X:28, W:1, H:3, X:1, Y:10, C:32, F:16, ;497.1971347332001
129;1;MobilNet_03;0.5844998;0.005615530425525272;2;axe_out_channels1_0,axe_out_channels1_1,axe_xx1_0,axe_yy1_0,axe_out_channels1_2,axe_xx1_1;1344;axe_out_channels2_0,axe_out_channels2_1,axe_xx2_0,axe_yy2_0,axe_out_channels2_2,axe_xx2_1;896;F:1, F:2, X:2, Y:3, F:4, C:4, W:3, X:28, W:1, H:3, X:1, Y:10, C:32, F:16, ;499.31512570381165
130;0;MobilNet_03;0.7396394999999999;0.006080526116217269;2;axe_out_channels1_0,axe_out_channels1_1,axe_xx1_0,axe_yy1_0,axe_out_channels1_2;48;axe_out_channels2_0,axe_out_channels2_1,axe_xx2_0,axe_yy2_0,axe_out_channels2_2;32;F:1, F:4, X:2, Y:3, F:2, C:4, W:3, X:28, W:1, H:3, X:1, Y:10, C:32, F:16, ;501.44015407562256
130;1;MobilNet_03;0.5701766;0.0018964812785788405;2;axe_out_channels1_0,axe_out_channels1_1,axe_xx1_0,axe_yy1_0,axe_out_channels1_2,axe_xx1_1;1344;axe_out_channels2_0,axe_out_channels2_1,axe_xx2_0,axe_yy2_0,axe_out_channels2_2,axe_xx2_1;896;F:1, F:4, X:2, Y:3, F:2, C:4, W:3, X:28, W:1, H:3, X:1, Y:10, C:32, F:16, ;503.55233573913574
131;0;MobilNet_03;0.755788;0.007675593358171083;2;axe_out_channels1_0,axe_out_channels1_1,axe_xx1_0,axe_yy1_0,axe_out_channels1_2;48;axe_out_channels2_0,axe_out_channels2_1,axe_xx2_0,axe_yy2_0,axe_out_channels2_2;32;F:1, F:8, X:2, Y:3, F:1, C:4, W:3, X:28, W:1, H:3, X:1, Y:10, C:32, F:16, ;505.6904845237732
131;1;MobilNet_03;0.5844441;0.0011967396082690743;2;axe_out_channels1_0,axe_out_channels1_1,axe_xx1_0,axe_yy1_0,axe_out_channels1_2,axe_xx1_1;1344;axe_out_channels2_0,axe_out_channels2_1,axe_xx2_0,axe_yy2_0,axe_out_channels2_2,axe_xx2_1;896;F:1, F:8, X:2, Y:3, F:1, C:4, W:3, X:28, W:1, H:3, X:1, Y:10, C:32, F:16, ;507.79910945892334
132;0;MobilNet_03;0.7773281000000001;0.007453462785175761;2;axe_out_channels1_0,axe_out_channels1_1,axe_xx1_0,axe_yy1_0,axe_out_channels1_2;48;axe_out_channels2_0,axe_out_channels2_1,axe_xx2_0,axe_yy2_0,axe_out_channels2_2;32;F:2, F:1, X:2, Y:3, F:4, C:4, W:3, X:28, W:1, H:3, X:1, Y:10, C:32, F:16, ;509.92862272262573
132;1;MobilNet_03;0.5867211999999998;0.004903308532001607;2;axe_out_channels1_0,axe_out_channels1_1,axe_xx1_0,axe_yy1_0,axe_out_channels1_2,axe_xx1_1;1344;axe_out_channels2_0,axe_out_channels2_1,axe_xx2_0,axe_yy2_0,axe_out_channels2_2,axe_xx2_1;896;F:2, F:1, X:2, Y:3, F:4, C:4, W:3, X:28, W:1, H:3, X:1, Y:10, C:32, F:16, ;512.0580492019653
133;0;MobilNet_03;0.7342762;0.003435372783265306;2;axe_out_channels1_0,axe_out_channels1_1,axe_xx1_0,axe_yy1_0,axe_out_channels1_2;48;axe_out_channels2_0,axe_out_channels2_1,axe_xx2_0,axe_yy2_0,axe_out_channels2_2;32;F:2, F:2, X:2, Y:3, F:2, C:4, W:3, X:28, W:1, H:3, X:1, Y:10, C:32, F:16, ;514.1858336925507
133;1;MobilNet_03;0.5773759;0.005184394727448889;2;axe_out_channels1_0,axe_out_channels1_1,axe_xx1_0,axe_yy1_0,axe_out_channels1_2,axe_xx1_1;1344;axe_out_channels2_0,axe_out_channels2_1,axe_xx2_0,axe_yy2_0,axe_out_channels2_2,axe_xx2_1;896;F:2, F:2, X:2, Y:3, F:2, C:4, W:3, X:28, W:1, H:3, X:1, Y:10, C:32, F:16, ;516.3012976646423
134;0;MobilNet_03;0.7437583999999999;0.010246800107350584;2;axe_out_channels1_0,axe_out_channels1_1,axe_xx1_0,axe_yy1_0,axe_out_channels1_2;48;axe_out_channels2_0,axe_out_channels2_1,axe_xx2_0,axe_yy2_0,axe_out_channels2_2;32;F:2, F:4, X:2, Y:3, F:1, C:4, W:3, X:28, W:1, H:3, X:1, Y:10, C:32, F:16, ;518.4449462890625
134;1;MobilNet_03;0.5819265;0.007944652141535221;2;axe_out_channels1_0,axe_out_channels1_1,axe_xx1_0,axe_yy1_0,axe_out_channels1_2,axe_xx1_1;1344;axe_out_channels2_0,axe_out_channels2_1,axe_xx2_0,axe_yy2_0,axe_out_channels2_2,axe_xx2_1;896;F:2, F:4, X:2, Y:3, F:1, C:4, W:3, X:28, W:1, H:3, X:1, Y:10, C:32, F:16, ;520.5606815814972
135;0;MobilNet_03;0.7188486;0.00951102351169418;2;axe_out_channels1_0,axe_out_channels1_1,axe_xx1_0,axe_yy1_0,axe_out_channels1_2;48;axe_out_channels2_0,axe_out_channels2_1,axe_xx2_0,axe_yy2_0,axe_out_channels2_2;32;F:4, F:1, X:2, Y:3, F:2, C:4, W:3, X:28, W:1, H:3, X:1, Y:10, C:32, F:16, ;522.7058472633362
135;1;MobilNet_03;0.5848393;0.0026660363482143134;2;axe_out_channels1_0,axe_out_channels1_1,axe_xx1_0,axe_yy1_0,axe_out_channels1_2,axe_xx1_1;1344;axe_out_channels2_0,axe_out_channels2_1,axe_xx2_0,axe_yy2_0,axe_out_channels2_2,axe_xx2_1;896;F:4, F:1, X:2, Y:3, F:2, C:4, W:3, X:28, W:1, H:3, X:1, Y:10, C:32, F:16, ;524.8205554485321
136;0;MobilNet_03;0.7421046000000001;0.020176696504631282;2;axe_out_channels1_0,axe_out_channels1_1,axe_xx1_0,axe_yy1_0,axe_out_channels1_2;48;axe_out_channels2_0,axe_out_channels2_1,axe_xx2_0,axe_yy2_0,axe_out_channels2_2;32;F:4, F:2, X:2, Y:3, F:1, C:4, W:3, X:28, W:1, H:3, X:1, Y:10, C:32, F:16, ;526.9657411575317
136;1;MobilNet_03;0.5878167000000001;0.0039731031209874045;2;axe_out_channels1_0,axe_out_channels1_1,axe_xx1_0,axe_yy1_0,axe_out_channels1_2,axe_xx1_1;1344;axe_out_channels2_0,axe_out_channels2_1,axe_xx2_0,axe_yy2_0,axe_out_channels2_2,axe_xx2_1;896;F:4, F:2, X:2, Y:3, F:1, C:4, W:3, X:28, W:1, H:3, X:1, Y:10, C:32, F:16, ;529.0808782577515
137;0;MobilNet_03;0.7489526000000001;0.021522798908134622;2;axe_out_channels1_0,axe_out_channels1_1,axe_xx1_0,axe_yy1_0,axe_out_channels1_2;48;axe_out_channels2_0,axe_out_channels2_1,axe_xx2_0,axe_yy2_0,axe_out_channels2_2;32;F:8, F:1, X:2, Y:3, F:1, C:4, W:3, X:28, W:1, H:3, X:1, Y:10, C:32, F:16, ;531.2222833633423
137;1;MobilNet_03;0.5847187;0.005935155382127759;2;axe_out_channels1_0,axe_out_channels1_1,axe_xx1_0,axe_yy1_0,axe_out_channels1_2,axe_xx1_1;1344;axe_out_channels2_0,axe_out_channels2_1,axe_xx2_0,axe_yy2_0,axe_out_channels2_2,axe_xx2_1;896;F:8, F:1, X:2, Y:3, F:1, C:4, W:3, X:28, W:1, H:3, X:1, Y:10, C:32, F:16, ;533.3315162658691
138;0;MobilNet_03;2.1461646;0.009659419932894514;2;axe_out_channels1_0,axe_out_channels1_1,axe_xx1_0,axe_yy1_0,axe_out_channels1_2;64;axe_xx2_1;28;F:1, F:1, X:2, Y:4, F:8, C:4, W:3, X:28, W:1, H:3, X:1, Y:11, C:32, F:16, ;535.5305895805359
138;1;MobilNet_03;0.6013539999999999;0.007859016299766786;2;axe_out_channels1_0,axe_out_channels1_1,axe_xx1_0,axe_yy1_0,axe_out_channels1_2,axe_xx1_1;1792;axe_out_channels2_0,axe_out_channels2_1,axe_xx2_0,axe_yy2_0,axe_out_channels2_2,axe_xx2_1;448;F:1, F:1, X:2, Y:4, F:8, C:4, W:3, X:28, W:1, H:3, X:1, Y:11, C:32, F:16, ;537.6423346996307
139;0;MobilNet_03;2.0594099999999997;0.0043100238514420745;2;axe_out_channels1_0,axe_out_channels1_1,axe_xx1_0,axe_yy1_0,axe_out_channels1_2;64;axe_xx2_1;28;F:1, F:2, X:2, Y:4, F:4, C:4, W:3, X:28, W:1, H:3, X:1, Y:11, C:32, F:16, ;539.8486404418945
139;1;MobilNet_03;0.5999304000000001;0.00775949329789001;2;axe_out_channels1_0,axe_out_channels1_1,axe_xx1_0,axe_yy1_0,axe_out_channels1_2,axe_xx1_1;1792;axe_out_channels2_0,axe_out_channels2_1,axe_xx2_0,axe_yy2_0,axe_out_channels2_2,axe_xx2_1;448;F:1, F:2, X:2, Y:4, F:4, C:4, W:3, X:28, W:1, H:3, X:1, Y:11, C:32, F:16, ;541.9624378681183
140;0;MobilNet_03;2.0682184;0.01215639134940969;2;axe_out_channels1_0,axe_out_channels1_1,axe_xx1_0,axe_yy1_0,axe_out_channels1_2;64;axe_xx2_1;28;F:1, F:4, X:2, Y:4, F:2, C:4, W:3, X:28, W:1, H:3, X:1, Y:11, C:32, F:16, ;544.1644103527069
140;1;MobilNet_03;0.5964885000000001;0.006035550981476325;2;axe_out_channels1_0,axe_out_channels1_1,axe_xx1_0,axe_yy1_0,axe_out_channels1_2,axe_xx1_1;1792;axe_out_channels2_0,axe_out_channels2_1,axe_xx2_0,axe_yy2_0,axe_out_channels2_2,axe_xx2_1;448;F:1, F:4, X:2, Y:4, F:2, C:4, W:3, X:28, W:1, H:3, X:1, Y:11, C:32, F:16, ;546.2810831069946
141;0;MobilNet_03;2.1096668;0.014186575216027281;2;axe_out_channels1_0,axe_out_channels1_1,axe_xx1_0,axe_yy1_0,axe_out_channels1_2;64;axe_xx2_1;28;F:1, F:8, X:2, Y:4, F:1, C:4, W:3, X:28, W:1, H:3, X:1, Y:11, C:32, F:16, ;548.4914855957031
141;1;MobilNet_03;0.5973819;0.00435246526580054;2;axe_out_channels1_0,axe_out_channels1_1,axe_xx1_0,axe_yy1_0,axe_out_channels1_2,axe_xx1_1;1792;axe_out_channels2_0,axe_out_channels2_1,axe_xx2_0,axe_yy2_0,axe_out_channels2_2,axe_xx2_1;448;F:1, F:8, X:2, Y:4, F:1, C:4, W:3, X:28, W:1, H:3, X:1, Y:11, C:32, F:16, ;550.5965104103088
142;0;MobilNet_03;2.0743531;0.011880208461554957;2;axe_out_channels1_0,axe_out_channels1_1,axe_xx1_0,axe_yy1_0,axe_out_channels1_2;64;axe_xx2_1;28;F:2, F:1, X:2, Y:4, F:4, C:4, W:3, X:28, W:1, H:3, X:1, Y:11, C:32, F:16, ;552.8006591796875
142;1;MobilNet_03;0.6053126999999999;0.005268231772615943;2;axe_out_channels1_0,axe_out_channels1_1,axe_xx1_0,axe_yy1_0,axe_out_channels1_2,axe_xx1_1;1792;axe_out_channels2_0,axe_out_channels2_1,axe_xx2_0,axe_yy2_0,axe_out_channels2_2,axe_xx2_1;448;F:2, F:1, X:2, Y:4, F:4, C:4, W:3, X:28, W:1, H:3, X:1, Y:11, C:32, F:16, ;554.9151480197906
143;0;MobilNet_03;2.0882710999999996;0.017407310288783805;2;axe_out_channels1_0,axe_out_channels1_1,axe_xx1_0,axe_yy1_0,axe_out_channels1_2;64;axe_xx2_1;28;F:2, F:2, X:2, Y:4, F:2, C:4, W:3, X:28, W:1, H:3, X:1, Y:11, C:32, F:16, ;557.1294972896576
143;1;MobilNet_03;0.5776237;0.006177928618072563;2;axe_out_channels1_0,axe_out_channels1_1,axe_xx1_0,axe_yy1_0,axe_out_channels1_2,axe_xx1_1;1792;axe_out_channels2_0,axe_out_channels2_1,axe_xx2_0,axe_yy2_0,axe_out_channels2_2,axe_xx2_1;448;F:2, F:2, X:2, Y:4, F:2, C:4, W:3, X:28, W:1, H:3, X:1, Y:11, C:32, F:16, ;559.2417316436768
144;0;MobilNet_03;2.1197901999999997;0.0257863093512818;2;axe_out_channels1_0,axe_out_channels1_1,axe_xx1_0,axe_yy1_0,axe_out_channels1_2;64;axe_xx2_1;28;F:2, F:4, X:2, Y:4, F:1, C:4, W:3, X:28, W:1, H:3, X:1, Y:11, C:32, F:16, ;561.4577097892761
144;1;MobilNet_03;0.5816814000000001;0.00440325725344315;2;axe_out_channels1_0,axe_out_channels1_1,axe_xx1_0,axe_yy1_0,axe_out_channels1_2,axe_xx1_1;1792;axe_out_channels2_0,axe_out_channels2_1,axe_xx2_0,axe_yy2_0,axe_out_channels2_2,axe_xx2_1;448;F:2, F:4, X:2, Y:4, F:1, C:4, W:3, X:28, W:1, H:3, X:1, Y:11, C:32, F:16, ;563.5660355091095
145;0;MobilNet_03;2.0826249;0.009910404173897318;2;axe_out_channels1_0,axe_out_channels1_1,axe_xx1_0,axe_yy1_0,axe_out_channels1_2;64;axe_xx2_1;28;F:4, F:1, X:2, Y:4, F:2, C:4, W:3, X:28, W:1, H:3, X:1, Y:11, C:32, F:16, ;565.7763702869415
145;1;MobilNet_03;0.5984104;0.005756369519063205;2;axe_out_channels1_0,axe_out_channels1_1,axe_xx1_0,axe_yy1_0,axe_out_channels1_2,axe_xx1_1;1792;axe_out_channels2_0,axe_out_channels2_1,axe_xx2_0,axe_yy2_0,axe_out_channels2_2,axe_xx2_1;448;F:4, F:1, X:2, Y:4, F:2, C:4, W:3, X:28, W:1, H:3, X:1, Y:11, C:32, F:16, ;567.8926486968994
146;0;MobilNet_03;2.1073157;0.020282077157184806;2;axe_out_channels1_0,axe_out_channels1_1,axe_xx1_0,axe_yy1_0,axe_out_channels1_2;64;axe_xx2_1;28;F:4, F:2, X:2, Y:4, F:1, C:4, W:3, X:28, W:1, H:3, X:1, Y:11, C:32, F:16, ;570.1039600372314
146;1;MobilNet_03;0.5988728999999999;0.005117889261209148;2;axe_out_channels1_0,axe_out_channels1_1,axe_xx1_0,axe_yy1_0,axe_out_channels1_2,axe_xx1_1;1792;axe_out_channels2_0,axe_out_channels2_1,axe_xx2_0,axe_yy2_0,axe_out_channels2_2,axe_xx2_1;448;F:4, F:2, X:2, Y:4, F:1, C:4, W:3, X:28, W:1, H:3, X:1, Y:11, C:32, F:16, ;572.2128074169159
147;0;MobilNet_03;2.1058665000000003;0.02296023406348464;2;axe_out_channels1_0,axe_out_channels1_1,axe_xx1_0,axe_yy1_0,axe_out_channels1_2;64;axe_xx2_1;28;F:8, F:1, X:2, Y:4, F:1, C:4, W:3, X:28, W:1, H:3, X:1, Y:11, C:32, F:16, ;574.4376714229584
147;1;MobilNet_03;0.5949639;0.005231199813618282;2;axe_out_channels1_0,axe_out_channels1_1,axe_xx1_0,axe_yy1_0,axe_out_channels1_2,axe_xx1_1;1792;axe_out_channels2_0,axe_out_channels2_1,axe_xx2_0,axe_yy2_0,axe_out_channels2_2,axe_xx2_1;448;F:8, F:1, X:2, Y:4, F:1, C:4, W:3, X:28, W:1, H:3, X:1, Y:11, C:32, F:16, ;576.5519189834595
148;0;MobilNet_03;0.5392403;0.0022036408532245056;1;axe_out_channels1_0,axe_out_channels1_1,axe_xx1_0,axe_yy1_0,axe_out_channels1_2;128;;;F:1, F:1, X:4, Y:4, F:8, C:2, W:3, X:14, W:1, H:3, X:1, Y:14, C:64, F:16, ;578.285010099411
148;1;MobilNet_03;0.47953270000000003;0.0010008854130218873;1;axe_out_channels1_0,axe_out_channels1_1,axe_xx1_0,axe_yy1_0,axe_out_channels1_2,axe_xx1_1;1792;;;F:1, F:1, X:4, Y:4, F:8, C:2, W:3, X:14, W:1, H:3, X:1, Y:14, C:64, F:16, ;580.012092590332
149;0;MobilNet_03;0.5575609;0.007657311348639267;1;axe_out_channels1_0,axe_out_channels1_1,axe_xx1_0,axe_yy1_0,axe_out_channels1_2;128;;;F:1, F:2, X:4, Y:4, F:4, C:2, W:3, X:14, W:1, H:3, X:1, Y:14, C:64, F:16, ;581.7455840110779
149;1;MobilNet_03;0.4957713999999999;0.003951693262387646;1;axe_out_channels1_0,axe_out_channels1_1,axe_xx1_0,axe_yy1_0,axe_out_channels1_2,axe_xx1_1;1792;;;F:1, F:2, X:4, Y:4, F:4, C:2, W:3, X:14, W:1, H:3, X:1, Y:14, C:64, F:16, ;583.4756541252136
150;0;MobilNet_03;0.5881265999999999;0.003470074068373756;1;axe_out_channels1_0,axe_out_channels1_1,axe_xx1_0,axe_yy1_0,axe_out_channels1_2;128;;;F:1, F:4, X:4, Y:4, F:2, C:2, W:3, X:14, W:1, H:3, X:1, Y:14, C:64, F:16, ;585.2059435844421
150;1;MobilNet_03;0.47964889999999993;0.0014532008429669952;1;axe_out_channels1_0,axe_out_channels1_1,axe_xx1_0,axe_yy1_0,axe_out_channels1_2,axe_xx1_1;1792;;;F:1, F:4, X:4, Y:4, F:2, C:2, W:3, X:14, W:1, H:3, X:1, Y:14, C:64, F:16, ;586.9295885562897
151;0;MobilNet_03;0.6222089;0.0013006590214195244;1;axe_out_channels1_0,axe_out_channels1_1,axe_xx1_0,axe_yy1_0,axe_out_channels1_2;128;;;F:1, F:8, X:4, Y:4, F:1, C:2, W:3, X:14, W:1, H:3, X:1, Y:14, C:64, F:16, ;588.6761128902435
151;1;MobilNet_03;0.4994306;0.0012528745507831146;1;axe_out_channels1_0,axe_out_channels1_1,axe_xx1_0,axe_yy1_0,axe_out_channels1_2,axe_xx1_1;1792;;;F:1, F:8, X:4, Y:4, F:1, C:2, W:3, X:14, W:1, H:3, X:1, Y:14, C:64, F:16, ;590.3977661132812
152;0;MobilNet_03;0.5445712;0.007467676985515634;1;axe_out_channels1_0,axe_out_channels1_1,axe_xx1_0,axe_yy1_0,axe_out_channels1_2;128;;;F:2, F:1, X:4, Y:4, F:4, C:2, W:3, X:14, W:1, H:3, X:1, Y:14, C:64, F:16, ;592.1296746730804
152;1;MobilNet_03;0.47840740000000004;0.0013288702871236114;1;axe_out_channels1_0,axe_out_channels1_1,axe_xx1_0,axe_yy1_0,axe_out_channels1_2,axe_xx1_1;1792;;;F:2, F:1, X:4, Y:4, F:4, C:2, W:3, X:14, W:1, H:3, X:1, Y:14, C:64, F:16, ;593.8524820804596
153;0;MobilNet_03;0.5819987;0.004236488098649643;1;axe_out_channels1_0,axe_out_channels1_1,axe_xx1_0,axe_yy1_0,axe_out_channels1_2;128;;;F:2, F:2, X:4, Y:4, F:2, C:2, W:3, X:14, W:1, H:3, X:1, Y:14, C:64, F:16, ;595.5843889713287
153;1;MobilNet_03;0.5000351999999999;0.006675688351024188;1;axe_out_channels1_0,axe_out_channels1_1,axe_xx1_0,axe_yy1_0,axe_out_channels1_2,axe_xx1_1;1792;;;F:2, F:2, X:4, Y:4, F:2, C:2, W:3, X:14, W:1, H:3, X:1, Y:14, C:64, F:16, ;597.3086812496185
154;0;MobilNet_03;0.6156558000000001;0.0032072407705066317;1;axe_out_channels1_0,axe_out_channels1_1,axe_xx1_0,axe_yy1_0,axe_out_channels1_2;128;;;F:2, F:4, X:4, Y:4, F:1, C:2, W:3, X:14, W:1, H:3, X:1, Y:14, C:64, F:16, ;599.0490307807922
154;1;MobilNet_03;0.5156574999999999;0.009221922958363965;1;axe_out_channels1_0,axe_out_channels1_1,axe_xx1_0,axe_yy1_0,axe_out_channels1_2,axe_xx1_1;1792;;;F:2, F:4, X:4, Y:4, F:1, C:2, W:3, X:14, W:1, H:3, X:1, Y:14, C:64, F:16, ;600.7755031585693
155;0;MobilNet_03;0.5859504;0.0022745324882269837;1;axe_out_channels1_0,axe_out_channels1_1,axe_xx1_0,axe_yy1_0,axe_out_channels1_2;128;;;F:4, F:1, X:4, Y:4, F:2, C:2, W:3, X:14, W:1, H:3, X:1, Y:14, C:64, F:16, ;602.5071382522583
155;1;MobilNet_03;0.49553020000000003;0.0006205548807317376;1;axe_out_channels1_0,axe_out_channels1_1,axe_xx1_0,axe_yy1_0,axe_out_channels1_2,axe_xx1_1;1792;;;F:4, F:1, X:4, Y:4, F:2, C:2, W:3, X:14, W:1, H:3, X:1, Y:14, C:64, F:16, ;604.234915971756
156;0;MobilNet_03;0.6164778999999999;0.003573115739799095;1;axe_out_channels1_0,axe_out_channels1_1,axe_xx1_0,axe_yy1_0,axe_out_channels1_2;128;;;F:4, F:2, X:4, Y:4, F:1, C:2, W:3, X:14, W:1, H:3, X:1, Y:14, C:64, F:16, ;605.9754829406738
156;1;MobilNet_03;0.5068905000000001;0.013403848949089211;1;axe_out_channels1_0,axe_out_channels1_1,axe_xx1_0,axe_yy1_0,axe_out_channels1_2,axe_xx1_1;1792;;;F:4, F:2, X:4, Y:4, F:1, C:2, W:3, X:14, W:1, H:3, X:1, Y:14, C:64, F:16, ;607.6970589160919
157;0;MobilNet_03;0.6224664;0.0022493374668999836;1;axe_out_channels1_0,axe_out_channels1_1,axe_xx1_0,axe_yy1_0,axe_out_channels1_2;128;;;F:8, F:1, X:4, Y:4, F:1, C:2, W:3, X:14, W:1, H:3, X:1, Y:14, C:64, F:16, ;609.4349927902222
157;1;MobilNet_03;0.4991184000000001;0.0022498572932521522;1;axe_out_channels1_0,axe_out_channels1_1,axe_xx1_0,axe_yy1_0,axe_out_channels1_2,axe_xx1_1;1792;;;F:8, F:1, X:4, Y:4, F:1, C:2, W:3, X:14, W:1, H:3, X:1, Y:14, C:64, F:16, ;611.1561160087585
158;0;MobilNet_03;0.5780643999999999;0.006055682887998656;1;axe_out_channels1_0,axe_out_channels1_1,axe_xx1_0,axe_yy1_0,axe_out_channels1_2;128;;;F:1, F:1, X:4, Y:4, F:8, C:4, W:3, X:14, W:1, H:3, X:1, Y:14, C:32, F:16, ;612.8904049396515
158;1;MobilNet_03;0.4835853;0.00426493348248246;1;axe_out_channels1_0,axe_out_channels1_1,axe_xx1_0,axe_yy1_0,axe_out_channels1_2,axe_xx1_1;1792;;;F:1, F:1, X:4, Y:4, F:8, C:4, W:3, X:14, W:1, H:3, X:1, Y:14, C:32, F:16, ;614.6094100475311
159;0;MobilNet_03;0.6094678000000001;0.0034491090965639544;1;axe_out_channels1_0,axe_out_channels1_1,axe_xx1_0,axe_yy1_0,axe_out_channels1_2;128;;;F:1, F:2, X:4, Y:4, F:4, C:4, W:3, X:14, W:1, H:3, X:1, Y:14, C:32, F:16, ;616.3407020568848
159;1;MobilNet_03;0.5105208999999999;0.007886411318844584;1;axe_out_channels1_0,axe_out_channels1_1,axe_xx1_0,axe_yy1_0,axe_out_channels1_2,axe_xx1_1;1792;;;F:1, F:2, X:4, Y:4, F:4, C:4, W:3, X:14, W:1, H:3, X:1, Y:14, C:32, F:16, ;618.0591278076172
160;0;MobilNet_03;0.6933096;0.002554850531831555;1;axe_out_channels1_0,axe_out_channels1_1,axe_xx1_0,axe_yy1_0,axe_out_channels1_2;128;;;F:1, F:4, X:4, Y:4, F:2, C:4, W:3, X:14, W:1, H:3, X:1, Y:14, C:32, F:16, ;619.7961938381195
160;1;MobilNet_03;0.48473449999999996;0.001677456541910984;1;axe_out_channels1_0,axe_out_channels1_1,axe_xx1_0,axe_yy1_0,axe_out_channels1_2,axe_xx1_1;1792;;;F:1, F:4, X:4, Y:4, F:2, C:4, W:3, X:14, W:1, H:3, X:1, Y:14, C:32, F:16, ;621.511465549469
161;0;MobilNet_03;0.7409017;0.0023658228610781424;1;axe_out_channels1_0,axe_out_channels1_1,axe_xx1_0,axe_yy1_0,axe_out_channels1_2;128;;;F:1, F:8, X:4, Y:4, F:1, C:4, W:3, X:14, W:1, H:3, X:1, Y:14, C:32, F:16, ;623.2571110725403
161;1;MobilNet_03;0.5077786;0.0011433612027701447;1;axe_out_channels1_0,axe_out_channels1_1,axe_xx1_0,axe_yy1_0,axe_out_channels1_2,axe_xx1_1;1792;;;F:1, F:8, X:4, Y:4, F:1, C:4, W:3, X:14, W:1, H:3, X:1, Y:14, C:32, F:16, ;624.9729812145233
162;0;MobilNet_03;0.5995114000000001;0.005009354134017682;1;axe_out_channels1_0,axe_out_channels1_1,axe_xx1_0,axe_yy1_0,axe_out_channels1_2;128;;;F:2, F:1, X:4, Y:4, F:4, C:4, W:3, X:14, W:1, H:3, X:1, Y:14, C:32, F:16, ;626.7068209648132
162;1;MobilNet_03;0.5026746;0.0008730105612190424;1;axe_out_channels1_0,axe_out_channels1_1,axe_xx1_0,axe_yy1_0,axe_out_channels1_2,axe_xx1_1;1792;;;F:2, F:1, X:4, Y:4, F:4, C:4, W:3, X:14, W:1, H:3, X:1, Y:14, C:32, F:16, ;628.4241864681244
163;0;MobilNet_03;0.7008268;0.011253156542055229;1;axe_out_channels1_0,axe_out_channels1_1,axe_xx1_0,axe_yy1_0,axe_out_channels1_2;128;;;F:2, F:2, X:4, Y:4, F:2, C:4, W:3, X:14, W:1, H:3, X:1, Y:14, C:32, F:16, ;630.1610069274902
163;1;MobilNet_03;0.48326519999999995;0.001031189487921584;1;axe_out_channels1_0,axe_out_channels1_1,axe_xx1_0,axe_yy1_0,axe_out_channels1_2,axe_xx1_1;1792;;;F:2, F:2, X:4, Y:4, F:2, C:4, W:3, X:14, W:1, H:3, X:1, Y:14, C:32, F:16, ;631.8781461715698
164;0;MobilNet_03;0.7432787999999999;0.002385043974437368;1;axe_out_channels1_0,axe_out_channels1_1,axe_xx1_0,axe_yy1_0,axe_out_channels1_2;128;;;F:2, F:4, X:4, Y:4, F:1, C:4, W:3, X:14, W:1, H:3, X:1, Y:14, C:32, F:16, ;633.6258134841919
164;1;MobilNet_03;0.5032375;0.010397546145605693;1;axe_out_channels1_0,axe_out_channels1_1,axe_xx1_0,axe_yy1_0,axe_out_channels1_2,axe_xx1_1;1792;;;F:2, F:4, X:4, Y:4, F:1, C:4, W:3, X:14, W:1, H:3, X:1, Y:14, C:32, F:16, ;635.3430607318878
165;0;MobilNet_03;0.7045965;0.013341629550021246;1;axe_out_channels1_0,axe_out_channels1_1,axe_xx1_0,axe_yy1_0,axe_out_channels1_2;128;;;F:4, F:1, X:4, Y:4, F:2, C:4, W:3, X:14, W:1, H:3, X:1, Y:14, C:32, F:16, ;637.0796072483063
165;1;MobilNet_03;0.4838558;0.001909297504319314;1;axe_out_channels1_0,axe_out_channels1_1,axe_xx1_0,axe_yy1_0,axe_out_channels1_2,axe_xx1_1;1792;;;F:4, F:1, X:4, Y:4, F:2, C:4, W:3, X:14, W:1, H:3, X:1, Y:14, C:32, F:16, ;638.7980651855469
166;0;MobilNet_03;0.7516652;0.0033449439098436626;1;axe_out_channels1_0,axe_out_channels1_1,axe_xx1_0,axe_yy1_0,axe_out_channels1_2;128;;;F:4, F:2, X:4, Y:4, F:1, C:4, W:3, X:14, W:1, H:3, X:1, Y:14, C:32, F:16, ;640.5453169345856
166;1;MobilNet_03;0.5206479;0.01574799815500372;1;axe_out_channels1_0,axe_out_channels1_1,axe_xx1_0,axe_yy1_0,axe_out_channels1_2,axe_xx1_1;1792;;;F:4, F:2, X:4, Y:4, F:1, C:4, W:3, X:14, W:1, H:3, X:1, Y:14, C:32, F:16, ;642.2631025314331
167;0;MobilNet_03;0.7437922;0.002561508766332831;1;axe_out_channels1_0,axe_out_channels1_1,axe_xx1_0,axe_yy1_0,axe_out_channels1_2;128;;;F:8, F:1, X:4, Y:4, F:1, C:4, W:3, X:14, W:1, H:3, X:1, Y:14, C:32, F:16, ;644.0078706741333
167;1;MobilNet_03;0.5100344;0.003375489392665915;1;axe_out_channels1_0,axe_out_channels1_1,axe_xx1_0,axe_yy1_0,axe_out_channels1_2,axe_xx1_1;1792;;;F:8, F:1, X:4, Y:4, F:1, C:4, W:3, X:14, W:1, H:3, X:1, Y:14, C:32, F:16, ;645.7257335186005
168;0;MobilNet_03;0.6377160000000001;0.007249922606483468;1;axe_out_channels1_0,axe_out_channels1_1,axe_xx1_0,axe_yy1_0,axe_out_channels1_2;128;;;F:1, F:1, X:4, Y:4, F:8, C:8, W:3, X:14, W:1, H:3, X:1, Y:14, C:16, F:16, ;647.4618210792542
168;1;MobilNet_03;0.5121955;0.0029112588771869675;1;axe_out_channels1_0,axe_out_channels1_1,axe_xx1_0,axe_yy1_0,axe_out_channels1_2,axe_xx1_1;1792;;;F:1, F:1, X:4, Y:4, F:8, C:8, W:3, X:14, W:1, H:3, X:1, Y:14, C:16, F:16, ;649.1998023986816
169;0;MobilNet_03;0.6932592000000001;0.00932502732221198;1;axe_out_channels1_0,axe_out_channels1_1,axe_xx1_0,axe_yy1_0,axe_out_channels1_2;128;;;F:1, F:2, X:4, Y:4, F:4, C:8, W:3, X:14, W:1, H:3, X:1, Y:14, C:16, F:16, ;650.9355092048645
169;1;MobilNet_03;0.5221969;0.003739335888897911;1;axe_out_channels1_0,axe_out_channels1_1,axe_xx1_0,axe_yy1_0,axe_out_channels1_2,axe_xx1_1;1792;;;F:1, F:2, X:4, Y:4, F:4, C:8, W:3, X:14, W:1, H:3, X:1, Y:14, C:16, F:16, ;652.6518876552582
170;0;MobilNet_03;0.9180489;0.007690376095484544;1;axe_out_channels1_0,axe_out_channels1_1,axe_xx1_0,axe_yy1_0,axe_out_channels1_2;128;;;F:1, F:4, X:4, Y:4, F:2, C:8, W:3, X:14, W:1, H:3, X:1, Y:14, C:16, F:16, ;654.3952972888947
170;1;MobilNet_03;0.5127724;0.0010324941840029716;1;axe_out_channels1_0,axe_out_channels1_1,axe_xx1_0,axe_yy1_0,axe_out_channels1_2,axe_xx1_1;1792;;;F:1, F:4, X:4, Y:4, F:2, C:8, W:3, X:14, W:1, H:3, X:1, Y:14, C:16, F:16, ;656.1113195419312
171;0;MobilNet_03;1.0404982999999999;0.002957323047960735;1;axe_out_channels1_0,axe_out_channels1_1,axe_xx1_0,axe_yy1_0,axe_out_channels1_2;128;;;F:1, F:8, X:4, Y:4, F:1, C:8, W:3, X:14, W:1, H:3, X:1, Y:14, C:16, F:16, ;657.8675162792206
171;1;MobilNet_03;0.5333642000000001;0.0090449551883909;1;axe_out_channels1_0,axe_out_channels1_1,axe_xx1_0,axe_yy1_0,axe_out_channels1_2,axe_xx1_1;1792;;;F:1, F:8, X:4, Y:4, F:1, C:8, W:3, X:14, W:1, H:3, X:1, Y:14, C:16, F:16, ;659.6035676002502
172;0;MobilNet_03;0.7085613000000001;0.005748071573145201;1;axe_out_channels1_0,axe_out_channels1_1,axe_xx1_0,axe_yy1_0,axe_out_channels1_2;128;;;F:2, F:1, X:4, Y:4, F:4, C:8, W:3, X:14, W:1, H:3, X:1, Y:14, C:16, F:16, ;661.342036485672
172;1;MobilNet_03;0.5025191;0.0014783491096489985;1;axe_out_channels1_0,axe_out_channels1_1,axe_xx1_0,axe_yy1_0,axe_out_channels1_2,axe_xx1_1;1792;;;F:2, F:1, X:4, Y:4, F:4, C:8, W:3, X:14, W:1, H:3, X:1, Y:14, C:16, F:16, ;663.0585889816284
173;0;MobilNet_03;0.9161583;0.00734138273147506;1;axe_out_channels1_0,axe_out_channels1_1,axe_xx1_0,axe_yy1_0,axe_out_channels1_2;128;;;F:2, F:2, X:4, Y:4, F:2, C:8, W:3, X:14, W:1, H:3, X:1, Y:14, C:16, F:16, ;664.8034987449646
173;1;MobilNet_03;0.5021579;0.0029374408402553648;1;axe_out_channels1_0,axe_out_channels1_1,axe_xx1_0,axe_yy1_0,axe_out_channels1_2,axe_xx1_1;1792;;;F:2, F:2, X:4, Y:4, F:2, C:8, W:3, X:14, W:1, H:3, X:1, Y:14, C:16, F:16, ;666.5218732357025
174;0;MobilNet_03;1.0418899;0.00988870320567865;1;axe_out_channels1_0,axe_out_channels1_1,axe_xx1_0,axe_yy1_0,axe_out_channels1_2;128;;;F:2, F:4, X:4, Y:4, F:1, C:8, W:3, X:14, W:1, H:3, X:1, Y:14, C:16, F:16, ;668.277340888977
174;1;MobilNet_03;0.5328182;0.009133491980617279;1;axe_out_channels1_0,axe_out_channels1_1,axe_xx1_0,axe_yy1_0,axe_out_channels1_2,axe_xx1_1;1792;;;F:2, F:4, X:4, Y:4, F:1, C:8, W:3, X:14, W:1, H:3, X:1, Y:14, C:16, F:16, ;669.9963989257812
175;0;MobilNet_03;0.9160402999999999;0.0039794026699996;1;axe_out_channels1_0,axe_out_channels1_1,axe_xx1_0,axe_yy1_0,axe_out_channels1_2;128;;;F:4, F:1, X:4, Y:4, F:2, C:8, W:3, X:14, W:1, H:3, X:1, Y:14, C:16, F:16, ;671.7398087978363
175;1;MobilNet_03;0.5020632;0.003481555594845499;1;axe_out_channels1_0,axe_out_channels1_1,axe_xx1_0,axe_yy1_0,axe_out_channels1_2,axe_xx1_1;1792;;;F:4, F:1, X:4, Y:4, F:2, C:8, W:3, X:14, W:1, H:3, X:1, Y:14, C:16, F:16, ;673.458685874939
176;0;MobilNet_03;1.0490106000000001;0.002681748839843165;1;axe_out_channels1_0,axe_out_channels1_1,axe_xx1_0,axe_yy1_0,axe_out_channels1_2;128;;;F:4, F:2, X:4, Y:4, F:1, C:8, W:3, X:14, W:1, H:3, X:1, Y:14, C:16, F:16, ;675.2151627540588
176;1;MobilNet_03;0.5287619;0.005268574654496215;1;axe_out_channels1_0,axe_out_channels1_1,axe_xx1_0,axe_yy1_0,axe_out_channels1_2,axe_xx1_1;1792;;;F:4, F:2, X:4, Y:4, F:1, C:8, W:3, X:14, W:1, H:3, X:1, Y:14, C:16, F:16, ;676.9313659667969
177;0;MobilNet_03;1.0407936000000002;0.00724543197055909;1;axe_out_channels1_0,axe_out_channels1_1,axe_xx1_0,axe_yy1_0,axe_out_channels1_2;128;;;F:8, F:1, X:4, Y:4, F:1, C:8, W:3, X:14, W:1, H:3, X:1, Y:14, C:16, F:16, ;678.6858496665955
177;1;MobilNet_03;0.5304303;0.009204990190652016;1;axe_out_channels1_0,axe_out_channels1_1,axe_xx1_0,axe_yy1_0,axe_out_channels1_2,axe_xx1_1;1792;;;F:8, F:1, X:4, Y:4, F:1, C:8, W:3, X:14, W:1, H:3, X:1, Y:14, C:16, F:16, ;680.4058096408844
178;0;MobilNet_03;2.0820990999999998;0.006785283434757861;2;axe_yy1_0,axe_xx1_0,axe_out_channels1_0;28;axe_xx2_1;28;Y:7, X:2, F:2, C:4, H:3, X:28, W:3, H:1, X:1, Y:4, C:32, F:64, ;682.6271007061005
178;1;MobilNet_03;0.7735166;0.022945757308051536;2;axe_yy1_0,axe_xx1_0,axe_out_channels1_0,axe_xx1_1;784;axe_yy2_0,axe_xx2_0,axe_out_channels2_0,axe_xx2_1;448;Y:7, X:2, F:2, C:4, H:3, X:28, W:3, H:1, X:1, Y:4, C:32, F:64, ;684.7712185382843
179;0;MobilNet_03;0.605224;0.002475090705408583;1;axe_yy1_0,axe_xx1_0,axe_out_channels1_0;64;;;Y:8, X:4, F:2, C:2, H:3, X:14, W:3, H:1, X:1, Y:7, C:64, F:64, ;686.5088810920715
179;1;MobilNet_03;0.6181802;0.01344118528850784;1;axe_yy1_0,axe_xx1_0,axe_out_channels1_0,axe_xx1_1;896;;;Y:8, X:4, F:2, C:2, H:3, X:14, W:3, H:1, X:1, Y:7, C:64, F:64, ;688.2440919876099
180;0;MobilNet_03;0.8143557000000001;0.003535050213221869;2;axe_xx1_0,axe_yy1_0,axe_xx1_1,axe_out_channels1_0;80;axe_xx2_0,axe_yy2_0,axe_xx2_1,axe_out_channels2_0;16;X:1, Y:5, X:4, F:4, C:4, W:3, X:14, H:3, W:1, H:1, X:1, Y:9, C:32, F:32, ;690.3725464344025
180;1;MobilNet_03;0.6716319000000001;0.002919013033544068;2;axe_xx1_0,axe_yy1_0,axe_xx1_1,axe_out_channels1_0,axe_xx1_2;1120;axe_xx2_0,axe_yy2_0,axe_xx2_1,axe_out_channels2_0,axe_xx2_2;224;X:1, Y:5, X:4, F:4, C:4, W:3, X:14, H:3, W:1, H:1, X:1, Y:9, C:32, F:32, ;692.4930229187012
181;0;MobilNet_03;0.8021207;0.003679309066930903;2;axe_xx1_0,axe_yy1_0,axe_xx1_1,axe_out_channels1_0;80;axe_xx2_0,axe_yy2_0,axe_xx2_1,axe_out_channels2_0;16;X:2, Y:5, X:2, F:4, C:4, W:3, X:14, H:3, W:1, H:1, X:1, Y:9, C:32, F:32, ;694.6257300376892
181;1;MobilNet_03;0.6766889;0.0033875371717517473;2;axe_xx1_0,axe_yy1_0,axe_xx1_1,axe_out_channels1_0,axe_xx1_2;1120;axe_xx2_0,axe_yy2_0,axe_xx2_1,axe_out_channels2_0,axe_xx2_2;224;X:2, Y:5, X:2, F:4, C:4, W:3, X:14, H:3, W:1, H:1, X:1, Y:9, C:32, F:32, ;696.7452776432037
182;0;MobilNet_03;0.8204814;0.005468498645880762;2;axe_xx1_0,axe_yy1_0,axe_xx1_1,axe_out_channels1_0;80;axe_xx2_0,axe_yy2_0,axe_xx2_1,axe_out_channels2_0;16;X:4, Y:5, X:1, F:4, C:4, W:3, X:14, H:3, W:1, H:1, X:1, Y:9, C:32, F:32, ;698.8752286434174
182;1;MobilNet_03;0.672952;0.0030973574543471526;2;axe_xx1_0,axe_yy1_0,axe_xx1_1,axe_out_channels1_0,axe_xx1_2;1120;axe_xx2_0,axe_yy2_0,axe_xx2_1,axe_out_channels2_0,axe_xx2_2;224;X:4, Y:5, X:1, F:4, C:4, W:3, X:14, H:3, W:1, H:1, X:1, Y:9, C:32, F:32, ;700.9919354915619
183;0;MobilNet_03;0.7519823;0.003979978619289302;2;axe_xx1_0,axe_yy1_0,axe_xx1_1,axe_out_channels1_0;80;axe_xx2_0,axe_yy2_0,axe_xx2_1,axe_out_channels2_0;16;X:1, Y:5, X:4, F:4, C:4, W:3, X:14, W:1, H:3, X:1, Y:9, C:32, F:32, ;703.1422035694122
183;1;MobilNet_03;0.5881462;0.007432306341910315;2;axe_xx1_0,axe_yy1_0,axe_xx1_1,axe_out_channels1_0,axe_xx1_2;1120;axe_xx2_0,axe_yy2_0,axe_xx2_1,axe_out_channels2_0,axe_xx2_2;224;X:1, Y:5, X:4, F:4, C:4, W:3, X:14, W:1, H:3, X:1, Y:9, C:32, F:32, ;705.2775092124939
184;0;MobilNet_03;0.7395967;0.00470947867709368;2;axe_xx1_0,axe_yy1_0,axe_xx1_1,axe_out_channels1_0;80;axe_xx2_0,axe_yy2_0,axe_xx2_1,axe_out_channels2_0;16;X:2, Y:5, X:2, F:4, C:4, W:3, X:14, W:1, H:3, X:1, Y:9, C:32, F:32, ;707.4294016361237
184;1;MobilNet_03;0.5853567;0.009641681150608518;2;axe_xx1_0,axe_yy1_0,axe_xx1_1,axe_out_channels1_0,axe_xx1_2;1120;axe_xx2_0,axe_yy2_0,axe_xx2_1,axe_out_channels2_0,axe_xx2_2;224;X:2, Y:5, X:2, F:4, C:4, W:3, X:14, W:1, H:3, X:1, Y:9, C:32, F:32, ;709.5695765018463
185;0;MobilNet_03;0.7647115999999999;0.006650304387018674;2;axe_xx1_0,axe_yy1_0,axe_xx1_1,axe_out_channels1_0;80;axe_xx2_0,axe_yy2_0,axe_xx2_1,axe_out_channels2_0;16;X:4, Y:5, X:1, F:4, C:4, W:3, X:14, W:1, H:3, X:1, Y:9, C:32, F:32, ;711.7192094326019
185;1;MobilNet_03;0.5801389;0.011125836862456703;2;axe_xx1_0,axe_yy1_0,axe_xx1_1,axe_out_channels1_0,axe_xx1_2;1120;axe_xx2_0,axe_yy2_0,axe_xx2_1,axe_out_channels2_0,axe_xx2_2;224;X:4, Y:5, X:1, F:4, C:4, W:3, X:14, W:1, H:3, X:1, Y:9, C:32, F:32, ;713.8498475551605
186;0;MobilNet_03;1.3619279;0.005603557360284643;1;axe_xx1_1;56;;;Y:8, X:1, F:2, C:2, H:3, X:56, W:3, H:1, X:1, Y:7, C:64, F:64, ;715.6340882778168
186;1;MobilNet_03;0.7517486999999999;0.013399777498525861;1;axe_yy1_0,axe_xx1_0,axe_out_channels1_0,axe_xx1_1;896;;;Y:8, X:1, F:2, C:2, H:3, X:56, W:3, H:1, X:1, Y:7, C:64, F:64, ;717.3753492832184
187;0;MobilNet_03;2.2043808;0.011640499996134137;2;axe_out_channels1_0,axe_out_channels1_1,axe_xx1_0,axe_yy1_0,axe_out_channels1_2;80;axe_xx2_1;28;F:1, F:1, X:2, Y:5, F:8, C:4, W:3, X:28, W:1, H:3, X:1, Y:9, C:32, F:16, ;719.5666584968567
187;1;MobilNet_03;0.6328407;0.003288798444721118;2;axe_out_channels1_0,axe_out_channels1_1,axe_xx1_0,axe_yy1_0,axe_out_channels1_2,axe_xx1_1;2240;axe_out_channels2_0,axe_out_channels2_1,axe_xx2_0,axe_yy2_0,axe_out_channels2_2,axe_xx2_1;448;F:1, F:1, X:2, Y:5, F:8, C:4, W:3, X:28, W:1, H:3, X:1, Y:9, C:32, F:16, ;721.679783821106
188;0;MobilNet_03;2.1255736999999995;0.016734321360903696;2;axe_out_channels1_0,axe_out_channels1_1,axe_xx1_0,axe_yy1_0,axe_out_channels1_2;80;axe_xx2_1;28;F:1, F:2, X:2, Y:5, F:4, C:4, W:3, X:28, W:1, H:3, X:1, Y:9, C:32, F:16, ;723.8750138282776
188;1;MobilNet_03;0.6086356000000002;0.009020834065650471;2;axe_out_channels1_0,axe_out_channels1_1,axe_xx1_0,axe_yy1_0,axe_out_channels1_2,axe_xx1_1;2240;axe_out_channels2_0,axe_out_channels2_1,axe_xx2_0,axe_yy2_0,axe_out_channels2_2,axe_xx2_1;448;F:1, F:2, X:2, Y:5, F:4, C:4, W:3, X:28, W:1, H:3, X:1, Y:9, C:32, F:16, ;725.9926071166992
189;0;MobilNet_03;2.1460416;0.008075203194966683;2;axe_out_channels1_0,axe_out_channels1_1,axe_xx1_0,axe_yy1_0,axe_out_channels1_2;80;axe_xx2_1;28;F:1, F:4, X:2, Y:5, F:2, C:4, W:3, X:28, W:1, H:3, X:1, Y:9, C:32, F:16, ;728.1930727958679
189;1;MobilNet_03;0.6039066;0.008372127402279566;2;axe_out_channels1_0,axe_out_channels1_1,axe_xx1_0,axe_yy1_0,axe_out_channels1_2,axe_xx1_1;2240;axe_out_channels2_0,axe_out_channels2_1,axe_xx2_0,axe_yy2_0,axe_out_channels2_2,axe_xx2_1;448;F:1, F:4, X:2, Y:5, F:2, C:4, W:3, X:28, W:1, H:3, X:1, Y:9, C:32, F:16, ;730.308896780014
190;0;MobilNet_03;2.1607004000000005;0.012377284065577579;2;axe_out_channels1_0,axe_out_channels1_1,axe_xx1_0,axe_yy1_0,axe_out_channels1_2;80;axe_xx2_1;28;F:1, F:8, X:2, Y:5, F:1, C:4, W:3, X:28, W:1, H:3, X:1, Y:9, C:32, F:16, ;732.5077888965607
190;1;MobilNet_03;0.6219079000000001;0.004936512036853548;2;axe_out_channels1_0,axe_out_channels1_1,axe_xx1_0,axe_yy1_0,axe_out_channels1_2,axe_xx1_1;2240;axe_out_channels2_0,axe_out_channels2_1,axe_xx2_0,axe_yy2_0,axe_out_channels2_2,axe_xx2_1;448;F:1, F:8, X:2, Y:5, F:1, C:4, W:3, X:28, W:1, H:3, X:1, Y:9, C:32, F:16, ;734.6172769069672
191;0;MobilNet_03;2.1306656;0.006797447332638979;2;axe_out_channels1_0,axe_out_channels1_1,axe_xx1_0,axe_yy1_0,axe_out_channels1_2;80;axe_xx2_1;28;F:2, F:1, X:2, Y:5, F:4, C:4, W:3, X:28, W:1, H:3, X:1, Y:9, C:32, F:16, ;736.8144097328186
191;1;MobilNet_03;0.6051648;0.009631847338906489;2;axe_out_channels1_0,axe_out_channels1_1,axe_xx1_0,axe_yy1_0,axe_out_channels1_2,axe_xx1_1;2240;axe_out_channels2_0,axe_out_channels2_1,axe_xx2_0,axe_yy2_0,axe_out_channels2_2,axe_xx2_1;448;F:2, F:1, X:2, Y:5, F:4, C:4, W:3, X:28, W:1, H:3, X:1, Y:9, C:32, F:16, ;738.9290401935577
192;0;MobilNet_03;2.1417815;0.01089601955991278;2;axe_out_channels1_0,axe_out_channels1_1,axe_xx1_0,axe_yy1_0,axe_out_channels1_2;80;axe_xx2_1;28;F:2, F:2, X:2, Y:5, F:2, C:4, W:3, X:28, W:1, H:3, X:1, Y:9, C:32, F:16, ;741.1329951286316
192;1;MobilNet_03;0.6024200000000001;0.007057452288184452;2;axe_out_channels1_0,axe_out_channels1_1,axe_xx1_0,axe_yy1_0,axe_out_channels1_2,axe_xx1_1;2240;axe_out_channels2_0,axe_out_channels2_1,axe_xx2_0,axe_yy2_0,axe_out_channels2_2,axe_xx2_1;448;F:2, F:2, X:2, Y:5, F:2, C:4, W:3, X:28, W:1, H:3, X:1, Y:9, C:32, F:16, ;743.2492861747742
193;0;MobilNet_03;2.15863;0.016765801299073124;2;axe_out_channels1_0,axe_out_channels1_1,axe_xx1_0,axe_yy1_0,axe_out_channels1_2;80;axe_xx2_1;28;F:2, F:4, X:2, Y:5, F:1, C:4, W:3, X:28, W:1, H:3, X:1, Y:9, C:32, F:16, ;745.4557008743286
193;1;MobilNet_03;0.6060363000000001;0.007465466684005786;2;axe_out_channels1_0,axe_out_channels1_1,axe_xx1_0,axe_yy1_0,axe_out_channels1_2,axe_xx1_1;2240;axe_out_channels2_0,axe_out_channels2_1,axe_xx2_0,axe_yy2_0,axe_out_channels2_2,axe_xx2_1;448;F:2, F:4, X:2, Y:5, F:1, C:4, W:3, X:28, W:1, H:3, X:1, Y:9, C:32, F:16, ;747.5645968914032
194;0;MobilNet_03;2.1412267999999997;0.009525732683631275;2;axe_out_channels1_0,axe_out_channels1_1,axe_xx1_0,axe_yy1_0,axe_out_channels1_2;80;axe_xx2_1;28;F:4, F:1, X:2, Y:5, F:2, C:4, W:3, X:28, W:1, H:3, X:1, Y:9, C:32, F:16, ;749.7598986625671
194;1;MobilNet_03;0.6006598999999999;0.006908549029282493;2;axe_out_channels1_0,axe_out_channels1_1,axe_xx1_0,axe_yy1_0,axe_out_channels1_2,axe_xx1_1;2240;axe_out_channels2_0,axe_out_channels2_1,axe_xx2_0,axe_yy2_0,axe_out_channels2_2,axe_xx2_1;448;F:4, F:1, X:2, Y:5, F:2, C:4, W:3, X:28, W:1, H:3, X:1, Y:9, C:32, F:16, ;751.8742554187775
195;0;MobilNet_03;2.147255;0.01839148761791712;2;axe_out_channels1_0,axe_out_channels1_1,axe_xx1_0,axe_yy1_0,axe_out_channels1_2;80;axe_xx2_1;28;F:4, F:2, X:2, Y:5, F:1, C:4, W:3, X:28, W:1, H:3, X:1, Y:9, C:32, F:16, ;754.0767815113068
195;1;MobilNet_03;0.6244704999999999;0.004742548623894101;2;axe_out_channels1_0,axe_out_channels1_1,axe_xx1_0,axe_yy1_0,axe_out_channels1_2,axe_xx1_1;2240;axe_out_channels2_0,axe_out_channels2_1,axe_xx2_0,axe_yy2_0,axe_out_channels2_2,axe_xx2_1;448;F:4, F:2, X:2, Y:5, F:1, C:4, W:3, X:28, W:1, H:3, X:1, Y:9, C:32, F:16, ;756.1908667087555
196;0;MobilNet_03;2.1473237;0.01516731993497874;2;axe_out_channels1_0,axe_out_channels1_1,axe_xx1_0,axe_yy1_0,axe_out_channels1_2;80;axe_xx2_1;28;F:8, F:1, X:2, Y:5, F:1, C:4, W:3, X:28, W:1, H:3, X:1, Y:9, C:32, F:16, ;758.3837494850159
196;1;MobilNet_03;0.624178;0.0029524808551453815;2;axe_out_channels1_0,axe_out_channels1_1,axe_xx1_0,axe_yy1_0,axe_out_channels1_2,axe_xx1_1;2240;axe_out_channels2_0,axe_out_channels2_1,axe_xx2_0,axe_yy2_0,axe_out_channels2_2,axe_xx2_1;448;F:8, F:1, X:2, Y:5, F:1, C:4, W:3, X:28, W:1, H:3, X:1, Y:9, C:32, F:16, ;760.4930415153503
197;0;MobilNet_03;0.5690493000000001;0.0026263553472445408;1;axe_out_channels1_0,axe_out_channels1_1,axe_xx1_0,axe_yy1_0,axe_out_channels1_2;448;;;F:1, F:8, X:14, Y:4, F:1, C:1, W:3, X:4, W:1, H:3, X:1, Y:14, C:128, F:16, ;762.2410500049591
197;1;MobilNet_03;0.4952958999999999;0.0021534080175387156;1;axe_out_channels1_0,axe_out_channels1_1,axe_xx1_0,axe_yy1_0,axe_out_channels1_2,axe_xx1_1;1792;;;F:1, F:8, X:14, Y:4, F:1, C:1, W:3, X:4, W:1, H:3, X:1, Y:14, C:128, F:16, ;763.9544534683228
198;0;MobilNet_03;0.5709153;0.0041778787452486175;1;axe_out_channels1_0,axe_out_channels1_1,axe_xx1_0,axe_yy1_0,axe_out_channels1_2;448;;;F:2, F:4, X:14, Y:4, F:1, C:1, W:3, X:4, W:1, H:3, X:1, Y:14, C:128, F:16, ;765.6994826793671
198;1;MobilNet_03;0.49462140000000004;0.001206373176094358;1;axe_out_channels1_0,axe_out_channels1_1,axe_xx1_0,axe_yy1_0,axe_out_channels1_2,axe_xx1_1;1792;;;F:2, F:4, X:14, Y:4, F:1, C:1, W:3, X:4, W:1, H:3, X:1, Y:14, C:128, F:16, ;767.4113862514496
199;0;MobilNet_03;0.5756619999999999;0.003728611752381838;1;axe_out_channels1_0,axe_out_channels1_1,axe_xx1_0,axe_yy1_0,axe_out_channels1_2;448;;;F:4, F:2, X:14, Y:4, F:1, C:1, W:3, X:4, W:1, H:3, X:1, Y:14, C:128, F:16, ;769.1582252979279
199;1;MobilNet_03;0.5016316;0.005678205406640388;1;axe_out_channels1_0,axe_out_channels1_1,axe_xx1_0,axe_yy1_0,axe_out_channels1_2,axe_xx1_1;1792;;;F:4, F:2, X:14, Y:4, F:1, C:1, W:3, X:4, W:1, H:3, X:1, Y:14, C:128, F:16, ;770.875247001648
