35.7,1222925,613505,18547200,2716160,"[V f; U (4, f); U (7, y); T (512, c); Hoist_vars [c]; T (7, x); T (3, w);   T (3, h); T (1, c); T (8, f); T (1, y); T (1, c)]"
25.1,1227523,1069691,17364480,2716160,"[V f; U (4, f); U (7, y); U (3, h); T (512, c); Hoist_vars [c]; T (7, x);   T (3, w); T (1, c); T (8, f); T (1, y); T (1, c)]"
25.4,2904683,1097870,18396672,2716160,"[V f; U (4, f); U (7, y); U (3, w); T (512, c); Hoist_vars [c]; T (7, x);   T (3, h); T (1, c); T (8, f); T (1, y); T (1, c)]"
