67.7,1363574,419309,24719360,5359616,"[V f; U (2, f); ULambda y; T (256, c); Hoist_vars [c]; T (68, x); T (1, x);   Lambda_apply y [((Iter 3), (Arg 8)); ((Iter 4), (Arg 11))]; T (4, f);   T (1, c); T (1, x)]"
67.4,1364957,420329,24719360,5359616,"[V f; U (2, f); ULambda y; T (256, c); Hoist_vars [c]; T (34, x); T (2, x);   Lambda_apply y [((Iter 3), (Arg 8)); ((Iter 4), (Arg 11))]; T (4, f);   T (1, c); T (1, x)]"
66.3,1363986,419923,24719360,5359616,"[V f; U (2, f); ULambda y; T (256, c); Hoist_vars [c]; T (17, x); T (4, x);   Lambda_apply y [((Iter 3), (Arg 8)); ((Iter 4), (Arg 11))]; T (4, f);   T (1, c); T (1, x)]"
65.3,1364071,419690,24719360,5359616,"[V f; U (2, f); ULambda y; T (256, c); Hoist_vars [c]; T (4, x); T (17, x);   Lambda_apply y [((Iter 3), (Arg 8)); ((Iter 4), (Arg 11))]; T (4, f);   T (1, c); T (1, x)]"
65.8,1362854,421861,24719360,5359616,"[V f; U (2, f); ULambda y; T (256, c); Hoist_vars [c]; T (2, x); T (34, x);   Lambda_apply y [((Iter 3), (Arg 8)); ((Iter 4), (Arg 11))]; T (4, f);   T (1, c); T (1, x)]"
66.1,1363653,418969,24719360,5359616,"[V f; U (2, f); ULambda y; T (256, c); Hoist_vars [c]; T (1, x); T (68, x);   Lambda_apply y [((Iter 3), (Arg 8)); ((Iter 4), (Arg 11))]; T (4, f);   T (1, c); T (1, x)]"
66.0,1362603,411151,24719360,5392384,"[V f; U (2, f); ULambda y; T (256, c); Hoist_vars [c]; T (34, x); T (1, x);   Lambda_apply y [((Iter 3), (Arg 8)); ((Iter 4), (Arg 11))]; T (4, f);   T (1, c); T (2, x)]"
65.9,1361946,411268,24719360,5392384,"[V f; U (2, f); ULambda y; T (256, c); Hoist_vars [c]; T (17, x); T (2, x);   Lambda_apply y [((Iter 3), (Arg 8)); ((Iter 4), (Arg 11))]; T (4, f);   T (1, c); T (2, x)]"
66.9,1361858,412700,24719360,5392384,"[V f; U (2, f); ULambda y; T (256, c); Hoist_vars [c]; T (2, x); T (17, x);   Lambda_apply y [((Iter 3), (Arg 8)); ((Iter 4), (Arg 11))]; T (4, f);   T (1, c); T (2, x)]"
66.1,1362897,410341,24719360,5392384,"[V f; U (2, f); ULambda y; T (256, c); Hoist_vars [c]; T (1, x); T (34, x);   Lambda_apply y [((Iter 3), (Arg 8)); ((Iter 4), (Arg 11))]; T (4, f);   T (1, c); T (2, x)]"
64.7,1362701,378211,24719360,5457920,"[V f; U (2, f); ULambda y; T (256, c); Hoist_vars [c]; T (17, x); T (1, x);   Lambda_apply y [((Iter 3), (Arg 8)); ((Iter 4), (Arg 11))]; T (4, f);   T (1, c); T (4, x)]"
67.5,1362753,382726,24719360,5457920,"[V f; U (2, f); ULambda y; T (256, c); Hoist_vars [c]; T (1, x); T (17, x);   Lambda_apply y [((Iter 3), (Arg 8)); ((Iter 4), (Arg 11))]; T (4, f);   T (1, c); T (4, x)]"
78.8,1364001,126313,24719360,1808384,"[V f; U (2, f); ULambda y; T (256, c); Hoist_vars [c]; T (4, x); T (1, x);   Lambda_apply y [((Iter 3), (Arg 8)); ((Iter 4), (Arg 11))]; T (4, f);   T (1, c); T (17, x)]"
75.8,1364070,126252,24719360,1808384,"[V f; U (2, f); ULambda y; T (256, c); Hoist_vars [c]; T (2, x); T (2, x);   Lambda_apply y [((Iter 3), (Arg 8)); ((Iter 4), (Arg 11))]; T (4, f);   T (1, c); T (17, x)]"
80.2,1363737,125547,24719360,1808384,"[V f; U (2, f); ULambda y; T (256, c); Hoist_vars [c]; T (1, x); T (4, x);   Lambda_apply y [((Iter 3), (Arg 8)); ((Iter 4), (Arg 11))]; T (4, f);   T (1, c); T (17, x)]"
77.8,1361090,117573,24719360,1808384,"[V f; U (2, f); ULambda y; T (256, c); Hoist_vars [c]; T (2, x); T (1, x);   Lambda_apply y [((Iter 3), (Arg 8)); ((Iter 4), (Arg 11))]; T (4, f);   T (1, c); T (34, x)]"
81.0,1361715,116856,24719360,1808384,"[V f; U (2, f); ULambda y; T (256, c); Hoist_vars [c]; T (1, x); T (2, x);   Lambda_apply y [((Iter 3), (Arg 8)); ((Iter 4), (Arg 11))]; T (4, f);   T (1, c); T (34, x)]"
79.9,1360818,114657,24719360,1808384,"[V f; U (2, f); ULambda y; T (256, c); Hoist_vars [c]; T (1, x); T (1, x);   Lambda_apply y [((Iter 3), (Arg 8)); ((Iter 4), (Arg 11))]; T (4, f);   T (1, c); T (68, x)]"
62.7,1221256,410937,25346048,5359616,"[V f; U (2, f); ULambda y; T (256, c); Hoist_vars [c]; T (68, x); T (1, x);   Lambda_apply y [((Iter 1), (Arg 8)); ((Iter 5), (Arg 12))]; T (4, f);   T (1, c); T (1, x)]"
60.6,1221662,411332,25346048,5359616,"[V f; U (2, f); ULambda y; T (256, c); Hoist_vars [c]; T (34, x); T (2, x);   Lambda_apply y [((Iter 1), (Arg 8)); ((Iter 5), (Arg 12))]; T (4, f);   T (1, c); T (1, x)]"
66.1,1222604,409580,25346048,5359616,"[V f; U (2, f); ULambda y; T (256, c); Hoist_vars [c]; T (17, x); T (4, x);   Lambda_apply y [((Iter 1), (Arg 8)); ((Iter 5), (Arg 12))]; T (4, f);   T (1, c); T (1, x)]"
66.1,1221298,410156,25346048,5359616,"[V f; U (2, f); ULambda y; T (256, c); Hoist_vars [c]; T (4, x); T (17, x);   Lambda_apply y [((Iter 1), (Arg 8)); ((Iter 5), (Arg 12))]; T (4, f);   T (1, c); T (1, x)]"
65.4,1220611,411585,25346048,5359616,"[V f; U (2, f); ULambda y; T (256, c); Hoist_vars [c]; T (2, x); T (34, x);   Lambda_apply y [((Iter 1), (Arg 8)); ((Iter 5), (Arg 12))]; T (4, f);   T (1, c); T (1, x)]"
64.0,1221585,409553,25346048,5359616,"[V f; U (2, f); ULambda y; T (256, c); Hoist_vars [c]; T (1, x); T (68, x);   Lambda_apply y [((Iter 1), (Arg 8)); ((Iter 5), (Arg 12))]; T (4, f);   T (1, c); T (1, x)]"
66.0,1219978,405006,25346048,5392384,"[V f; U (2, f); ULambda y; T (256, c); Hoist_vars [c]; T (34, x); T (1, x);   Lambda_apply y [((Iter 1), (Arg 8)); ((Iter 5), (Arg 12))]; T (4, f);   T (1, c); T (2, x)]"
66.1,1224667,406722,25346048,5392384,"[V f; U (2, f); ULambda y; T (256, c); Hoist_vars [c]; T (17, x); T (2, x);   Lambda_apply y [((Iter 1), (Arg 8)); ((Iter 5), (Arg 12))]; T (4, f);   T (1, c); T (2, x)]"
64.4,1218941,409096,25346048,5392384,"[V f; U (2, f); ULambda y; T (256, c); Hoist_vars [c]; T (2, x); T (17, x);   Lambda_apply y [((Iter 1), (Arg 8)); ((Iter 5), (Arg 12))]; T (4, f);   T (1, c); T (2, x)]"
65.9,1219756,405220,25346048,5392384,"[V f; U (2, f); ULambda y; T (256, c); Hoist_vars [c]; T (1, x); T (34, x);   Lambda_apply y [((Iter 1), (Arg 8)); ((Iter 5), (Arg 12))]; T (4, f);   T (1, c); T (2, x)]"
65.8,1219805,375821,25346048,5457920,"[V f; U (2, f); ULambda y; T (256, c); Hoist_vars [c]; T (17, x); T (1, x);   Lambda_apply y [((Iter 1), (Arg 8)); ((Iter 5), (Arg 12))]; T (4, f);   T (1, c); T (4, x)]"
67.7,1220135,375857,25346048,5457920,"[V f; U (2, f); ULambda y; T (256, c); Hoist_vars [c]; T (1, x); T (17, x);   Lambda_apply y [((Iter 1), (Arg 8)); ((Iter 5), (Arg 12))]; T (4, f);   T (1, c); T (4, x)]"
77.9,1222318,125592,25346048,1808384,"[V f; U (2, f); ULambda y; T (256, c); Hoist_vars [c]; T (4, x); T (1, x);   Lambda_apply y [((Iter 1), (Arg 8)); ((Iter 5), (Arg 12))]; T (4, f);   T (1, c); T (17, x)]"
78.9,1226814,124890,25346048,1808384,"[V f; U (2, f); ULambda y; T (256, c); Hoist_vars [c]; T (2, x); T (2, x);   Lambda_apply y [((Iter 1), (Arg 8)); ((Iter 5), (Arg 12))]; T (4, f);   T (1, c); T (17, x)]"
76.4,1221920,126341,25346048,1808384,"[V f; U (2, f); ULambda y; T (256, c); Hoist_vars [c]; T (1, x); T (4, x);   Lambda_apply y [((Iter 1), (Arg 8)); ((Iter 5), (Arg 12))]; T (4, f);   T (1, c); T (17, x)]"
80.2,1220971,116317,25346048,1808384,"[V f; U (2, f); ULambda y; T (256, c); Hoist_vars [c]; T (2, x); T (1, x);   Lambda_apply y [((Iter 1), (Arg 8)); ((Iter 5), (Arg 12))]; T (4, f);   T (1, c); T (34, x)]"
79.7,1221003,117038,25346048,1808384,"[V f; U (2, f); ULambda y; T (256, c); Hoist_vars [c]; T (1, x); T (2, x);   Lambda_apply y [((Iter 1), (Arg 8)); ((Iter 5), (Arg 12))]; T (4, f);   T (1, c); T (34, x)]"
79.1,1219514,114275,25346048,1808384,"[V f; U (2, f); ULambda y; T (256, c); Hoist_vars [c]; T (1, x); T (1, x);   Lambda_apply y [((Iter 1), (Arg 8)); ((Iter 5), (Arg 12))]; T (4, f);   T (1, c); T (68, x)]"
63.5,1362755,416470,26599424,9035776,"[V f; U (2, f); ULambda y; T (256, c); Hoist_vars [c]; T (68, x); T (1, x);   Lambda_apply y [((Iter 5), (Arg 8)); ((Iter 2), (Arg 14))]; T (4, f);   T (1, c); T (1, x)]"
66.2,1363517,417087,26599424,9035776,"[V f; U (2, f); ULambda y; T (256, c); Hoist_vars [c]; T (34, x); T (2, x);   Lambda_apply y [((Iter 5), (Arg 8)); ((Iter 2), (Arg 14))]; T (4, f);   T (1, c); T (1, x)]"
67.5,1363457,416589,26599424,9035776,"[V f; U (2, f); ULambda y; T (256, c); Hoist_vars [c]; T (17, x); T (4, x);   Lambda_apply y [((Iter 5), (Arg 8)); ((Iter 2), (Arg 14))]; T (4, f);   T (1, c); T (1, x)]"
64.2,1362987,418107,26599424,9035776,"[V f; U (2, f); ULambda y; T (256, c); Hoist_vars [c]; T (4, x); T (17, x);   Lambda_apply y [((Iter 5), (Arg 8)); ((Iter 2), (Arg 14))]; T (4, f);   T (1, c); T (1, x)]"
65.1,1364035,418955,26599424,9035776,"[V f; U (2, f); ULambda y; T (256, c); Hoist_vars [c]; T (2, x); T (34, x);   Lambda_apply y [((Iter 5), (Arg 8)); ((Iter 2), (Arg 14))]; T (4, f);   T (1, c); T (1, x)]"
65.5,1363006,416608,26599424,9035776,"[V f; U (2, f); ULambda y; T (256, c); Hoist_vars [c]; T (1, x); T (68, x);   Lambda_apply y [((Iter 5), (Arg 8)); ((Iter 2), (Arg 14))]; T (4, f);   T (1, c); T (1, x)]"
66.5,1361978,407419,26599424,5392384,"[V f; U (2, f); ULambda y; T (256, c); Hoist_vars [c]; T (34, x); T (1, x);   Lambda_apply y [((Iter 5), (Arg 8)); ((Iter 2), (Arg 14))]; T (4, f);   T (1, c); T (2, x)]"
64.4,1361452,409570,26599424,5392384,"[V f; U (2, f); ULambda y; T (256, c); Hoist_vars [c]; T (17, x); T (2, x);   Lambda_apply y [((Iter 5), (Arg 8)); ((Iter 2), (Arg 14))]; T (4, f);   T (1, c); T (2, x)]"
65.5,1362436,411298,26599424,5392384,"[V f; U (2, f); ULambda y; T (256, c); Hoist_vars [c]; T (2, x); T (17, x);   Lambda_apply y [((Iter 5), (Arg 8)); ((Iter 2), (Arg 14))]; T (4, f);   T (1, c); T (2, x)]"
66.5,1361775,407722,26599424,5392384,"[V f; U (2, f); ULambda y; T (256, c); Hoist_vars [c]; T (1, x); T (34, x);   Lambda_apply y [((Iter 5), (Arg 8)); ((Iter 2), (Arg 14))]; T (4, f);   T (1, c); T (2, x)]"
66.6,1361564,378936,26599424,5457920,"[V f; U (2, f); ULambda y; T (256, c); Hoist_vars [c]; T (17, x); T (1, x);   Lambda_apply y [((Iter 5), (Arg 8)); ((Iter 2), (Arg 14))]; T (4, f);   T (1, c); T (4, x)]"
66.7,1361367,382513,26599424,5457920,"[V f; U (2, f); ULambda y; T (256, c); Hoist_vars [c]; T (1, x); T (17, x);   Lambda_apply y [((Iter 5), (Arg 8)); ((Iter 2), (Arg 14))]; T (4, f);   T (1, c); T (4, x)]"
78.3,1365943,128115,26599424,1808384,"[V f; U (2, f); ULambda y; T (256, c); Hoist_vars [c]; T (4, x); T (1, x);   Lambda_apply y [((Iter 5), (Arg 8)); ((Iter 2), (Arg 14))]; T (4, f);   T (1, c); T (17, x)]"
78.7,1365389,128042,26599424,1808384,"[V f; U (2, f); ULambda y; T (256, c); Hoist_vars [c]; T (2, x); T (2, x);   Lambda_apply y [((Iter 5), (Arg 8)); ((Iter 2), (Arg 14))]; T (4, f);   T (1, c); T (17, x)]"
78.0,1364672,125552,26599424,1808384,"[V f; U (2, f); ULambda y; T (256, c); Hoist_vars [c]; T (1, x); T (4, x);   Lambda_apply y [((Iter 5), (Arg 8)); ((Iter 2), (Arg 14))]; T (4, f);   T (1, c); T (17, x)]"
79.5,1362529,116760,26599424,1808384,"[V f; U (2, f); ULambda y; T (256, c); Hoist_vars [c]; T (2, x); T (1, x);   Lambda_apply y [((Iter 5), (Arg 8)); ((Iter 2), (Arg 14))]; T (4, f);   T (1, c); T (34, x)]"
79.2,1363014,116849,26599424,1808384,"[V f; U (2, f); ULambda y; T (256, c); Hoist_vars [c]; T (1, x); T (2, x);   Lambda_apply y [((Iter 5), (Arg 8)); ((Iter 2), (Arg 14))]; T (4, f);   T (1, c); T (34, x)]"
78.2,1360756,114536,26599424,1808384,"[V f; U (2, f); ULambda y; T (256, c); Hoist_vars [c]; T (1, x); T (1, x);   Lambda_apply y [((Iter 5), (Arg 8)); ((Iter 2), (Arg 14))]; T (4, f);   T (1, c); T (68, x)]"
67.3,1083299,405104,27226112,9662464,"[V f; U (2, f); ULambda y; T (256, c); Hoist_vars [c]; T (68, x); T (1, x);   Lambda_apply y [((Iter 1), (Arg 8)); ((Iter 4), (Arg 15))]; T (4, f);   T (1, c); T (1, x)]"
66.7,1083365,410155,27226112,9662464,"[V f; U (2, f); ULambda y; T (256, c); Hoist_vars [c]; T (34, x); T (2, x);   Lambda_apply y [((Iter 1), (Arg 8)); ((Iter 4), (Arg 15))]; T (4, f);   T (1, c); T (1, x)]"
64.3,1083449,407729,27226112,9662464,"[V f; U (2, f); ULambda y; T (256, c); Hoist_vars [c]; T (17, x); T (4, x);   Lambda_apply y [((Iter 1), (Arg 8)); ((Iter 4), (Arg 15))]; T (4, f);   T (1, c); T (1, x)]"
66.0,1083579,408262,27226112,9662464,"[V f; U (2, f); ULambda y; T (256, c); Hoist_vars [c]; T (4, x); T (17, x);   Lambda_apply y [((Iter 1), (Arg 8)); ((Iter 4), (Arg 15))]; T (4, f);   T (1, c); T (1, x)]"
64.6,1084420,410885,27226112,9662464,"[V f; U (2, f); ULambda y; T (256, c); Hoist_vars [c]; T (2, x); T (34, x);   Lambda_apply y [((Iter 1), (Arg 8)); ((Iter 4), (Arg 15))]; T (4, f);   T (1, c); T (1, x)]"
65.4,1083027,406986,27226112,9662464,"[V f; U (2, f); ULambda y; T (256, c); Hoist_vars [c]; T (1, x); T (68, x);   Lambda_apply y [((Iter 1), (Arg 8)); ((Iter 4), (Arg 15))]; T (4, f);   T (1, c); T (1, x)]"
67.8,1081848,402187,27226112,5392384,"[V f; U (2, f); ULambda y; T (256, c); Hoist_vars [c]; T (34, x); T (1, x);   Lambda_apply y [((Iter 1), (Arg 8)); ((Iter 4), (Arg 15))]; T (4, f);   T (1, c); T (2, x)]"
65.9,1081518,403484,27226112,5392384,"[V f; U (2, f); ULambda y; T (256, c); Hoist_vars [c]; T (17, x); T (2, x);   Lambda_apply y [((Iter 1), (Arg 8)); ((Iter 4), (Arg 15))]; T (4, f);   T (1, c); T (2, x)]"
66.7,1082732,406336,27226112,5392384,"[V f; U (2, f); ULambda y; T (256, c); Hoist_vars [c]; T (2, x); T (17, x);   Lambda_apply y [((Iter 1), (Arg 8)); ((Iter 4), (Arg 15))]; T (4, f);   T (1, c); T (2, x)]"
63.8,1081965,407767,27226112,5392384,"[V f; U (2, f); ULambda y; T (256, c); Hoist_vars [c]; T (1, x); T (34, x);   Lambda_apply y [((Iter 1), (Arg 8)); ((Iter 4), (Arg 15))]; T (4, f);   T (1, c); T (2, x)]"
68.2,1082019,369550,27226112,5457920,"[V f; U (2, f); ULambda y; T (256, c); Hoist_vars [c]; T (17, x); T (1, x);   Lambda_apply y [((Iter 1), (Arg 8)); ((Iter 4), (Arg 15))]; T (4, f);   T (1, c); T (4, x)]"
65.6,1081849,375220,27226112,5457920,"[V f; U (2, f); ULambda y; T (256, c); Hoist_vars [c]; T (1, x); T (17, x);   Lambda_apply y [((Iter 1), (Arg 8)); ((Iter 4), (Arg 15))]; T (4, f);   T (1, c); T (4, x)]"
78.5,1085460,127541,27226112,1808384,"[V f; U (2, f); ULambda y; T (256, c); Hoist_vars [c]; T (4, x); T (1, x);   Lambda_apply y [((Iter 1), (Arg 8)); ((Iter 4), (Arg 15))]; T (4, f);   T (1, c); T (17, x)]"
77.1,1085856,128862,27226112,1808384,"[V f; U (2, f); ULambda y; T (256, c); Hoist_vars [c]; T (2, x); T (2, x);   Lambda_apply y [((Iter 1), (Arg 8)); ((Iter 4), (Arg 15))]; T (4, f);   T (1, c); T (17, x)]"
78.2,1085250,125506,27226112,1808384,"[V f; U (2, f); ULambda y; T (256, c); Hoist_vars [c]; T (1, x); T (4, x);   Lambda_apply y [((Iter 1), (Arg 8)); ((Iter 4), (Arg 15))]; T (4, f);   T (1, c); T (17, x)]"
78.0,1083986,116735,27226112,1808384,"[V f; U (2, f); ULambda y; T (256, c); Hoist_vars [c]; T (2, x); T (1, x);   Lambda_apply y [((Iter 1), (Arg 8)); ((Iter 4), (Arg 15))]; T (4, f);   T (1, c); T (34, x)]"
79.1,1085626,116967,27226112,1808384,"[V f; U (2, f); ULambda y; T (256, c); Hoist_vars [c]; T (1, x); T (2, x);   Lambda_apply y [((Iter 1), (Arg 8)); ((Iter 4), (Arg 15))]; T (4, f);   T (1, c); T (34, x)]"
78.6,1082624,114674,27226112,1808384,"[V f; U (2, f); ULambda y; T (256, c); Hoist_vars [c]; T (1, x); T (1, x);   Lambda_apply y [((Iter 1), (Arg 8)); ((Iter 4), (Arg 15))]; T (4, f);   T (1, c); T (68, x)]"
65.8,1362344,422418,21081088,5359616,"[V f; U (2, f); ULambda y; T (256, c); Hoist_vars [c]; T (68, x); T (1, x);   Lambda_apply y [((Iter 2), (Arg 9)); ((Iter 5), (Arg 10))]; T (4, f);   T (1, c); T (1, x)]"
64.8,1364073,424312,21081088,5359616,"[V f; U (2, f); ULambda y; T (256, c); Hoist_vars [c]; T (34, x); T (2, x);   Lambda_apply y [((Iter 2), (Arg 9)); ((Iter 5), (Arg 10))]; T (4, f);   T (1, c); T (1, x)]"
66.1,1363472,422814,21081088,5359616,"[V f; U (2, f); ULambda y; T (256, c); Hoist_vars [c]; T (17, x); T (4, x);   Lambda_apply y [((Iter 2), (Arg 9)); ((Iter 5), (Arg 10))]; T (4, f);   T (1, c); T (1, x)]"
66.1,1363239,423230,21081088,5359616,"[V f; U (2, f); ULambda y; T (256, c); Hoist_vars [c]; T (4, x); T (17, x);   Lambda_apply y [((Iter 2), (Arg 9)); ((Iter 5), (Arg 10))]; T (4, f);   T (1, c); T (1, x)]"
64.2,1363046,426008,21081088,5359616,"[V f; U (2, f); ULambda y; T (256, c); Hoist_vars [c]; T (2, x); T (34, x);   Lambda_apply y [((Iter 2), (Arg 9)); ((Iter 5), (Arg 10))]; T (4, f);   T (1, c); T (1, x)]"
64.1,1363686,424113,21081088,5359616,"[V f; U (2, f); ULambda y; T (256, c); Hoist_vars [c]; T (1, x); T (68, x);   Lambda_apply y [((Iter 2), (Arg 9)); ((Iter 5), (Arg 10))]; T (4, f);   T (1, c); T (1, x)]"
68.2,1362315,412035,21081088,5392384,"[V f; U (2, f); ULambda y; T (256, c); Hoist_vars [c]; T (34, x); T (1, x);   Lambda_apply y [((Iter 2), (Arg 9)); ((Iter 5), (Arg 10))]; T (4, f);   T (1, c); T (2, x)]"
66.1,1361373,415662,21081088,5392384,"[V f; U (2, f); ULambda y; T (256, c); Hoist_vars [c]; T (17, x); T (2, x);   Lambda_apply y [((Iter 2), (Arg 9)); ((Iter 5), (Arg 10))]; T (4, f);   T (1, c); T (2, x)]"
65.1,1361005,416587,21081088,5392384,"[V f; U (2, f); ULambda y; T (256, c); Hoist_vars [c]; T (2, x); T (17, x);   Lambda_apply y [((Iter 2), (Arg 9)); ((Iter 5), (Arg 10))]; T (4, f);   T (1, c); T (2, x)]"
67.0,1362248,413530,21081088,5392384,"[V f; U (2, f); ULambda y; T (256, c); Hoist_vars [c]; T (1, x); T (34, x);   Lambda_apply y [((Iter 2), (Arg 9)); ((Iter 5), (Arg 10))]; T (4, f);   T (1, c); T (2, x)]"
66.8,1361652,378355,21081088,5457920,"[V f; U (2, f); ULambda y; T (256, c); Hoist_vars [c]; T (17, x); T (1, x);   Lambda_apply y [((Iter 2), (Arg 9)); ((Iter 5), (Arg 10))]; T (4, f);   T (1, c); T (4, x)]"
66.2,1361133,381552,21081088,5457920,"[V f; U (2, f); ULambda y; T (256, c); Hoist_vars [c]; T (1, x); T (17, x);   Lambda_apply y [((Iter 2), (Arg 9)); ((Iter 5), (Arg 10))]; T (4, f);   T (1, c); T (4, x)]"
80.4,1363948,126793,21081088,1808384,"[V f; U (2, f); ULambda y; T (256, c); Hoist_vars [c]; T (4, x); T (1, x);   Lambda_apply y [((Iter 2), (Arg 9)); ((Iter 5), (Arg 10))]; T (4, f);   T (1, c); T (17, x)]"
76.9,1364052,126511,21081088,1808384,"[V f; U (2, f); ULambda y; T (256, c); Hoist_vars [c]; T (2, x); T (2, x);   Lambda_apply y [((Iter 2), (Arg 9)); ((Iter 5), (Arg 10))]; T (4, f);   T (1, c); T (17, x)]"
75.4,1363378,126263,21081088,1808384,"[V f; U (2, f); ULambda y; T (256, c); Hoist_vars [c]; T (1, x); T (4, x);   Lambda_apply y [((Iter 2), (Arg 9)); ((Iter 5), (Arg 10))]; T (4, f);   T (1, c); T (17, x)]"
79.7,1363419,117417,21081088,1808384,"[V f; U (2, f); ULambda y; T (256, c); Hoist_vars [c]; T (2, x); T (1, x);   Lambda_apply y [((Iter 2), (Arg 9)); ((Iter 5), (Arg 10))]; T (4, f);   T (1, c); T (34, x)]"
81.4,1363021,117662,21081088,1808384,"[V f; U (2, f); ULambda y; T (256, c); Hoist_vars [c]; T (1, x); T (2, x);   Lambda_apply y [((Iter 2), (Arg 9)); ((Iter 5), (Arg 10))]; T (4, f);   T (1, c); T (34, x)]"
82.1,1360614,114548,21081088,1808384,"[V f; U (2, f); ULambda y; T (256, c); Hoist_vars [c]; T (1, x); T (1, x);   Lambda_apply y [((Iter 2), (Arg 9)); ((Iter 5), (Arg 10))]; T (4, f);   T (1, c); T (68, x)]"
66.9,1364423,425736,23274496,7906304,"[V f; U (2, f); ULambda y; T (256, c); Hoist_vars [c]; T (68, x); T (1, x);   Lambda_apply y [((Iter 6), (Arg 9)); ((Iter 1), (Arg 14))]; T (4, f);   T (1, c); T (1, x)]"
68.7,1364883,425926,23274496,7906304,"[V f; U (2, f); ULambda y; T (256, c); Hoist_vars [c]; T (34, x); T (2, x);   Lambda_apply y [((Iter 6), (Arg 9)); ((Iter 1), (Arg 14))]; T (4, f);   T (1, c); T (1, x)]"
67.3,1364803,426520,23274496,7906304,"[V f; U (2, f); ULambda y; T (256, c); Hoist_vars [c]; T (17, x); T (4, x);   Lambda_apply y [((Iter 6), (Arg 9)); ((Iter 1), (Arg 14))]; T (4, f);   T (1, c); T (1, x)]"
68.0,1363284,426913,23274496,7906304,"[V f; U (2, f); ULambda y; T (256, c); Hoist_vars [c]; T (4, x); T (17, x);   Lambda_apply y [((Iter 6), (Arg 9)); ((Iter 1), (Arg 14))]; T (4, f);   T (1, c); T (1, x)]"
65.3,1365154,428782,23274496,7906304,"[V f; U (2, f); ULambda y; T (256, c); Hoist_vars [c]; T (2, x); T (34, x);   Lambda_apply y [((Iter 6), (Arg 9)); ((Iter 1), (Arg 14))]; T (4, f);   T (1, c); T (1, x)]"
65.7,1364275,426563,23274496,7906304,"[V f; U (2, f); ULambda y; T (256, c); Hoist_vars [c]; T (1, x); T (68, x);   Lambda_apply y [((Iter 6), (Arg 9)); ((Iter 1), (Arg 14))]; T (4, f);   T (1, c); T (1, x)]"
67.0,1362346,414117,23274496,5392384,"[V f; U (2, f); ULambda y; T (256, c); Hoist_vars [c]; T (34, x); T (1, x);   Lambda_apply y [((Iter 6), (Arg 9)); ((Iter 1), (Arg 14))]; T (4, f);   T (1, c); T (2, x)]"
64.8,1363443,413931,23274496,5392384,"[V f; U (2, f); ULambda y; T (256, c); Hoist_vars [c]; T (17, x); T (2, x);   Lambda_apply y [((Iter 6), (Arg 9)); ((Iter 1), (Arg 14))]; T (4, f);   T (1, c); T (2, x)]"
64.3,1362518,416816,23274496,5392384,"[V f; U (2, f); ULambda y; T (256, c); Hoist_vars [c]; T (2, x); T (17, x);   Lambda_apply y [((Iter 6), (Arg 9)); ((Iter 1), (Arg 14))]; T (4, f);   T (1, c); T (2, x)]"
65.6,1362916,412954,23274496,5392384,"[V f; U (2, f); ULambda y; T (256, c); Hoist_vars [c]; T (1, x); T (34, x);   Lambda_apply y [((Iter 6), (Arg 9)); ((Iter 1), (Arg 14))]; T (4, f);   T (1, c); T (2, x)]"
68.0,1362857,381260,23274496,5457920,"[V f; U (2, f); ULambda y; T (256, c); Hoist_vars [c]; T (17, x); T (1, x);   Lambda_apply y [((Iter 6), (Arg 9)); ((Iter 1), (Arg 14))]; T (4, f);   T (1, c); T (4, x)]"
70.0,1363316,379824,23274496,5457920,"[V f; U (2, f); ULambda y; T (256, c); Hoist_vars [c]; T (1, x); T (17, x);   Lambda_apply y [((Iter 6), (Arg 9)); ((Iter 1), (Arg 14))]; T (4, f);   T (1, c); T (4, x)]"
80.5,1364934,127857,23274496,1808384,"[V f; U (2, f); ULambda y; T (256, c); Hoist_vars [c]; T (4, x); T (1, x);   Lambda_apply y [((Iter 6), (Arg 9)); ((Iter 1), (Arg 14))]; T (4, f);   T (1, c); T (17, x)]"
77.6,1363758,125988,23274496,1808384,"[V f; U (2, f); ULambda y; T (256, c); Hoist_vars [c]; T (2, x); T (2, x);   Lambda_apply y [((Iter 6), (Arg 9)); ((Iter 1), (Arg 14))]; T (4, f);   T (1, c); T (17, x)]"
79.1,1365212,127349,23274496,1808384,"[V f; U (2, f); ULambda y; T (256, c); Hoist_vars [c]; T (1, x); T (4, x);   Lambda_apply y [((Iter 6), (Arg 9)); ((Iter 1), (Arg 14))]; T (4, f);   T (1, c); T (17, x)]"
81.2,1365187,116977,23274496,1808384,"[V f; U (2, f); ULambda y; T (256, c); Hoist_vars [c]; T (2, x); T (1, x);   Lambda_apply y [((Iter 6), (Arg 9)); ((Iter 1), (Arg 14))]; T (4, f);   T (1, c); T (34, x)]"
78.2,1365360,117210,23274496,1808384,"[V f; U (2, f); ULambda y; T (256, c); Hoist_vars [c]; T (1, x); T (2, x);   Lambda_apply y [((Iter 6), (Arg 9)); ((Iter 1), (Arg 14))]; T (4, f);   T (1, c); T (34, x)]"
80.9,1362849,114407,23274496,1808384,"[V f; U (2, f); ULambda y; T (256, c); Hoist_vars [c]; T (1, x); T (1, x);   Lambda_apply y [((Iter 6), (Arg 9)); ((Iter 1), (Arg 14))]; T (4, f);   T (1, c); T (68, x)]"
67.8,1224633,414213,19479552,6306816,"[V f; U (2, f); ULambda y; T (256, c); Hoist_vars [c]; T (68, x); T (1, x);   Lambda_apply y [((Iter 5), (Arg 11)); ((Iter 1), (Arg 13))]; T (4, f);   T (1, c); T (1, x)]"
66.4,1224452,416352,19479552,6306816,"[V f; U (2, f); ULambda y; T (256, c); Hoist_vars [c]; T (34, x); T (2, x);   Lambda_apply y [((Iter 5), (Arg 11)); ((Iter 1), (Arg 13))]; T (4, f);   T (1, c); T (1, x)]"
66.3,1224711,414410,19479552,6306816,"[V f; U (2, f); ULambda y; T (256, c); Hoist_vars [c]; T (17, x); T (4, x);   Lambda_apply y [((Iter 5), (Arg 11)); ((Iter 1), (Arg 13))]; T (4, f);   T (1, c); T (1, x)]"
66.5,1224098,416479,19479552,6306816,"[V f; U (2, f); ULambda y; T (256, c); Hoist_vars [c]; T (4, x); T (17, x);   Lambda_apply y [((Iter 5), (Arg 11)); ((Iter 1), (Arg 13))]; T (4, f);   T (1, c); T (1, x)]"
65.8,1223418,418068,19479552,6306816,"[V f; U (2, f); ULambda y; T (256, c); Hoist_vars [c]; T (2, x); T (34, x);   Lambda_apply y [((Iter 5), (Arg 11)); ((Iter 1), (Arg 13))]; T (4, f);   T (1, c); T (1, x)]"
67.4,1224222,414974,19479552,6306816,"[V f; U (2, f); ULambda y; T (256, c); Hoist_vars [c]; T (1, x); T (68, x);   Lambda_apply y [((Iter 5), (Arg 11)); ((Iter 1), (Arg 13))]; T (4, f);   T (1, c); T (1, x)]"
67.0,1222561,408408,19479552,5392384,"[V f; U (2, f); ULambda y; T (256, c); Hoist_vars [c]; T (34, x); T (1, x);   Lambda_apply y [((Iter 5), (Arg 11)); ((Iter 1), (Arg 13))]; T (4, f);   T (1, c); T (2, x)]"
64.2,1221988,409410,19479552,5392384,"[V f; U (2, f); ULambda y; T (256, c); Hoist_vars [c]; T (17, x); T (2, x);   Lambda_apply y [((Iter 5), (Arg 11)); ((Iter 1), (Arg 13))]; T (4, f);   T (1, c); T (2, x)]"
64.0,1221860,409684,19479552,5392384,"[V f; U (2, f); ULambda y; T (256, c); Hoist_vars [c]; T (2, x); T (17, x);   Lambda_apply y [((Iter 5), (Arg 11)); ((Iter 1), (Arg 13))]; T (4, f);   T (1, c); T (2, x)]"
67.6,1222835,408607,19479552,5392384,"[V f; U (2, f); ULambda y; T (256, c); Hoist_vars [c]; T (1, x); T (34, x);   Lambda_apply y [((Iter 5), (Arg 11)); ((Iter 1), (Arg 13))]; T (4, f);   T (1, c); T (2, x)]"
66.5,1222794,379402,19479552,5457920,"[V f; U (2, f); ULambda y; T (256, c); Hoist_vars [c]; T (17, x); T (1, x);   Lambda_apply y [((Iter 5), (Arg 11)); ((Iter 1), (Arg 13))]; T (4, f);   T (1, c); T (4, x)]"
67.7,1222577,378478,19479552,5457920,"[V f; U (2, f); ULambda y; T (256, c); Hoist_vars [c]; T (1, x); T (17, x);   Lambda_apply y [((Iter 5), (Arg 11)); ((Iter 1), (Arg 13))]; T (4, f);   T (1, c); T (4, x)]"
79.0,1225176,128213,19479552,1808384,"[V f; U (2, f); ULambda y; T (256, c); Hoist_vars [c]; T (4, x); T (1, x);   Lambda_apply y [((Iter 5), (Arg 11)); ((Iter 1), (Arg 13))]; T (4, f);   T (1, c); T (17, x)]"
78.3,1223979,124773,19479552,1808384,"[V f; U (2, f); ULambda y; T (256, c); Hoist_vars [c]; T (2, x); T (2, x);   Lambda_apply y [((Iter 5), (Arg 11)); ((Iter 1), (Arg 13))]; T (4, f);   T (1, c); T (17, x)]"
79.8,1225138,130689,19479552,1808384,"[V f; U (2, f); ULambda y; T (256, c); Hoist_vars [c]; T (1, x); T (4, x);   Lambda_apply y [((Iter 5), (Arg 11)); ((Iter 1), (Arg 13))]; T (4, f);   T (1, c); T (17, x)]"
79.5,1221390,117039,19479552,1808384,"[V f; U (2, f); ULambda y; T (256, c); Hoist_vars [c]; T (2, x); T (1, x);   Lambda_apply y [((Iter 5), (Arg 11)); ((Iter 1), (Arg 13))]; T (4, f);   T (1, c); T (34, x)]"
80.4,1221519,116727,19479552,1808384,"[V f; U (2, f); ULambda y; T (256, c); Hoist_vars [c]; T (1, x); T (2, x);   Lambda_apply y [((Iter 5), (Arg 11)); ((Iter 1), (Arg 13))]; T (4, f);   T (1, c); T (34, x)]"
80.3,1220476,114684,19479552,1808384,"[V f; U (2, f); ULambda y; T (256, c); Hoist_vars [c]; T (1, x); T (1, x);   Lambda_apply y [((Iter 5), (Arg 11)); ((Iter 1), (Arg 13))]; T (4, f);   T (1, c); T (68, x)]"
66.0,1082468,406049,16624640,5647360,"[V f; U (2, f); ULambda y; T (256, c); Hoist_vars [c]; T (68, x); T (1, x);   Lambda_apply y [((Iter 1), (Arg 12)); ((Iter 4), (Arg 14))]; T (4, f);   T (1, c); T (1, x)]"
65.2,1081929,405726,16624640,5647360,"[V f; U (2, f); ULambda y; T (256, c); Hoist_vars [c]; T (34, x); T (2, x);   Lambda_apply y [((Iter 1), (Arg 12)); ((Iter 4), (Arg 14))]; T (4, f);   T (1, c); T (1, x)]"
64.4,1082375,406597,16624640,5647360,"[V f; U (2, f); ULambda y; T (256, c); Hoist_vars [c]; T (17, x); T (4, x);   Lambda_apply y [((Iter 1), (Arg 12)); ((Iter 4), (Arg 14))]; T (4, f);   T (1, c); T (1, x)]"
63.5,1083049,407787,16624640,5647360,"[V f; U (2, f); ULambda y; T (256, c); Hoist_vars [c]; T (4, x); T (17, x);   Lambda_apply y [((Iter 1), (Arg 12)); ((Iter 4), (Arg 14))]; T (4, f);   T (1, c); T (1, x)]"
64.3,1082605,407818,16624640,5647360,"[V f; U (2, f); ULambda y; T (256, c); Hoist_vars [c]; T (2, x); T (34, x);   Lambda_apply y [((Iter 1), (Arg 12)); ((Iter 4), (Arg 14))]; T (4, f);   T (1, c); T (1, x)]"
66.3,1082363,406153,16624640,5647360,"[V f; U (2, f); ULambda y; T (256, c); Hoist_vars [c]; T (1, x); T (68, x);   Lambda_apply y [((Iter 1), (Arg 12)); ((Iter 4), (Arg 14))]; T (4, f);   T (1, c); T (1, x)]"
66.3,1081047,401359,16624640,5392384,"[V f; U (2, f); ULambda y; T (256, c); Hoist_vars [c]; T (34, x); T (1, x);   Lambda_apply y [((Iter 1), (Arg 12)); ((Iter 4), (Arg 14))]; T (4, f);   T (1, c); T (2, x)]"
65.7,1080841,402985,16624640,5392384,"[V f; U (2, f); ULambda y; T (256, c); Hoist_vars [c]; T (17, x); T (2, x);   Lambda_apply y [((Iter 1), (Arg 12)); ((Iter 4), (Arg 14))]; T (4, f);   T (1, c); T (2, x)]"
66.8,1081311,403836,16624640,5392384,"[V f; U (2, f); ULambda y; T (256, c); Hoist_vars [c]; T (2, x); T (17, x);   Lambda_apply y [((Iter 1), (Arg 12)); ((Iter 4), (Arg 14))]; T (4, f);   T (1, c); T (2, x)]"
67.0,1081000,402359,16624640,5392384,"[V f; U (2, f); ULambda y; T (256, c); Hoist_vars [c]; T (1, x); T (34, x);   Lambda_apply y [((Iter 1), (Arg 12)); ((Iter 4), (Arg 14))]; T (4, f);   T (1, c); T (2, x)]"
67.9,1080954,369663,16624640,5457920,"[V f; U (2, f); ULambda y; T (256, c); Hoist_vars [c]; T (17, x); T (1, x);   Lambda_apply y [((Iter 1), (Arg 12)); ((Iter 4), (Arg 14))]; T (4, f);   T (1, c); T (4, x)]"
67.9,1080915,368690,16624640,5457920,"[V f; U (2, f); ULambda y; T (256, c); Hoist_vars [c]; T (1, x); T (17, x);   Lambda_apply y [((Iter 1), (Arg 12)); ((Iter 4), (Arg 14))]; T (4, f);   T (1, c); T (4, x)]"
79.2,1083835,128637,16624640,1808384,"[V f; U (2, f); ULambda y; T (256, c); Hoist_vars [c]; T (4, x); T (1, x);   Lambda_apply y [((Iter 1), (Arg 12)); ((Iter 4), (Arg 14))]; T (4, f);   T (1, c); T (17, x)]"
78.9,1084620,127868,16624640,1808384,"[V f; U (2, f); ULambda y; T (256, c); Hoist_vars [c]; T (2, x); T (2, x);   Lambda_apply y [((Iter 1), (Arg 12)); ((Iter 4), (Arg 14))]; T (4, f);   T (1, c); T (17, x)]"
77.7,1084060,126200,16624640,1808384,"[V f; U (2, f); ULambda y; T (256, c); Hoist_vars [c]; T (1, x); T (4, x);   Lambda_apply y [((Iter 1), (Arg 12)); ((Iter 4), (Arg 14))]; T (4, f);   T (1, c); T (17, x)]"
78.8,1084054,117045,16624640,1808384,"[V f; U (2, f); ULambda y; T (256, c); Hoist_vars [c]; T (2, x); T (1, x);   Lambda_apply y [((Iter 1), (Arg 12)); ((Iter 4), (Arg 14))]; T (4, f);   T (1, c); T (34, x)]"
79.4,1083643,117340,16624640,1808384,"[V f; U (2, f); ULambda y; T (256, c); Hoist_vars [c]; T (1, x); T (2, x);   Lambda_apply y [((Iter 1), (Arg 12)); ((Iter 4), (Arg 14))]; T (4, f);   T (1, c); T (34, x)]"
81.1,1080229,114186,16624640,1808384,"[V f; U (2, f); ULambda y; T (256, c); Hoist_vars [c]; T (1, x); T (1, x);   Lambda_apply y [((Iter 1), (Arg 12)); ((Iter 4), (Arg 14))]; T (4, f);   T (1, c); T (68, x)]"
66.9,1082499,409878,16624640,5647360,"[V f; U (2, f); ULambda y; T (256, c); Hoist_vars [c]; T (68, x); T (1, x);   Lambda_apply y [((Iter 2), (Arg 13)); ((Iter 3), (Arg 14))]; T (4, f);   T (1, c); T (1, x)]"
63.5,1082781,411581,16624640,5647360,"[V f; U (2, f); ULambda y; T (256, c); Hoist_vars [c]; T (34, x); T (2, x);   Lambda_apply y [((Iter 2), (Arg 13)); ((Iter 3), (Arg 14))]; T (4, f);   T (1, c); T (1, x)]"
63.9,1082838,415264,16624640,5647360,"[V f; U (2, f); ULambda y; T (256, c); Hoist_vars [c]; T (17, x); T (4, x);   Lambda_apply y [((Iter 2), (Arg 13)); ((Iter 3), (Arg 14))]; T (4, f);   T (1, c); T (1, x)]"
63.5,1083525,416090,16624640,5647360,"[V f; U (2, f); ULambda y; T (256, c); Hoist_vars [c]; T (4, x); T (17, x);   Lambda_apply y [((Iter 2), (Arg 13)); ((Iter 3), (Arg 14))]; T (4, f);   T (1, c); T (1, x)]"
63.8,1083701,414406,16624640,5647360,"[V f; U (2, f); ULambda y; T (256, c); Hoist_vars [c]; T (2, x); T (34, x);   Lambda_apply y [((Iter 2), (Arg 13)); ((Iter 3), (Arg 14))]; T (4, f);   T (1, c); T (1, x)]"
65.1,1082577,410435,16624640,5647360,"[V f; U (2, f); ULambda y; T (256, c); Hoist_vars [c]; T (1, x); T (68, x);   Lambda_apply y [((Iter 2), (Arg 13)); ((Iter 3), (Arg 14))]; T (4, f);   T (1, c); T (1, x)]"
65.2,1081165,406699,16624640,5392384,"[V f; U (2, f); ULambda y; T (256, c); Hoist_vars [c]; T (34, x); T (1, x);   Lambda_apply y [((Iter 2), (Arg 13)); ((Iter 3), (Arg 14))]; T (4, f);   T (1, c); T (2, x)]"
64.7,1081770,405760,16624640,5392384,"[V f; U (2, f); ULambda y; T (256, c); Hoist_vars [c]; T (17, x); T (2, x);   Lambda_apply y [((Iter 2), (Arg 13)); ((Iter 3), (Arg 14))]; T (4, f);   T (1, c); T (2, x)]"
65.9,1082108,407604,16624640,5392384,"[V f; U (2, f); ULambda y; T (256, c); Hoist_vars [c]; T (2, x); T (17, x);   Lambda_apply y [((Iter 2), (Arg 13)); ((Iter 3), (Arg 14))]; T (4, f);   T (1, c); T (2, x)]"
64.6,1080837,406495,16624640,5392384,"[V f; U (2, f); ULambda y; T (256, c); Hoist_vars [c]; T (1, x); T (34, x);   Lambda_apply y [((Iter 2), (Arg 13)); ((Iter 3), (Arg 14))]; T (4, f);   T (1, c); T (2, x)]"
66.0,1081619,376398,16624640,5457920,"[V f; U (2, f); ULambda y; T (256, c); Hoist_vars [c]; T (17, x); T (1, x);   Lambda_apply y [((Iter 2), (Arg 13)); ((Iter 3), (Arg 14))]; T (4, f);   T (1, c); T (4, x)]"
65.8,1081629,374681,16624640,5457920,"[V f; U (2, f); ULambda y; T (256, c); Hoist_vars [c]; T (1, x); T (17, x);   Lambda_apply y [((Iter 2), (Arg 13)); ((Iter 3), (Arg 14))]; T (4, f);   T (1, c); T (4, x)]"
77.3,1084972,124945,16624640,1808384,"[V f; U (2, f); ULambda y; T (256, c); Hoist_vars [c]; T (4, x); T (1, x);   Lambda_apply y [((Iter 2), (Arg 13)); ((Iter 3), (Arg 14))]; T (4, f);   T (1, c); T (17, x)]"
78.4,1085545,127472,16624640,1808384,"[V f; U (2, f); ULambda y; T (256, c); Hoist_vars [c]; T (2, x); T (2, x);   Lambda_apply y [((Iter 2), (Arg 13)); ((Iter 3), (Arg 14))]; T (4, f);   T (1, c); T (17, x)]"
78.3,1085044,126078,16624640,1808384,"[V f; U (2, f); ULambda y; T (256, c); Hoist_vars [c]; T (1, x); T (4, x);   Lambda_apply y [((Iter 2), (Arg 13)); ((Iter 3), (Arg 14))]; T (4, f);   T (1, c); T (17, x)]"
80.2,1086913,117820,16624640,1808384,"[V f; U (2, f); ULambda y; T (256, c); Hoist_vars [c]; T (2, x); T (1, x);   Lambda_apply y [((Iter 2), (Arg 13)); ((Iter 3), (Arg 14))]; T (4, f);   T (1, c); T (34, x)]"
82.3,1088721,117015,16624640,1808384,"[V f; U (2, f); ULambda y; T (256, c); Hoist_vars [c]; T (1, x); T (2, x);   Lambda_apply y [((Iter 2), (Arg 13)); ((Iter 3), (Arg 14))]; T (4, f);   T (1, c); T (34, x)]"
79.6,1079777,114303,16624640,1808384,"[V f; U (2, f); ULambda y; T (256, c); Hoist_vars [c]; T (1, x); T (1, x);   Lambda_apply y [((Iter 2), (Arg 13)); ((Iter 3), (Arg 14))]; T (4, f);   T (1, c); T (68, x)]"
