40.2,3285121,1263443,48384000,4556800,"[V f; U (2, f); U (14, y); T (512, c); Hoist_vars [c]; T (14, x); T (3, w);   T (3, h); T (1, c); T (16, f); T (1, x); T (1, y); T (1, c)]"
35.8,3282228,1419108,48384000,4966400,"[V f; U (2, f); U (14, y); T (512, c); Hoist_vars [c]; T (7, x); T (3, w);   T (3, h); T (1, c); T (16, f); T (2, x); T (1, y); T (1, c)]"
33.5,3022878,1848076,48384000,16844800,"[V f; U (2, f); U (14, y); T (512, c); Hoist_vars [c]; T (2, x); T (3, w);   T (3, h); T (1, c); T (16, f); T (7, x); T (1, y); T (1, c)]"
29.9,3289035,2177018,48384000,33474560,"[V f; U (2, f); U (14, y); T (512, c); Hoist_vars [c]; T (1, x); T (3, w);   T (3, h); T (1, c); T (16, f); T (14, x); T (1, y); T (1, c)]"
40.2,4762320,2138219,74188800,5998592,"[V f; U (4, f); U (7, y); T (512, c); Hoist_vars [c]; T (14, x); T (3, w);   T (3, h); T (1, c); T (8, f); T (1, x); T (2, y); T (1, c)]"
31.7,4763655,2405357,74188800,10864640,"[V f; U (4, f); U (7, y); T (512, c); Hoist_vars [c]; T (7, x); T (3, w);   T (3, h); T (1, c); T (8, f); T (2, x); T (2, y); T (1, c)]"
34.4,4654085,3430456,74188800,35194880,"[V f; U (4, f); U (7, y); T (512, c); Hoist_vars [c]; T (2, x); T (3, w);   T (3, h); T (1, c); T (8, f); T (7, x); T (2, y); T (1, c)]"
29.6,4751926,4239450,74188800,69257216,"[V f; U (4, f); U (7, y); T (512, c); Hoist_vars [c]; T (1, x); T (3, w);   T (3, h); T (1, c); T (8, f); T (14, x); T (2, y); T (1, c)]"
32.1,3135837,2139350,44341248,2590720,"[V f; U (1, f); U (14, y); U (3, h); T (512, c); Hoist_vars [c]; T (14, x);   T (3, w); T (32, f); T (1, c); T (1, x); T (1, y); T (1, f)]"
32.1,3135343,2140112,44341248,2721792,"[V f; U (1, f); U (14, y); U (3, h); T (512, c); Hoist_vars [c]; T (14, x);   T (3, w); T (16, f); T (1, c); T (1, x); T (1, y); T (2, f)]"
32.6,3131188,2139076,44341248,2983936,"[V f; U (1, f); U (14, y); U (3, h); T (512, c); Hoist_vars [c]; T (14, x);   T (3, w); T (8, f); T (1, c); T (1, x); T (1, y); T (4, f)]"
32.3,3136721,2139808,44341248,3508224,"[V f; U (1, f); U (14, y); U (3, h); T (512, c); Hoist_vars [c]; T (14, x);   T (3, w); T (4, f); T (1, c); T (1, x); T (1, y); T (8, f)]"
32.1,3134435,2139090,44341248,4556800,"[V f; U (1, f); U (14, y); U (3, h); T (512, c); Hoist_vars [c]; T (14, x);   T (3, w); T (2, f); T (1, c); T (1, x); T (1, y); T (16, f)]"
31.9,3124384,2139181,44341248,2590720,"[V f; U (1, f); U (14, y); U (3, h); T (512, c); Hoist_vars [c]; T (14, x);   T (3, w); T (1, f); T (1, c); T (1, x); T (1, y); T (32, f)]"
29.5,3139578,2140028,44341248,4966400,"[V f; U (1, f); U (14, y); U (3, h); T (512, c); Hoist_vars [c]; T (7, x);   T (3, w); T (32, f); T (1, c); T (2, x); T (1, y); T (1, f)]"
32.0,3134383,2143661,44341248,5113856,"[V f; U (1, f); U (14, y); U (3, h); T (512, c); Hoist_vars [c]; T (7, x);   T (3, w); T (16, f); T (1, c); T (2, x); T (1, y); T (2, f)]"
31.4,3141279,2144866,44341248,5408768,"[V f; U (1, f); U (14, y); U (3, h); T (512, c); Hoist_vars [c]; T (7, x);   T (3, w); T (8, f); T (1, c); T (2, x); T (1, y); T (4, f)]"
29.9,3135612,2144882,44341248,5998592,"[V f; U (1, f); U (14, y); U (3, h); T (512, c); Hoist_vars [c]; T (7, x);   T (3, w); T (4, f); T (1, c); T (2, x); T (1, y); T (8, f)]"
32.2,3141746,2143919,44341248,4556800,"[V f; U (1, f); U (14, y); U (3, h); T (512, c); Hoist_vars [c]; T (7, x);   T (3, w); T (2, f); T (1, c); T (2, x); T (1, y); T (16, f)]"
31.8,3133726,2140729,44341248,2590720,"[V f; U (1, f); U (14, y); U (3, h); T (512, c); Hoist_vars [c]; T (7, x);   T (3, w); T (1, f); T (1, c); T (2, x); T (1, y); T (32, f)]"
30.7,2932243,2145259,44341248,16844800,"[V f; U (1, f); U (14, y); U (3, h); T (512, c); Hoist_vars [c]; T (2, x);   T (3, w); T (32, f); T (1, c); T (7, x); T (1, y); T (1, f)]"
26.2,2939243,2150614,44341248,17074176,"[V f; U (1, f); U (14, y); U (3, h); T (512, c); Hoist_vars [c]; T (2, x);   T (3, w); T (16, f); T (1, c); T (7, x); T (1, y); T (2, f)]"
27.5,2984855,2153395,44341248,17532928,"[V f; U (1, f); U (14, y); U (3, h); T (512, c); Hoist_vars [c]; T (2, x);   T (3, w); T (8, f); T (1, c); T (7, x); T (1, y); T (4, f)]"
30.8,2969497,2153442,44341248,18450432,"[V f; U (1, f); U (14, y); U (3, h); T (512, c); Hoist_vars [c]; T (2, x);   T (3, w); T (4, f); T (1, c); T (7, x); T (1, y); T (8, f)]"
27.0,3006826,2151572,44341248,4556800,"[V f; U (1, f); U (14, y); U (3, h); T (512, c); Hoist_vars [c]; T (2, x);   T (3, w); T (2, f); T (1, c); T (7, x); T (1, y); T (16, f)]"
29.0,3005328,2141095,44341248,2590720,"[V f; U (1, f); U (14, y); U (3, h); T (512, c); Hoist_vars [c]; T (2, x);   T (3, w); T (1, f); T (1, c); T (7, x); T (1, y); T (32, f)]"
26.8,3234257,2140163,44341248,33474560,"[V f; U (1, f); U (14, y); U (3, h); T (512, c); Hoist_vars [c]; T (1, x);   T (3, w); T (32, f); T (1, c); T (14, x); T (1, y); T (1, f)]"
25.7,3234420,2146747,44341248,33818624,"[V f; U (1, f); U (14, y); U (3, h); T (512, c); Hoist_vars [c]; T (1, x);   T (3, w); T (16, f); T (1, c); T (14, x); T (1, y); T (2, f)]"
27.1,3228744,2149488,44341248,34506752,"[V f; U (1, f); U (14, y); U (3, h); T (512, c); Hoist_vars [c]; T (1, x);   T (3, w); T (8, f); T (1, c); T (14, x); T (1, y); T (4, f)]"
28.6,3238209,2149762,44341248,35883008,"[V f; U (1, f); U (14, y); U (3, h); T (512, c); Hoist_vars [c]; T (1, x);   T (3, w); T (4, f); T (1, c); T (14, x); T (1, y); T (8, f)]"
29.1,3221714,2158010,44341248,4556800,"[V f; U (1, f); U (14, y); U (3, h); T (512, c); Hoist_vars [c]; T (1, x);   T (3, w); T (2, f); T (1, c); T (14, x); T (1, y); T (16, f)]"
29.1,3466834,2157102,44341248,2590720,"[V f; U (1, f); U (14, y); U (3, h); T (512, c); Hoist_vars [c]; T (1, x);   T (3, w); T (1, f); T (1, c); T (14, x); T (1, y); T (32, f)]"
30.5,4422103,4208276,69457920,5998592,"[V f; U (4, f); U (7, y); U (3, h); T (512, c); Hoist_vars [c]; T (14, x);   T (3, w); T (1, c); T (8, f); T (1, x); T (2, y); T (1, c)]"
30.2,4422481,4212866,69457920,10864640,"[V f; U (4, f); U (7, y); U (3, h); T (512, c); Hoist_vars [c]; T (7, x);   T (3, w); T (1, c); T (8, f); T (2, x); T (2, y); T (1, c)]"
28.2,4394110,4218985,69457920,35194880,"[V f; U (4, f); U (7, y); U (3, h); T (512, c); Hoist_vars [c]; T (2, x);   T (3, w); T (1, c); T (8, f); T (7, x); T (2, y); T (1, c)]"
23.2,4473632,4216780,69457920,69257216,"[V f; U (4, f); U (7, y); U (3, h); T (512, c); Hoist_vars [c]; T (1, x);   T (3, w); T (1, c); T (8, f); T (14, x); T (2, y); T (1, c)]"
30.6,8409236,4311443,73586688,5998592,"[V f; U (4, f); U (7, y); U (3, w); T (512, c); Hoist_vars [c]; T (14, x);   T (3, h); T (1, c); T (8, f); T (1, x); T (2, y); T (1, c)]"
28.9,8617328,4345382,73586688,10864640,"[V f; U (4, f); U (7, y); U (3, w); T (512, c); Hoist_vars [c]; T (7, x);   T (3, h); T (1, c); T (8, f); T (2, x); T (2, y); T (1, c)]"
28.5,8589479,4354550,73586688,35194880,"[V f; U (4, f); U (7, y); U (3, w); T (512, c); Hoist_vars [c]; T (2, x);   T (3, h); T (1, c); T (8, f); T (7, x); T (2, y); T (1, c)]"
25.6,8765370,4369182,73586688,69257216,"[V f; U (4, f); U (7, y); U (3, w); T (512, c); Hoist_vars [c]; T (1, x);   T (3, h); T (1, c); T (8, f); T (14, x); T (2, y); T (1, c)]"
27.1,7194520,6303787,107154432,8561664,"[V f; U (4, f); ULambda y; U (3, w); T (512, c); Hoist_vars [c]; T (14, x);   T (3, h); T (1, c); T (8, f); T (1, x);   Lambda_apply y [((Iter 1), (Arg 4)); ((Iter 2), (Arg 5))]; T (1, c)]"
26.5,7277913,6307310,107154432,15811584,"[V f; U (4, f); ULambda y; U (3, w); T (512, c); Hoist_vars [c]; T (7, x);   T (3, h); T (1, c); T (8, f); T (2, x);   Lambda_apply y [((Iter 1), (Arg 4)); ((Iter 2), (Arg 5))]; T (1, c)]"
26.4,7371103,6316897,107154432,52061184,"[V f; U (4, f); ULambda y; U (3, w); T (512, c); Hoist_vars [c]; T (2, x);   T (3, h); T (1, c); T (8, f); T (7, x);   Lambda_apply y [((Iter 1), (Arg 4)); ((Iter 2), (Arg 5))]; T (1, c)]"
25.2,7382807,6314147,107154432,102810624,"[V f; U (4, f); ULambda y; U (3, w); T (512, c); Hoist_vars [c]; T (1, x);   T (3, h); T (1, c); T (8, f); T (14, x);   Lambda_apply y [((Iter 1), (Arg 4)); ((Iter 2), (Arg 5))]; T (1, c)]"
26.1,7336685,6307902,108767232,8779776,"[V f; U (4, f); ULambda y; U (3, w); T (512, c); Hoist_vars [c]; T (14, x);   T (3, h); T (1, c); T (8, f); T (1, x);   Lambda_apply y [((Iter 2), (Arg 4)); ((Iter 1), (Arg 6))]; T (1, c)]"
25.3,7388266,6311721,108767232,16054272,"[V f; U (4, f); ULambda y; U (3, w); T (512, c); Hoist_vars [c]; T (7, x);   T (3, h); T (1, c); T (8, f); T (2, x);   Lambda_apply y [((Iter 2), (Arg 4)); ((Iter 1), (Arg 6))]; T (1, c)]"
24.6,7398900,6321863,108767232,52426752,"[V f; U (4, f); ULambda y; U (3, w); T (512, c); Hoist_vars [c]; T (2, x);   T (3, h); T (1, c); T (8, f); T (7, x);   Lambda_apply y [((Iter 2), (Arg 4)); ((Iter 1), (Arg 6))]; T (1, c)]"
24.5,7513766,6317700,108767232,103348224,"[V f; U (4, f); ULambda y; U (3, w); T (512, c); Hoist_vars [c]; T (1, x);   T (3, h); T (1, c); T (8, f); T (14, x);   Lambda_apply y [((Iter 2), (Arg 4)); ((Iter 1), (Arg 6))]; T (1, c)]"
