70.2,862740,222020,12321792,705536,"[V f; U (2, f); U (14, y); T (256, c); Hoist_vars [c]; T (14, x); T (3, w);   T (3, h); T (8, f); T (1, c); T (1, x); T (1, y); T (1, f)]"
70.4,861775,215497,12321792,771072,"[V f; U (2, f); U (14, y); T (256, c); Hoist_vars [c]; T (14, x); T (3, w);   T (3, h); T (4, f); T (1, c); T (1, x); T (1, y); T (2, f)]"
69.5,862808,212707,12321792,705536,"[V f; U (2, f); U (14, y); T (256, c); Hoist_vars [c]; T (14, x); T (3, w);   T (3, h); T (2, f); T (1, c); T (1, x); T (1, y); T (4, f)]"
69.8,862666,219022,12321792,705536,"[V f; U (2, f); U (14, y); T (256, c); Hoist_vars [c]; T (14, x); T (3, w);   T (3, h); T (1, f); T (1, c); T (1, x); T (1, y); T (8, f)]"
67.9,861280,241962,12321792,1303552,"[V f; U (2, f); U (14, y); T (256, c); Hoist_vars [c]; T (7, x); T (3, w);   T (3, h); T (8, f); T (1, c); T (2, x); T (1, y); T (1, f)]"
68.0,862743,256366,12321792,1377280,"[V f; U (2, f); U (14, y); T (256, c); Hoist_vars [c]; T (7, x); T (3, w);   T (3, h); T (4, f); T (1, c); T (2, x); T (1, y); T (2, f)]"
68.9,860827,265525,12321792,705536,"[V f; U (2, f); U (14, y); T (256, c); Hoist_vars [c]; T (7, x); T (3, w);   T (3, h); T (2, f); T (1, c); T (2, x); T (1, y); T (4, f)]"
66.8,858717,288502,12321792,705536,"[V f; U (2, f); U (14, y); T (256, c); Hoist_vars [c]; T (7, x); T (3, w);   T (3, h); T (1, f); T (1, c); T (2, x); T (1, y); T (8, f)]"
50.1,860939,490335,12321792,4293632,"[V f; U (2, f); U (14, y); T (256, c); Hoist_vars [c]; T (2, x); T (3, w);   T (3, h); T (8, f); T (1, c); T (7, x); T (1, y); T (1, f)]"
50.0,859253,502774,12321792,4408320,"[V f; U (2, f); U (14, y); T (256, c); Hoist_vars [c]; T (2, x); T (3, w);   T (3, h); T (4, f); T (1, c); T (7, x); T (1, y); T (2, f)]"
51.2,855765,501034,12321792,705536,"[V f; U (2, f); U (14, y); T (256, c); Hoist_vars [c]; T (2, x); T (3, w);   T (3, h); T (2, f); T (1, c); T (7, x); T (1, y); T (4, f)]"
49.9,837163,545174,12321792,705536,"[V f; U (2, f); U (14, y); T (256, c); Hoist_vars [c]; T (2, x); T (3, w);   T (3, h); T (1, f); T (1, c); T (7, x); T (1, y); T (8, f)]"
40.9,836667,557323,12321792,8479744,"[V f; U (2, f); U (14, y); T (256, c); Hoist_vars [c]; T (1, x); T (3, w);   T (3, h); T (8, f); T (1, c); T (14, x); T (1, y); T (1, f)]"
40.5,832342,571886,12321792,8651776,"[V f; U (2, f); U (14, y); T (256, c); Hoist_vars [c]; T (1, x); T (3, w);   T (3, h); T (4, f); T (1, c); T (14, x); T (1, y); T (2, f)]"
39.2,824908,587684,12321792,705536,"[V f; U (2, f); U (14, y); T (256, c); Hoist_vars [c]; T (1, x); T (3, w);   T (3, h); T (2, f); T (1, c); T (14, x); T (1, y); T (4, f)]"
40.9,800385,603077,12321792,705536,"[V f; U (2, f); U (14, y); T (256, c); Hoist_vars [c]; T (1, x); T (3, w);   T (3, h); T (1, f); T (1, c); T (14, x); T (1, y); T (8, f)]"
73.3,1229666,206163,18772992,1303552,"[V f; U (4, f); U (7, y); T (256, c); Hoist_vars [c]; T (14, x); T (3, w);   T (3, h); T (4, f); T (1, c); T (1, x); T (2, y); T (1, f)]"
71.6,1229310,221798,18772992,1377280,"[V f; U (4, f); U (7, y); T (256, c); Hoist_vars [c]; T (14, x); T (3, w);   T (3, h); T (2, f); T (1, c); T (1, x); T (2, y); T (2, f)]"
73.0,1228939,237773,18772992,705536,"[V f; U (4, f); U (7, y); T (256, c); Hoist_vars [c]; T (14, x); T (3, w);   T (3, h); T (1, f); T (1, c); T (1, x); T (2, y); T (4, f)]"
64.7,1228078,338633,18772992,2492416,"[V f; U (4, f); U (7, y); T (256, c); Hoist_vars [c]; T (7, x); T (3, w);   T (3, h); T (4, f); T (1, c); T (2, x); T (2, y); T (1, f)]"
64.2,1226977,354136,18772992,2575360,"[V f; U (4, f); U (7, y); T (256, c); Hoist_vars [c]; T (7, x); T (3, w);   T (3, h); T (2, f); T (1, c); T (2, x); T (2, y); T (2, f)]"
60.7,1225643,392670,18772992,705536,"[V f; U (4, f); U (7, y); T (256, c); Hoist_vars [c]; T (7, x); T (3, w);   T (3, h); T (1, f); T (1, c); T (2, x); T (2, y); T (4, f)]"
45.9,1216768,834648,18772992,8436736,"[V f; U (4, f); U (7, y); T (256, c); Hoist_vars [c]; T (2, x); T (3, w);   T (3, h); T (4, f); T (1, c); T (7, x); T (2, y); T (1, f)]"
44.5,1215984,868918,18772992,8565760,"[V f; U (4, f); U (7, y); T (256, c); Hoist_vars [c]; T (2, x); T (3, w);   T (3, h); T (2, f); T (1, c); T (7, x); T (2, y); T (2, f)]"
46.8,1211789,866984,18772992,705536,"[V f; U (4, f); U (7, y); T (256, c); Hoist_vars [c]; T (2, x); T (3, w);   T (3, h); T (1, f); T (1, c); T (7, x); T (2, y); T (4, f)]"
33.0,1183486,1391077,18772992,16758784,"[V f; U (4, f); U (7, y); T (256, c); Hoist_vars [c]; T (1, x); T (3, w);   T (3, h); T (4, f); T (1, c); T (14, x); T (2, y); T (1, f)]"
34.2,1178852,1345489,18772992,16952320,"[V f; U (4, f); U (7, y); T (256, c); Hoist_vars [c]; T (1, x); T (3, w);   T (3, h); T (2, f); T (1, c); T (14, x); T (2, y); T (2, f)]"
31.6,1171479,1447998,18772992,705536,"[V f; U (4, f); U (7, y); T (256, c); Hoist_vars [c]; T (1, x); T (3, w);   T (3, h); T (1, f); T (1, c); T (14, x); T (2, y); T (4, f)]"
53.1,938306,242663,11160576,705536,"[V f; U (1, f); U (14, y); U (3, h); T (256, c); Hoist_vars [c]; T (14, x);   T (3, w); T (16, f); T (1, c); T (1, x); T (1, y); T (1, f)]"
49.8,937582,227358,11160576,771072,"[V f; U (1, f); U (14, y); U (3, h); T (256, c); Hoist_vars [c]; T (14, x);   T (3, w); T (8, f); T (1, c); T (1, x); T (1, y); T (2, f)]"
50.5,940091,247096,11160576,705536,"[V f; U (1, f); U (14, y); U (3, h); T (256, c); Hoist_vars [c]; T (14, x);   T (3, w); T (4, f); T (1, c); T (1, x); T (1, y); T (4, f)]"
52.9,939857,247779,11160576,705536,"[V f; U (1, f); U (14, y); U (3, h); T (256, c); Hoist_vars [c]; T (14, x);   T (3, w); T (2, f); T (1, c); T (1, x); T (1, y); T (8, f)]"
48.5,939410,255919,11160576,705536,"[V f; U (1, f); U (14, y); U (3, h); T (256, c); Hoist_vars [c]; T (14, x);   T (3, w); T (1, f); T (1, c); T (1, x); T (1, y); T (16, f)]"
49.9,935769,239065,11160576,1303552,"[V f; U (1, f); U (14, y); U (3, h); T (256, c); Hoist_vars [c]; T (7, x);   T (3, w); T (16, f); T (1, c); T (2, x); T (1, y); T (1, f)]"
46.2,935207,261189,11160576,1377280,"[V f; U (1, f); U (14, y); U (3, h); T (256, c); Hoist_vars [c]; T (7, x);   T (3, w); T (8, f); T (1, c); T (2, x); T (1, y); T (2, f)]"
48.2,936486,253345,11160576,705536,"[V f; U (1, f); U (14, y); U (3, h); T (256, c); Hoist_vars [c]; T (7, x);   T (3, w); T (4, f); T (1, c); T (2, x); T (1, y); T (4, f)]"
49.5,934610,264991,11160576,705536,"[V f; U (1, f); U (14, y); U (3, h); T (256, c); Hoist_vars [c]; T (7, x);   T (3, w); T (2, f); T (1, c); T (2, x); T (1, y); T (8, f)]"
46.6,930084,288611,11160576,705536,"[V f; U (1, f); U (14, y); U (3, h); T (256, c); Hoist_vars [c]; T (7, x);   T (3, w); T (1, f); T (1, c); T (2, x); T (1, y); T (16, f)]"
42.2,935986,388731,11160576,4293632,"[V f; U (1, f); U (14, y); U (3, h); T (256, c); Hoist_vars [c]; T (2, x);   T (3, w); T (16, f); T (1, c); T (7, x); T (1, y); T (1, f)]"
42.5,932854,412241,11160576,4408320,"[V f; U (1, f); U (14, y); U (3, h); T (256, c); Hoist_vars [c]; T (2, x);   T (3, w); T (8, f); T (1, c); T (7, x); T (1, y); T (2, f)]"
42.0,927471,426840,11160576,705536,"[V f; U (1, f); U (14, y); U (3, h); T (256, c); Hoist_vars [c]; T (2, x);   T (3, w); T (4, f); T (1, c); T (7, x); T (1, y); T (4, f)]"
41.9,917408,434861,11160576,705536,"[V f; U (1, f); U (14, y); U (3, h); T (256, c); Hoist_vars [c]; T (2, x);   T (3, w); T (2, f); T (1, c); T (7, x); T (1, y); T (8, f)]"
39.9,891832,440068,11160576,705536,"[V f; U (1, f); U (14, y); U (3, h); T (256, c); Hoist_vars [c]; T (2, x);   T (3, w); T (1, f); T (1, c); T (7, x); T (1, y); T (16, f)]"
38.3,926413,550481,11160576,8479744,"[V f; U (1, f); U (14, y); U (3, h); T (256, c); Hoist_vars [c]; T (1, x);   T (3, w); T (16, f); T (1, c); T (14, x); T (1, y); T (1, f)]"
37.4,920684,562631,11160576,8651776,"[V f; U (1, f); U (14, y); U (3, h); T (256, c); Hoist_vars [c]; T (1, x);   T (3, w); T (8, f); T (1, c); T (14, x); T (1, y); T (2, f)]"
37.5,908304,572679,11160576,705536,"[V f; U (1, f); U (14, y); U (3, h); T (256, c); Hoist_vars [c]; T (1, x);   T (3, w); T (4, f); T (1, c); T (14, x); T (1, y); T (4, f)]"
38.2,888384,584593,11160576,705536,"[V f; U (1, f); U (14, y); U (3, h); T (256, c); Hoist_vars [c]; T (1, x);   T (3, w); T (2, f); T (1, c); T (14, x); T (1, y); T (8, f)]"
36.7,831226,603169,11160576,705536,"[V f; U (1, f); U (14, y); U (3, h); T (256, c); Hoist_vars [c]; T (1, x);   T (3, w); T (1, f); T (1, c); T (14, x); T (1, y); T (16, f)]"
50.3,1161927,548536,17439744,1303552,"[V f; U (4, f); U (7, y); U (3, h); T (256, c); Hoist_vars [c]; T (14, x);   T (3, w); T (4, f); T (1, c); T (1, x); T (2, y); T (1, f)]"
53.1,1158868,389855,17439744,1377280,"[V f; U (4, f); U (7, y); U (3, h); T (256, c); Hoist_vars [c]; T (14, x);   T (3, w); T (2, f); T (1, c); T (1, x); T (2, y); T (2, f)]"
55.6,1157803,439491,17439744,705536,"[V f; U (4, f); U (7, y); U (3, h); T (256, c); Hoist_vars [c]; T (14, x);   T (3, w); T (1, f); T (1, c); T (1, x); T (2, y); T (4, f)]"
51.4,1160080,577939,17439744,2492416,"[V f; U (4, f); U (7, y); U (3, h); T (256, c); Hoist_vars [c]; T (7, x);   T (3, w); T (4, f); T (1, c); T (2, x); T (2, y); T (1, f)]"
49.3,1156112,577257,17439744,2575360,"[V f; U (4, f); U (7, y); U (3, h); T (256, c); Hoist_vars [c]; T (7, x);   T (3, w); T (2, f); T (1, c); T (2, x); T (2, y); T (2, f)]"
50.4,1153704,563192,17439744,705536,"[V f; U (4, f); U (7, y); U (3, h); T (256, c); Hoist_vars [c]; T (7, x);   T (3, w); T (1, f); T (1, c); T (2, x); T (2, y); T (4, f)]"
38.5,1158715,1046570,17439744,8436736,"[V f; U (4, f); U (7, y); U (3, h); T (256, c); Hoist_vars [c]; T (2, x);   T (3, w); T (4, f); T (1, c); T (7, x); T (2, y); T (1, f)]"
37.5,1149626,1060774,17439744,8565760,"[V f; U (4, f); U (7, y); U (3, h); T (256, c); Hoist_vars [c]; T (2, x);   T (3, w); T (2, f); T (1, c); T (7, x); T (2, y); T (2, f)]"
38.2,1143668,1094035,17439744,705536,"[V f; U (4, f); U (7, y); U (3, h); T (256, c); Hoist_vars [c]; T (2, x);   T (3, w); T (1, f); T (1, c); T (7, x); T (2, y); T (4, f)]"
30.4,1146029,1477300,17439744,16758784,"[V f; U (4, f); U (7, y); U (3, h); T (256, c); Hoist_vars [c]; T (1, x);   T (3, w); T (4, f); T (1, c); T (14, x); T (2, y); T (1, f)]"
32.1,1135769,1430594,17439744,16952320,"[V f; U (4, f); U (7, y); U (3, h); T (256, c); Hoist_vars [c]; T (1, x);   T (3, w); T (2, f); T (1, c); T (14, x); T (2, y); T (2, f)]"
30.6,1124446,1496343,17439744,705536,"[V f; U (4, f); U (7, y); U (3, h); T (256, c); Hoist_vars [c]; T (1, x);   T (3, w); T (1, f); T (1, c); T (14, x); T (2, y); T (4, f)]"
47.9,1952212,536683,18471936,1303552,"[V f; U (4, f); U (7, y); U (3, w); T (256, c); Hoist_vars [c]; T (14, x);   T (3, h); T (4, f); T (1, c); T (1, x); T (2, y); T (1, f)]"
51.5,1963290,434927,18471936,1377280,"[V f; U (4, f); U (7, y); U (3, w); T (256, c); Hoist_vars [c]; T (14, x);   T (3, h); T (2, f); T (1, c); T (1, x); T (2, y); T (2, f)]"
53.5,1922105,419854,18471936,705536,"[V f; U (4, f); U (7, y); U (3, w); T (256, c); Hoist_vars [c]; T (14, x);   T (3, h); T (1, f); T (1, c); T (1, x); T (2, y); T (4, f)]"
45.1,1933105,678642,18471936,2492416,"[V f; U (4, f); U (7, y); U (3, w); T (256, c); Hoist_vars [c]; T (7, x);   T (3, h); T (4, f); T (1, c); T (2, x); T (2, y); T (1, f)]"
44.1,1960533,669915,18471936,2575360,"[V f; U (4, f); U (7, y); U (3, w); T (256, c); Hoist_vars [c]; T (7, x);   T (3, h); T (2, f); T (1, c); T (2, x); T (2, y); T (2, f)]"
49.6,1898669,580670,18471936,705536,"[V f; U (4, f); U (7, y); U (3, w); T (256, c); Hoist_vars [c]; T (7, x);   T (3, h); T (1, f); T (1, c); T (2, x); T (2, y); T (4, f)]"
34.1,2023307,1166853,18471936,8436736,"[V f; U (4, f); U (7, y); U (3, w); T (256, c); Hoist_vars [c]; T (2, x);   T (3, h); T (4, f); T (1, c); T (7, x); T (2, y); T (1, f)]"
34.8,2000299,1148168,18471936,8565760,"[V f; U (4, f); U (7, y); U (3, w); T (256, c); Hoist_vars [c]; T (2, x);   T (3, h); T (2, f); T (1, c); T (7, x); T (2, y); T (2, f)]"
35.6,1971557,1197486,18471936,705536,"[V f; U (4, f); U (7, y); U (3, w); T (256, c); Hoist_vars [c]; T (2, x);   T (3, h); T (1, f); T (1, c); T (7, x); T (2, y); T (4, f)]"
31.0,1978280,1469262,18471936,16758784,"[V f; U (4, f); U (7, y); U (3, w); T (256, c); Hoist_vars [c]; T (1, x);   T (3, h); T (4, f); T (1, c); T (14, x); T (2, y); T (1, f)]"
29.3,1993621,1542778,18471936,16952320,"[V f; U (4, f); U (7, y); U (3, w); T (256, c); Hoist_vars [c]; T (1, x);   T (3, h); T (2, f); T (1, c); T (14, x); T (2, y); T (2, f)]"
28.6,2016718,1578061,18471936,705536,"[V f; U (4, f); U (7, y); U (3, w); T (256, c); Hoist_vars [c]; T (1, x);   T (3, h); T (1, f); T (1, c); T (14, x); T (2, y); T (4, f)]"
51.9,1756762,571052,26869248,1909248,"[V f; U (4, f); ULambda y; U (3, w); T (256, c); Hoist_vars [c]; T (14, x);   T (3, h); T (4, f); T (1, c); T (1, x);   Lambda_apply y [((Iter 1), (Arg 4)); ((Iter 2), (Arg 5))]; T (1, f)]"
53.5,1754968,509076,26869248,1995264,"[V f; U (4, f); ULambda y; U (3, w); T (256, c); Hoist_vars [c]; T (14, x);   T (3, h); T (2, f); T (1, c); T (1, x);   Lambda_apply y [((Iter 1), (Arg 4)); ((Iter 2), (Arg 5))]; T (2, f)]"
48.5,1750373,670756,26869248,705536,"[V f; U (4, f); ULambda y; U (3, w); T (256, c); Hoist_vars [c]; T (14, x);   T (3, h); T (1, f); T (1, c); T (1, x);   Lambda_apply y [((Iter 1), (Arg 4)); ((Iter 2), (Arg 5))]; T (4, f)]"
47.9,1755021,729014,26869248,3689472,"[V f; U (4, f); ULambda y; U (3, w); T (256, c); Hoist_vars [c]; T (7, x);   T (3, h); T (4, f); T (1, c); T (2, x);   Lambda_apply y [((Iter 1), (Arg 4)); ((Iter 2), (Arg 5))]; T (1, f)]"
46.3,1755184,725186,26869248,3786240,"[V f; U (4, f); ULambda y; U (3, w); T (256, c); Hoist_vars [c]; T (7, x);   T (3, h); T (2, f); T (1, c); T (2, x);   Lambda_apply y [((Iter 1), (Arg 4)); ((Iter 2), (Arg 5))]; T (2, f)]"
47.2,1745088,827711,26869248,705536,"[V f; U (4, f); ULambda y; U (3, w); T (256, c); Hoist_vars [c]; T (7, x);   T (3, h); T (1, f); T (1, c); T (2, x);   Lambda_apply y [((Iter 1), (Arg 4)); ((Iter 2), (Arg 5))]; T (4, f)]"
34.9,1749496,1609017,26869248,12590592,"[V f; U (4, f); ULambda y; U (3, w); T (256, c); Hoist_vars [c]; T (2, x);   T (3, h); T (4, f); T (1, c); T (7, x);   Lambda_apply y [((Iter 1), (Arg 4)); ((Iter 2), (Arg 5))]; T (1, f)]"
29.8,1746949,1493812,26869248,12741120,"[V f; U (4, f); ULambda y; U (3, w); T (256, c); Hoist_vars [c]; T (2, x);   T (3, h); T (2, f); T (1, c); T (7, x);   Lambda_apply y [((Iter 1), (Arg 4)); ((Iter 2), (Arg 5))]; T (2, f)]"
29.8,1745542,1561082,26869248,705536,"[V f; U (4, f); ULambda y; U (3, w); T (256, c); Hoist_vars [c]; T (2, x);   T (3, h); T (1, f); T (1, c); T (7, x);   Lambda_apply y [((Iter 1), (Arg 4)); ((Iter 2), (Arg 5))]; T (4, f)]"
26.8,1698526,1702228,26869248,25052160,"[V f; U (4, f); ULambda y; U (3, w); T (256, c); Hoist_vars [c]; T (1, x);   T (3, h); T (4, f); T (1, c); T (14, x);   Lambda_apply y [((Iter 1), (Arg 4)); ((Iter 2), (Arg 5))]; T (1, f)]"
27.3,1703424,1756273,26869248,25277952,"[V f; U (4, f); ULambda y; U (3, w); T (256, c); Hoist_vars [c]; T (1, x);   T (3, h); T (2, f); T (1, c); T (14, x);   Lambda_apply y [((Iter 1), (Arg 4)); ((Iter 2), (Arg 5))]; T (2, f)]"
25.7,1715841,1796727,26869248,705536,"[V f; U (4, f); ULambda y; U (3, w); T (256, c); Hoist_vars [c]; T (1, x);   T (3, h); T (1, f); T (1, c); T (14, x);   Lambda_apply y [((Iter 1), (Arg 4)); ((Iter 2), (Arg 5))]; T (4, f)]"
46.2,1849827,701643,27288576,1932288,"[V f; U (4, f); ULambda y; U (3, w); T (256, c); Hoist_vars [c]; T (14, x);   T (3, h); T (4, f); T (1, c); T (1, x);   Lambda_apply y [((Iter 2), (Arg 4)); ((Iter 1), (Arg 6))]; T (1, f)]"
50.8,1846775,579136,27288576,2030592,"[V f; U (4, f); ULambda y; U (3, w); T (256, c); Hoist_vars [c]; T (14, x);   T (3, h); T (2, f); T (1, c); T (1, x);   Lambda_apply y [((Iter 2), (Arg 4)); ((Iter 1), (Arg 6))]; T (2, f)]"
48.5,1850739,654817,27288576,705536,"[V f; U (4, f); ULambda y; U (3, w); T (256, c); Hoist_vars [c]; T (14, x);   T (3, h); T (1, f); T (1, c); T (1, x);   Lambda_apply y [((Iter 2), (Arg 4)); ((Iter 1), (Arg 6))]; T (4, f)]"
46.6,1849353,685650,27288576,3714048,"[V f; U (4, f); ULambda y; U (3, w); T (256, c); Hoist_vars [c]; T (7, x);   T (3, h); T (4, f); T (1, c); T (2, x);   Lambda_apply y [((Iter 2), (Arg 4)); ((Iter 1), (Arg 6))]; T (1, f)]"
58.4,1835587,415782,27288576,3824640,"[V f; U (4, f); ULambda y; U (3, w); T (256, c); Hoist_vars [c]; T (7, x);   T (3, h); T (2, f); T (1, c); T (2, x);   Lambda_apply y [((Iter 2), (Arg 4)); ((Iter 1), (Arg 6))]; T (2, f)]"
45.8,1844155,786344,27288576,705536,"[V f; U (4, f); ULambda y; U (3, w); T (256, c); Hoist_vars [c]; T (7, x);   T (3, h); T (1, f); T (1, c); T (2, x);   Lambda_apply y [((Iter 2), (Arg 4)); ((Iter 1), (Arg 6))]; T (4, f)]"
33.5,1845556,1240683,27288576,12622848,"[V f; U (4, f); ULambda y; U (3, w); T (256, c); Hoist_vars [c]; T (2, x);   T (3, h); T (4, f); T (1, c); T (7, x);   Lambda_apply y [((Iter 2), (Arg 4)); ((Iter 1), (Arg 6))]; T (1, f)]"
31.4,1845285,1342973,27288576,12794880,"[V f; U (4, f); ULambda y; U (3, w); T (256, c); Hoist_vars [c]; T (2, x);   T (3, h); T (2, f); T (1, c); T (7, x);   Lambda_apply y [((Iter 2), (Arg 4)); ((Iter 1), (Arg 6))]; T (2, f)]"
31.0,1847970,1378008,27288576,705536,"[V f; U (4, f); ULambda y; U (3, w); T (256, c); Hoist_vars [c]; T (2, x);   T (3, h); T (1, f); T (1, c); T (7, x);   Lambda_apply y [((Iter 2), (Arg 4)); ((Iter 1), (Arg 6))]; T (4, f)]"
23.9,1835918,2099072,27288576,25095168,"[V f; U (4, f); ULambda y; U (3, w); T (256, c); Hoist_vars [c]; T (1, x);   T (3, h); T (4, f); T (1, c); T (14, x);   Lambda_apply y [((Iter 2), (Arg 4)); ((Iter 1), (Arg 6))]; T (1, f)]"
25.8,1824266,1789850,27288576,25353216,"[V f; U (4, f); ULambda y; U (3, w); T (256, c); Hoist_vars [c]; T (1, x);   T (3, h); T (2, f); T (1, c); T (14, x);   Lambda_apply y [((Iter 2), (Arg 4)); ((Iter 1), (Arg 6))]; T (2, f)]"
26.1,1819508,1787884,27288576,705536,"[V f; U (4, f); ULambda y; U (3, w); T (256, c); Hoist_vars [c]; T (1, x);   T (3, h); T (1, f); T (1, c); T (14, x);   Lambda_apply y [((Iter 2), (Arg 4)); ((Iter 1), (Arg 6))]; T (4, f)]"
