perf,CACHE_MISS_L1,CACHE_MISS_L2,scheme
71.34,1033402,134608,"[V f; U (2, f); ULambda y; T (32, c); Hoist_vars [c]; T (17, x); T (1, x);  T (1, y); T (4, f); T (8, c); T (4, x);  Lambda_apply y [((Iter 2), (Arg 9)); ((Iter 5), (Arg 10))]]"
72.89,1034014,135929,"[V f; U (2, f); ULambda y; T (32, c); Hoist_vars [c]; T (1, x); T (17, x);  T (1, y); T (4, f); T (8, c); T (4, x);  Lambda_apply y [((Iter 2), (Arg 9)); ((Iter 5), (Arg 10))]]"
70.16,1003326,143290,"[V f; U (2, f); ULambda y; T (32, c); Hoist_vars [c]; T (17, x); T (1, x);  Lambda_apply y [((Iter 1), (Arg 8)); ((Iter 1), (Arg 9))]; T (4, f);  T (8, c); T (4, x); T (4, y)]"
70.25,998402,141428,"[V f; U (2, f); ULambda y; T (32, c); Hoist_vars [c]; T (1, x); T (17, x);  Lambda_apply y [((Iter 1), (Arg 8)); ((Iter 1), (Arg 9))]; T (4, f);  T (8, c); T (4, x); T (4, y)]"
72.75,1014391,126862,"[V f; U (2, f); ULambda y; T (32, c); Hoist_vars [c]; T (4, x); T (1, x);  T (4, y); T (4, f); T (8, c); T (17, x);  Lambda_apply y [((Iter 1), (Arg 8)); ((Iter 1), (Arg 9))]]"
72.14,1015439,124824,"[V f; U (2, f); ULambda y; T (32, c); Hoist_vars [c]; T (2, x); T (2, x);  T (4, y); T (4, f); T (8, c); T (17, x);  Lambda_apply y [((Iter 1), (Arg 8)); ((Iter 1), (Arg 9))]]"
66.73,1054611,153820,"[V f; U (2, f); ULambda y; T (32, c); Hoist_vars [c]; T (1, x); T (4, x);  T (4, y); T (4, f); T (8, c); T (17, x);  Lambda_apply y [((Iter 1), (Arg 8)); ((Iter 1), (Arg 9))]]"
72.09,1040271,136298,"[V f; U (2, f); ULambda y; T (32, c); Hoist_vars [c]; T (4, x); T (1, x);  Lambda_apply y [((Iter 3), (Arg 8)); ((Iter 4), (Arg 11))]; T (4, f);  T (8, c); T (17, x); T (1, y)]"
71.40,1033758,136183,"[V f; U (2, f); ULambda y; T (32, c); Hoist_vars [c]; T (2, x); T (2, x);  Lambda_apply y [((Iter 3), (Arg 8)); ((Iter 4), (Arg 11))]; T (4, f);  T (8, c); T (17, x); T (1, y)]"
71.38,1046608,137004,"[V f; U (2, f); ULambda y; T (32, c); Hoist_vars [c]; T (1, x); T (4, x);  Lambda_apply y [((Iter 3), (Arg 8)); ((Iter 4), (Arg 11))]; T (4, f);  T (8, c); T (17, x); T (1, y)]"
70.04,1032035,134482,"[V f; U (2, f); ULambda y; T (32, c); Hoist_vars [c]; T (4, x); T (1, x);  Lambda_apply y [((Iter 5), (Arg 8)); ((Iter 2), (Arg 14))]; T (4, f);  T (8, c); T (17, x); T (1, y)]"
70.32,1019571,133629,"[V f; U (2, f); ULambda y; T (32, c); Hoist_vars [c]; T (2, x); T (2, x);  Lambda_apply y [((Iter 5), (Arg 8)); ((Iter 2), (Arg 14))]; T (4, f);  T (8, c); T (17, x); T (1, y)]"
69.94,1031878,134815,"[V f; U (2, f); ULambda y; T (32, c); Hoist_vars [c]; T (1, x); T (4, x);  Lambda_apply y [((Iter 5), (Arg 8)); ((Iter 2), (Arg 14))]; T (4, f);  T (8, c); T (17, x); T (1, y)]"
79.91,1628763,236230,"[V f; U (4, f); ULambda y; T (256, c); Hoist_vars [c]; T (68, x); T (1, x);  Lambda_apply y [((Iter 1), (Arg 6)); ((Iter 4), (Arg 7))]; T (2, f);  T (1, c); T (1, x); T (2, y)]"
78.03,1629394,227843,"[V f; U (4, f); ULambda y; T (256, c); Hoist_vars [c]; T (68, x); T (1, x);  T (2, y); T (2, f); T (1, c); T (1, x);  Lambda_apply y [((Iter 1), (Arg 6)); ((Iter 4), (Arg 7))]]"
77.84,1630382,237867,"[V f; U (4, f); ULambda y; T (256, c); Hoist_vars [c]; T (4, x); T (17, x);  Lambda_apply y [((Iter 1), (Arg 6)); ((Iter 4), (Arg 7))]; T (2, f);  T (1, c); T (1, x); T (2, y)]"
79.17,1629581,225997,"[V f; U (4, f); ULambda y; T (256, c); Hoist_vars [c]; T (4, x); T (17, x);  T (2, y); T (2, f); T (1, c); T (1, x);  Lambda_apply y [((Iter 1), (Arg 6)); ((Iter 4), (Arg 7))]]"
78.91,1630343,238190,"[V f; U (4, f); ULambda y; T (256, c); Hoist_vars [c]; T (2, x); T (34, x);  Lambda_apply y [((Iter 1), (Arg 6)); ((Iter 4), (Arg 7))]; T (2, f);  T (1, c); T (1, x); T (2, y)]"
78.87,1630128,227517,"[V f; U (4, f); ULambda y; T (256, c); Hoist_vars [c]; T (2, x); T (34, x);  T (2, y); T (2, f); T (1, c); T (1, x);  Lambda_apply y [((Iter 1), (Arg 6)); ((Iter 4), (Arg 7))]]"
79.57,1629863,238515,"[V f; U (4, f); ULambda y; T (256, c); Hoist_vars [c]; T (1, x); T (68, x);  Lambda_apply y [((Iter 1), (Arg 6)); ((Iter 4), (Arg 7))]; T (2, f);  T (1, c); T (1, x); T (2, y)]"
80.23,1629342,225975,"[V f; U (4, f); ULambda y; T (256, c); Hoist_vars [c]; T (1, x); T (68, x);  T (2, y); T (2, f); T (1, c); T (1, x);  Lambda_apply y [((Iter 1), (Arg 6)); ((Iter 4), (Arg 7))]]"
75.72,1530829,125519,"[V f; U (2, f); ULambda y; T (64, c); Hoist_vars [c]; T (4, x); T (1, x);  T (2, y); T (4, f); T (4, c); T (17, x);  Lambda_apply y [((Iter 1), (Arg 8)); ((Iter 2), (Arg 13))]]"
71.00,1120293,128549,"[V f; U (2, f); ULambda y; T (32, c); Hoist_vars [c]; T (4, x); T (1, x);  T (2, y); T (4, f); T (8, c); T (17, x);  Lambda_apply y [((Iter 1), (Arg 8)); ((Iter 2), (Arg 13))]]"
71.43,1513278,150712,"[V f; U (2, f); ULambda y; T (64, c); Hoist_vars [c]; T (2, x); T (2, x);  T (2, y); T (4, f); T (4, c); T (17, x);  Lambda_apply y [((Iter 1), (Arg 8)); ((Iter 2), (Arg 13))]]"
70.10,1075978,125159,"[V f; U (2, f); ULambda y; T (32, c); Hoist_vars [c]; T (2, x); T (2, x);  T (2, y); T (4, f); T (8, c); T (17, x);  Lambda_apply y [((Iter 1), (Arg 8)); ((Iter 2), (Arg 13))]]"
75.84,1532694,127572,"[V f; U (2, f); ULambda y; T (64, c); Hoist_vars [c]; T (1, x); T (4, x);  T (2, y); T (4, f); T (4, c); T (17, x);  Lambda_apply y [((Iter 1), (Arg 8)); ((Iter 2), (Arg 13))]]"
70.71,1136481,128244,"[V f; U (2, f); ULambda y; T (32, c); Hoist_vars [c]; T (1, x); T (4, x);  T (2, y); T (4, f); T (8, c); T (17, x);  Lambda_apply y [((Iter 1), (Arg 8)); ((Iter 2), (Arg 13))]]"
75.28,1512156,125593,"[V f; U (2, f); ULambda y; T (64, c); Hoist_vars [c]; T (4, x); T (1, x);  T (2, y); T (4, f); T (4, c); T (17, x);  Lambda_apply y [((Iter 1), (Arg 10)); ((Iter 2), (Arg 12))]]"
75.48,1511676,123764,"[V f; U (2, f); ULambda y; T (64, c); Hoist_vars [c]; T (2, x); T (2, x);  T (2, y); T (4, f); T (4, c); T (17, x);  Lambda_apply y [((Iter 1), (Arg 10)); ((Iter 2), (Arg 12))]]"
71.22,1514422,147995,"[V f; U (2, f); ULambda y; T (64, c); Hoist_vars [c]; T (1, x); T (4, x);  T (2, y); T (4, f); T (4, c); T (17, x);  Lambda_apply y [((Iter 1), (Arg 10)); ((Iter 2), (Arg 12))]]"
75.11,1515934,125732,"[V f; U (2, f); ULambda y; T (64, c); Hoist_vars [c]; T (4, x); T (1, x);  T (2, y); T (4, f); T (4, c); T (17, x);  Lambda_apply y [((Iter 2), (Arg 10)); ((Iter 1), (Arg 14))]]"
74.69,1507600,125639,"[V f; U (2, f); ULambda y; T (64, c); Hoist_vars [c]; T (2, x); T (2, x);  T (2, y); T (4, f); T (4, c); T (17, x);  Lambda_apply y [((Iter 2), (Arg 10)); ((Iter 1), (Arg 14))]]"
76.05,1516981,125563,"[V f; U (2, f); ULambda y; T (64, c); Hoist_vars [c]; T (1, x); T (4, x);  T (2, y); T (4, f); T (4, c); T (17, x);  Lambda_apply y [((Iter 2), (Arg 10)); ((Iter 1), (Arg 14))]]"
73.61,1526511,125476,"[V f; U (2, f); ULambda y; T (64, c); Hoist_vars [c]; T (4, x); T (1, x);  T (2, y); T (4, f); T (4, c); T (17, x);  Lambda_apply y [((Iter 2), (Arg 11)); ((Iter 1), (Arg 12))]]"
75.75,1520349,124876,"[V f; U (2, f); ULambda y; T (64, c); Hoist_vars [c]; T (2, x); T (2, x);  T (2, y); T (4, f); T (4, c); T (17, x);  Lambda_apply y [((Iter 2), (Arg 11)); ((Iter 1), (Arg 12))]]"
76.76,1524798,125930,"[V f; U (2, f); ULambda y; T (64, c); Hoist_vars [c]; T (1, x); T (4, x);  T (2, y); T (4, f); T (4, c); T (17, x);  Lambda_apply y [((Iter 2), (Arg 11)); ((Iter 1), (Arg 12))]]"
74.56,1629852,268943,"[V f; U (4, f); ULambda y; T (256, c); Hoist_vars [c]; T (34, x); T (2, x);  Lambda_apply y [((Iter 1), (Arg 6)); ((Iter 4), (Arg 7))]; T (2, f);  T (1, c); T (1, x); T (2, y)]"
78.53,1630139,225760,"[V f; U (4, f); ULambda y; T (256, c); Hoist_vars [c]; T (34, x); T (2, x);  T (2, y); T (2, f); T (1, c); T (1, x);  Lambda_apply y [((Iter 1), (Arg 6)); ((Iter 4), (Arg 7))]]"
77.19,1630465,227316,"[V f; U (4, f); ULambda y; T (256, c); Hoist_vars [c]; T (34, x); T (1, x);  Lambda_apply y [((Iter 1), (Arg 6)); ((Iter 4), (Arg 7))]; T (2, f);  T (1, c); T (2, x); T (2, y)]"
80.35,1629986,155218,"[V f; U (4, f); ULambda y; T (256, c); Hoist_vars [c]; T (34, x); T (1, x);  T (2, y); T (2, f); T (1, c); T (2, x);  Lambda_apply y [((Iter 1), (Arg 6)); ((Iter 4), (Arg 7))]]"
79.67,1629953,228190,"[V f; U (4, f); ULambda y; T (256, c); Hoist_vars [c]; T (2, x); T (17, x);  Lambda_apply y [((Iter 1), (Arg 6)); ((Iter 4), (Arg 7))]; T (2, f);  T (1, c); T (2, x); T (2, y)]"
82.71,1629824,154281,"[V f; U (4, f); ULambda y; T (256, c); Hoist_vars [c]; T (2, x); T (17, x);  T (2, y); T (2, f); T (1, c); T (2, x);  Lambda_apply y [((Iter 1), (Arg 6)); ((Iter 4), (Arg 7))]]"
79.12,1629963,227616,"[V f; U (4, f); ULambda y; T (256, c); Hoist_vars [c]; T (1, x); T (34, x);  Lambda_apply y [((Iter 1), (Arg 6)); ((Iter 4), (Arg 7))]; T (2, f);  T (1, c); T (2, x); T (2, y)]"
82.31,1630221,155564,"[V f; U (4, f); ULambda y; T (256, c); Hoist_vars [c]; T (1, x); T (34, x);  T (2, y); T (2, f); T (1, c); T (2, x);  Lambda_apply y [((Iter 1), (Arg 6)); ((Iter 4), (Arg 7))]]"
78.58,1479643,136403,"[V f; U (2, f); ULambda y; T (128, c); Hoist_vars [c]; T (17, x); T (1, x);  T (1, y); T (4, f); T (2, c); T (4, x);  Lambda_apply y [((Iter 2), (Arg 9)); ((Iter 5), (Arg 10))]]"
79.19,1483978,136565,"[V f; U (2, f); ULambda y; T (128, c); Hoist_vars [c]; T (1, x); T (17, x);  T (1, y); T (4, f); T (2, c); T (4, x);  Lambda_apply y [((Iter 2), (Arg 9)); ((Iter 5), (Arg 10))]]"
83.06,1502382,121420,"[V f; U (2, f); ULambda y; T (256, c); Hoist_vars [c]; T (2, x); T (1, x);  T (4, y); T (4, f); T (1, c); T (34, x);  Lambda_apply y [((Iter 1), (Arg 8)); ((Iter 1), (Arg 9))]]"
74.98,1798353,123397,"[V f; U (2, f); ULambda y; T (64, c); Hoist_vars [c]; T (2, x); T (1, x);  T (4, y); T (4, f); T (4, c); T (34, x);  Lambda_apply y [((Iter 1), (Arg 8)); ((Iter 1), (Arg 9))]]"
70.28,1054343,125161,"[V f; U (2, f); ULambda y; T (32, c); Hoist_vars [c]; T (2, x); T (1, x);  T (4, y); T (4, f); T (8, c); T (34, x);  Lambda_apply y [((Iter 1), (Arg 8)); ((Iter 1), (Arg 9))]]"
81.87,1504917,121671,"[V f; U (2, f); ULambda y; T (256, c); Hoist_vars [c]; T (1, x); T (2, x);  T (4, y); T (4, f); T (1, c); T (34, x);  Lambda_apply y [((Iter 1), (Arg 8)); ((Iter 1), (Arg 9))]]"
