perf,CACHE_MISS_L1,CACHE_MISS_L2,scheme
76.79,520343,122259,"[V f; U (2, f); U (8, y); T (64, c); Hoist_vars [c]; T (14, x); T (3, w);  T (3, h); T (1, x); T (7, y); T (2, f); T (1, c); T (4, x)]"
79.02,556456,118537,"[V f; U (2, f); U (8, y); T (64, c); Hoist_vars [c]; T (7, x); T (3, w);  T (3, h); T (2, x); T (7, y); T (2, f); T (1, c); T (4, x)]"
78.76,700948,113089,"[V f; U (2, f); U (8, y); T (64, c); Hoist_vars [c]; T (2, x); T (3, w);  T (3, h); T (7, x); T (7, y); T (2, f); T (1, c); T (4, x)]"
79.48,1130595,113447,"[V f; U (2, f); U (8, y); T (64, c); Hoist_vars [c]; T (1, x); T (3, w);  T (3, h); T (14, x); T (7, y); T (2, f); T (1, c); T (4, x)]"
72.77,576527,171594,"[V f; U (2, f); U (14, y); T (64, c); Hoist_vars [c]; T (8, x); T (3, w);  T (3, h); T (7, x); T (4, y); T (2, f); T (1, c); T (1, x)]"
70.68,587251,170966,"[V f; U (2, f); U (14, y); T (64, c); Hoist_vars [c]; T (7, x); T (3, w);  T (3, h); T (8, x); T (4, y); T (2, f); T (1, c); T (1, x)]"
73.92,612697,159824,"[V f; U (2, f); U (14, y); T (64, c); Hoist_vars [c]; T (4, x); T (3, w);  T (3, h); T (14, x); T (4, y); T (2, f); T (1, c); T (1, x)]"
76.55,593953,153631,"[V f; U (2, f); U (14, y); T (64, c); Hoist_vars [c]; T (2, x); T (3, w);  T (3, h); T (28, x); T (4, y); T (2, f); T (1, c); T (1, x)]"
75.12,741856,149979,"[V f; U (2, f); U (14, y); T (64, c); Hoist_vars [c]; T (1, x); T (3, w);  T (3, h); T (56, x); T (4, y); T (2, f); T (1, c); T (1, x)]"
79.35,594322,133708,"[V f; U (4, f); U (4, y); U (3, w); T (32, c); Hoist_vars [c]; T (28, x);  T (1, w); T (3, h); T (1, x); T (14, y); T (1, f); T (2, c); T (2, x)]"
80.10,655315,137000,"[V f; U (4, f); U (4, y); U (3, w); T (32, c); Hoist_vars [c]; T (14, x);  T (1, w); T (3, h); T (2, x); T (14, y); T (1, f); T (2, c); T (2, x)]"
79.40,774510,142041,"[V f; U (4, f); U (4, y); U (3, w); T (32, c); Hoist_vars [c]; T (7, x);  T (1, w); T (3, h); T (4, x); T (14, y); T (1, f); T (2, c); T (2, x)]"
78.48,928927,140757,"[V f; U (4, f); U (4, y); U (3, w); T (32, c); Hoist_vars [c]; T (4, x);  T (1, w); T (3, h); T (7, x); T (14, y); T (1, f); T (2, c); T (2, x)]"
73.07,1293786,153568,"[V f; U (4, f); U (4, y); U (3, w); T (32, c); Hoist_vars [c]; T (2, x);  T (1, w); T (3, h); T (14, x); T (14, y); T (1, f); T (2, c); T (2, x)]"
74.81,2039237,138042,"[V f; U (4, f); U (4, y); U (3, w); T (32, c); Hoist_vars [c]; T (1, x);  T (1, w); T (3, h); T (28, x); T (14, y); T (1, f); T (2, c); T (2, x)]"
72.57,526369,171035,"[V f; U (2, f); U (8, y); T (64, c); Hoist_vars [c]; T (14, x); T (3, w);  T (3, h); T (4, x); T (7, y); T (2, f); T (1, c); T (1, x)]"
75.98,559285,168992,"[V f; U (2, f); U (8, y); T (64, c); Hoist_vars [c]; T (8, x); T (3, w);  T (3, h); T (7, x); T (7, y); T (2, f); T (1, c); T (1, x)]"
75.88,554310,167166,"[V f; U (2, f); U (8, y); T (64, c); Hoist_vars [c]; T (7, x); T (3, w);  T (3, h); T (8, x); T (7, y); T (2, f); T (1, c); T (1, x)]"
74.36,586261,164674,"[V f; U (2, f); U (8, y); T (64, c); Hoist_vars [c]; T (4, x); T (3, w);  T (3, h); T (14, x); T (7, y); T (2, f); T (1, c); T (1, x)]"
74.35,700878,154316,"[V f; U (2, f); U (8, y); T (64, c); Hoist_vars [c]; T (2, x); T (3, w);  T (3, h); T (28, x); T (7, y); T (2, f); T (1, c); T (1, x)]"
75.21,1128163,154005,"[V f; U (2, f); U (8, y); T (64, c); Hoist_vars [c]; T (1, x); T (3, w);  T (3, h); T (56, x); T (7, y); T (2, f); T (1, c); T (1, x)]"
81.36,562832,87552,"[V f; U (2, f); U (8, y); T (64, c); Hoist_vars [c]; T (8, x); T (3, w);  T (3, h); T (1, x); T (7, y); T (2, f); T (1, c); T (7, x)]"
77.09,590322,84093,"[V f; U (2, f); U (8, y); T (64, c); Hoist_vars [c]; T (4, x); T (3, w);  T (3, h); T (2, x); T (7, y); T (2, f); T (1, c); T (7, x)]"
78.60,702359,80279,"[V f; U (2, f); U (8, y); T (64, c); Hoist_vars [c]; T (2, x); T (3, w);  T (3, h); T (4, x); T (7, y); T (2, f); T (1, c); T (7, x)]"
78.18,1137595,80217,"[V f; U (2, f); U (8, y); T (64, c); Hoist_vars [c]; T (1, x); T (3, w);  T (3, h); T (8, x); T (7, y); T (2, f); T (1, c); T (7, x)]"
79.36,575123,89579,"[V f; U (2, f); U (14, y); T (64, c); Hoist_vars [c]; T (8, x); T (3, w);  T (3, h); T (1, x); T (4, y); T (2, f); T (1, c); T (7, x)]"
76.92,619839,80914,"[V f; U (2, f); U (14, y); T (64, c); Hoist_vars [c]; T (4, x); T (3, w);  T (3, h); T (2, x); T (4, y); T (2, f); T (1, c); T (7, x)]"
79.76,595714,84336,"[V f; U (2, f); U (14, y); T (64, c); Hoist_vars [c]; T (2, x); T (3, w);  T (3, h); T (4, x); T (4, y); T (2, f); T (1, c); T (7, x)]"
79.05,746498,84195,"[V f; U (2, f); U (14, y); T (64, c); Hoist_vars [c]; T (1, x); T (3, w);  T (3, h); T (8, x); T (4, y); T (2, f); T (1, c); T (7, x)]"
74.71,591185,148641,"[V f; U (2, f); U (14, y); T (64, c); Hoist_vars [c]; T (7, x); T (3, w);  T (3, h); T (4, x); T (4, y); T (2, f); T (1, c); T (2, x)]"
75.01,614875,151102,"[V f; U (2, f); U (14, y); T (64, c); Hoist_vars [c]; T (4, x); T (3, w);  T (3, h); T (7, x); T (4, y); T (2, f); T (1, c); T (2, x)]"
76.39,591708,148289,"[V f; U (2, f); U (14, y); T (64, c); Hoist_vars [c]; T (2, x); T (3, w);  T (3, h); T (14, x); T (4, y); T (2, f); T (1, c); T (2, x)]"
78.13,742218,144069,"[V f; U (2, f); U (14, y); T (64, c); Hoist_vars [c]; T (1, x); T (3, w);  T (3, h); T (28, x); T (4, y); T (2, f); T (1, c); T (2, x)]"
75.74,491924,118945,"[V f; U (4, f); U (7, y); T (32, c); Hoist_vars [c]; T (14, x); T (3, w);  T (3, h); T (1, x); T (8, y); T (1, f); T (2, c); T (4, x)]"
75.30,550967,118630,"[V f; U (4, f); U (7, y); T (32, c); Hoist_vars [c]; T (7, x); T (3, w);  T (3, h); T (2, x); T (8, y); T (1, f); T (2, c); T (4, x)]"
76.10,737680,117369,"[V f; U (4, f); U (7, y); T (32, c); Hoist_vars [c]; T (2, x); T (3, w);  T (3, h); T (7, x); T (8, y); T (1, f); T (2, c); T (4, x)]"
74.33,1263312,118220,"[V f; U (4, f); U (7, y); T (32, c); Hoist_vars [c]; T (1, x); T (3, w);  T (3, h); T (14, x); T (8, y); T (1, f); T (2, c); T (4, x)]"
71.95,569064,111666,"[V f; U (4, f); U (7, y); U (3, h); T (32, c); Hoist_vars [c]; T (14, x);  T (3, w); T (1, h); T (1, x); T (8, y); T (1, f); T (2, c); T (4, x)]"
66.87,656683,115366,"[V f; U (4, f); U (7, y); U (3, h); T (32, c); Hoist_vars [c]; T (7, x);  T (3, w); T (1, h); T (2, x); T (8, y); T (1, f); T (2, c); T (4, x)]"
67.42,924986,111296,"[V f; U (4, f); U (7, y); U (3, h); T (32, c); Hoist_vars [c]; T (2, x);  T (3, w); T (1, h); T (7, x); T (8, y); T (1, f); T (2, c); T (4, x)]"
71.68,1218711,112370,"[V f; U (4, f); U (7, y); U (3, h); T (32, c); Hoist_vars [c]; T (1, x);  T (3, w); T (1, h); T (14, x); T (8, y); T (1, f); T (2, c); T (4, x)]"
81.78,661993,115942,"[V f; U (4, f); U (4, y); U (3, w); T (32, c); Hoist_vars [c]; T (14, x);  T (1, w); T (3, h); T (1, x); T (14, y); T (1, f); T (2, c); T (4, x)]"
80.72,760721,116087,"[V f; U (4, f); U (4, y); U (3, w); T (32, c); Hoist_vars [c]; T (7, x);  T (1, w); T (3, h); T (2, x); T (14, y); T (1, f); T (2, c); T (4, x)]"
78.86,1298587,111457,"[V f; U (4, f); U (4, y); U (3, w); T (32, c); Hoist_vars [c]; T (2, x);  T (1, w); T (3, h); T (7, x); T (14, y); T (1, f); T (2, c); T (4, x)]"
77.13,2037024,113529,"[V f; U (4, f); U (4, y); U (3, w); T (32, c); Hoist_vars [c]; T (1, x);  T (1, w); T (3, h); T (14, x); T (14, y); T (1, f); T (2, c); T (4, x)]"
75.65,679390,114831,"[V f; U (4, f); U (7, y); U (3, w); T (32, c); Hoist_vars [c]; T (14, x);  T (1, w); T (3, h); T (1, x); T (8, y); T (1, f); T (2, c); T (4, x)]"
78.82,749978,116420,"[V f; U (4, f); U (7, y); U (3, w); T (32, c); Hoist_vars [c]; T (7, x);  T (1, w); T (3, h); T (2, x); T (8, y); T (1, f); T (2, c); T (4, x)]"
76.81,974941,117003,"[V f; U (4, f); U (7, y); U (3, w); T (32, c); Hoist_vars [c]; T (2, x);  T (1, w); T (3, h); T (7, x); T (8, y); T (1, f); T (2, c); T (4, x)]"
74.80,1290943,114081,"[V f; U (4, f); U (7, y); U (3, w); T (32, c); Hoist_vars [c]; T (1, x);  T (1, w); T (3, h); T (14, x); T (8, y); T (1, f); T (2, c); T (4, x)]"
63.71,694582,72971,"[V f; U (2, f); U (8, y); T (16, c); Hoist_vars [c]; T (4, x); T (3, w);  T (3, h); T (1, x); T (7, y); T (2, f); T (4, c); T (14, x)]"
