perf,CACHE_MISS_L1,CACHE_MISS_L2,scheme
31.92,7023028,3333863,"[V f; U (4, f); U (7, y); T (32, c); Hoist_vars [c]; T (7, x); T (3, w);  T (3, h); T (32, c); T (16, f); T (1, c); T (1, c)]"
26.92,9146293,3788937,"[V f; U (4, f); U (7, y); T (16, c); Hoist_vars [c]; T (7, x); T (3, w);  T (3, h); T (64, c); T (16, f); T (1, c); T (1, c)]"
21.38,14139382,3954270,"[V f; U (4, f); U (7, y); T (8, c); Hoist_vars [c]; T (7, x); T (3, w);  T (3, h); T (128, c); T (16, f); T (1, c); T (1, c)]"
30.51,5785272,1484172,"[V f; U (4, f); U (7, y); U (3, h); T (32, c); Hoist_vars [c]; T (7, x);  T (3, w); T (1, h); T (32, c); T (16, f); T (1, c); T (1, c)]"
30.04,6472739,2070207,"[V f; U (4, f); U (7, y); U (3, h); T (16, c); Hoist_vars [c]; T (7, x);  T (3, w); T (1, h); T (64, c); T (16, f); T (1, c); T (1, c)]"
25.23,8170776,3742624,"[V f; U (4, f); U (7, y); U (3, h); T (8, c); Hoist_vars [c]; T (7, x);  T (3, w); T (1, h); T (128, c); T (16, f); T (1, c); T (1, c)]"
33.12,10667527,1620184,"[V f; U (4, f); U (7, y); U (3, w); T (32, c); Hoist_vars [c]; T (7, x);  T (1, w); T (3, h); T (32, c); T (16, f); T (1, c); T (1, c)]"
31.90,11112826,2277947,"[V f; U (4, f); U (7, y); U (3, w); T (16, c); Hoist_vars [c]; T (7, x);  T (1, w); T (3, h); T (64, c); T (16, f); T (1, c); T (1, c)]"
25.16,12769100,3707276,"[V f; U (4, f); U (7, y); U (3, w); T (8, c); Hoist_vars [c]; T (7, x);  T (1, w); T (3, h); T (128, c); T (16, f); T (1, c); T (1, c)]"
26.96,5030437,2571595,"[V f; U (4, f); U (7, y); T (256, c); Hoist_vars [c]; T (7, x); T (3, w);  T (3, h); T (4, c); T (16, f); T (1, c); T (1, c)]"
33.42,6982186,3332494,"[V f; U (4, f); U (7, y); T (32, c); Hoist_vars [c]; T (7, x); T (3, w);  T (3, h); T (16, c); T (16, f); T (2, c); T (1, c)]"
28.35,9182336,3787134,"[V f; U (4, f); U (7, y); T (16, c); Hoist_vars [c]; T (7, x); T (3, w);  T (3, h); T (32, c); T (16, f); T (2, c); T (1, c)]"
22.85,13881651,3820857,"[V f; U (4, f); U (7, y); T (8, c); Hoist_vars [c]; T (7, x); T (3, w);  T (3, h); T (64, c); T (16, f); T (2, c); T (1, c)]"
33.40,6992687,3381965,"[V f; U (4, f); U (7, y); T (32, c); Hoist_vars [c]; T (7, x); T (3, w);  T (3, h); T (16, c); T (16, f); T (1, c); T (2, c)]"
28.36,9162825,3830294,"[V f; U (4, f); U (7, y); T (16, c); Hoist_vars [c]; T (7, x); T (3, w);  T (3, h); T (32, c); T (16, f); T (1, c); T (2, c)]"
22.36,13969615,4052802,"[V f; U (4, f); U (7, y); T (8, c); Hoist_vars [c]; T (7, x); T (3, w);  T (3, h); T (64, c); T (16, f); T (1, c); T (2, c)]"
31.77,5789493,1487839,"[V f; U (4, f); U (7, y); U (3, h); T (32, c); Hoist_vars [c]; T (7, x);  T (3, w); T (1, h); T (16, c); T (16, f); T (2, c); T (1, c)]"
31.21,6452584,2101993,"[V f; U (4, f); U (7, y); U (3, h); T (16, c); Hoist_vars [c]; T (7, x);  T (3, w); T (1, h); T (32, c); T (16, f); T (2, c); T (1, c)]"
27.42,8099564,3791615,"[V f; U (4, f); U (7, y); U (3, h); T (8, c); Hoist_vars [c]; T (7, x);  T (3, w); T (1, h); T (64, c); T (16, f); T (2, c); T (1, c)]"
32.10,5772690,1420815,"[V f; U (4, f); U (7, y); U (3, h); T (32, c); Hoist_vars [c]; T (7, x);  T (3, w); T (1, h); T (16, c); T (16, f); T (1, c); T (2, c)]"
30.95,6486610,2086403,"[V f; U (4, f); U (7, y); U (3, h); T (16, c); Hoist_vars [c]; T (7, x);  T (3, w); T (1, h); T (32, c); T (16, f); T (1, c); T (2, c)]"
27.60,8137053,3724665,"[V f; U (4, f); U (7, y); U (3, h); T (8, c); Hoist_vars [c]; T (7, x);  T (3, w); T (1, h); T (64, c); T (16, f); T (1, c); T (2, c)]"
17.32,11696822,4246399,"[V f; U (4, f); U (7, y); U (3, w); T (256, c); Hoist_vars [c]; T (7, x);  T (1, w); T (3, h); T (4, c); T (16, f); T (1, c); T (1, c)]"
34.45,10656957,1571876,"[V f; U (4, f); U (7, y); U (3, w); T (32, c); Hoist_vars [c]; T (7, x);  T (1, w); T (3, h); T (16, c); T (16, f); T (2, c); T (1, c)]"
33.67,11143186,2364314,"[V f; U (4, f); U (7, y); U (3, w); T (16, c); Hoist_vars [c]; T (7, x);  T (1, w); T (3, h); T (32, c); T (16, f); T (2, c); T (1, c)]"
27.13,12739404,3778156,"[V f; U (4, f); U (7, y); U (3, w); T (8, c); Hoist_vars [c]; T (7, x);  T (1, w); T (3, h); T (64, c); T (16, f); T (2, c); T (1, c)]"
34.86,10632226,1494082,"[V f; U (4, f); U (7, y); U (3, w); T (32, c); Hoist_vars [c]; T (7, x);  T (1, w); T (3, h); T (16, c); T (16, f); T (1, c); T (2, c)]"
33.90,11116478,2395303,"[V f; U (4, f); U (7, y); U (3, w); T (16, c); Hoist_vars [c]; T (7, x);  T (1, w); T (3, h); T (32, c); T (16, f); T (1, c); T (2, c)]"
27.47,12686548,3871226,"[V f; U (4, f); U (7, y); U (3, w); T (8, c); Hoist_vars [c]; T (7, x);  T (1, w); T (3, h); T (64, c); T (16, f); T (1, c); T (2, c)]"
25.71,5028447,2543704,"[V f; U (4, f); U (7, y); T (256, c); Hoist_vars [c]; T (7, x); T (3, w);  T (3, h); T (2, c); T (16, f); T (2, c); T (1, c)]"
27.07,5030173,2545846,"[V f; U (4, f); U (7, y); T (256, c); Hoist_vars [c]; T (7, x); T (3, w);  T (3, h); T (2, c); T (16, f); T (1, c); T (2, c)]"
20.23,11692207,4248556,"[V f; U (4, f); U (7, y); U (3, w); T (256, c); Hoist_vars [c]; T (7, x);  T (1, w); T (3, h); T (2, c); T (16, f); T (2, c); T (1, c)]"
18.88,11675100,4248367,"[V f; U (4, f); U (7, y); U (3, w); T (256, c); Hoist_vars [c]; T (7, x);  T (1, w); T (3, h); T (2, c); T (16, f); T (1, c); T (2, c)]"
37.86,5350887,1397041,"[V f; U (4, f); U (7, y); T (128, c); Hoist_vars [c]; T (7, x); T (3, w);  T (3, h); T (8, c); T (16, f); T (1, c); T (1, c)]"
21.28,11865445,3977437,"[V f; U (4, f); U (7, y); U (3, w); T (128, c); Hoist_vars [c]; T (7, x);  T (1, w); T (3, h); T (8, c); T (16, f); T (1, c); T (1, c)]"
38.72,5348402,1363815,"[V f; U (4, f); U (7, y); T (128, c); Hoist_vars [c]; T (7, x); T (3, w);  T (3, h); T (4, c); T (16, f); T (2, c); T (1, c)]"
26.88,5034141,2534534,"[V f; U (4, f); U (7, y); T (256, c); Hoist_vars [c]; T (7, x); T (3, w);  T (3, h); T (1, c); T (16, f); T (4, c); T (1, c)]"
35.32,6970492,3355161,"[V f; U (4, f); U (7, y); T (32, c); Hoist_vars [c]; T (7, x); T (3, w);  T (3, h); T (8, c); T (16, f); T (4, c); T (1, c)]"
29.39,9163438,3818083,"[V f; U (4, f); U (7, y); T (16, c); Hoist_vars [c]; T (7, x); T (3, w);  T (3, h); T (16, c); T (16, f); T (4, c); T (1, c)]"
23.34,13858278,4004809,"[V f; U (4, f); U (7, y); T (8, c); Hoist_vars [c]; T (7, x); T (3, w);  T (3, h); T (32, c); T (16, f); T (4, c); T (1, c)]"
38.84,5352267,1376382,"[V f; U (4, f); U (7, y); T (128, c); Hoist_vars [c]; T (7, x); T (3, w);  T (3, h); T (4, c); T (16, f); T (1, c); T (2, c)]"
27.49,5034649,2560358,"[V f; U (4, f); U (7, y); T (256, c); Hoist_vars [c]; T (7, x); T (3, w);  T (3, h); T (1, c); T (16, f); T (2, c); T (2, c)]"
35.25,6975206,3333302,"[V f; U (4, f); U (7, y); T (32, c); Hoist_vars [c]; T (7, x); T (3, w);  T (3, h); T (8, c); T (16, f); T (2, c); T (2, c)]"
29.38,9170339,3782176,"[V f; U (4, f); U (7, y); T (16, c); Hoist_vars [c]; T (7, x); T (3, w);  T (3, h); T (16, c); T (16, f); T (2, c); T (2, c)]"
23.25,13981663,4008348,"[V f; U (4, f); U (7, y); T (8, c); Hoist_vars [c]; T (7, x); T (3, w);  T (3, h); T (32, c); T (16, f); T (2, c); T (2, c)]"
27.43,5027949,2564183,"[V f; U (4, f); U (7, y); T (256, c); Hoist_vars [c]; T (7, x); T (3, w);  T (3, h); T (1, c); T (16, f); T (1, c); T (4, c)]"
34.70,6972125,3383708,"[V f; U (4, f); U (7, y); T (32, c); Hoist_vars [c]; T (7, x); T (3, w);  T (3, h); T (8, c); T (16, f); T (1, c); T (4, c)]"
29.11,9157095,3847933,"[V f; U (4, f); U (7, y); T (16, c); Hoist_vars [c]; T (7, x); T (3, w);  T (3, h); T (16, c); T (16, f); T (1, c); T (4, c)]"
23.56,13950180,3910896,"[V f; U (4, f); U (7, y); T (8, c); Hoist_vars [c]; T (7, x); T (3, w);  T (3, h); T (32, c); T (16, f); T (1, c); T (4, c)]"
33.07,5783113,1473545,"[V f; U (4, f); U (7, y); U (3, h); T (32, c); Hoist_vars [c]; T (7, x);  T (3, w); T (1, h); T (8, c); T (16, f); T (4, c); T (1, c)]"
