perf,CACHE_MISS_L1,CACHE_MISS_L2,scheme
47.87,68642,15207,"[V f; U (4, f); U (7, y); T (256, c); Hoist_vars [c]; T (7, x); T (1, x);  T (8, f); T (1, c); T (1, x); T (1, y)]"
37.21,173361,11898,"[V f; U (4, f); U (7, y); T (8, c); Hoist_vars [c]; T (7, x); T (1, x);  T (8, f); T (32, c); T (1, x); T (1, y)]"
24.35,278634,11826,"[V f; U (4, f); U (7, y); T (4, c); Hoist_vars [c]; T (7, x); T (1, x);  T (8, f); T (64, c); T (1, x); T (1, y)]"
13.65,395876,11878,"[V f; U (4, f); U (7, y); T (2, c); Hoist_vars [c]; T (7, x); T (1, x);  T (8, f); T (128, c); T (1, x); T (1, y)]"
7.85,828065,11752,"[V f; U (4, f); U (7, y); T (1, c); Hoist_vars [c]; T (7, x); T (1, x);  T (8, f); T (256, c); T (1, x); T (1, y)]"
47.18,68686,12629,"[V f; U (4, f); U (7, y); T (256, c); Hoist_vars [c]; T (1, x); T (7, x);  T (8, f); T (1, c); T (1, x); T (1, y)]"
35.12,174172,11711,"[V f; U (4, f); U (7, y); T (8, c); Hoist_vars [c]; T (1, x); T (7, x);  T (8, f); T (32, c); T (1, x); T (1, y)]"
24.37,279525,11854,"[V f; U (4, f); U (7, y); T (4, c); Hoist_vars [c]; T (1, x); T (7, x);  T (8, f); T (64, c); T (1, x); T (1, y)]"
13.63,394862,11794,"[V f; U (4, f); U (7, y); T (2, c); Hoist_vars [c]; T (1, x); T (7, x);  T (8, f); T (128, c); T (1, x); T (1, y)]"
7.84,828556,11892,"[V f; U (4, f); U (7, y); T (1, c); Hoist_vars [c]; T (1, x); T (7, x);  T (8, f); T (256, c); T (1, x); T (1, y)]"
52.17,72554,11777,"[V f; U (4, f); U (7, y); T (128, c); Hoist_vars [c]; T (7, x); T (1, x);  T (8, f); T (2, c); T (1, x); T (1, y)]"
44.08,72728,12404,"[V f; U (4, f); U (7, y); T (128, c); Hoist_vars [c]; T (1, x); T (7, x);  T (8, f); T (2, c); T (1, x); T (1, y)]"
52.14,79653,11914,"[V f; U (4, f); U (7, y); T (64, c); Hoist_vars [c]; T (7, x); T (1, x);  T (8, f); T (4, c); T (1, x); T (1, y)]"
47.95,79857,11772,"[V f; U (4, f); U (7, y); T (64, c); Hoist_vars [c]; T (1, x); T (7, x);  T (8, f); T (4, c); T (1, x); T (1, y)]"
49.73,94391,11904,"[V f; U (4, f); U (7, y); T (32, c); Hoist_vars [c]; T (7, x); T (1, x);  T (8, f); T (8, c); T (1, x); T (1, y)]"
50.69,94253,11842,"[V f; U (4, f); U (7, y); T (32, c); Hoist_vars [c]; T (1, x); T (7, x);  T (8, f); T (8, c); T (1, x); T (1, y)]"
43.28,121211,11712,"[V f; U (4, f); U (7, y); T (16, c); Hoist_vars [c]; T (7, x); T (1, x);  T (8, f); T (16, c); T (1, x); T (1, y)]"
44.66,121237,11798,"[V f; U (4, f); U (7, y); T (16, c); Hoist_vars [c]; T (1, x); T (7, x);  T (8, f); T (16, c); T (1, x); T (1, y)]"
51.70,63786,11968,"[V f; U (4, f); U (7, y); T (256, c); Hoist_vars [c]; T (1, x); T (1, x);  T (8, f); T (1, c); T (7, x); T (1, y)]"
55.19,74785,11703,"[V f; U (4, f); U (7, y); T (32, c); Hoist_vars [c]; T (1, x); T (1, x);  T (8, f); T (8, c); T (7, x); T (1, y)]"
46.99,87386,11400,"[V f; U (4, f); U (7, y); T (16, c); Hoist_vars [c]; T (1, x); T (1, x);  T (8, f); T (16, c); T (7, x); T (1, y)]"
44.32,67096,13025,"[V f; U (4, f); U (7, y); T (8, c); Hoist_vars [c]; T (1, x); T (1, x);  T (8, f); T (32, c); T (7, x); T (1, y)]"
40.48,67598,16351,"[V f; U (4, f); U (7, y); T (4, c); Hoist_vars [c]; T (1, x); T (1, x);  T (8, f); T (64, c); T (7, x); T (1, y)]"
38.28,62953,11445,"[V f; U (4, f); U (7, y); T (2, c); Hoist_vars [c]; T (1, x); T (1, x);  T (8, f); T (128, c); T (7, x); T (1, y)]"
26.22,62635,11408,"[V f; U (4, f); U (7, y); T (1, c); Hoist_vars [c]; T (1, x); T (1, x);  T (8, f); T (256, c); T (7, x); T (1, y)]"
49.33,65454,12015,"[V f; U (4, f); U (7, y); T (128, c); Hoist_vars [c]; T (1, x); T (1, x);  T (8, f); T (2, c); T (7, x); T (1, y)]"
50.72,68518,12058,"[V f; U (4, f); U (7, y); T (64, c); Hoist_vars [c]; T (1, x); T (1, x);  T (8, f); T (4, c); T (7, x); T (1, y)]"
