perf,CACHE_MISS_L1,CACHE_MISS_L2,scheme
36.54,755818,711951,"[V f; U (2, f); U (8, y); T (3, c); Hoist_vars [c]; T (1, x); T (3, w);  T (3, h); T (34, y); T (1, y); T (544, x); T (2, y); T (1, f)]"
34.78,860965,842217,"[V f; U (2, f); U (8, y); T (3, c); Hoist_vars [c]; T (1, x); T (3, w);  T (3, h); T (17, y); T (2, y); T (544, x); T (2, y); T (1, f)]"
35.16,846077,834061,"[V f; U (2, f); U (8, y); T (3, c); Hoist_vars [c]; T (1, x); T (3, w);  T (3, h); T (2, y); T (17, y); T (544, x); T (2, y); T (1, f)]"
36.78,755790,712050,"[V f; U (2, f); U (8, y); T (3, c); Hoist_vars [c]; T (1, x); T (3, w);  T (3, h); T (1, y); T (34, y); T (544, x); T (2, y); T (1, f)]"
33.05,864008,756934,"[V f; U (2, f); ULambda y; T (3, c); Hoist_vars [c]; T (1, x); T (3, w);  T (3, h); Lambda_apply y [((Iter 1), (Arg 8)); ((Iter 1), (Arg 9))];  T (32, y); T (544, x); T (1, y); T (1, f)]"
36.63,760608,650278,"[V f; U (2, f); ULambda y; T (3, c); Hoist_vars [c]; T (1, x); T (3, w);  T (3, h); T (32, y);  Lambda_apply y [((Iter 1), (Arg 8)); ((Iter 1), (Arg 9))]; T (544, x);  T (1, y); T (1, f)]"
35.01,750701,695019,"[V f; U (2, f); ULambda y; T (3, c); Hoist_vars [c]; T (1, x); T (3, w);  T (3, h); T (32, y); T (1, y); T (544, x);  Lambda_apply y [((Iter 1), (Arg 8)); ((Iter 1), (Arg 9))]; T (1, f)]"
33.22,854344,821136,"[V f; U (2, f); ULambda y; T (3, c); Hoist_vars [c]; T (1, x); T (3, w);  T (3, h); T (16, y); T (2, y); T (544, x);  Lambda_apply y [((Iter 1), (Arg 8)); ((Iter 1), (Arg 9))]; T (1, f)]"
35.04,749496,692910,"[V f; U (2, f); ULambda y; T (3, c); Hoist_vars [c]; T (1, x); T (3, w);  T (3, h); T (8, y); T (4, y); T (544, x);  Lambda_apply y [((Iter 1), (Arg 8)); ((Iter 1), (Arg 9))]; T (1, f)]"
33.61,749905,692416,"[V f; U (2, f); ULambda y; T (3, c); Hoist_vars [c]; T (1, x); T (3, w);  T (3, h); T (4, y); T (8, y); T (544, x);  Lambda_apply y [((Iter 1), (Arg 8)); ((Iter 1), (Arg 9))]; T (1, f)]"
35.17,750036,692436,"[V f; U (2, f); ULambda y; T (3, c); Hoist_vars [c]; T (1, x); T (3, w);  T (3, h); T (2, y); T (16, y); T (544, x);  Lambda_apply y [((Iter 1), (Arg 8)); ((Iter 1), (Arg 9))]; T (1, f)]"
35.46,749604,691560,"[V f; U (2, f); ULambda y; T (3, c); Hoist_vars [c]; T (1, x); T (3, w);  T (3, h); T (1, y); T (32, y); T (544, x);  Lambda_apply y [((Iter 1), (Arg 8)); ((Iter 1), (Arg 9))]; T (1, f)]"
36.37,760676,650212,"[V f; U (2, f); ULambda y; T (3, c); Hoist_vars [c]; T (1, x); T (3, w);  T (3, h); Lambda_apply y [((Iter 3), (Arg 8)); ((Iter 1), (Arg 10))];  T (16, y); T (544, x); T (1, y); T (1, f)]"
36.78,759953,649937,"[V f; U (2, f); ULambda y; T (3, c); Hoist_vars [c]; T (1, x); T (3, w);  T (3, h); T (16, y);  Lambda_apply y [((Iter 3), (Arg 8)); ((Iter 1), (Arg 10))]; T (544, x);  T (1, y); T (1, f)]"
34.30,761489,650262,"[V f; U (2, f); ULambda y; T (3, c); Hoist_vars [c]; T (1, x); T (3, w);  T (3, h); Lambda_apply y [((Iter 3), (Arg 8)); ((Iter 4), (Arg 11))];  T (8, y); T (544, x); T (1, y); T (1, f)]"
34.93,760378,649971,"[V f; U (2, f); ULambda y; T (3, c); Hoist_vars [c]; T (1, x); T (3, w);  T (3, h); T (8, y);  Lambda_apply y [((Iter 3), (Arg 8)); ((Iter 4), (Arg 11))]; T (544, x);  T (1, y); T (1, f)]"
34.07,760875,650392,"[V f; U (2, f); ULambda y; T (3, c); Hoist_vars [c]; T (1, x); T (3, w);  T (3, h); Lambda_apply y [((Iter 5), (Arg 8)); ((Iter 2), (Arg 14))];  T (8, y); T (544, x); T (1, y); T (1, f)]"
33.18,765279,650588,"[V f; U (2, f); ULambda y; T (3, c); Hoist_vars [c]; T (1, x); T (3, w);  T (3, h); T (8, y);  Lambda_apply y [((Iter 5), (Arg 8)); ((Iter 2), (Arg 14))]; T (544, x);  T (1, y); T (1, f)]"
34.44,761750,650511,"[V f; U (2, f); ULambda y; T (3, c); Hoist_vars [c]; T (1, x); T (3, w);  T (3, h); Lambda_apply y [((Iter 9), (Arg 9)); ((Iter 5), (Arg 11))];  T (4, y); T (544, x); T (1, y); T (1, f)]"
35.20,763169,650347,"[V f; U (2, f); ULambda y; T (3, c); Hoist_vars [c]; T (1, x); T (3, w);  T (3, h); T (4, y);  Lambda_apply y [((Iter 9), (Arg 9)); ((Iter 5), (Arg 11))]; T (544, x);  T (1, y); T (1, f)]"
32.81,762089,650253,"[V f; U (2, f); ULambda y; T (3, c); Hoist_vars [c]; T (1, x); T (3, w);  T (3, h); Lambda_apply y [((Iter 5), (Arg 9)); ((Iter 7), (Arg 13))];  T (4, y); T (544, x); T (1, y); T (1, f)]"
32.93,763450,650213,"[V f; U (2, f); ULambda y; T (3, c); Hoist_vars [c]; T (1, x); T (3, w);  T (3, h); T (4, y);  Lambda_apply y [((Iter 5), (Arg 9)); ((Iter 7), (Arg 13))]; T (544, x);  T (1, y); T (1, f)]"
34.67,759786,650177,"[V f; U (2, f); ULambda y; T (3, c); Hoist_vars [c]; T (1, x); T (3, w);  T (3, h); Lambda_apply y [((Iter 2), (Arg 9)); ((Iter 1), (Arg 14))];  T (17, y); T (544, x); T (1, y); T (1, f)]"
30.85,891934,784941,"[V f; U (2, f); ULambda y; T (3, c); Hoist_vars [c]; T (1, x); T (3, w);  T (3, h); T (17, y);  Lambda_apply y [((Iter 2), (Arg 9)); ((Iter 1), (Arg 14))]; T (544, x);  T (1, y); T (1, f)]"
33.88,761466,649833,"[V f; U (2, f); ULambda y; T (3, c); Hoist_vars [c]; T (1, x); T (3, w);  T (3, h); Lambda_apply y [((Iter 1), (Arg 10)); ((Iter 2), (Arg 11))];  T (17, y); T (544, x); T (1, y); T (1, f)]"
33.69,764449,650322,"[V f; U (2, f); ULambda y; T (3, c); Hoist_vars [c]; T (1, x); T (3, w);  T (3, h); T (17, y);  Lambda_apply y [((Iter 1), (Arg 10)); ((Iter 2), (Arg 11))]; T (544, x);  T (1, y); T (1, f)]"
34.86,764659,656341,"[V f; U (2, f); ULambda y; T (3, c); Hoist_vars [c]; T (1, x); T (3, w);  T (3, h); Lambda_apply y [((Iter 2), (Arg 10)); ((Iter 1), (Arg 12))];  T (17, y); T (544, x); T (1, y); T (1, f)]"
31.91,891105,787541,"[V f; U (2, f); ULambda y; T (3, c); Hoist_vars [c]; T (1, x); T (3, w);  T (3, h); T (17, y);  Lambda_apply y [((Iter 2), (Arg 10)); ((Iter 1), (Arg 12))]; T (544, x);  T (1, y); T (1, f)]"
32.05,766020,650327,"[V f; U (2, f); ULambda y; T (3, c); Hoist_vars [c]; T (1, x); T (3, w);  T (3, h); Lambda_apply y [((Iter 2), (Arg 10)); ((Iter 1), (Arg 14))];  T (16, y); T (544, x); T (1, y); T (1, f)]"
33.15,763772,650017,"[V f; U (2, f); ULambda y; T (3, c); Hoist_vars [c]; T (1, x); T (3, w);  T (3, h); T (16, y);  Lambda_apply y [((Iter 2), (Arg 10)); ((Iter 1), (Arg 14))]; T (544, x);  T (1, y); T (1, f)]"
34.25,763586,788829,"[V f; U (2, f); U (8, y); T (3, c); Hoist_vars [c]; T (4, x); T (3, w);  T (3, h); T (17, y); T (1, y); T (136, x); T (4, y); T (1, f)]"
35.19,705278,733498,"[V f; U (2, f); U (8, y); T (3, c); Hoist_vars [c]; T (4, x); T (3, w);  T (3, h); T (1, y); T (17, y); T (136, x); T (4, y); T (1, f)]"
35.71,713810,745335,"[V f; U (2, f); U (8, y); T (3, c); Hoist_vars [c]; T (2, x); T (3, w);  T (3, h); T (17, y); T (1, y); T (272, x); T (4, y); T (1, f)]"
35.82,712565,744894,"[V f; U (2, f); U (8, y); T (3, c); Hoist_vars [c]; T (2, x); T (3, w);  T (3, h); T (1, y); T (17, y); T (272, x); T (4, y); T (1, f)]"
35.18,710413,767019,"[V f; U (2, f); U (8, y); T (3, c); Hoist_vars [c]; T (1, x); T (3, w);  T (3, h); T (17, y); T (1, y); T (544, x); T (4, y); T (1, f)]"
34.65,713035,766577,"[V f; U (2, f); U (8, y); T (3, c); Hoist_vars [c]; T (1, x); T (3, w);  T (3, h); T (1, y); T (17, y); T (544, x); T (4, y); T (1, f)]"
33.60,710058,721119,"[V f; U (2, f); ULambda y; T (3, c); Hoist_vars [c]; T (2, x); T (3, w);  T (3, h); T (17, y); T (1, y); T (272, x);  Lambda_apply y [((Iter 1), (Arg 8)); ((Iter 2), (Arg 12))]; T (1, f)]"
33.62,712474,719605,"[V f; U (2, f); ULambda y; T (3, c); Hoist_vars [c]; T (2, x); T (3, w);  T (3, h); T (1, y); T (17, y); T (272, x);  Lambda_apply y [((Iter 1), (Arg 8)); ((Iter 2), (Arg 12))]; T (1, f)]"
32.10,729191,731434,"[V f; U (2, f); ULambda y; T (3, c); Hoist_vars [c]; T (1, x); T (3, w);  T (3, h); T (17, y); T (1, y); T (544, x);  Lambda_apply y [((Iter 1), (Arg 8)); ((Iter 2), (Arg 12))]; T (1, f)]"
31.89,728333,731714,"[V f; U (2, f); ULambda y; T (3, c); Hoist_vars [c]; T (1, x); T (3, w);  T (3, h); T (1, y); T (17, y); T (544, x);  Lambda_apply y [((Iter 1), (Arg 8)); ((Iter 2), (Arg 12))]; T (1, f)]"
26.95,714439,710144,"[V f; U (2, f); ULambda y; T (3, c); Hoist_vars [c]; T (2, x); T (3, w);  T (3, h); T (16, y); T (1, y); T (272, x);  Lambda_apply y [((Iter 1), (Arg 8)); ((Iter 2), (Arg 13))]; T (1, f)]"
27.03,714049,713384,"[V f; U (2, f); ULambda y; T (3, c); Hoist_vars [c]; T (2, x); T (3, w);  T (3, h); T (8, y); T (2, y); T (272, x);  Lambda_apply y [((Iter 1), (Arg 8)); ((Iter 2), (Arg 13))]; T (1, f)]"
27.13,714003,714388,"[V f; U (2, f); ULambda y; T (3, c); Hoist_vars [c]; T (2, x); T (3, w);  T (3, h); T (4, y); T (4, y); T (272, x);  Lambda_apply y [((Iter 1), (Arg 8)); ((Iter 2), (Arg 13))]; T (1, f)]"
25.82,814912,812651,"[V f; U (2, f); ULambda y; T (3, c); Hoist_vars [c]; T (2, x); T (3, w);  T (3, h); T (2, y); T (8, y); T (272, x);  Lambda_apply y [((Iter 1), (Arg 8)); ((Iter 2), (Arg 13))]; T (1, f)]"
26.42,748161,739959,"[V f; U (2, f); ULambda y; T (3, c); Hoist_vars [c]; T (2, x); T (3, w);  T (3, h); T (1, y); T (16, y); T (272, x);  Lambda_apply y [((Iter 1), (Arg 8)); ((Iter 2), (Arg 13))]; T (1, f)]"
30.44,733376,738747,"[V f; U (2, f); ULambda y; T (3, c); Hoist_vars [c]; T (1, x); T (3, w);  T (3, h); T (16, y); T (1, y); T (544, x);  Lambda_apply y [((Iter 1), (Arg 8)); ((Iter 2), (Arg 13))]; T (1, f)]"
30.35,729556,736273,"[V f; U (2, f); ULambda y; T (3, c); Hoist_vars [c]; T (1, x); T (3, w);  T (3, h); T (8, y); T (2, y); T (544, x);  Lambda_apply y [((Iter 1), (Arg 8)); ((Iter 2), (Arg 13))]; T (1, f)]"
28.55,714142,712250,"[V f; U (2, f); ULambda y; T (3, c); Hoist_vars [c]; T (1, x); T (3, w);  T (3, h); T (4, y); T (4, y); T (544, x);  Lambda_apply y [((Iter 1), (Arg 8)); ((Iter 2), (Arg 13))]; T (1, f)]"
30.35,717511,719525,"[V f; U (2, f); ULambda y; T (3, c); Hoist_vars [c]; T (1, x); T (3, w);  T (3, h); T (2, y); T (8, y); T (544, x);  Lambda_apply y [((Iter 1), (Arg 8)); ((Iter 2), (Arg 13))]; T (1, f)]"
30.53,728609,736874,"[V f; U (2, f); ULambda y; T (3, c); Hoist_vars [c]; T (1, x); T (3, w);  T (3, h); T (1, y); T (16, y); T (544, x);  Lambda_apply y [((Iter 1), (Arg 8)); ((Iter 2), (Arg 13))]; T (1, f)]"
