NAME_CONV,NUM_THREADS,TimeTVM+TTILE(ms),%PeakPerfTVM+TTILE,TimeAUTOTVM,%PeakPerfAUTOTVM,NbMicroKernel,AxeFuse,SizeAxeFuse,Schema
MobilNet_1,1,1.9900713000000000,86.44514395037000,,,1,axe_yy_0,4,[V f; U (2; f); ULambda y; U (3; h); T (32; c); Hoist_vars [c]; T (3; w);  T (112; x); Lambda_apply y [((Iter 2); (Arg 9)); ((Iter 1); (Arg 10))];  T (1; c); T (4; y)]
MobilNet_1,8,0.2688067,79.99800600208250,,,1,axe_yy_0;axe_out_channels_0;axe_yy_1;axe_xx_0,123,[V f; U (1; f); U (14; y); U (3; h); T (32; c); Hoist_vars [c]; T (1; x);  T (1; c); T (3; w); T (112; x); T (1; y); T (2; f); T (8; y)]
MobilNet_1,16,0.1543726,69.64966580856970,0.3156269,34.065537506467300,1,axe_yy_1;axe_xx_0,120,[V f; U (2; f); U (14; y); T (32; c); Hoist_vars [c]; T (3; w); T (3; h);  T (112; x); T (8; y); T (1; c); T (1; y)]
MobilNet_1,32,0.08389130000000000,64.08292635827550,0.27146990000000,19.80330047640640,1,axe_yy_0;axe_out_channels_0;axe_yy_1;axe_xx_0,120,[V f; U (1; f); U (14; y); U (3; h); T (32; c); Hoist_vars [c]; T (1; x);  T (1; c); T (3; w); T (112; x); T (4; y); T (2; f); T (2; y)]
MobilNet_2,1,2.3250172,73.99171068497900,,,1,axe_xx_0;axe_yy_0;axe_xx_1;axe_out_channels_0,15,[V f; U (2; f); U (14; y); T (64; c); Hoist_vars [c]; T (3; h); T (7; x);  T (3; w); T (1; c); T (2; f); T (8; x); T (4; y); T (1; x)]
MobilNet_2,8,0.2682992,80.14932582728540,,,1,axe_xx_0;axe_yy_0;axe_xx_1;axe_out_channels_0,15,[V f; U (2; f); U (14; y); T (64; c); Hoist_vars [c]; T (3; h); T (7; x);  T (3; w); T (1; c); T (2; f); T (1; x); T (4; y); T (8; x)]
MobilNet_2,16,0.1439919,74.67086690293000,0.32521850000000000,33.060849859402200,1,axe_xx_0;axe_yy_0;axe_xx_1;axe_out_channels_0,15,[V f; U (2; f); U (14; y); T (64; c); Hoist_vars [c]; T (3; h); T (7; x);  T (3; w); T (1; c); T (2; f); T (8; x); T (4; y); T (1; x)]
MobilNet_2,32,0.086403,62.22006180340960,0.25532060000000,21.055880332413400,1,axe_xx_0;axe_yy_0;axe_xx_1;axe_out_channels_0,12,[V f; U (2; f); U (14; y); T (64; c); Hoist_vars [c]; T (3; h); T (7; x);  T (3; w); T (1; c); T (2; f); T (2; x); T (4; y); T (4; x)]
MobilNet_3,1,8.068554200000000,85.2851679424797,,,1,axe_out_channels_0;axe_out_channels_1;axe_xx_0;axe_yy_0;axe_out_channels_2,28,[V f; U (1; f); U (14; y); U (3; h); T (128; c); Hoist_vars [c]; T (4; x);  T (3; w); T (1; c); T (1; f); T (4; y); T (14; x); T (8; f); T (1; f)]
MobilNet_3,8,1.183921,72.65349630591910,,,1,axe_xx_0;axe_yy_0;axe_xx_1;axe_out_channels_0,16,[V f; U (2; f); U (14; y); T (64; c); Hoist_vars [c]; T (3; h); T (8; x);  T (3; w); T (2; c); T (4; f); T (1; x); T (4; y); T (7; x)]
MobilNet_3,16,0.5721452,75.1697296420559,0.6316318000000000,68.09030197656300,1,axe_out_channels_0;axe_out_channels_1;axe_xx_0;axe_yy_0;axe_out_channels_2,25,[V f; U (1; f); U (14; y); U (3; h); T (128; c); Hoist_vars [c]; T (4; x);  T (3; w); T (1; c); T (1; f); T (4; y); T (14; x); T (2; f); T (4; f)]
MobilNet_3,32,0.32161720000000000,66.8620956839373,0.43980430000000,48.894474201366400,1,axe_out_channels_0;axe_out_channels_1;axe_xx_0;axe_yy_0;axe_out_channels_2,25,[V f; U (1; f); U (14; y); U (3; h); T (128; c); Hoist_vars [c]; T (4; x);  T (3; w); T (1; c); T (1; f); T (4; y); T (14; x); T (4; f); T (2; f)]
MobilNet_4,1,2.1136732,81.39006540840850,,,1,axe_out_channels_0;axe_yy_0;axe_xx_0;axe_out_channels_1,14,[V f; U (2; f); U (14; y); T (64; c); Hoist_vars [c]; T (3; h); T (4; x);  T (3; w); T (2; c); T (4; f); T (7; x); T (2; y); T (1; f)]
MobilNet_4,8,0.28801,74.66407416409150,,,1,axe_out_channels_0;axe_yy_0;axe_xx_0;axe_out_channels_1,14,[V f; U (2; f); U (14; y); T (64; c); Hoist_vars [c]; T (3; h); T (4; x);  T (3; w); T (2; c); T (4; f); T (7; x); T (2; y); T (1; f)]
MobilNet_4,16,0.15234610000000000,70.57614208699800,0.32495570000000000,33.08758701570710,1,axe_out_channels_0;axe_yy_0;axe_xx_0;axe_out_channels_1,14,[V f; U (2; f); U (14; y); T (64; c); Hoist_vars [c]; T (3; h); T (4; x);  T (3; w); T (2; c); T (4; f); T (7; x); T (2; y); T (1; f)]
MobilNet_4,32,0.10122590000000000,53.10893753476140,0.23558360000000,22.819924646707200,1,axe_out_channels_0;axe_yy_0;axe_xx_0;axe_out_channels_1,13,[V f; U (2; f); U (14; y); T (64; c); Hoist_vars [c]; T (3; h); T (4; x);  T (3; w); T (2; c); T (2; f); T (7; x); T (2; y); T (2; f)]
MobilNet_5,1,8.2285899,83.62647894264360,,,1,axe_xx_0,28,[V f; U (1; f); U (14; y); U (3; h); T (64; c); Hoist_vars [c]; T (3; w);  T (28; x); T (4; c); T (1; y); T (16; f); T (2; y)]
MobilNet_5,8,1.1861628,72.51618411907710,,,2,axe_out_channels1_0;axe_out_channels1_1;axe_xx1_0;axe_yy1_0;axe_out_channels1_2,10,[V f; U (4; f); ULambda y; U (3; w); T (256; c); Hoist_vars [c]; T (14; x);  T (3; h); T (1; c); T (1; f);  Lambda_apply y [((Iter 2); (Arg 5)); ((Iter 3); (Arg 6))]; T (2; x);  T (1; f); T (4; f)]
MobilNet_5,16,0.6487988000000000,66.28865528111340,0.5609805,76.66576645712280,1,axe_yy_0;axe_xx_0;axe_out_channels_0;axe_yy_1;axe_xx_1,19,[V f; U (2; f); U (14; y); T (64; c); Hoist_vars [c]; T (3; h); T (4; x);  T (3; w); T (4; c); T (7; x); T (2; y); T (8; f); T (1; x); T (1; y)]
MobilNet_5,32,0.4050458,53.09029250519320,0.71490730000000,30.0794242834001,1,axe_out_channels_0;axe_out_channels_1;axe_xx_0;axe_yy_0;axe_out_channels_2,14,[V f; U (4; f); U (4; y); U (3; w); T (256; c); Hoist_vars [c]; T (14; x);  T (3; h); T (1; c); T (2; f); T (7; y); T (2; x); T (2; f); T (1; f)]
MobilNet_6,1,2.5775475000000000,66.74251395949060,,,1,axe_xx_0,14,[V f; U (2; f); U (14; y); T (64; c); Hoist_vars [c]; T (3; w); T (3; h);  T (14; x); T (4; c); T (4; f); T (1; y); T (2; f)]
MobilNet_6,8,0.4253122000000000,50.56050590601450,,,1,axe_out_channels_0;axe_yy_0;axe_out_channels_1,18,[V f; U (1; f); U (14; y); U (3; h); T (64; c); Hoist_vars [c]; T (3; w);  T (14; x); T (4; c); T (16; f); T (1; y); T (1; f)]
MobilNet_6,16,0.22524040000000000,47.735663761918400,0.2959317,36.33270785116970,1,axe_out_channels_0;axe_yy_0;axe_out_channels_1,18,[V f; U (1; f); U (14; y); U (3; h); T (64; c); Hoist_vars [c]; T (3; w);  T (14; x); T (4; c); T (16; f); T (1; y); T (1; f)]
MobilNet_6,32,0.2449923,21.943546797185100,0.32743910000000,16.41832023115140,1,axe_out_channels_0;axe_yy_0;axe_out_channels_1,18,[V f; U (1; f); U (14; y); U (3; h); T (64; c); Hoist_vars [c]; T (3; w);  T (14; x); T (4; c); T (16; f); T (1; y); T (1; f)]
MobilNet_7,1,10.3218979,66.66680940527420,,,1,axe_out_channels_0;axe_yy_0;axe_out_channels_1,19,[V f; U (1; f); U (14; y); U (3; h); T (32; c); Hoist_vars [c]; T (3; w);  T (14; x); T (16; c); T (16; f); T (1; y); T (2; f)]
MobilNet_7,8,1.5318002,56.15353751749090,,,1,axe_out_channels_0;axe_yy_0,17,[V f; U (2; f); U (14; y); T (32; c); Hoist_vars [c]; T (3; w); T (3; h);  T (14; x); T (16; c); T (1; y); T (16; f); T (1; c)]
MobilNet_7,16,0.8725648000000000,49.289176001599000,0.6137754,70.07123452650600,1,axe_out_channels_0;axe_yy_0;axe_out_channels_1,34,[V f; U (1; f); U (14; y); U (3; h); T (16; c); Hoist_vars [c]; T (3; w);  T (14; x); T (32; c); T (32; f); T (1; y); T (1; f)]
MobilNet_7,32,0.45890810000000000,46.85905522260340,0.35046850000000,61.3578681108288,1,axe_out_channels_0;axe_yy_0;axe_out_channels_1,34,[V f; U (1; f); U (14; y); U (3; h); T (32; c); Hoist_vars [c]; T (3; w);  T (14; x); T (16; c); T (1; f); T (1; y); T (32; f)]
MobilNet_8,1,3.4155313,50.367566533499500,,,1,axe_out_channels_0;axe_yy_0,9,[V f; U (4; f); U (7; y); U (3; h); T (32; c); Hoist_vars [c]; T (3; w);  T (7; x); T (4; c); T (1; y); T (8; f); T (4; c)]
MobilNet_8,8,0.6400679000000000,33.596435628157600,,,1,axe_out_channels_0;axe_yy_0,9,[V f; U (4; f); U (7; y); U (3; h); T (32; c); Hoist_vars [c]; T (3; w);  T (7; x); T (8; c); T (1; y); T (8; f); T (2; c)]
MobilNet_8,16,0.6670552000000000,16.118606076378700,0.2175034,49.433710001774700,1,axe_out_channels_0;axe_yy_0,9,[V f; U (4; f); U (7; y); T (32; c); Hoist_vars [c]; T (3; w); T (3; h);  T (7; x); T (4; c); T (1; y); T (8; f); T (4; c)]
MobilNet_8,32,0.6806656,7.898151456456740,0.24015850000000,22.385216429982700,1,axe_out_channels_0;axe_yy_0,9,[V f; U (4; f); U (7; y); U (3; h); T (32; c); Hoist_vars [c]; T (3; w);  T (7; x); T (16; c); T (1; y); T (8; f); T (1; c)]
MobilNet_9,1,16.9724268,40.54387790908020,,,1,axe_out_channels_0;axe_yy_0,17,[V f; U (4; f); U (7; y); T (16; c); Hoist_vars [c]; T (3; w); T (3; h);  T (7; x); T (2; c); T (1; y); T (16; f); T (2; c); T (16; c)]
MobilNet_9,8,2.8588953,30.087145898627300,,,1,axe_out_channels_0;axe_yy_0,17,[V f; U (4; f); U (7; y); T (16; c); Hoist_vars [c]; T (3; w); T (3; h);  T (7; x); T (64; c); T (1; y); T (16; f); T (1; c); T (1; c)]
MobilNet_9,16,1.7186616000000000,25.024123422551600,0.7456394,57.67935546324400,1,axe_out_channels_0;axe_yy_0,17,[V f; U (4; f); U (7; y); T (16; c); Hoist_vars [c]; T (3; w); T (3; h);  T (7; x); T (32; c); T (1; y); T (16; f); T (2; c); T (1; c)]
MobilNet_9,32,1.6754592,12.834690334446800,0.41607220000000,51.68333765149410,1,axe_out_channels_0;axe_yy_0,17,[V f; U (4; f); U (7; y); T (16; c); Hoist_vars [c]; T (3; w); T (3; h);  T (7; x); T (16; c); T (1; y); T (16; f); T (1; c); T (4; c)]
ResNet18_1,1,3.6352154000000000,48.30965449805260,,,1,axe_yy_0;axe_out_channels_0;axe_yy_1;axe_xx_0,36,[V f; U (2; f); U (14; y); T (3; c); Hoist_vars [c]; T (4; x); T (1; c);  T (7; w); T (7; h); T (28; x); T (4; y); T (2; f); T (2; y)]
ResNet18_1,8,0.5279980000000000,41.575915060284300,,,1,axe_yy_0;axe_out_channels_0;axe_yy_1;axe_xx_0,67,[V f; U (2; f); U (14; y); T (3; c); Hoist_vars [c]; T (2; x); T (1; c);  T (7; w); T (7; h); T (56; x); T (1; y); T (2; f); T (8; y)]
ResNet18_1,16,0.2911537,37.6983016186983,0.47895270000000000,22.9166679715972,1,axe_yy_1;axe_xx_0,120,[V f; U (4; f); U (7; y); T (3; c); Hoist_vars [c]; T (7; w); T (7; h);  T (112; x); T (8; y); T (1; c); T (2; y)]
ResNet18_1,32,0.17229250000000000,31.8528084507451,0.45950720000000,11.943229616423900,1,axe_yy_0;axe_out_channels_0;axe_yy_1;axe_xx_0,123,[V f; U (2; f); U (14; y); T (3; c); Hoist_vars [c]; T (1; x); T (1; c);  T (7; w); T (7; h); T (112; x); T (8; y); T (2; f); T (1; y)]
ResNet18_10,1,3.4728090000000000,49.5368446695456,,,1,axe_out_channels_0;axe_yy_0,9,[V f; U (4; f); U (7; y); T (32; c); Hoist_vars [c]; T (3; w); T (3; h);  T (7; x); T (8; c); T (1; y); T (8; f); T (2; c)]
ResNet18_10,8,0.6472037,33.22601524064220,,,1,axe_out_channels_0;axe_yy_0,9,[V f; U (4; f); U (7; y); T (32; c); Hoist_vars [c]; T (3; w); T (3; h);  T (7; x); T (8; c); T (1; y); T (8; f); T (2; c)]
ResNet18_10,16,0.6301234000000000,17.06332442185130,0.2030446,52.95388303850490,1,axe_out_channels_0;axe_yy_0,9,[V f; U (4; f); U (7; y); U (3; h); T (32; c); Hoist_vars [c]; T (3; w);  T (7; x); T (16; c); T (1; y); T (8; f); T (1; c)]
ResNet18_10,32,0.6837473000000000,7.862553899664390,0.24405280000000,22.028020166128000,1,axe_out_channels_0;axe_yy_0,9,[V f; U (4; f); U (7; y); U (3; h); T (32; c); Hoist_vars [c]; T (3; w);  T (7; x); T (8; c); T (1; y); T (8; f); T (2; c)]
ResNet18_11,1,0.13459300000000000,71.00914113908850,,,1,axe_out_channels_0;axe_yy_0;axe_out_channels_1,7,[V f; U (4; f); U (7; y); T (64; c); Hoist_vars [c]; T (7; x); T (4; c);  T (4; f); T (1; y); T (2; f)]
ResNet18_11,8,0.042122100000000000,28.361992081749600,,,1,axe_out_channels_0;axe_yy_0;axe_out_channels_1,7,[V f; U (4; f); U (7; y); T (256; c); Hoist_vars [c]; T (7; x); T (1; c);  T (2; f); T (1; y); T (4; f)]
ResNet18_11,16,0.042070100000000000,14.198524209196900,0.1049552,5.691317184220820,1,axe_out_channels_0;axe_yy_0;axe_out_channels_1,7,[V f; U (4; f); U (7; y); T (256; c); Hoist_vars [c]; T (7; x); T (1; c);  T (2; f); T (1; y); T (4; f)]
ResNet18_11,32,0.044476,6.715232185148540,0.09127200000000,3.272270429777660,1,axe_out_channels_0;axe_yy_0;axe_out_channels_1,10,[V f; U (4; f); U (7; y); T (256; c); Hoist_vars [c]; T (7; x); T (1; c);  T (1; f); T (1; y); T (8; f)]
ResNet18_12,1,3.4260090000000000,50.21352833573990,,,1,axe_out_channels_0;axe_yy_0,9,[V f; U (4; f); U (7; y); T (32; c); Hoist_vars [c]; T (3; w); T (3; h);  T (7; x); T (2; c); T (1; y); T (8; f); T (8; c)]
ResNet18_12,8,0.6054798,35.515635699159600,,,1,axe_out_channels_0;axe_yy_0,9,[V f; U (4; f); U (7; y); U (3; w); T (32; c); Hoist_vars [c]; T (3; h);  T (7; x); T (16; c); T (1; y); T (8; f); T (1; c)]
ResNet18_12,16,0.5873889,18.304738138565400,0.21590070000000000,49.80067225349430,1,axe_out_channels_0;axe_yy_0,9,[V f; U (4; f); U (7; y); U (3; w); T (16; c); Hoist_vars [c]; T (3; h);  T (7; x); T (16; c); T (1; y); T (8; f); T (2; c)]
ResNet18_12,32,0.631251,8.516422152202530,0.21933870000000,24.510038584162300,1,axe_out_channels_0;axe_yy_0,9,[V f; U (4; f); U (7; y); U (3; w); T (16; c); Hoist_vars [c]; T (3; h);  T (7; x); T (16; c); T (1; y); T (8; f); T (2; c)]
ResNet18_2,1,1.9905816,86.42298311207140,,,1,axe_yy_1;axe_xx_0,58,[V f; U (1; f); U (14; y); U (3; h); T (64; c); Hoist_vars [c]; T (3; w);  T (56; x); T (2; y); T (1; c); T (4; f); T (2; y)]
ResNet18_2,8,0.2627571,81.83984371878060,,,1,axe_xx_0;axe_yy_0;axe_xx_1;axe_out_channels_0,15,[V f; U (2; f); U (14; y); T (64; c); Hoist_vars [c]; T (3; h); T (7; x);  T (3; w); T (1; c); T (2; f); T (1; x); T (4; y); T (8; x)]
ResNet18_2,16,0.1413862,76.04702580591320,0.2691265,39.95147263461610,1,axe_xx_0;axe_yy_0;axe_xx_1;axe_out_channels_0,15,[V f; U (2; f); U (14; y); T (64; c); Hoist_vars [c]; T (3; h); T (7; x);  T (3; w); T (1; c); T (2; f); T (8; x); T (4; y); T (1; x)]
ResNet18_2,32,0.08561440000000000,62.793174979909900,0.22787500000000,23.591881513987900,1,axe_xx_0;axe_yy_0;axe_xx_1;axe_out_channels_0,15,[V f; U (2; f); U (14; y); T (64; c); Hoist_vars [c]; T (3; h); T (7; x);  T (3; w); T (1; c); T (2; f); T (8; x); T (4; y); T (1; x)]
ResNet18_3,1,0.3074095,62.17981769160250,,,1,axe_yy_0;axe_xx_0;axe_yy_1;axe_xx_1,38,[V f; U (4; f); U (7; y); T (64; c); Hoist_vars [c]; T (2; x); T (1; c);  T (1; x); T (8; y); T (28; x); T (1; y)]
ResNet18_3,8,0.0346847,68.88724230952940,,,1,axe_yy_0;axe_xx_0;axe_yy_1;axe_xx_1;axe_out_channels_0;axe_yy_2;axe_xx_2,69,[V f; U (2; f); U (8; y); T (64; c); Hoist_vars [c]; T (1; x); T (1; c);  T (1; x); T (1; y); T (2; f); T (1; x); T (7; y); T (56; x); T (1; y)]
ResNet18_3,16,0.0218468,54.68382860037470,0.1778217,6.718340150086670,1,axe_yy_0;axe_xx_0;axe_yy_1;axe_xx_1;axe_out_channels_0;axe_yy_2;axe_xx_2,66,[V f; U (2; f); U (14; y); T (64; c); Hoist_vars [c]; T (1; x); T (1; c);  T (1; x); T (1; y); T (2; f); T (1; x); T (4; y); T (56; x); T (1; y)]
ResNet18_3,32,0.019292400000000000,30.962105976101100,0.14068140000000,4.24600077432648,1,axe_yy_0;axe_xx_0;axe_yy_1;axe_xx_1;axe_out_channels_0;axe_yy_2;axe_xx_2,66,[V f; U (2; f); U (14; y); T (64; c); Hoist_vars [c]; T (1; x); T (1; c);  T (1; x); T (1; y); T (2; f); T (1; x); T (4; y); T (56; x); T (1; y)]
ResNet18_4,1,1.0620016000000000,80.99422825728320,,,1,axe_out_channels_0;axe_yy_0;axe_xx_0;axe_out_channels_1,14,[V f; U (2; f); U (14; y); T (64; c); Hoist_vars [c]; T (3; h); T (4; x);  T (3; w); T (1; c); T (4; f); T (7; x); T (2; y); T (1; f)]
ResNet18_4,8,0.1415802,75.94282251331760,,,1,axe_out_channels_0;axe_yy_0;axe_xx_0;axe_out_channels_1,35,[V f; U (2; f); U (14; y); T (64; c); Hoist_vars [c]; T (3; h); T (1; x);  T (3; w); T (1; c); T (1; f); T (28; x); T (2; y); T (4; f)]
ResNet18_4,16,0.07253000000000000,74.12105335723150,0.17901900000000000,30.03033197593550,1,axe_out_channels_0;axe_yy_0;axe_xx_0;axe_out_channels_1,35,[V f; U (2; f); U (14; y); T (64; c); Hoist_vars [c]; T (3; h); T (1; x);  T (3; w); T (1; c); T (1; f); T (28; x); T (2; y); T (4; f)]
ResNet18_4,32,0.0473515,56.76694508093730,0.14621570000000,18.383798730232100,1,axe_out_channels_0;axe_yy_0;axe_xx_0;axe_out_channels_1,35,[V f; U (2; f); U (14; y); T (64; c); Hoist_vars [c]; T (3; h); T (1; x);  T (3; w); T (1; c); T (1; f); T (28; x); T (2; y); T (4; f)]
ResNet18_5,1,0.11794420000000000,81.0326691209346,,,1,axe_yy_0;axe_xx_0;axe_out_channels_0,20,[V f; U (2; f); U (14; y); T (64; c); Hoist_vars [c]; T (2; x); T (4; f);  T (14; x); T (2; y)]
ResNet18_5,8,0.0187799,63.61411225121900,,,1,axe_yy_0;axe_xx_0;axe_out_channels_0,34,[V f; U (2; f); U (14; y); T (64; c); Hoist_vars [c]; T (1; x); T (4; f);  T (28; x); T (2; y)]
ResNet18_5,16,0.016528,36.1406905453372,0.1100013,5.430238854752930,1,axe_yy_0;axe_xx_0;axe_out_channels_0,13,[V f; U (2; f); U (14; y); T (64; c); Hoist_vars [c]; T (4; x); T (4; f);  T (7; x); T (2; y)]
ResNet18_5,32,0.014446400000000000,20.674124118580900,0.11167630000000,2.6743961491083300,1,axe_yy_0;axe_xx_0;axe_out_channels_0,20,[V f; U (2; f); U (14; y); T (64; c); Hoist_vars [c]; T (2; x); T (4; f);  T (14; x); T (2; y)]
ResNet18_6,1,1.9775434,86.99278104338950,,,2,axe_out_channels1_0;axe_yy1_0;axe_xx1_0;axe_out_channels1_1,7,[V f; U (4; f); ULambda y; U (3; w); T (128; c); Hoist_vars [c]; T (14; x);  T (3; h); T (1; c); T (2; f); T (2; x);  Lambda_apply y [((Iter 2); (Arg 5)); ((Iter 3); (Arg 6))]; T (1; f)]
ResNet18_6,8,0.25607260000000000,83.97618487881950,,,1,axe_out_channels_0;axe_yy_0;axe_xx_0;axe_out_channels_1,14,[V f; U (2; f); U (14; y); T (64; c); Hoist_vars [c]; T (3; h); T (4; x);  T (3; w); T (2; c); T (4; f); T (7; x); T (2; y); T (1; f)]
ResNet18_6,16,0.15224200000000000,70.6244006253202,0.2703145,39.775890675491000,1,axe_out_channels_0;axe_yy_0;axe_xx_0;axe_out_channels_1,14,[V f; U (2; f); U (14; y); T (64; c); Hoist_vars [c]; T (3; h); T (4; x);  T (3; w); T (2; c); T (4; f); T (7; x); T (2; y); T (1; f)]
ResNet18_6,32,0.0981718,54.761143220354500,0.20715170000000,25.95199556653410,1,axe_out_channels_0;axe_yy_0;axe_xx_0;axe_out_channels_1,12,[V f; U (4; f); U (4; y); U (3; w); T (128; c); Hoist_vars [c]; T (14; x);  T (3; h); T (1; c); T (1; f); T (2; x); T (7; y); T (2; f)]
ResNet18_7,1,1.2107373000000000,71.04431324615170,,,1,axe_xx_0,14,[V f; U (2; f); U (14; y); T (32; c); Hoist_vars [c]; T (3; w); T (3; h);  T (14; x); T (4; c); T (1; f); T (1; y); T (8; f)]
ResNet18_7,8,0.2936531,36.61463134562520,,,1,axe_xx_0,14,[V f; U (2; f); U (14; y); T (64; c); Hoist_vars [c]; T (3; w); T (3; h);  T (14; x); T (2; c); T (2; f); T (1; y); T (4; f)]
ResNet18_7,16,0.25737050000000000,20.88817482967160,0.1837913,29.250568443664100,1,axe_xx_0,14,[V f; U (2; f); U (14; y); T (64; c); Hoist_vars [c]; T (3; w); T (3; h);  T (14; x); T (2; c); T (1; f); T (1; y); T (8; f)]
ResNet18_7,32,0.3579539,7.509346873996900,0.24588240000000,10.932055324008600,1,axe_xx_0,14,[V f; U (2; f); U (14; y); T (64; c); Hoist_vars [c]; T (3; w); T (3; h);  T (14; x); T (2; c); T (2; f); T (1; y); T (4; f)]
ResNet18_8,1,4.1022665,83.87168410438470,,,1,axe_xx_0,28,[V f; U (1; f); U (14; y); U (3; h); T (64; c); Hoist_vars [c]; T (3; w);  T (28; x); T (2; c); T (16; f); T (2; y); T (1; f)]
ResNet18_8,8,0.5860524,73.38592931280550,,,1,axe_out_channels_0;axe_yy_0;axe_xx_0;axe_out_channels_1,18,[V f; U (2; f); U (14; y); T (64; c); Hoist_vars [c]; T (3; h); T (4; x);  T (3; w); T (2; c); T (8; f); T (7; x); T (2; y); T (1; f)]
ResNet18_8,16,0.30890390000000000,69.61388315265690,0.30653360000000000,70.15217907596430,1,axe_out_channels_0;axe_yy_0;axe_xx_0;axe_out_channels_1,18,[V f; U (2; f); U (14; y); T (64; c); Hoist_vars [c]; T (3; h); T (4; x);  T (3; w); T (2; c); T (8; f); T (7; x); T (2; y); T (1; f)]
ResNet18_8,32,0.2067423,52.00677365009480,0.28553260000000,37.655945415689800,1,axe_out_channels_0;axe_yy_0;axe_xx_0;axe_out_channels_1,15,[V f; U (2; f); U (14; y); T (64; c); Hoist_vars [c]; T (3; h); T (4; x);  T (3; w); T (2; c); T (4; f); T (7; x); T (2; y); T (2; f)]
ResNet18_9,1,2.3821816,72.21615682028610,,,1,axe_xx_0,14,[V f; U (2; f); U (14; y); T (64; c); Hoist_vars [c]; T (3; w); T (3; h);  T (14; x); T (4; c); T (4; f); T (1; y); T (2; f)]
ResNet18_9,8,0.35362840000000000,60.80959560940240,,,1,axe_out_channels_0;axe_yy_0;axe_out_channels_1,18,[V f; U (1; f); U (14; y); U (3; h); T (64; c); Hoist_vars [c]; T (3; w);  T (14; x); T (4; c); T (16; f); T (1; y); T (1; f)]
ResNet18_9,16,0.1945619,55.26261822073080,0.28257240000000000,38.050425306930200,1,axe_out_channels_0;axe_yy_0;axe_out_channels_1,18,[V f; U (1; f); U (14; y); U (3; h); T (64; c); Hoist_vars [c]; T (3; w);  T (14; x); T (4; c); T (16; f); T (1; y); T (1; f)]
ResNet18_9,32,0.20761400000000000,25.894207519724100,0.26585250000000,20.221739498406100,1,axe_out_channels_0;axe_yy_0;axe_out_channels_1,18,[V f; U (1; f); U (14; y); U (3; h); T (64; c); Hoist_vars [c]; T (3; w);  T (14; x); T (4; c); T (16; f); T (1; y); T (1; f)]
Yolo9000_0,1,9.2929974,40.943640300291400,,,1,axe_yy_0;axe_xx_0;axe_xx_1;axe_yy_1,71,[V f; U (2; f); U (8; y); T (3; c); Hoist_vars [c]; T (1; x); T (1; c);  T (3; w); T (3; h); T (4; y); T (16; x); T (34; x); T (17; y)]
Yolo9000_0,8,1.4820999000000000,32.0903758627491,,,1,axe_yy_0;axe_xx_0;axe_xx_1;axe_yy_1,310,[V f; U (2; f); U (8; y); T (3; c); Hoist_vars [c]; T (1; x); T (1; c);  T (3; w); T (3; h); T (34; y); T (272; x); T (2; x); T (2; y)]
Yolo9000_0,16,0.9610475000000000,24.744428791055,5.6757559,4.189850981535590,1,axe_yy_0;axe_xx_0;axe_xx_1;axe_yy_1,161,[V f; U (2; f); U (8; y); T (3; c); Hoist_vars [c]; T (1; x); T (1; c);  T (3; w); T (3; h); T (17; y); T (136; x); T (4; x); T (4; y)]
Yolo9000_0,32,0.4885841,24.33621092926630,5.22002640000000,2.277820992301060,1,axe_yy_0;axe_xx_0;axe_xx_1;axe_yy_1,566,[V f; U (2; f); U (8; y); T (3; c); Hoist_vars [c]; T (1; x); T (1; c);  T (3; w); T (3; h); T (17; y); T (1; x); T (544; x); T (4; y)]
Yolo9000_12,1,24.388102500000000,83.20759799051310,,,2,axe_out_channels1_0;axe_out_channels1_1;axe_xx1_0;axe_yy1_0;axe_out_channels1_2,10,[V f; U (4; f); ULambda y; U (3; w); T (128; c); Hoist_vars [c]; T (17; x);  T (3; h); T (2; c); T (4; f);  Lambda_apply y [((Iter 1); (Arg 4)); ((Iter 5); (Arg 6))]; T (2; x);  T (1; f); T (2; f)]
Yolo9000_12,8,3.180562,79.75302118664200,,,2,axe_out_channels1_0;axe_out_channels1_1;axe_xx1_0;axe_yy1_0;axe_out_channels1_2,10,[V f; U (4; f); ULambda y; U (3; w); T (128; c); Hoist_vars [c]; T (17; x);  T (3; h); T (2; c); T (4; f);  Lambda_apply y [((Iter 1); (Arg 4)); ((Iter 5); (Arg 6))]; T (2; x);  T (1; f); T (2; f)]
Yolo9000_12,16,1.6577630000000000,76.50654181913480,1.6987644,74.65997891509520,2,axe_out_channels1_0;axe_out_channels1_1;axe_xx1_0;axe_yy1_0;axe_out_channels1_2,13,[V f; U (4; f); ULambda y; U (3; w); T (128; c); Hoist_vars [c]; T (17; x);  T (3; h); T (2; c); T (1; f);  Lambda_apply y [((Iter 1); (Arg 4)); ((Iter 5); (Arg 6))]; T (2; x);  T (8; f); T (1; f)]
Yolo9000_12,32,1.0118159000000000,62.674303836159500,1.57940600000000,40.151080306683100,2,axe_yy1_0;axe_out_channels1_0;axe_yy1_1,35,[V f; U (1; f); ULambda y; U (3; h); T (32; c); Hoist_vars [c]; T (3; w);  T (34; x); T (8; c); T (1; y); T (32; f);  Lambda_apply y [((Iter 2); (Arg 11)); ((Iter 1); (Arg 12))]]
Yolo9000_13,1,2.9429137,76.61626218228810,,,1,axe_yy_0;axe_xx_0,2,[V f; U (2; f); ULambda y; T (512; c); Hoist_vars [c]; T (17; x); T (1; c);  T (2; x); Lambda_apply y [((Iter 1); (Arg 10)); ((Iter 2); (Arg 12))];  T (8; f); T (1; x); T (1; y)]
Yolo9000_13,8,0.4740902,59.44940636271530,,,2,axe_yy1_0;axe_xx1_0;axe_out_channels1_0;axe_yy1_1;axe_xx1_1,29,[V f; U (2; f); ULambda y; T (256; c); Hoist_vars [c]; T (1; x); T (2; c);  T (17; x); T (1; y); T (8; f); T (2; x);  Lambda_apply y [((Iter 1); (Arg 10)); ((Iter 2); (Arg 12))]]
Yolo9000_13,16,0.2710189,51.99707649979570,,,2,axe_yy1_0;axe_xx1_0;axe_out_channels1_0;axe_yy1_1;axe_xx1_1,29,[V f; U (2; f); ULambda y; T (256; c); Hoist_vars [c]; T (1; x); T (2; c);  T (17; x); T (1; y); T (8; f); T (2; x);  Lambda_apply y [((Iter 1); (Arg 8)); ((Iter 2); (Arg 13))]]
Yolo9000_13,32,0.1596696,44.12922208169390,0.36470350000000,19.32006475971640,2,axe_yy1_0;axe_xx1_0;axe_out_channels1_0;axe_yy1_1;axe_xx1_1,46,[V f; U (2; f); ULambda y; T (512; c); Hoist_vars [c]; T (1; x); T (1; c);  T (34; x); T (1; y); T (8; f); T (1; x);  Lambda_apply y [((Iter 2); (Arg 10)); ((Iter 1); (Arg 14))]]
Yolo9000_18,1,27.5010378,73.78904910168260,,,2,axe_out_channels1_0;axe_yy1_0,17,[V f; U (4; f); ULambda y; U (3; w); T (16; c); Hoist_vars [c]; T (3; h);  T (17; x); T (2; c);  Lambda_apply y [((Iter 1); (Arg 5)); ((Iter 2); (Arg 6))]; T (16; f);  T (16; c); T (1; c)]
Yolo9000_18,8,3.8646365000000000,65.63603810382390,,,2,axe_out_channels1_0;axe_yy1_0,17,[V f; U (4; f); ULambda y; U (3; w); T (16; c); Hoist_vars [c]; T (3; h);  T (17; x); T (16; c);  Lambda_apply y [((Iter 1); (Arg 5)); ((Iter 2); (Arg 6))]; T (16; f);  T (1; c); T (2; c)]
Yolo9000_18,16,2.3380494,54.245951469508800,,,2,axe_out_channels1_0;axe_yy1_0,19,[V f; U (4; f); ULambda y; U (3; w); T (8; c); Hoist_vars [c]; T (3; h);  T (17; x); T (64; c);  Lambda_apply y [((Iter 3); (Arg 4)); ((Iter 1); (Arg 5))]; T (16; f);  T (1; c); T (1; c)]
Yolo9000_18,32,1.4970859000000000,42.3588634044694,1.75418680000000,36.15057252902440,2,axe_out_channels1_0;axe_yy1_0,33,[V f; U (2; f); ULambda y; T (16; c); Hoist_vars [c]; T (3; w); T (3; h);  T (17; x); T (32; c);  Lambda_apply y [((Iter 1); (Arg 8)); ((Iter 1); (Arg 9))]; T (32; f);  T (1; c); T (1; c)]
Yolo9000_19,1,3.7407690000000000,60.27505243415130,,,1,axe_yy_0,1,[V f; U (2; f); ULambda y; T (256; c); Hoist_vars [c]; T (17; x); T (4; c);  Lambda_apply y [((Iter 1); (Arg 8)); ((Iter 1); (Arg 9))]; T (16; f);  T (1; y)]
Yolo9000_19,8,0.6547661000000000,43.044960562834500,,,2,axe_yy1_0;axe_out_channels1_0;axe_yy1_1,18,[V f; U (2; f); ULambda y; T (128; c); Hoist_vars [c]; T (17; x); T (8; c);  T (1; y); T (16; f);  Lambda_apply y [((Iter 1); (Arg 8)); ((Iter 1); (Arg 9))]]
Yolo9000_19,16,0.3936498,35.79880004051950,,,2,axe_yy1_0;axe_out_channels1_0;axe_yy1_1,18,[V f; U (2; f); ULambda y; T (64; c); Hoist_vars [c]; T (17; x); T (16; c);  T (1; y); T (16; f);  Lambda_apply y [((Iter 1); (Arg 8)); ((Iter 1); (Arg 9))]]
Yolo9000_19,32,0.4095434,17.204758367721800,0.32139080000000,21.92376147075540,2,axe_yy1_0;axe_out_channels1_0;axe_yy1_1,18,[V f; U (2; f); ULambda y; T (64; c); Hoist_vars [c]; T (17; x); T (16; c);  T (1; y); T (16; f);  Lambda_apply y [((Iter 1); (Arg 8)); ((Iter 1); (Arg 9))]]
Yolo9000_2,1,24.0941266,84.22282584716840,,,1,axe_xx_0;axe_yy_0;axe_yy_1;axe_xx_1,94,[V f; U (4; f); U (4; y); U (3; w); T (32; c); Hoist_vars [c]; T (2; x);  T (3; h); T (1; c); T (8; x); T (1; y); T (68; y); T (17; x)]
Yolo9000_2,8,3.1050037,81.69376048454580,,,1,axe_xx_0;axe_yy_0;axe_yy_1;axe_xx_1,57,[V f; U (4; f); U (4; y); U (3; w); T (32; c); Hoist_vars [c]; T (4; x);  T (3; h); T (1; c); T (4; x); T (2; y); T (34; y); T (17; x)]
Yolo9000_2,16,1.5705642,80.75423741717420,3.3474537,37.88841479292580,1,axe_xx_0;axe_yy_0;axe_yy_1;axe_xx_1,94,[V f; U (4; f); U (4; y); U (3; w); T (32; c); Hoist_vars [c]; T (2; x);  T (3; h); T (1; c); T (8; x); T (68; y); T (1; y); T (17; x)]
Yolo9000_2,32,0.8417197,75.33963758108210,2.50091070000000,25.35670591631170,1,axe_xx_0;axe_yy_0;axe_yy_1;axe_xx_1,57,[V f; U (4; f); U (4; y); U (3; w); T (32; c); Hoist_vars [c]; T (4; x);  T (3; h); T (1; c); T (4; x); T (2; y); T (34; y); T (17; x)]
Yolo9000_23,32,7.613449900000000,51.098423293530300,16.69299480000000,23.305302036893100,1,axe_out_channels_0,589,[V f; U (3; f); ULambda y; T (32; c); Hoist_vars [c]; T (17; x); T (2; c);  Lambda_apply y [((Iter 1); (Arg 8)); ((Iter 1); (Arg 9))]; T (1; f);  T (1; y); T (16; c); T (589; f)]
Yolo9000_4,1,24.3226618,83.4314700117003,,,1,axe_yy_0;axe_out_channels_0,10,[V f; U (1; f); ULambda y; U (3; h); T (64; c); Hoist_vars [c]; T (3; w);  T (136; x); Lambda_apply y [((Iter 1); (Arg 12)); ((Iter 4); (Arg 14))];  T (1; c); T (8; f); T (2; y)]
Yolo9000_4,8,3.3093032,76.65040440278440,,,1,axe_yy_0;axe_out_channels_0,12,[V f; U (1; f); ULambda y; U (3; h); T (64; c); Hoist_vars [c]; T (3; w);  T (136; x); Lambda_apply y [((Iter 2); (Arg 11)); ((Iter 1); (Arg 12))];  T (1; c); T (8; f); T (4; y)]
Yolo9000_4,16,1.7139806,73.99717026302060,2.5126392000000000,50.47669171352350,1,axe_yy_0;axe_out_channels_0,12,[V f; U (1; f); ULambda y; U (3; h); T (64; c); Hoist_vars [c]; T (3; w);  T (136; x); Lambda_apply y [((Iter 1); (Arg 10)); ((Iter 2); (Arg 12))];  T (1; c); T (8; f); T (4; y)]
Yolo9000_4,32,0.9709446000000000,65.31253909116660,1.75720780000000,36.08842229294520,1,axe_yy_0;axe_out_channels_0,12,[V f; U (1; f); ULambda y; U (3; h); T (64; c); Hoist_vars [c]; T (3; w);  T (136; x); Lambda_apply y [((Iter 1); (Arg 10)); ((Iter 2); (Arg 12))];  T (1; c); T (8; f); T (4; y)]
Yolo9000_5,1,3.5522274000000000,63.47427183829720,,,1,axe_yy_0;axe_xx_0;axe_out_channels_0;axe_yy_1,88,[V f; U (2; f); U (8; y); T (128; c); Hoist_vars [c]; T (2; x); T (1; y);  T (2; f); T (68; x); T (17; y)]
Yolo9000_5,8,0.4949896,56.9393396394206,,,1,axe_yy_0;axe_xx_0,72,[V f; U (2; f); ULambda y; T (128; c); Hoist_vars [c]; T (2; x);  Lambda_apply y [((Iter 1); (Arg 8)); ((Iter 2); (Arg 13))]; T (2; f);  T (68; x); T (4; y)]
Yolo9000_5,16,0.1906504,73.91639606415970,0.9695128000000000,14.53533205151130,1,axe_yy_0;axe_xx_0,138,[V f; U (2; f); ULambda y; T (128; c); Hoist_vars [c]; T (1; x);  Lambda_apply y [((Iter 1); (Arg 8)); ((Iter 5); (Arg 12))]; T (2; f);  T (136; x); T (2; y)]
Yolo9000_5,32,0.1089199,64.69061427797160,0.88031100000000,8.004097686039640,1,axe_yy_0;axe_xx_0,140,[V f; U (2; f); ULambda y; T (128; c); Hoist_vars [c]; T (1; x);  Lambda_apply y [((Iter 1); (Arg 8)); ((Iter 2); (Arg 13))]; T (2; f);  T (136; x); T (4; y)]
Yolo9000_8,1,26.2832521,77.20792772715630,,,1,axe_yy_0;axe_xx_0,5,[V f; U (1; f); ULambda y; U (3; h); T (64; c); Hoist_vars [c]; T (17; x);  T (3; w); T (2; c);  Lambda_apply y [((Iter 2); (Arg 13)); ((Iter 3); (Arg 14))]; T (16; f);  T (4; x); T (1; y)]
Yolo9000_8,8,3.7850393,67.0163262430138,,,1,axe_out_channels_0;axe_out_channels_1;axe_xx_0;axe_yy_0;axe_out_channels_2,23,[V f; U (4; f); U (4; y); U (3; w); T (128; c); Hoist_vars [c]; T (68; x);  T (3; h); T (1; c); T (2; f); T (17; y); T (1; x); T (2; f); T (1; f)]
Yolo9000_8,16,2.0010730000000000,63.3808533150536,1.9026043000000000,66.66110987224950,1,axe_out_channels_0;axe_out_channels_1;axe_xx_0;axe_yy_0;axe_out_channels_2,25,[V f; U (4; f); U (4; y); U (3; w); T (128; c); Hoist_vars [c]; T (34; x);  T (3; h); T (1; c); T (1; f); T (17; y); T (2; x); T (1; f); T (4; f)]
Yolo9000_8,32,1.2839588000000000,49.390102815493100,1.39403330000000,45.49020252447140,1,axe_out_channels_0;axe_out_channels_1;axe_xx_0;axe_yy_0;axe_out_channels_2,24,[V f; U (4; f); U (4; y); U (3; w); T (128; c); Hoist_vars [c]; T (34; x);  T (3; h); T (1; c); T (2; f); T (17; y); T (2; x); T (1; f); T (2; f)]
Yolo9000_9,1,2.9337324,76.85603759192480,,,1,axe_yy_0,2,[V f; U (4; f); ULambda y; T (256; c); Hoist_vars [c]; T (68; x); T (1; c);  T (2; f); T (1; x);  Lambda_apply y [((Iter 1); (Arg 6)); ((Iter 4); (Arg 7))]; T (1; x);  T (2; y)]
Yolo9000_9,8,0.5059459000000000,55.70631356510830,,,2,axe_yy1_0;axe_xx1_0;axe_yy1_1;axe_xx1_1;axe_out_channels1_0,26,[V f; U (2; f); ULambda y; T (256; c); Hoist_vars [c]; T (4; x); T (1; c);  T (4; f); T (1; x); T (2; y); T (17; x);  Lambda_apply y [((Iter 2); (Arg 10)); ((Iter 1); (Arg 14))]]
Yolo9000_9,16,0.31174920000000000,45.20361391846550,0.5522096000000000,25.519640506413600,2,axe_yy1_0;axe_xx1_0;axe_yy1_1;axe_xx1_1;axe_out_channels1_0,26,[V f; U (2; f); ULambda y; T (256; c); Hoist_vars [c]; T (4; x); T (1; c);  T (4; f); T (17; x); T (1; y); T (1; x);  Lambda_apply y [((Iter 3); (Arg 8)); ((Iter 4); (Arg 11))]]
Yolo9000_9,32,0.19694850000000000,35.77633360038400,0.43044950000000,16.369156516839300,2,axe_yy1_0;axe_xx1_0;axe_yy1_1;axe_xx1_1;axe_out_channels1_0,24,[V f; U (2; f); ULambda y; T (256; c); Hoist_vars [c]; T (4; x); T (1; c);  T (4; f); T (1; x); T (1; y); T (17; x);  Lambda_apply y [((Iter 1); (Arg 8)); ((Iter 5); (Arg 12))]]
