NameConv,Time(ms),std
Yolo9000_00,35.83537915666667,0.04735373638610828
Yolo9000_05,8.17637726,0.014434660769726177
Yolo9000_23,1792.9365183933337,4.3394618350420116
Yolo9000_13,4.405521436666667,0.011851954025039552
MobilNet_09,13.785570653333332,0.011971351721526217
MobilNet_08,3.7103169033333336,0.0077653793525487656
Yolo9000_19,4.671711356666667,0.011429186315676942
Yolo9000_18,42.61427574333332,0.05085446042817907
ResNet18_12,3.2003753133333332,0.004234314442771827
ResNet18_11,0.19986358666666668,0.0004521604418296285
ResNet18_10,3.925684863333333,0.00992587664333806
MobilNet_01,3.1084979066666665,0.0036652558582752634
Yolo9000_12,35.27961753333334,0.24210720299550703
MobilNet_03,11.386843476666666,0.10114748749822651
MobilNet_02,3.18279307,0.008469667622567477
MobilNet_05,12.1712072,0.06582095559669428
MobilNet_04,3.071904546666667,0.01019735921827251
MobilNet_07,12.268331363333333,0.019497366954708144
MobilNet_06,3.522470366666667,0.03898027777428835
Yolo9000_09,5.42529942,0.019080889796100804
Yolo9000_08,33.4996072,0.17781971870224697
ResNet18_09,3.2754952966666666,0.00542805188555899
ResNet18_08,5.570368256666666,0.02382260584908584
ResNet18_07,1.6488172366666665,0.007329310750214586
ResNet18_06,2.8684383333333328,0.011338003083298614
ResNet18_05,0.34361899333333334,0.0009738329113810631
ResNet18_04,1.5122761166666667,0.001035887756387489
ResNet18_03,0.7509098933333334,0.001417271828141825
ResNet18_02,2.887238286666667,0.008692047799687064
ResNet18_01,3.6759051566666665,0.006010388532200818
Yolo9000_04,35.21842598333333,0.037089564751007116
Yolo9000_02,38.218160983333334,0.029849119995241074
