bench,perf,stdev
MobilNet_1,0.7296524000000001,0.014258121308222897
MobilNet_2,0.8271605,0.024301727104261546
MobilNet_3,2.2536766,0.0061240626580727035
MobilNet_4,0.648492,0.00236863184138015
MobilNet_5,2.0602986000000003,0.0037429356980851797
MobilNet_6,0.7034422,0.006418621375342209
MobilNet_7,2.0247067000000003,0.007723510575509106
MobilNet_8,0.7527229,0.008315741451608506
MobilNet_9,2.5268349,0.01370180356339997
ResNet18_1,0.9133268999999998,0.01261585555124978
ResNet18_2,0.6836784999999999,0.008560124406222138
ResNet18_3,0.24558,0.003968720977846648
ResNet18_4,0.43337820000000005,0.007214730317898242
ResNet18_5,0.19616440000000002,0.003009374725752847
ResNet18_6,0.6188271,0.0025419635894323757
ResNet18_7,0.3537019,0.007274160521324772
ResNet18_8,1.0608318,0.005003774950974531
ResNet18_9,0.5721636,0.0065023835352892
ResNet18_10,0.7443146,0.007261726849723836
ResNet18_11,0.1172967,0.0026126295202343556
ResNet18_12,0.5366467000000001,0.08670734320465598
Yolo9000_0,6.8886783000000005,0.15809018547718262
Yolo9000_2,6.677751499999999,0.2516787976684768
Yolo9000_4,6.1186031,0.3102249537179272
Yolo9000_5,2.2701795999999996,0.025893078770976616
Yolo9000_8,5.1656378,0.6263254240026985
Yolo9000_9,1.278818,0.01156803788894207
Yolo9000_12,5.6340739,0.3312664024800735
Yolo9000_13,0.9171365999999999,0.011071822092140034
Yolo9000_18,5.631614000000001,0.36083995055121054
Yolo9000_19,1.0223860999999999,0.01011316125106289
Yolo9000_23,35.403895399999996,0.030084939598411155
