perf, CACHE_MISS_L1, CACHE_MISS_L2
44.91,15369805,11571274
30.40,34163784,28511563
26.55,42763016,15484687
10.30,170840685,57012899
11.93,170757279,8162152
31.92,32660783,1537412
31.24,46540784,1865858
13.13,135379233,1635836
56.53,7004844,1949721
27.16,24515126,1781390
35.61,4472708,2562956
32.75,5938758,4694178
25.53,5864538,3850819
44.77,15615838,7763142
42.18,7173812,9482622
35.75,16306420,2142097
35.34,14556502,6062203
42.70,7748630,1345948
44.83,6784527,2331285
30.90,16848842,1652800
21.24,44316549,4206935
45.77,14839910,7173801
30.29,8092391,10353552
44.58,6923806,3293570
41.37,14183392,12887117
43.50,7260380,4601534
24.68,6115040,8218122
44.30,11302669,1785240
30.78,20717433,2958806
29.65,11285520,14400359
31.09,35703593,20851511
61.38,25389429,3029091
21.92,77309678,44920455
46.59,18054503,8777073
21.92,76729351,44377594
64.77,6084423,2180428
66.14,7110527,2440759
49.14,36189126,2630264
63.90,29392262,4101397
48.03,37482658,10034341
65.16,6355626,2181056
60.56,7577595,1828786
37.53,34745122,1996036
42.14,18254020,19692261
45.23,13483091,2868876
56.13,11842341,5139678
55.47,15916437,5276246
43.70,11846065,5734873
54.10,12235072,7886862
57.01,16275259,2040497
53.70,23703336,9504428
60.17,24168236,1887997
41.54,22675243,15730614
40.70,23036905,16289633
48.80,22405561,15015517
31.47,34922804,18556081
54.22,16948766,8292159
26.26,65499114,5258720
30.94,19432344,28278924
38.02,13134763,1900586
31.09,10148247,6657767
48.22,7745244,3458344
38.75,6501903,2602511
31.11,7573417,2163871
43.17,9118714,2421576
34.60,12941773,8649681
42.11,24165118,4001453
51.81,8008092,4570033
42.17,24180073,3753337
52.29,5314716,2555199
42.29,24192049,3667965
52.42,6744710,3301336
42.18,24216923,3071322
52.61,6655550,1990590
44.33,13853043,6601996
42.13,24214343,3114566
43.50,25461819,2998859
53.50,7971218,2123706
46.81,13892529,2927227
52.24,6402227,2722605
41.73,23256794,13643621
52.68,10630407,3516022
53.75,7116346,1770782
39.69,22730984,6815202
50.53,8053830,6674857
40.45,16198344,20605196
48.10,13008807,1652920
51.02,8021894,2871224
42.38,23625644,2231447
41.24,23557529,4605142
37.75,22831596,8718770
37.39,22866877,12335981
44.96,8905236,10866372
46.70,9223305,4905231
46.39,13209511,3876619
40.51,18854237,5825970
40.31,23681678,5571898
29.70,36447429,3307283
38.78,23045801,1779957
39.72,22465368,7672967
16.84,47649631,59342787
31.09,12446136,9982732
42.90,13378383,4957972
39.93,7090117,4265277
33.62,12586406,6650705
44.50,12564392,3364815
43.80,12020517,4546116
42.11,12143860,8013075
35.80,8112147,7100649
34.64,8979893,10712787
41.68,13655869,5163658
26.42,59547718,1497489
31.74,9295710,9720610
48.13,7745706,2758678
39.63,7338560,4460884
45.66,7617110,3092680
40.33,6490506,3558243
36.10,12478558,7481384
31.46,11423015,9144405
39.68,23536170,3955471
52.29,4959896,2462641
39.74,23549100,3794095
39.71,23549289,3912821
38.90,23863270,3122440
27.48,21667244,17590444
52.24,4950725,2507672
24.45,42968775,32269069
23.93,43002141,35245779
39.16,10928125,8135469
39.61,23551425,3915485
28.00,22018559,13885730
30.61,22109787,10637455
46.58,5724608,3306850
39.84,11276776,5429743
39.70,11303355,5376957
39.14,23528217,4441666
38.96,23878239,2428951
38.17,18931677,6651973
48.32,5977982,1323457
38.25,10940970,7486734
49.03,5970438,1137263
32.46,14872631,14323842
30.99,25100005,27558350
51.76,10335661,4329440
29.86,29530760,37085990
32.31,17015374,15460146
34.11,22402447,9111026
49.55,25070813,13230451
32.35,17167560,7883477
37.19,21393582,1846694
30.30,22127501,24928448
29.44,22028594,14796509
31.91,11309460,12774862
49.54,12844195,3171685
46.74,14891248,5533810
48.71,13619604,3524941
48.48,13616435,3554301
41.54,6728807,2094902
48.27,12434359,4389055
47.91,13211920,2263558
45.00,8889044,1304585
40.69,7169627,6184661
29.94,12085921,13862346
47.02,13212168,3220377
44.68,13313745,7444873
35.30,7144081,5494799
34.52,11384484,9014220
7.93,171049814,146845675
7.93,171092527,146886047
43.45,18533329,2480222
53.54,10941385,1565826
12.69,147515318,6014038
18.32,60902633,2443682
31.10,11667743,4152262
10.39,172345491,60564403
49.54,14099840,6313983
52.16,12289894,2705541
51.58,13092692,3490313
21.23,92245848,12185499
22.57,89445303,3417521
56.53,11999445,4514920
54.87,9803730,3480433
32.37,11610229,5154787
17.08,85508533,36509877
16.28,85626530,41875981
19.10,93304051,14524029
10.99,171393531,29318287
12.02,158373529,17552659
39.96,12921481,3088513
40.86,13040166,1915904
30.46,22213415,1316105
42.98,8006991,1576848
25.79,11372836,5510876
7.51,171788540,167196543
18.87,42746247,41983463
19.15,42927849,42408981
13.98,91114616,53731701
35.56,21838693,5672141
20.03,83059750,3431155
30.06,10898932,2608314
42.61,8626951,1462916
39.18,5884508,3769776
28.17,5247890,3288391
21.33,10030071,7281465
27.28,10094663,3724284
47.30,11188667,6256691
47.05,11241910,6597852
9.34,171367662,84151692
33.18,21683679,12265579
37.21,21038513,3725351
27.80,27899830,3138369
24.53,17713012,1621376
31.15,14618781,1449246
19.54,10616276,1694691
48.08,11533072,2338944
15.08,87885693,45641706
27.69,49572950,7626347
21.90,46206121,9953174
40.43,18296716,3029345
30.51,11479232,4404083
31.92,13313659,1759364
20.85,6833819,2341099
22.89,11580673,7793675
48.78,11042572,6806389
43.62,17552889,17930009
17.40,85643114,36613888
50.43,12184215,2804639
11.51,170048591,29724275
16.20,66369831,8832875
50.66,9280488,2046893
16.16,77476539,1333600
19.95,14806394,3244429
34.55,7942220,3361269
36.93,8849833,1606561
54.37,7300362,3321753
41.04,6322146,3136981
26.68,11239741,2109407
26.23,10576420,3626320
35.83,33391210,13967066
39.56,33929921,5178983
19.38,91296934,12330488
41.04,30554465,3113084
42.58,13147224,5273443
24.45,40724715,1822486
31.50,27349622,1575236
23.65,11989864,3244555
17.69,5423884,3704045
19.25,42875198,41683266
33.16,28388211,16836023
10.64,171592950,35408798
10.82,175282804,33382967
16.81,89082247,18652430
18.74,83084360,15667856
31.09,6261518,2903433
20.52,5346998,3257857
25.50,16776319,1909229
40.08,8337878,6190394
30.38,21478637,19916321
18.98,42867335,40180674
13.61,85638222,78871793
27.02,43233820,7204585
26.45,53363400,9224038
20.39,92691818,4116479
11.49,161076574,30143597
51.14,11727129,2228472
55.77,13274841,5312866
50.81,11293013,3344223
31.21,23001047,2084043
24.79,12980445,2895092
49.62,6074488,2777501
19.47,29259601,1592071
48.55,12254169,11239202
50.69,10864483,2062032
48.20,9911891,4182821
13.10,85471381,85232873
7.47,172425815,171166653
34.11,21625155,11416358
9.69,174569146,78054809
50.14,18586765,3575547
25.51,57762757,9952063
57.64,16465815,4519694
11.87,171205964,2393171
11.86,171896948,2537441
14.38,80219478,37212427
16.04,72545407,1497433
30.97,22379694,1403574
42.65,9074680,6933586
29.77,21507834,21536123
18.62,42884698,42870955
22.17,43015652,22789653
10.85,172649016,43262128
39.01,13792958,2777399
14.25,94422491,17933785
44.32,5168462,3306039
16.57,6000623,3977447
18.26,23493724,1693581
18.43,6445929,3097977
38.59,14869814,2264818
9.40,172577819,82800196
52.53,13523664,9422011
35.96,34284992,6838552
36.43,30386380,5192251
11.94,174700644,5049362
55.41,14461643,3632717
29.57,30377217,12146400
56.84,7082102,1852572
15.77,75951325,1727286
24.22,15319383,3869166
52.55,7117804,2797104
38.92,6624076,2262391
46.39,7134046,4197819
41.28,9560837,6870786
22.05,8916830,7387504
43.60,11061091,10737917
12.45,85531373,85910633
54.29,15430613,4228067
37.94,14553534,2822648
50.09,9543804,2984075
28.85,26597880,4886473
22.00,26051658,1531425
53.84,8669573,2078961
22.13,43069121,21461618
35.99,21871929,5631039
11.76,172457117,8348366
23.85,25255566,2106125
18.48,14698796,1764214
36.57,14413686,2244293
18.20,58262697,60587337
14.78,91894045,50582320
25.23,60335483,9113919
15.23,94020175,2722779
50.35,10353587,3963567
40.17,13065358,4138228
40.21,11593016,2653608
40.92,13685566,1909515
22.66,12113534,1505117
17.80,5544642,3268978
31.93,8440428,5973838
6.79,173458288,174182465
6.76,171239096,170908444
51.43,10295609,5637341
20.96,42997805,25063363
13.71,85579218,47658791
8.70,171006952,91763253
13.82,85531548,46845691
48.11,11553918,3949735
15.87,87158279,21713913
11.41,170647721,6113510
38.19,15033163,1451417
19.42,29224714,26613734
17.40,30162251,2060015
17.55,12136666,3594497
15.89,5260621,3332002
29.08,29238615,31402875
7.53,172474674,172687010
7.45,172222936,172951683
20.57,60892226,35654383
13.22,91094271,57224414
16.08,90982640,22218955
25.65,43254130,3590341
37.56,7531997,5994868
18.29,4846007,3562620
21.26,7827570,5460802
17.86,60640143,65619945
51.36,14179764,7790417
9.11,174414119,63534590
15.22,90494354,28982384
16.62,88810408,5204372
11.51,126313476,55219828
53.24,11204388,6311398
39.15,16029438,1733014
19.92,12395034,1557516
47.44,15467128,19987445
17.46,61595901,67666605
12.37,88859964,63652433
45.07,17184637,10707829
24.70,43275354,4544716
48.44,9711246,2620252
20.89,29031174,5037569
14.73,64072838,51263869
11.55,133278689,61994709
52.24,17962380,3982997
12.90,129829726,24087404
49.56,17070513,3604494
49.34,9312953,2872563
23.01,65044166,8816641
49.32,9149931,2761509
50.83,16869562,6391357
41.46,15851647,5691738
20.97,48506920,11529514
48.67,5824848,3692217
25.17,11365439,5128805
39.78,17134346,16751672
46.77,10472432,6399229
41.02,16376298,7795689
41.98,12100683,9824116
41.58,11977823,9908761
45.53,11966481,3199554
45.66,11171657,3091812
46.33,9424383,2713618
23.02,64272829,8698087
13.55,107588160,26989720
49.16,7722367,2867260
48.80,8100537,3771156
45.77,8247684,2431197
40.65,15263733,2402724
45.91,8186210,5321036
36.67,11574229,2562787
46.51,11189836,4571499
40.82,8346223,7531805
35.25,11690172,2743581
32.47,17986313,29523156
40.74,20571651,7527596
43.81,6482956,6378558
16.41,64176385,35550959
40.29,8283727,5689077
24.27,32244412,19474671
35.72,16217445,4581492
13.11,108061050,29127762
21.23,64378560,13665003
39.61,6078690,1539882
25.77,19455445,2581939
40.48,17724957,6084527
31.94,21790855,20786919
13.64,69579230,65320758
9.68,127999667,112686545
34.81,16224739,8808185
16.01,64148627,35041723
11.23,134318560,68707406
39.16,17101428,4592299
13.36,112805171,26199670
49.88,15691154,5382173
46.45,16083279,12737067
34.55,11281465,1677143
29.89,13523104,3006691
48.96,9776818,4136388
45.61,15797348,5455813
48.17,15589490,6699469
47.13,15694448,8822863
41.82,16934716,2955023
36.28,17080412,5880601
22.46,18322006,5758863
48.57,16655259,8743391
40.27,11038349,13853364
9.15,132428898,130997174
38.10,20689282,6185204
30.48,38961336,7026888
49.35,7817342,2279188
20.30,67595799,19996229
38.74,17171152,5666000
48.43,15617062,7529481
48.16,15635500,8725122
37.11,10834094,1532975
49.51,9941040,4055822
35.97,10563470,2919528
41.12,10854356,3543475
37.63,14975219,24417936
35.35,13509588,21682310
46.54,16291257,7707914
46.33,7856665,3399826
46.01,8657170,2915265
18.06,57534189,36006419
27.54,33142017,1306972
46.43,9173823,4608446
42.78,32396783,13638941
20.80,74635204,53226172
44.15,32844177,11155779
65.03,11821619,4659119
26.56,71326885,22666958
49.17,21545022,9182875
50.22,6716153,2503824
57.69,16197619,3171499
52.51,13874975,5556730
47.58,18483302,4781536
31.08,65343637,12985718
41.30,19507802,2311760
55.03,12454922,9536305
47.36,7618860,1565586
41.97,18555925,9809708
20.17,74157300,54288479
59.37,13432049,4058956
46.15,29540774,7922947
49.84,12691954,3799819
38.38,12402182,2944718
55.95,23298884,6648583
14.77,68867530,67307792
14.85,67694595,64768640
57.54,15321593,5522380
50.44,12840762,2970886
53.91,15070336,6625269
35.26,44618465,1821324
30.86,13336599,9394161
54.21,21855558,9777546
55.95,7042891,2700136
44.83,22544247,4288684
35.42,9053225,2693588
45.46,10744569,6162747
18.32,65607862,27362893
28.88,32539270,8684715
47.63,12913912,4232685
36.76,12309743,2776276
47.81,8111368,3970878
41.82,13509426,11250434
33.93,26735971,20748904
49.91,19016079,7904833
18.84,67610695,32707637
52.15,17399748,5403255
40.37,11413519,3633722
39.54,18175221,2659281
46.00,20119491,3040331
41.60,13333046,10952098
43.17,9430515,3850951
24.75,32418935,19571640
24.47,33395226,22257250
16.42,62953011,39149784
19.64,64249135,17993908
46.09,14047281,4547577
29.75,11420809,5886149
22.62,32729855,27755687
35.94,19889688,4364062
25.97,37944684,2914402
35.08,12475910,4610764
36.58,11621327,2888677
29.42,9046066,2012432
25.06,38942125,32972653
34.02,29583545,24664359
20.20,72019906,32253481
29.10,39075433,15958484
24.46,70868817,10442598
46.67,8488828,2283653
31.34,28482935,2608021
38.16,18135550,2737833
45.35,31248562,9029067
31.62,73149438,4247598
31.82,64402717,8579885
58.68,10154365,2370180
55.62,9857638,4447546
45.16,8733522,3217470
53.15,13627555,2445316
52.94,17008227,1648320
25.70,73419711,21187026
61.94,12577250,4921305
25.50,73515158,21837901
63.64,21913312,5151243
47.80,32774490,8688852
51.61,20639904,2771193
59.95,12459659,2865436
45.66,21042536,10053504
43.83,17417016,2260687
41.53,17300847,2362314
46.61,14480111,16410894
52.05,8516952,3686804
20.06,65503565,34073052
52.96,8792043,2811948
39.35,32158478,6593118
56.99,15175134,3808953
44.93,8954208,4507492
40.18,8664641,2011250
51.09,16929739,13116865
38.45,17016960,6172904
51.24,19495454,2941049
28.52,39095734,34756618
40.07,21135135,16720601
63.20,18885436,3297088
44.02,17248312,9073706
36.32,39137434,13281481
68.01,19524639,5175269
42.90,34734685,9194023
63.68,19643045,7619736
53.38,12909080,4375658
53.21,12084352,1603722
51.28,9992568,4394274
37.59,9175786,2313960
50.98,20532707,8933909
26.63,33062289,27160173
17.14,65383901,53270900
26.55,33136671,28445284
54.41,16340843,4913843
48.89,9448039,3678467
38.04,27778072,3806898
28.46,52257733,2702516
55.53,14521320,6319790
38.74,16341512,4915588
54.35,14919350,3850545
34.73,17576261,1833650
46.91,8611932,4317141
37.05,17261381,3867222
30.23,32605020,6900682
39.44,15830990,2431396
43.42,8822981,2495057
50.04,13883794,3361254
45.81,7371186,1651906
44.47,7438920,3140286
41.10,8166380,2604388
34.73,12565154,2911909
48.84,12926992,1926333
29.87,33832630,24983611
63.57,6619980,2637011
23.78,67307014,23315541
55.11,10191213,2049715
62.23,20825181,4718408
61.41,7643258,3106101
52.59,7970310,4529756
42.67,9031421,2391921
49.44,17302312,12761264
36.77,17004910,13034150
53.63,7643682,3328180
41.58,17963881,4247915
40.76,18060743,3948719
55.05,15538001,4424088
43.56,16344803,3532759
31.48,28746116,3065135
44.85,12948396,2493795
37.92,19685331,3259806
54.52,14572898,6137305
50.98,8030013,2043674
38.11,18512498,3695938
35.61,15007430,2221009
45.41,8649072,2478259
34.17,8431412,4265656
44.24,13928205,8445286
55.99,14308747,2827354
34.39,18329551,3538196
19.58,65334823,55188376
35.96,32894910,12223210
54.43,16370459,3569546
51.17,10059979,1725673
51.01,9221261,2228377
43.13,28840723,5296881
54.31,7483099,2428123
47.06,8986340,1496907
46.58,12298760,1680821
31.78,16895627,1693504
28.62,13942438,8321415
41.86,16915947,7274078
55.62,16390949,3418061
42.78,17631847,6221674
23.76,65637072,23576393
47.71,7465831,1628270
38.38,10549524,1500299
45.43,7781267,3096321
22.40,65461901,22306448
45.17,17987872,2926847
45.11,17962631,2917905
30.36,52604347,3246825
34.78,21176229,2396984
39.02,7640052,2650796
33.30,26125879,1650431
45.54,10330014,3138817
35.23,14337061,3391689
34.41,21685186,15774078
50.18,16950868,7012186
39.20,19972355,4126230
40.96,9523664,8148432
24.96,32858328,30312825
42.93,13945732,5801142
49.54,15530428,4456367
25.50,65726052,3220940
34.43,30013446,3066117
48.07,12791871,5382096
39.74,11579075,3337034
45.08,10063688,4059811
28.03,33668126,8864454
22.52,40666335,32494172
30.08,15718166,5336153
36.12,10987898,7215854
34.41,16765421,13864547
34.50,16769958,13879108
30.38,35225805,16616885
25.16,69027390,9334741
34.35,35847226,7249380
47.37,12570255,6053192
44.67,8871734,4096640
38.54,15432784,7393414
46.22,9074788,1893790
28.03,34828505,21501300
31.06,37035919,1722919
39.25,8546863,2874496
35.46,11109013,2880373
48.41,14366140,4874233
27.89,14100840,9382014
31.48,14669664,4734327
34.48,11188427,11700891
23.67,32078690,21185310
32.63,17077824,5495890
19.14,62167932,19358228
22.98,61823565,3825059
23.00,58874978,4140556
43.63,12787636,5131232
33.75,16658300,3710208
33.58,16661525,4763133
24.41,42681002,2857781
27.23,18849758,4230288
27.24,6688611,4318624
35.92,11103991,6633052
16.38,68349990,65225981
16.37,64501175,61782892
32.61,29256364,40503234
51.67,6240886,4009829
33.13,36435306,13716336
39.57,16576684,6975821
38.19,29306344,15452456
21.46,69977374,28665304
32.95,36406996,20933931
39.05,31767015,2105058
41.66,6693306,3588619
33.86,10790770,3209678
44.93,12011558,1644477
27.84,7546854,4743246
43.30,14359543,8393162
48.17,13159532,10810005
15.63,66710214,65254711
29.01,36074025,18197369
50.55,12389954,5468725
39.99,27727378,4154234
34.36,36068263,6198356
51.22,13238507,4892578
40.11,16530533,2849540
46.77,8629478,3971949
50.02,11989506,5696721
41.69,15827020,3473988
30.16,27742472,3376169
47.53,8900769,3806531
48.94,11753852,8296300
29.07,25836624,1705101
41.57,14249215,15027935
29.95,32816020,13169837
19.49,63740259,27963810
23.53,63864184,7045334
40.19,16545620,2509123
24.92,65760717,8351322
47.04,8326046,3781125
29.62,28832130,3748511
48.01,12204090,5497438
45.09,9783737,3981318
40.40,13686137,6926197
43.93,14376631,2714335
32.84,16373560,15080012
23.77,63857138,8018268
20.48,63987843,26956208
39.66,17266826,3174362
40.39,16494651,3477556
45.09,9393217,1985600
24.33,42180892,29445892
30.00,35808515,1502540
43.83,8843698,4658619
31.90,9946255,2307796
49.14,11786157,1980378
39.87,8665926,4067858
48.60,15113285,5735227
42.65,12046697,7033548
21.99,69104242,27271896
42.72,17767208,2776207
26.74,64758878,5469117
50.22,12745824,6032428
47.46,14227452,3185498
45.71,12429459,9563737
40.24,18881269,1356705
34.07,16248665,1799911
30.03,20017034,1553266
42.84,9597518,5571613
45.08,14365475,6281423
33.94,12334666,8190424
47.82,15031051,6026907
16.14,66830772,66029795
31.27,35195161,10262165
29.99,32976872,13509169
30.52,32401109,12609627
37.85,16606596,5908078
47.47,12521852,2065829
45.11,11641977,3002381
34.69,12240573,3818241
32.78,15483859,2565813
31.77,32082916,12033935
37.18,25863724,11415192
36.57,32329687,3073993
53.95,13311032,4379653
38.96,16829316,6893995
42.65,14242094,2221221
36.56,6196418,3686836
29.19,7155946,4426853
32.79,16171680,15924868
14.65,66802732,66350051
31.48,27283158,39285197
54.93,13770691,4820615
23.84,67139631,8578460
47.36,14032008,4447944
34.31,35133086,7238672
35.69,34740313,3614612
41.20,13157664,4573882
41.29,13714338,4284577
51.72,11532380,5094305
47.93,8621625,2219943
29.01,28204638,1621700
37.65,8836367,1805651
14.34,65214650,65602748
31.18,25518205,30184677
23.59,33065227,33044292
48.02,14575025,8284756
35.07,25176481,10595528
34.82,25036424,11969600
47.85,14435628,8307833
27.59,33171687,16526029
29.28,33368336,10290540
36.79,25823635,4927521
42.91,9181495,3350447
29.85,32696219,13031673
42.52,6818848,2515170
28.39,10625761,3448522
45.20,11406146,4094278
13.66,61985354,62786127
20.05,62096896,13832071
38.87,8729305,3025248
39.61,9275445,2457657
33.38,13097447,9730063
38.07,11385244,6836410
29.52,16119035,16087311
29.99,25362643,20808728
24.86,32800805,19563576
40.53,13937173,6939433
40.37,13773634,8210326
34.53,23615236,6688667
21.42,62333896,14669547
19.36,62348621,28388363
41.87,9163783,3211021
37.89,7590268,2512900
40.68,9632596,8214861
41.39,11875889,4982459
27.66,15500617,1708651
38.54,10202890,6253606
40.12,12341887,2939280
39.73,10236860,2621228
32.87,9581813,7174971
32.45,10034072,6903844
29.90,26972219,34614030
46.44,12529952,7106581
27.63,32111087,16247563
32.18,34150607,3981492
37.67,25443045,4042363
47.52,13193538,5255951
25.94,31298126,8520202
28.34,11982206,3579329
29.24,10353409,7261430
38.31,11131447,4060707
40.81,13630093,14169654
49.36,14479943,6488802
44.44,13121404,2689422
38.26,24946144,4654513
31.64,33516573,4297151
49.44,12640008,5440981
28.92,10983277,3304599
32.80,13736086,3901336
36.46,5600357,4026749
34.03,6461761,2426041
23.63,31817278,31663836
18.83,62859107,26951870
27.51,33462617,17345538
46.44,13375245,8034656
47.70,13630933,3877291
24.68,65195878,3828303
24.09,65822978,8273605
44.34,12692142,2153689
43.71,13092547,2882035
33.40,34433963,2816985
33.98,11206388,7564843
22.74,33069669,32656610
22.51,31825860,31392758
37.68,13053167,6872719
16.71,63163907,38001537
38.22,13628732,5218620
29.73,32948158,4054240
27.34,15642292,5148538
24.49,32599064,6524225
38.42,9758681,8026125
40.42,12995008,2514393
39.55,11133870,11257077
18.42,65935447,31701553
46.01,13203964,8541521
34.57,25112389,11817679
48.13,14644939,5690874
36.24,25508300,6915177
37.38,16578020,4007482
32.21,32415111,7770368
27.24,32614047,2117445
47.75,9100343,2917286
38.37,8981594,3150384
33.80,6906878,2430807
34.28,8156017,2336282
35.17,12224893,3952091
46.05,11924696,5134893
28.39,31825701,5592287
29.31,32759137,4257630
41.04,10908883,13086254
28.06,6599631,3290725
42.58,7252399,3955641
27.91,5292744,3880455
42.67,14452393,3197569
37.75,13199038,13848259
13.79,64570006,65550640
38.74,13760845,9914314
47.29,10958312,4413319
28.29,32479276,4241463
22.19,62211106,7303901
24.39,41748098,3016905
45.14,10489999,3980697
29.17,22012882,3914980
35.45,12540799,4427534
44.14,9436853,1907004
26.74,18774830,1423424
33.35,14349506,2182685
26.58,32088835,14465744
40.78,8782340,3800987
35.53,16515019,3314259
46.29,11989525,3859886
41.49,9114329,3091992
30.02,32702920,1653302
23.37,37642057,20384336
36.18,10976444,2668752
42.44,6736033,1641847
34.40,12741661,2005852
21.39,31955460,31462678
42.42,9499307,4835863
21.41,31924737,31664215
13.97,61993256,63465835
45.68,10914292,5373015
38.69,8944242,3813142
19.58,62078732,14598999
42.23,9228114,3336697
30.91,9506618,5372593
32.52,9443350,6188710
34.21,19325663,2140996
37.99,8643335,4836216
16.67,62014885,35430906
22.89,62117264,3576695
35.76,16876356,3541917
34.78,12476633,3470653
36.00,17484481,1712325
40.56,6763199,1931143
27.42,6411864,4068981
27.46,6434769,2426298
21.76,31779310,32036552
21.76,31835706,31357931
25.05,32020907,17488688
38.29,8650580,5172235
17.26,61987495,31790361
39.36,9351714,3296297
39.54,9388105,2491091
42.16,9208832,4636646
34.76,12212250,3571844
31.16,9845998,6826131
13.86,61569525,62494486
23.32,32046486,20322962
23.34,32018107,18786389
35.75,13909829,9654515
37.15,9016316,2618494
19.00,61548012,15667927
41.44,10250326,3458923
40.78,9650726,4829818
28.10,12702937,4955090
31.48,6022349,3745412
42.08,9901923,3944304
31.24,8417185,5507244
35.70,10766830,6546090
33.57,16916466,3521746
32.75,16733206,7082158
41.18,9411580,2182935
26.71,15725513,1992411
42.62,9178767,4592966
27.57,13495696,3963017
26.06,6424573,2822272
29.98,9234674,4359602
41.56,10021057,6329265
20.93,31792375,31756773
40.55,10793037,6833328
38.54,10160272,4299418
15.28,61233439,45320429
21.84,61345031,4457976
25.05,32355459,12653267
42.18,10058174,3468186
21.78,48079784,15301505
40.80,8291897,6574485
35.31,11051322,4068734
28.17,8586643,1716082
27.56,18654755,1555500
27.12,7044993,1927682
39.34,7969684,3250193
43.84,27396279,4833342
45.88,12990506,9001090
43.71,27408471,4879781
53.41,30573660,4799110
43.89,27309440,3274732
51.24,10762978,2042335
40.82,27363965,3661291
50.46,15004885,2552766
54.45,10124212,1666863
43.51,27572285,3795501
41.97,27445488,7606688
46.12,20606271,4552388
34.57,26697637,23629897
42.33,25572853,3199394
40.48,12655452,9083773
41.72,24268037,3479793
42.50,23494202,4395624
36.46,25289650,9614806
55.37,6464457,2052715
54.26,7331229,1821243
53.27,7831375,2878231
40.52,18261980,1635344
41.89,9225869,2676700
42.22,9336053,4869372
41.98,23696763,2600303
36.09,22988753,18370103
38.39,15766592,13909537
48.19,11665665,1619017
36.30,23235119,18441417
25.38,24233529,22542353
19.41,47882681,44820343
46.66,17775472,4580532
33.42,12342740,11097591
33.58,12191340,11256935
45.34,6375401,2639139
35.45,12484037,7854039
22.35,47853711,27631766
40.91,6301649,3756971
28.08,24308602,14235221
42.53,6782107,2379660
48.17,17035470,3606306
45.57,6863251,2323650
47.84,16771396,3952932
47.35,17510254,3546422
45.02,11556235,2914503
43.27,6964564,3259391
39.47,8987208,1661490
46.13,9503096,2104871
45.47,12122027,3400351
46.62,10831049,2680320
46.90,11070490,1862326
39.36,10715372,1512107
37.19,16569395,23098347
46.29,16692779,2558062
38.46,12647674,10402660
29.15,24959418,20295248
20.97,50601751,43092402
52.01,6123739,3363913
47.42,6739045,4435879
39.26,12902475,8715173
31.56,27254362,15281349
44.99,22548800,2801948
49.31,6976342,2598762
31.08,41332672,6444871
51.84,6898475,3443651
27.37,42657741,23382941
52.82,8058417,1425984
50.13,10189677,3146614
48.41,12995558,2726947
46.37,14743866,2568114
38.66,13645824,2533319
47.46,15737526,1960177
47.05,25562361,4982314
47.83,26149699,3065185
42.38,28241304,2589938
39.79,17912323,12426970
31.18,24888441,19298527
48.76,24860692,7294364
42.11,12831605,6660471
24.74,49607042,27717668
44.03,13605017,5168696
44.11,11666483,1460997
41.47,13221474,2495848
38.01,14091235,8570493
46.69,12205725,1797007
41.08,14098232,5780043
39.93,16930826,1673956
37.77,21536501,12938591
39.48,21614914,7448969
19.19,49441442,46118050
51.72,17048056,3819084
46.24,6088259,3212686
26.06,24067252,20919925
26.16,24100022,21182547
51.44,17049111,3476666
42.93,6505382,3736850
50.01,17293092,3348786
34.37,21126317,6977066
50.30,16893268,5911497
47.43,11391402,3662428
42.46,13296409,3119248
49.22,17358317,3820124
35.76,17164448,1357915
49.07,10822368,1921413
46.29,12593735,3456226
48.02,10794510,3852578
47.46,17035862,4727542
21.07,48608859,40848681
44.47,6279562,5249079
45.09,6593560,3875853
38.39,12678345,7143039
43.79,19151620,4146491
46.72,6967525,3214335
42.36,19044244,6879569
46.97,7499297,1336885
35.96,28940302,1599059
41.38,10785431,3956289
44.79,22842940,10947527
42.65,19996217,4486503
44.50,10700258,4103146
38.81,12533239,4358033
38.69,13060429,4336681
30.78,18816490,35535645
34.20,26146093,2601098
40.61,19625224,11839074
40.21,6670269,4150387
43.36,13923766,5121235
43.26,13936423,5104178
44.27,13204268,3772511
20.44,46540928,30603142
28.69,23880141,9143336
23.97,46591161,17360168
43.90,13193836,3472967
30.39,23888982,3660724
26.75,46137478,5328707
43.30,12689007,4776944
39.32,6396497,1228260
39.26,6519788,2061572
41.58,12667787,8147806
42.70,13625404,4364520
42.12,12668091,7400655
37.75,7858328,1685546
39.48,12480683,6049129
37.55,13029108,15051050
41.37,12979432,5051743
38.73,13188832,4853051
51.60,17817330,3970988
48.84,17050328,3694245
28.48,24416341,14751466
48.40,17053035,3833039
46.92,17340623,3400706
48.39,16601933,3649229
47.23,17360480,2616064
42.03,9450957,3302180
42.33,9167307,1621835
41.58,10262499,2376999
36.03,11201447,2471571
48.34,19777048,4346284
44.74,16531472,7693673
34.52,17155387,4678567
45.01,6196263,3112091
43.96,17080397,3576954
19.96,47734742,41328516
44.70,11313721,6686549
42.52,17859033,3480166
44.20,6906782,2909664
33.67,21685383,3671833
43.14,16710106,3703268
43.14,16732291,4093087
34.47,16571862,3750477
40.22,9017875,1630434
42.26,17614039,3589088
39.58,16377130,13408376
34.25,17206635,4576100
42.05,15259983,4767538
29.22,23515214,11299600
42.66,7188815,3188318
35.42,12548676,5768291
40.73,6760954,3578333
38.21,13039692,1872701
33.52,11132722,1461591
33.20,13228473,2518230
34.39,16423070,1421782
37.29,14083811,15095212
41.81,14941294,3351394
38.44,15854879,4589723
40.24,14423656,6170878
41.73,6527753,3454437
36.90,6176458,5882539
18.56,46875693,45612634
47.35,15206500,4676600
49.60,14482565,3494852
40.96,11485413,7490667
49.61,14473045,3250925
48.97,14277016,3622908
47.43,14917694,4132537
32.45,16922467,3417955
32.16,27362004,4138726
41.90,9158984,1670068
34.76,24869908,5056637
36.36,19660702,5781392
32.03,12192613,12725317
49.07,14488780,3622804
34.35,17184548,14170844
43.10,6550608,3063856
33.50,14227363,15025805
31.88,29591626,2258567
31.90,31394687,3341673
31.74,30304852,4204909
47.08,14777211,3256653
46.84,14905820,3562570
33.22,21176077,2564711
44.39,9200925,1643391
37.19,13843752,22485748
41.52,15212595,3023426
44.70,13997252,5226669
17.53,46479394,49983938
44.44,13969051,5178872
17.40,46715963,53238094
40.79,6816915,3191610
40.43,6678293,3699395
20.63,46513971,31292583
43.70,14949361,3258238
41.62,7446316,2281949
41.46,7340229,3078330
38.85,6772021,3239771
42.77,8810981,1948171
40.01,8512050,3209866
32.34,10218615,3022741
40.40,12338251,7533578
40.92,7620352,2736070
33.23,8832259,2793166
70.89,6029265,1441424
35.80,21722477,1209351
65.94,17662881,7461950
35.51,21995452,5165469
43.94,15388806,2326172
36.21,11354936,2132061
53.88,12215390,6128853
61.48,22076535,4029842
58.74,12888874,7118975
61.40,20238738,8802960
29.62,67046517,3729094
43.66,29674832,7562806
44.82,16637912,1286594
51.55,9940730,4785808
37.30,6349361,1921100
49.29,9651127,2016985
40.72,16502831,7645097
49.15,18267424,4818959
51.77,21246788,9386599
36.49,14639657,11375588
37.53,14662374,11649671
52.73,13271806,11254443
19.77,65675983,26588012
20.57,65665844,23428838
48.98,16188739,4622791
25.30,63528474,4685208
22.73,66556535,15330966
34.81,32105338,3703626
53.36,14083015,6000842
53.45,15759541,4172343
43.27,9433442,1751157
44.67,13782198,3185915
20.37,57346338,40349562
27.72,66556355,8834601
32.54,11047988,3737663
41.19,14769438,6738921
47.55,18432252,2678750
56.25,16220464,3969050
58.22,18828721,8764763
22.52,58912898,19910389
37.60,14142757,1836273
56.88,13682571,2257387
43.69,14530341,2635463
42.84,16338501,2702177
44.86,17078343,9957052
36.43,15019787,8984055
43.62,20072589,7450028
33.73,27336794,32200508
42.22,14867475,18218198
50.34,14968499,3590045
51.61,14424968,4355295
35.61,21988123,17399214
20.30,57839676,25455236
50.40,7279505,1789955
31.61,30081870,4041659
30.14,30107117,6811308
29.41,22579252,8368593
47.04,10410336,1859156
47.31,14693268,4065642
41.83,11456504,2236471
27.78,8940340,2919426
38.25,21601087,10444464
41.24,15683096,1977658
27.88,22297725,17449302
27.16,22115255,18228499
45.55,9154403,5170072
44.67,9926487,6181465
46.00,23317360,4833687
27.71,49516108,15657775
33.68,27780512,5453466
38.17,22408021,3988107
34.25,12221213,1616734
36.28,22459912,7762231
42.89,13035849,2717847
32.36,13617369,2404506
45.59,25673115,8599949
20.00,46433921,43242805
22.44,47737287,28336423
52.97,18030993,5561600
48.83,8832451,3980053
52.57,11294364,2286972
32.71,32068303,3887860
41.43,12011676,5373939
45.35,9452345,6644105
36.35,16649646,24072753
48.75,16290240,2925106
48.75,19356958,4822873
49.72,9919743,5712316
43.77,5720613,4646385
44.88,5897758,3761208
38.03,11998333,4017241
30.80,22577467,7647731
27.94,43387755,12963275
43.01,20337970,3421267
39.36,16711928,10191834
42.99,19551931,4622503
33.11,21092225,5721372
52.02,20595473,6389085
34.03,13621869,2432466
40.09,19397044,10825124
35.77,17957604,2862051
32.65,16668100,3078770
40.83,18069484,2661049
40.92,18853060,4298104
40.49,18920406,6077331
31.48,20227400,3796210
43.92,7302456,4255109
38.79,10402867,14300188
34.30,11736669,9255279
20.57,43203710,33527596
41.43,6449142,2577202
47.31,14253637,3324697
46.52,14273783,3662105
44.99,7986659,2234533
38.68,8264308,2662380
46.21,13857458,3896093
44.92,12891257,2067078
42.48,13286401,13095982
44.36,10156897,3884758
43.75,9955760,5051367
38.98,8358261,2782339
46.13,13264332,3447491
35.76,14070096,5001192
25.17,22015285,20800914
22.53,43514755,27889133
43.11,17292646,3919865
41.15,10217624,9067296
22.66,43295591,27051801
46.61,9018813,2759644
48.20,18307973,5275342
41.42,17763242,4050471
38.11,11909795,3874940
46.54,19286470,5480341
46.38,12309637,2051763
46.44,12897683,2113254
47.40,19198211,4076094
29.07,31457588,16471055
38.85,15072345,3206778
41.39,17607369,3297732
44.39,9741008,3079072
31.18,24307994,5882612
45.72,18344888,15043915
36.75,17112730,16444835
45.82,19138525,2343397
45.84,19694676,6507419
34.75,18394718,4458526
22.24,48453627,29713826
52.05,6599247,1501712
39.40,11769155,4155281
35.52,15235234,2846879
32.93,27099790,2173194
47.48,16879986,6500868
49.09,16183049,5093939
40.40,11260750,2643321
36.10,11299802,7499960
30.95,22634609,5944877
49.86,18190085,6726399
48.11,12310219,1754049
32.24,15298985,8799983
39.47,17015636,12023349
43.05,17571486,2161307
38.94,10193009,2057533
37.66,16951783,16637735
33.79,12275402,4646023
48.00,18580913,15120705
39.77,26539684,3843975
44.71,15428997,4702809
39.94,5956135,6133635
36.88,17607721,8079709
42.60,6650872,2999555
45.07,15065527,2157237
42.87,10797676,2804278
42.45,7251725,1578480
42.71,6981580,1470768
43.75,15189983,4129743
42.98,14696413,6079484
36.38,15229694,4728735
35.89,20708962,4775399
25.87,21868560,19470196
42.11,17315248,3795238
46.44,6868602,1872455
36.71,11944201,4001200
44.43,12496436,4212528
37.90,11578706,4141190
47.21,18315262,6533492
46.19,12909647,3863882
38.40,16982647,10305103
35.20,17035557,16990989
37.58,16593051,1707499
34.41,17514819,4979406
34.99,17911892,8223446
31.43,20525489,4717232
42.46,21085957,6229821
51.24,15362144,4791356
53.78,14728405,3429902
27.95,22332361,15151805
51.40,16780353,5790775
27.59,22152309,15016298
44.93,6424632,2297198
30.86,22638333,7584230
25.36,47377482,14791564
51.60,14543458,3895322
48.23,7393581,2265228
51.16,15013076,2558442
45.33,6477070,2094262
30.40,30462903,4696977
34.08,13843276,2508448
33.37,22679517,4574047
47.72,13297265,3397573
41.63,12479946,1670251
41.08,13634019,2894095
49.20,14953413,12404375
48.24,13575251,2267710
51.31,16018789,4016990
48.20,17999537,2580514
42.75,19060565,8164104
48.14,16829381,3167418
42.37,6086781,5698579
52.32,14731566,3476076
24.68,43835153,15645902
47.43,11822674,3856175
50.58,14614940,3967412
30.96,21881215,9740745
31.44,21974515,9633903
26.69,41160594,12194910
45.20,6981749,3266156
49.28,15160233,4397750
30.89,21297246,3155100
49.48,16169390,5289875
42.11,8742172,6920936
18.74,42918503,44270465
51.25,13459383,3252202
51.11,13480271,3469203
20.72,46766549,33751631
44.38,11606864,7792141
45.29,7591502,3768558
41.32,6401212,4682790
27.15,22133642,14956055
49.26,14232758,3570012
23.60,43729741,17071936
50.05,13449646,3589552
42.91,6849247,3472763
29.96,28782182,2245207
33.91,10987510,1723598
46.78,13943644,4551545
33.78,8542378,2995317
46.11,12229886,1886950
35.05,21809366,1757345
44.06,14710818,8516720
38.22,6562207,5933769
47.60,12236221,3760001
38.95,6511940,4184910
45.29,13002765,3941796
39.84,6705623,2521826
40.01,6840108,2769012
27.16,22972161,9537276
45.43,13044077,3050225
35.26,12577974,5474814
28.20,23190828,10438341
46.39,12354620,7160118
30.20,13324493,5375481
41.95,11897812,10759288
29.44,21377907,3153681
37.55,11706316,11187027
38.16,7213465,7588301
48.20,12206071,3059551
41.02,12234805,9446570
44.95,14382125,5496971
20.07,45501584,33889984
20.12,43201471,31639835
22.15,45832700,20695155
36.41,18927359,3306362
42.22,12309935,4635403
45.92,13691980,3441664
45.69,13646006,3178540
45.10,13637789,4016693
30.35,16452064,3115638
44.56,11919678,7351699
42.20,13122929,4718925
28.30,19628783,6756541
43.48,12075817,22764585
44.64,11570281,2021032
