perf, CACHE_MISS_L1, CACHE_MISS_L2
49.50,916303,187089
61.38,382596,232735
30.68,2565034,250965
59.13,381285,278320
34.04,1034287,263033
57.56,696166,197281
33.20,3602449,227423
58.33,647646,263569
38.90,553748,522005
28.02,551557,162099
61.22,428273,217378
33.94,522350,204602
28.79,630881,205343
34.78,1021761,184217
28.63,1101192,226217
27.88,635496,295389
27.75,1019827,641753
59.65,398051,199723
27.98,582404,85389
54.72,1076463,144562
51.21,693647,689969
30.22,2282983,1572449
57.18,924403,260365
11.92,13706009,283086
54.67,390169,277263
41.63,624824,246451
34.85,685388,154529
58.20,642684,253280
51.37,615166,199897
34.96,744866,200246
30.57,630637,388488
22.43,2658289,238257
55.92,498320,285666
58.30,696634,183120
58.53,491740,229001
59.70,451827,180216
29.22,442854,236619
58.69,701657,161933
39.65,864073,196393
23.86,825766,205384
18.32,1276323,178559
49.85,425756,425971
43.69,923171,304284
29.83,2728736,630815
29.87,2756394,658030
26.73,2823633,655674
43.87,914308,301647
12.51,10884861,2377608
31.49,2777020,740460
19.33,5472443,1386875
12.71,10889639,2648261
19.29,5464342,1396961
19.21,5445088,1402523
39.86,985233,361928
26.01,2809127,1268554
26.11,2822225,1220787
50.03,399799,155677
47.48,371933,162411
34.67,797827,483858
28.58,1149108,681508
50.08,530225,170488
47.48,415954,206843
28.64,1149766,600922
41.75,507058,216824
23.11,2011721,1225243
23.14,2041031,1097340
28.98,1019650,542788
41.74,468338,191489
35.37,736261,270862
35.30,719615,327422
23.96,1799670,725982
23.69,1801153,876473
23.97,1801253,689357
50.28,526169,166683
42.01,438471,151029
42.04,641861,126699
35.94,617705,106397
24.67,1670564,312268
42.29,438618,90799
24.94,1668111,122479
24.81,1667655,158849
24.67,1669213,272959
35.14,782422,148890
25.07,1633009,150347
25.28,1626509,93888
51.25,1270328,146699
50.07,1268319,80561
50.37,1038644,158333
48.76,1286416,88503
34.19,1712720,175745
22.51,2422983,102278
36.28,2034175,79543
34.42,1747488,180843
22.66,2423096,120806
46.27,430714,452621
43.99,571098,565154
11.92,10847191,2995422
44.23,564931,542048
33.50,1572515,571086
17.36,5430161,1636233
11.99,10849214,3269540
17.56,5431898,1474776
17.29,5431422,1638853
11.94,10845912,3034209
24.53,2719539,955784
34.87,1380285,410890
18.57,5432306,1507194
18.84,5445884,1449220
18.57,5446306,1566439
26.33,3567750,1026229
18.68,5440030,1464191
18.86,5445822,1405109
18.63,5448599,1441952
12.35,10858945,2782163
12.60,10872622,2604687
47.79,397637,141049
29.42,1727163,663016
46.72,504862,162610
25.09,2989189,1291358
36.68,1491193,468055
25.10,2994395,1316991
18.18,5627704,2304073
18.72,5538055,2403200
25.14,2992479,1244378
25.04,2977257,1252167
18.64,5520983,2271262
31.53,1479604,520450
28.36,1363261,634223
22.50,2369212,934629
38.62,900294,322477
38.68,902401,342994
27.72,1321060,711278
27.86,1320276,640684
22.12,2366525,1038539
31.93,750454,280188
44.54,491162,214523
31.35,1299368,430120
28.36,1108634,510534
28.18,1092725,469361
38.47,803088,227459
31.55,747666,327018
31.55,764902,285248
23.04,1947489,591175
47.20,382647,110125
44.79,326500,105362
23.77,1658180,214945
47.05,378918,139046
44.59,325321,101924
44.75,332677,105511
23.73,1657444,189157
23.57,1655524,238567
44.38,663518,103254
24.37,1602502,157746
24.34,1581745,94241
24.43,1618181,170335
21.91,2270131,151137
32.71,1589963,168167
34.94,1247541,111722
22.02,2275389,170301
59.09,782194,144140
66.72,614940,283848
63.78,768102,338364
62.73,609328,418021
66.60,676763,372371
61.31,1197456,480969
59.76,623658,235083
52.62,398781,319182
53.75,1077880,219233
54.27,1019507,169742
48.15,1945006,187877
66.68,2208175,389611
67.50,393020,196898
66.78,2203164,186897
67.61,2109355,223230
62.06,2339536,378041
63.64,599369,356958
60.15,1079412,446144
59.64,1036255,173753
66.46,1943589,176515
63.92,1120942,288160
67.59,2003285,193945
49.94,1350140,398409
27.44,5519327,940944
54.94,330373,235336
53.94,335295,174789
37.07,2467740,284362
53.67,368464,227569
50.17,481802,231298
56.78,1209628,256034
43.77,1156919,1130734
51.42,1364847,240024
49.85,489811,250663
44.25,1163009,388859
56.65,1214894,187405
49.97,842154,205527
51.60,1238101,405766
48.32,1164825,206413
53.36,801435,145666
42.42,1950291,214673
36.53,2724320,556612
21.99,5429658,1450127
44.52,721364,292957
52.13,566997,164157
43.49,2295578,294381
45.23,884907,235409
45.99,393111,217672
49.69,1219295,412239
42.03,1209269,623968
51.86,824110,222647
58.81,549623,238147
32.76,577497,209530
53.32,527625,218392
44.40,406465,169487
51.09,569430,175426
34.53,759705,293213
52.62,1014898,233600
52.92,481760,182050
35.96,361788,162128
52.43,1036243,147426
50.35,1041929,157040
44.71,1069425,518557
16.59,5166690,2792317
35.86,1000972,273931
29.55,663861,276447
43.32,678757,228602
43.46,753786,241755
31.80,847599,243922
43.38,685496,209639
40.06,351977,201067
43.62,654775,181326
29.43,664574,177252
28.72,933197,183786
27.38,453661,148779
44.06,713331,126339
26.32,475028,246372
38.74,674688,109650
54.05,292633,114297
44.13,1084856,423612
37.94,2138171,819929
27.20,4242320,1681739
27.49,4241975,1605356
44.28,1086478,416866
43.91,1085698,431355
55.96,287405,144389
54.04,322783,146732
53.44,586785,280506
45.30,1119030,542133
45.23,1115114,545707
39.98,2167176,1109054
28.29,4271393,1957320
40.95,1953602,184888
35.15,2528605,2004815
47.98,754131,649277
44.69,1366413,1281780
34.89,2531175,2051407
55.91,773039,312528
56.05,775219,310482
55.68,781749,379954
42.39,1683772,942742
47.34,1015795,967679
41.50,1684594,936312
36.36,1670395,1880515
53.19,1994833,189960
49.86,1073013,390156
55.37,603814,204036
47.88,998530,580952
42.51,1666847,631500
55.02,796150,472712
47.25,688315,554482
37.74,1669182,1656329
40.74,1965945,247859
48.80,814911,97396
48.19,814040,206805
48.44,813435,179104
49.49,1038203,139946
54.39,1095491,101914
53.43,1358448,144907
47.68,1749135,89537
55.11,1251588,147269
47.36,1732116,183540
54.26,1085079,132442
41.39,1889238,234638
44.45,1467236,427867
34.22,2238287,1617952
52.95,1868552,194936
45.12,2176295,157146
44.96,2332777,216508
42.84,487062,382494
43.29,337801,203786
22.41,3971794,1849512
38.87,707681,432596
49.51,1182812,195580
39.06,534174,284222
34.46,1029756,556220
23.37,3988851,2047876
39.04,534184,284871
23.55,3986040,1995060
34.39,1033055,576428
23.45,3987507,2057636
27.78,2020968,1151303
27.80,2846762,2050344
44.18,399280,145387
42.60,306473,184679
39.82,464840,344063
30.31,1444027,1039624
37.37,1038155,445847
32.08,1077559,611545
36.25,662583,608764
30.77,1077758,1125419
49.70,1159917,169061
40.65,442489,202589
32.18,1026010,487344
40.46,446787,394371
45.31,581246,145481
37.88,667616,157864
27.11,1680232,2730935
38.63,840868,95970
37.20,888145,419228
43.25,1423330,186654
31.68,2481905,87426
31.35,2490198,180641
49.96,1150922,82395
31.21,2509629,227631
38.55,1459537,779940
30.37,2573852,435258
33.03,1960242,831954
40.28,268595,167402
32.56,1000633,557933
26.02,1978127,1105273
36.91,746196,858164
40.39,318662,279147
36.86,744924,864714
42.20,499980,220871
33.80,1268686,767650
40.57,354298,223896
33.81,1264879,778874
22.33,3944571,2202938
34.30,1198662,862263
29.02,1496500,1267137
28.97,1506388,1402589
43.27,1044676,164953
30.91,1129202,641020
38.12,444896,289315
30.01,1992308,896502
36.02,674149,452294
30.94,1113868,718535
39.68,437084,192768
36.55,944509,480688
31.22,1786989,771172
29.98,1766510,855252
39.19,650719,180329
32.34,1003431,281427
31.53,1658107,478691
43.35,546856,152905
40.22,851168,91271
33.71,1668437,86951
31.60,1111164,257528
35.14,839255,758186
43.18,1118255,102822
39.90,1297052,99340
34.54,1617436,166396
44.96,975588,110166
30.58,2370951,236032
29.85,2464618,439916
48.01,1248345,310188
37.34,526423,303182
38.15,1159339,220498
37.81,2262432,204128
53.70,925489,225570
37.60,2261905,208012
52.56,519265,240626
47.56,602342,226385
50.63,767813,192076
50.34,1335145,260653
50.09,597652,217870
39.04,597016,159323
38.27,386563,225248
41.51,1631387,284150
43.35,898485,322122
51.30,1140138,253736
52.79,473245,173228
34.87,1352430,243895
42.90,464561,268692
37.23,1027114,655702
52.86,452140,196562
48.25,492738,190173
39.34,1025924,974080
50.88,374436,204254
50.96,1039006,157516
46.53,1024500,266378
37.97,1026890,510720
26.53,568552,237945
54.36,1172434,242522
27.64,587772,146889
38.34,1108190,185801
55.32,419677,173953
28.79,1861411,657219
27.77,3682066,1441255
28.91,1884271,650534
38.53,946347,337359
38.32,945480,347453
57.67,241935,93035
57.70,326473,117906
46.76,467918,166863
39.57,865940,328402
39.91,1322858,653128
39.35,865040,329415
39.31,865605,330637
30.34,3290427,1294588
48.06,454154,337243
33.08,2329713,2162606
41.36,701453,611317
56.38,425792,129660
53.77,410167,199566
35.58,1014964,638005
47.72,496665,250900
53.95,410384,164475
45.48,1077301,580059
35.45,1013605,694662
40.08,2013760,179436
47.46,506041,198817
47.25,507198,230039
47.27,506215,251613
38.85,1667346,765748
47.51,505823,206974
45.17,1108717,470061
36.14,1030567,422880
35.22,1091654,637591
52.85,645522,151948
42.71,856711,173906
42.76,812630,191075
43.05,812813,143948
36.55,1177278,225839
46.40,626035,107930
42.79,811421,126221
42.87,813784,190955
36.95,1887625,142421
43.14,1012165,163005
43.06,1835643,145718
36.91,1891024,165922
35.08,1429066,82514
40.24,1147475,151704
36.71,1888672,82615
35.54,2075019,90558
36.97,1889050,166614
40.85,1904892,140022
38.10,1859280,138788
38.61,2572175,108770
31.99,2422458,164896
35.91,3061700,92549
35.77,3061537,126605
40.86,1905370,88158
42.30,1726410,124296
35.86,2059794,120210
35.93,2054885,94683
31.94,2454701,94250
31.98,2423899,85909
36.13,3059367,107554
33.51,2486266,96726
35.94,3063318,69817
52.91,1244754,264720
51.69,433764,175720
51.55,451309,197082
48.23,260199,128092
47.74,260985,123208
36.14,1510755,1019358
28.53,1852012,827620
48.12,261134,126356
23.25,3662661,1548624
43.55,486593,220065
23.22,3678360,1593029
23.26,3663203,1588314
53.57,1244748,210904
24.22,3713278,1275250
38.04,973214,325196
37.95,974946,328046
37.94,974370,327353
29.12,1889752,649771
23.91,3712806,1270678
23.92,3713322,1305632
53.94,1226775,159163
48.94,305514,182602
25.93,2789816,2236615
52.25,480883,162059
52.34,472993,142448
44.99,460770,307532
39.47,763526,570602
26.03,2789246,2202457
45.01,454044,281203
45.09,455499,302740
31.42,1372165,1069692
44.95,455880,313987
31.70,1369600,1023550
31.41,1368461,1047724
31.42,1368964,1068158
39.54,767766,532415
54.25,1224003,157056
33.17,1105388,672650
29.55,1962364,993543
33.30,1111920,610151
29.59,1943452,915246
40.82,664416,255442
33.48,1052192,440023
40.63,662376,316579
40.62,661481,327467
33.58,1051382,491924
33.14,1066058,546141
52.39,634952,127619
31.85,1697519,167678
45.86,490866,99432
41.33,671820,136233
34.18,1036575,179535
31.75,1694990,227212
45.51,751981,106666
32.03,1693662,130612
33.90,1038961,140865
34.29,1130429,99612
31.57,1726750,96696
31.63,1721277,105830
31.21,1716908,169027
41.26,842388,84190
31.67,1713657,85736
47.05,690234,87987
41.36,839897,106741
31.35,1715608,156898
55.90,1152616,74182
53.37,1095186,205899
48.13,1214561,125027
55.63,1151471,97970
54.11,1094161,110130
53.93,1095447,94361
48.18,1216911,86840
43.16,1406928,91570
43.26,1404782,69810
35.56,1770938,88112
35.63,1765316,83047
34.32,2490159,82761
34.47,2491570,93648
45.05,265650,154874
47.57,483106,275707
34.44,946522,470516
40.62,489450,269465
48.44,497812,171521
44.56,282774,116360
41.35,514641,197076
35.25,976010,348960
41.25,514571,190963
23.38,3714209,1491536
29.78,1412154,1184289
25.52,2866957,2312730
36.78,791161,605661
29.79,1413813,1139997
29.74,1420773,1140036
38.04,726760,420334
48.36,547179,129276
28.76,2160318,1215301
41.69,472300,282666
31.06,1212970,601320
28.87,2152822,1147198
48.64,562089,138912
48.55,564814,149550
45.96,347933,138268
45.31,347585,185858
38.09,692091,320368
31.69,1122942,442148
48.39,567462,149284
45.62,347120,149167
42.01,460576,237342
38.11,688673,298733
38.09,689851,246539
31.27,1208136,578614
29.64,1949041,983384
42.47,478633,103591
48.34,636721,107924
48.40,637600,137329
46.53,381303,92398
42.43,472043,159491
31.51,1702776,232786
31.38,1705551,206531
50.03,1111182,131676
50.19,1114445,114304
46.81,543467,105974
38.70,795290,138620
32.81,1076054,100942
46.79,548110,143990
38.88,793164,81808
31.66,1696829,152970
31.83,1697520,85707
32.07,1693916,82702
34.23,1655436,141806
34.17,1658834,141326
34.48,2341106,166405
44.71,1099362,153110
40.83,1274962,161009
56.35,692281,248008
49.26,914915,233277
49.79,328708,253071
22.40,493623,284015
42.91,875080,894990
32.04,1107263,245577
23.15,495647,224010
32.33,363414,187292
60.17,514378,181315
50.18,486852,169517
39.41,883029,258562
31.65,1088609,218474
41.17,359336,203798
26.47,397271,140479
52.71,508791,467635
32.89,1572927,281861
61.36,480652,223120
50.91,925975,202322
20.84,2900338,279188
27.82,497080,208354
51.68,896332,208886
15.32,11300560,236843
54.55,789968,263596
26.78,1789770,231663
20.91,2885503,232782
54.19,779782,282144
50.62,745640,330721
37.37,757629,150695
41.85,762247,202144
26.24,2364345,214845
27.42,496213,225885
55.75,780981,230152
47.62,944354,166732
36.42,763838,257239
42.60,1138440,216571
33.18,1110857,240290
20.87,2886631,217943
56.51,322026,150785
53.97,432219,207512
34.07,468750,129854
56.35,892924,260546
45.44,739921,830870
58.40,641655,222369
60.47,436846,247602
40.84,679553,239570
61.02,480161,231890
26.19,1870733,241538
19.91,4154773,219508
54.22,319809,292448
35.42,411358,194856
54.12,744923,173459
35.37,1090533,248269
20.72,2998636,203243
28.13,770050,222344
19.72,514032,192303
49.95,848292,674667
57.08,996471,146454
35.66,1811185,556671
10.81,14469679,3868906
31.91,1274600,259666
42.70,666192,239649
33.09,399819,206101
59.01,819057,222827
47.20,746266,161610
51.01,925533,199705
22.91,5845412,247189
15.46,11350629,250393
58.97,483430,225221
21.65,2801969,238318
58.70,358115,233247
39.95,748910,721078
35.59,754601,238733
40.75,1596841,217280
42.58,654837,252494
31.65,1846864,253427
21.88,2812746,232023
40.02,753193,568551
54.52,573984,207552
57.76,826666,247779
32.28,1042139,224258
26.09,493544,178374
52.83,755351,204585
36.69,783968,122816
49.20,465682,156644
37.25,1373606,285691
49.40,465618,152911
12.57,10859680,2021486
12.62,10857725,1890931
38.52,1340796,366677
12.74,10416030,2653535
21.38,5273014,1387944
21.30,5279027,1417051
21.41,5276223,1392592
53.87,423920,155276
48.61,784110,255070
41.12,1466539,469990
27.31,2575032,1270013
20.73,4687636,2230923
41.26,1476010,476268
33.99,1525373,664512
27.50,2540037,1276035
20.35,4672076,2129627
49.03,366739,195601
49.72,541158,203536
49.25,364463,163043
29.99,1034872,575058
30.07,1043159,693626
24.94,1815575,1091276
30.17,1051804,613461
24.57,1802965,1166124
24.87,1794072,1045568
36.71,689703,363177
30.06,1041180,632644
30.38,1052545,495809
30.04,1038027,618535
30.14,1041540,690363
24.92,1800295,937117
30.35,964697,447085
49.53,512919,202101
30.40,972550,486410
30.11,963273,536862
43.61,445424,189872
30.37,969373,497659
43.66,735649,236087
37.07,913435,336177
37.33,910935,145095
26.05,1718304,204339
26.35,1725951,243513
31.38,1001759,201446
36.97,884313,212986
26.19,1719666,300761
31.24,997795,177462
31.51,1006493,205240
46.52,645126,111348
40.87,742554,141036
35.46,885540,160173
26.79,1725475,144088
35.60,886352,91267
26.82,1731349,92452
26.71,1730030,94819
26.69,1733514,150582
49.86,1525450,96631
28.72,2693266,149094
35.98,1584478,176725
29.27,2833584,89477
29.12,2793469,103257
39.16,1369998,279780
18.68,5444891,1048026
12.73,10878702,2015551
46.79,790826,209028
28.53,2724732,563922
12.68,10884936,2102369
28.34,3058176,735580
12.53,10869164,2157134
12.68,10887738,2161371
53.63,552235,191263
53.51,583266,193339
40.30,1691246,500032
19.93,5471047,1407522
40.22,1677456,484592
29.89,3049682,900806
12.74,10898426,2689105
54.68,409248,139733
20.13,4866696,2189233
43.08,965115,372230
35.23,1648934,695111
20.24,4964584,2280897
43.18,1326940,454238
35.10,1864889,749199
35.12,1922866,768537
20.06,4975014,2207418
20.39,4880522,2190836
23.92,1836137,1075142
37.92,707116,406828
38.27,877998,422803
24.42,1831808,827533
24.23,1835840,1011780
51.71,343806,168623
38.16,655243,274561
29.56,953413,502231
24.61,1686693,640593
24.59,1693981,680838
45.50,463637,128427
38.81,637847,135926
25.35,1687229,271740
55.20,436579,114227
55.61,502023,119017
45.19,464987,175098
38.87,723267,175666
30.15,973909,261487
30.15,966575,199099
25.52,1686130,198187
44.42,979907,86567
54.53,766702,113577
38.36,831495,99557
30.25,1135903,150119
44.30,687222,101891
38.39,970184,80505
37.30,826537,92260
38.17,834238,154494
30.28,1129924,79750
47.07,1419113,153616
35.31,1834526,149151
51.94,1154458,114757
52.47,1360653,98383
39.67,1470395,92882
24.14,2561539,77447
24.14,2563348,70982
24.05,2563216,159551
30.36,5813231,233035
60.56,340645,195573
59.70,361987,174074
60.01,879673,251129
50.37,865140,266429
59.28,363979,172144
57.63,522292,222079
58.47,841026,241632
50.27,869983,228313
39.20,840379,407832
60.97,608009,298213
52.76,827675,487854
45.12,1555690,178814
60.79,836758,165590
53.88,695624,246212
55.56,1842969,357361
52.17,1846325,284812
57.87,516215,269400
56.68,416405,264224
46.52,726555,279381
56.98,1328869,192559
45.87,920964,234021
57.07,584706,305832
46.64,467036,197233
51.96,730737,168594
46.27,1400023,247797
58.47,1464245,252772
47.50,642465,201811
59.19,1463815,172910
52.33,942806,206580
46.93,1606484,294257
43.23,1631740,135372
46.96,645140,357824
47.42,377885,135762
49.57,628466,293734
36.11,1012028,314515
48.96,695516,275001
49.39,1163074,369756
49.29,544048,249017
51.10,1205226,289687
48.64,577652,237390
34.78,660115,243183
48.78,565929,217551
44.98,566585,258097
33.54,660273,475312
51.56,1074689,208961
50.82,1087187,180956
41.34,1269528,505098
42.61,908722,314858
41.81,491331,234673
40.48,667819,274851
43.44,829391,200065
44.55,771495,214436
33.32,886250,193078
32.33,820043,161810
38.20,1010733,257302
37.61,484961,233390
41.37,676845,347560
35.92,449820,203935
30.54,528322,206742
38.79,751203,465928
44.62,879270,248671
32.20,809072,180192
38.46,387579,187874
44.94,817165,193986
38.29,453217,213668
29.95,816703,410319
42.14,541534,199149
31.05,630877,275523
42.17,781527,273713
32.50,907090,236862
42.46,896797,301926
36.52,2464936,958585
30.74,3202354,223675
49.82,622514,399316
47.22,672464,308091
50.55,1478653,312579
49.31,597792,276853
39.15,749884,423049
46.71,817301,238061
38.26,1751101,253353
41.93,936537,267018
40.02,1024774,225170
34.51,1635889,282744
52.53,1317876,202915
35.81,1311237,1343628
47.94,600187,428891
37.49,771614,190281
51.45,818152,147747
58.29,1459961,272709
66.46,538011,317458
46.94,490329,218033
60.16,674412,310038
38.81,1061274,423073
64.90,1418298,228340
63.39,1553988,316584
43.04,1427082,199882
66.56,1587080,279090
67.25,1536372,328749
58.96,796474,173741
64.01,1421649,157397
57.19,1194717,225001
60.37,502556,224157
38.66,782323,378795
63.78,422056,303866
57.56,799729,199807
47.75,1415014,1123329
54.90,1456068,279419
46.47,1993121,277348
67.92,1496072,280219
68.21,772177,177545
67.61,1448171,235788
66.32,400252,126746
54.20,491652,238295
42.50,1430273,226634
56.44,501074,282381
65.26,764489,242233
57.93,1024400,320086
42.22,2293306,162979
67.33,415875,220528
58.92,590327,181459
53.78,479052,245416
65.12,788231,177045
64.05,1445402,296163
66.64,1403989,205414
66.50,606168,215345
68.06,1510893,180372
54.81,1644640,1043766
60.10,1535238,190298
43.27,1142496,499619
64.57,1589060,288573
41.96,2247478,148301
68.47,935598,157763
42.03,1476435,183967
44.59,702367,285757
51.73,448572,243927
43.18,598188,273231
49.00,386592,369230
37.45,562944,338244
52.74,1105867,260209
38.63,924162,223547
36.54,676686,206035
47.22,613507,214138
47.37,482536,194834
51.48,673434,241114
50.57,565185,225739
47.37,453117,200186
32.33,1058608,660247
32.18,1090386,490186
46.80,1160918,604266
51.84,1214480,199417
42.24,1934039,245642
56.51,580197,300836
54.83,440679,324344
57.60,1412649,356518
48.20,2518819,276031
58.73,1359501,348296
52.47,440457,244950
53.87,410061,224166
45.68,1540601,1363193
58.64,522167,248597
56.84,865428,460459
53.72,467915,198514
44.22,1295374,185292
54.16,415686,183369
50.48,420913,134175
58.64,1427765,169806
58.93,713726,155624
39.74,1340563,251611
43.10,1361502,136570
45.12,578513,199157
45.88,411077,218023
48.91,669192,240959
30.40,605192,320807
47.95,357751,163607
50.54,1029765,188745
42.84,604404,171825
32.81,1468695,443644
50.12,1053662,241400
50.20,1061863,227639
44.68,1111407,563137
51.87,651884,458471
39.36,2238092,880368
40.14,2795297,303236
47.35,1534510,242040
53.45,499847,303978
52.99,1275607,308893
43.04,1423579,239789
40.31,2792169,279722
53.36,1227075,341993
50.45,645777,274638
54.07,570763,245228
50.65,443267,218454
52.70,407516,257354
47.82,659295,336046
44.70,660264,164505
38.19,1492189,231345
53.66,496058,272458
54.17,1269630,202781
50.83,1356558,273371
53.41,818567,190726
54.10,1247893,152454
52.16,1354777,369716
51.88,1396556,279930
46.08,1437952,903248
51.96,1038629,380193
24.52,5337550,327714
37.50,2111046,260498
52.80,585769,209894
43.46,649477,206801
52.65,623341,265423
46.29,903063,256103
52.19,978088,290901
49.81,411797,338240
45.77,612889,409195
47.12,577583,539543
43.78,655451,173262
52.74,978673,234858
43.03,945935,244501
48.58,593830,530220
43.39,662546,186752
45.77,883397,339610
37.32,546744,163788
33.15,529179,150386
39.11,927910,142757
32.20,546652,142151
40.01,970896,452923
47.82,886965,354899
43.81,552245,414250
40.43,692220,179889
44.93,485898,272910
47.50,558565,193404
27.79,469335,199669
44.42,365515,133435
28.42,2652825,318968
44.76,596296,244985
36.57,639146,280570
37.36,427197,227723
31.42,549853,258537
46.54,508337,185482
46.04,821041,398161
48.08,838477,209700
45.99,526330,179114
36.96,760151,258303
44.21,857966,513523
45.20,923705,204138
46.80,598565,234223
45.84,684555,333180
32.55,861495,185597
47.21,839492,144767
39.99,811755,182482
21.16,5246826,478954
44.67,514317,226410
47.58,811648,204787
24.31,4715648,252656
43.65,474871,281216
31.69,574683,267629
47.15,814226,211574
43.43,423994,214789
47.18,787269,209788
39.10,750299,525273
46.72,834455,204911
30.22,546546,429524
31.93,1325670,235702
44.31,506344,244769
28.38,812825,1132377
40.59,948045,572979
32.28,940643,262620
45.04,436397,134379
40.95,459334,172238
41.95,574325,112455
40.09,966979,170576
43.91,920384,536690
25.83,4703504,246958
47.16,855580,287366
45.32,624204,320351
46.47,669237,255787
41.98,905857,723369
44.52,611389,193622
32.80,1030764,260656
43.27,335044,265441
47.06,835920,211527
47.60,912174,259343
41.77,563690,232550
46.32,847591,336123
44.53,422238,222320
38.55,608561,327749
32.53,557646,235266
31.28,661558,181551
34.99,803306,262698
45.18,859945,193843
46.47,712444,234781
39.04,612414,205652
47.04,1613497,288656
31.90,2078538,864203
38.31,1347063,636300
24.92,4119031,1693421
33.31,2104267,1044876
39.63,1391523,749699
41.01,786944,612479
36.53,1412360,1133227
31.39,2696929,2070660
46.34,627899,428929
36.67,1420713,1145000
48.22,1628314,128606
47.69,1625632,117053
39.14,1052127,571339
38.71,1058493,633819
38.61,1062221,754721
35.53,1794062,1029114
36.02,1794140,868169
35.59,1789238,1123646
46.22,485433,219321
42.28,669646,386761
34.92,1711999,1021342
36.01,1017979,1489722
44.82,1562572,417268
38.01,1756316,268827
46.33,561715,245699
37.06,1075195,836285
37.70,1769234,83969
37.88,1281200,446332
36.07,1433572,815973
39.85,1977417,166955
35.98,2673822,163652
45.22,1459650,116935
38.71,2005293,415818
42.87,530802,238408
43.16,530022,233198
43.01,530263,236028
29.07,2048591,874696
36.76,1037406,443202
36.76,1364389,661538
23.55,4077622,1712244
37.67,1328146,681874
25.16,4095607,1873241
37.35,1228889,619136
47.71,496095,249914
47.93,461485,253182
49.87,490478,166657
48.12,458001,255725
33.13,1389521,1199174
44.91,699995,427241
39.43,1144495,786566
30.37,2747584,2007801
35.53,1064257,635852
41.89,998253,559287
35.38,1782249,1023039
45.93,592575,227329
36.22,1697091,671744
49.37,596263,170560
45.31,688459,390597
35.27,1060084,593882
33.70,1022356,1069448
33.04,1057658,1531116
31.47,1705735,1810715
49.87,739954,119683
48.05,529188,182811
47.48,445191,122370
31.38,1728164,1581478
43.65,1445927,189183
46.69,828937,120213
39.75,980800,226799
40.60,1453108,448606
34.16,1328746,431929
32.92,1332168,812878
32.91,1963956,809813
43.61,1356287,121837
35.88,2028186,92709
36.41,2114355,142334
39.83,1659894,144134
43.66,1345289,118432
41.84,1464672,203715
34.13,2738920,224948
37.34,1696986,758994
30.37,2932461,1526694
46.94,329756,185321
28.08,2025788,918461
22.76,4018870,1784905
41.13,523549,233537
22.94,4020268,1710313
22.91,4021425,1736773
23.74,4039462,2052210
45.85,308638,164470
32.34,1420919,1068821
32.30,1419860,1080371
29.23,2765702,2081252
39.52,1205362,853828
32.13,1430869,1108134
43.81,645336,312595
34.78,1060578,601482
46.78,460424,204103
43.29,672155,352554
34.10,1059806,840294
32.65,1788564,1168433
31.42,1788895,1481239
43.36,457979,290452
33.42,1700215,776146
29.75,1703372,1793990
28.22,1703387,2730784
44.43,512219,152467
47.13,419855,116594
44.02,624401,182285
43.96,721330,284202
44.32,707907,271213
36.03,1232562,153672
49.64,925964,80789
35.80,1188791,165676
33.84,1777268,451718
40.84,1170959,444798
39.96,1295686,821839
32.60,1842653,802081
29.01,2107796,1552833
35.73,2645285,184362
48.61,1225751,219088
38.37,1853596,230750
48.09,1230128,186565
52.42,927646,252728
66.07,723789,277571
35.69,2127784,216390
41.04,526013,296109
35.93,761001,247582
62.56,1547933,309604
54.50,1415178,282511
42.36,661249,176852
65.45,1518473,241608
65.05,481018,234595
47.76,1418375,282030
60.39,662973,153184
49.19,1483808,264185
67.38,1450005,355685
58.80,663092,142599
30.91,5033094,251883
37.28,410803,326269
60.21,783822,447008
67.56,1392826,290013
53.66,424630,313298
34.59,1298873,297447
63.71,755407,244290
39.11,701881,300154
67.06,1276164,158545
53.83,443657,215879
46.43,705062,613991
64.66,1291095,289289
70.94,684263,242250
77.61,1433412,191628
36.61,701133,219785
53.54,1650098,285674
44.51,486773,193998
28.49,1857631,724986
25.75,3691218,1427795
37.02,1535507,769977
25.53,3688602,1506703
38.45,929167,324247
26.87,3531139,1292705
27.20,3535622,1264941
29.47,1791651,653164
26.96,3528284,1292222
45.09,493530,169002
29.45,1788814,638465
26.97,3511422,1254741
51.18,314172,191455
40.41,744913,598944
40.33,744287,600354
32.23,1308258,1140418
32.36,1300212,1153945
54.85,400145,144697
29.12,2578460,2192792
29.26,2564070,2242954
41.83,677970,354352
33.31,1820339,1056445
54.20,477275,161883
41.69,678632,403450
41.84,676025,409636
34.27,1069218,560653
32.69,1826967,1260124
41.75,676117,385017
34.16,1069803,654937
32.49,1828317,1375986
41.60,672201,356857
41.77,672994,346006
50.76,386028,155765
34.54,1051605,520757
33.18,1759834,952022
41.79,673915,300831
33.96,1776450,998319
34.33,1059472,619679
33.30,1768915,792310
51.72,646505,171941
35.34,1108744,206151
50.16,466109,99179
35.47,1109436,220365
46.35,559430,161909
35.28,1760627,326657
36.12,1775223,129547
34.87,1286409,116766
41.84,1614600,174632
34.80,1285779,160158
34.75,1820905,128262
51.62,938876,162360
44.56,857244,153245
46.85,1115992,88800
40.73,994274,87197
34.79,1815112,94404
40.14,1714646,69969
34.41,2092578,89916
34.20,2098829,172985
42.62,1531198,195990
34.38,2102224,89951
40.20,1715217,90430
35.92,2750008,98951
46.02,265989,139692
46.24,267564,139011
22.35,3676110,1905235
46.22,267434,139636
26.54,1860373,943869
40.97,492446,250507
40.67,492843,256524
22.38,3675561,1845758
22.55,3675215,1805308
34.66,952991,483403
34.77,948434,466256
22.44,3674756,1833731
26.75,1861083,878983
22.47,3675835,1831855
22.79,3690598,1806955
44.21,1372834,204107
24.31,3573305,1360069
41.72,502080,191068
24.52,3591553,1349813
27.62,1818050,676176
24.30,3576048,1370078
42.07,824260,459660
35.59,947744,359117
35.61,945107,351013
26.33,2912537,2123814
42.14,487498,333452
36.65,824929,612195
42.35,487317,335193
30.15,1481691,1189969
26.39,2906279,2239739
47.86,529002,168936
42.40,491366,279991
30.26,2207962,1145131
30.28,2178389,1160860
30.00,2190721,1089209
29.85,2181778,1206511
42.48,493121,275962
29.84,2184853,1128921
38.44,740802,380235
29.85,2178420,1099415
31.66,1242379,741920
29.60,2188776,1172650
44.23,1366179,229922
32.06,1182568,612763
46.28,378155,155863
30.78,2058595,672865
38.61,725499,318763
32.32,1169835,578898
30.20,2041129,939921
44.20,1367929,267534
45.54,433780,161267
45.62,434268,152749
32.44,1782252,143128
44.57,657124,83354
45.84,845548,100666
33.01,1187218,147440
42.96,1068815,168851
32.93,1187448,93625
37.98,905101,91155
31.83,1775779,161722
33.28,1844337,103255
38.39,1483724,98437
33.33,1850066,81085
33.28,1853070,108423
38.33,1493572,103740
50.86,255753,107765
43.45,486388,194010
37.28,943499,376194
52.28,357529,135829
28.50,1854510,700355
23.91,3675734,1462570
24.11,3676766,1405423
28.19,1857308,725257
24.01,3676039,1439012
35.80,1528911,803052
23.98,3696937,1497492
28.37,1877427,738004
24.26,3696730,1420577
23.94,3676595,1427755
24.06,3674673,1414941
37.24,966709,328738
28.92,1863939,636448
49.60,279708,88938
28.81,1866958,619463
25.05,3671461,1240855
29.07,1864671,630807
37.63,962750,322902
37.66,1542174,754553
39.89,1325807,863167
31.67,1360097,1080141
27.40,2633801,2262388
49.82,309871,183104
31.66,1326638,1126006
28.02,2666118,2275124
33.19,1062875,789809
40.05,666519,473373
31.77,1804399,1208891
49.39,369456,165985
49.51,368789,201565
44.64,465216,243061
40.47,670695,343053
33.47,1067496,562910
33.21,1064840,605081
33.60,1083452,601264
49.28,373762,192661
44.57,470967,197398
44.39,466541,250126
49.60,370736,144428
40.35,664423,307361
34.11,1039245,399314
52.15,1521150,116255
41.53,1144261,174394
41.49,1152024,148905
34.81,1076069,151163
48.79,866614,94356
45.28,701166,141479
39.05,954042,93397
34.20,1808952,112155
45.70,701112,82656
33.99,1244196,91354
34.31,1811219,167479
33.95,1806048,102691
44.49,1348983,136485
33.87,1989953,200429
33.84,1991919,145510
54.64,384629,152092
45.95,485146,198485
52.90,255297,110206
45.87,485623,200585
39.03,942430,384893
29.29,1861134,775986
39.52,1523948,787037
29.91,1894333,662023
24.53,3752462,1302488
24.18,3734969,1358726
30.23,1897937,653752
24.25,3736321,1362044
39.65,975238,324605
29.98,1892826,646039
52.51,304324,179483
47.25,451249,302534
47.32,453713,297688
32.45,1354068,1149288
47.80,724995,453286
41.73,751543,617609
41.68,748800,581119
32.65,1341590,1132207
48.38,682565,314585
31.88,1802964,961589
53.51,487669,232563
47.83,455713,241502
47.76,450316,222565
34.58,1042101,712293
34.47,1033134,723283
31.91,1809815,1019234
56.64,1355960,143203
53.38,523971,223300
42.84,655109,345987
47.68,453698,223598
52.74,362298,186515
35.27,1065724,448057
35.10,1039681,396127
52.83,419361,133252
33.84,1709879,193963
48.10,512031,112822
35.99,1050769,133045
33.33,1704375,250904
43.55,692645,163043
36.00,1052664,125383
55.40,823380,147248
48.51,738463,141645
55.32,822138,165420
48.96,743317,78017
52.69,645116,134233
35.50,1179380,91134
48.78,739128,145057
43.01,892443,85642
35.64,1179514,147526
53.17,1180873,160201
44.45,1496121,127791
37.43,1878023,77053
37.24,1873386,139244
48.73,1302592,151985
44.46,1495194,89181
49.00,1303953,90090
44.69,1491587,104821
