bench,perf_xlast,std_dev_xlast,perf_flast,std_dev_flast
Yolo9000_00,1.74,1.44,1.11,3.72
Yolo9000_02,1.58,0.82,1.73,0.72
Yolo9000_04,1.25,0.53,1.36,0.77
Yolo9000_05,0.68,2.83,0.67,2.10
Yolo9000_08,1.21,0.68,1.22,0.44
Yolo9000_09,0.43,1.39,0.45,1.96
Yolo9000_12,1.32,0.45,1.34,0.67
Yolo9000_13,0.47,1.46,0.48,1.47
Yolo9000_18,1.50,0.99,1.39,0.97
Yolo9000_19,0.62,1.37,0.63,1.41
Yolo9000_23,22.65,0.53,22.49,0.75
MobilNet_01,0.31,2.44,0.36,1.98
MobilNet_02,0.29,1.37,0.29,1.15
MobilNet_03,0.54,1.22,0.62,1.35
MobilNet_04,0.30,1.04,0.31,1.54
MobilNet_05,0.58,1.18,0.59,1.32
MobilNet_06,0.35,1.24,0.36,1.40
MobilNet_07,0.58,2.31,0.58,1.34
MobilNet_08,0.39,1.14,0.36,2.22
MobilNet_09,1.34,0.72,1.15,1.00
ResNet18_01,0.35,0.97,0.36,3.28
ResNet18_02,0.26,1.74,0.28,2.04
ResNet18_03,0.19,5.02,0.22,1.38
ResNet18_04,0.22,1.96,0.23,0.93
ResNet18_05,0.13,2.67,0.15,4.03
ResNet18_06,0.26,1.12,0.27,2.00
ResNet18_07,0.26,2.93,0.27,3.07
ResNet18_08,0.37,0.97,0.37,1.64
ResNet18_09,0.33,4.09,0.35,1.62
ResNet18_10,0.39,2.29,0.37,1.29
ResNet18_11,0.15,2.65,0.14,2.15
ResNet18_12,0.32,1.02,0.32,0.65
