IdRun;MethodParallelization;NameConv;Time(ms);std;NbMicroKernel;AxeFuse1;SizeAxeFuse1;order1;AxeFuse2;SizeAxeFuse2;order2;Schema;Time_search
0;0;Yolo9000_23;11.3382246;0.014695429406451717;2;axe_yy1_0,axe_out_channels1_1,axe_yy1_1;31;axe_out_channels1_0,axe_in_channels1_0,axe_yy1_0,axe_out_channels1_1,axe_yy1_1,axe_in_channels1_1,axe_xx1_0,axe_w1_0,axe_h1_0,axe_xx1_1,axe_yy1_2,axe_in_channels1_2,axe_out_channels1_2;axe_yy2_0,axe_out_channels2_1,axe_yy2_1;62;axe_out_channels2_0,axe_in_channels2_0,axe_yy2_0,axe_out_channels2_1,axe_yy2_1,axe_in_channels2_1,axe_xx2_0,axe_w2_0,axe_h2_0,axe_xx2_1,axe_yy2_2,axe_in_channels2_2,axe_out_channels2_2;F:19, C:1, Y:1, F:31, Y:1, C:4, X:17, W:1, H:1, X:1, Y:5, C:256, F:48, ;1090.9972159862518
0;1;Yolo9000_23;8.9953843;0.01929332886803119;2;axe_out_channels1_0,axe_yy1_0,axe_out_channels1_1,axe_yy1_1,axe_xx1_0;10013;axe_out_channels1_0,axe_yy1_0,axe_out_channels1_1,axe_yy1_1,axe_xx1_0,axe_in_channels1_0,axe_in_channels1_1,axe_w1_0,axe_h1_0,axe_xx1_1,axe_yy1_2,axe_in_channels1_2,axe_out_channels1_2;axe_out_channels2_0,axe_yy2_0,axe_out_channels2_1,axe_yy2_1,axe_xx2_0;20026;axe_out_channels2_0,axe_yy2_0,axe_out_channels2_1,axe_yy2_1,axe_xx2_0,axe_in_channels2_0,axe_in_channels2_1,axe_w2_0,axe_h2_0,axe_xx2_1,axe_yy2_2,axe_in_channels2_2,axe_out_channels2_2;F:19, C:1, Y:1, F:31, Y:1, C:4, X:17, W:1, H:1, X:1, Y:5, C:256, F:48, ;2180.9010133743286
0;2;Yolo9000_23;9.5467555;0.014302974237898981;2;axe_out_channels1_0,axe_yy1_0,axe_out_channels1_1,axe_yy1_1,axe_xx1_0;10013;axe_in_channels1_0,axe_in_channels1_1,axe_out_channels1_0,axe_yy1_0,axe_out_channels1_1,axe_yy1_1,axe_xx1_0,axe_w1_0,axe_h1_0,axe_xx1_1,axe_yy1_2,axe_in_channels1_2,axe_out_channels1_2;axe_out_channels2_0,axe_yy2_0,axe_out_channels2_1,axe_yy2_1,axe_xx2_0;20026;axe_in_channels2_0,axe_in_channels2_1,axe_out_channels2_0,axe_yy2_0,axe_out_channels2_1,axe_yy2_1,axe_xx2_0,axe_w2_0,axe_h2_0,axe_xx2_1,axe_yy2_2,axe_in_channels2_2,axe_out_channels2_2;F:19, C:1, Y:1, F:31, Y:1, C:4, X:17, W:1, H:1, X:1, Y:5, C:256, F:48, ;3270.0091767311096
1;0;Yolo9000_23;14.589507600000001;0.04144257292012646;2;axe_out_channels1_0;31;axe_out_channels1_0,axe_in_channels1_0,axe_yy1_0,axe_out_channels1_1,axe_yy1_1,axe_in_channels1_1,axe_xx1_0,axe_w1_0,axe_h1_0,axe_xx1_1,axe_yy1_2,axe_in_channels1_2,axe_out_channels1_2;axe_yy2_0,axe_out_channels2_1,axe_yy2_1;38;axe_out_channels2_0,axe_in_channels2_0,axe_yy2_0,axe_out_channels2_1,axe_yy2_1,axe_in_channels2_1,axe_xx2_0,axe_w2_0,axe_h2_0,axe_xx2_1,axe_yy2_2,axe_in_channels2_2,axe_out_channels2_2;F:31, C:1, Y:1, F:19, Y:1, C:4, X:17, W:1, H:1, X:1, Y:5, C:256, F:48, ;4364.406901597977
1;1;Yolo9000_23;9.0069123;0.01759005382623974;2;axe_out_channels1_0,axe_yy1_0,axe_out_channels1_1,axe_yy1_1,axe_xx1_0;10013;axe_out_channels1_0,axe_yy1_0,axe_out_channels1_1,axe_yy1_1,axe_xx1_0,axe_in_channels1_0,axe_in_channels1_1,axe_w1_0,axe_h1_0,axe_xx1_1,axe_yy1_2,axe_in_channels1_2,axe_out_channels1_2;axe_out_channels2_0,axe_yy2_0,axe_out_channels2_1,axe_yy2_1,axe_xx2_0;20026;axe_out_channels2_0,axe_yy2_0,axe_out_channels2_1,axe_yy2_1,axe_xx2_0,axe_in_channels2_0,axe_in_channels2_1,axe_w2_0,axe_h2_0,axe_xx2_1,axe_yy2_2,axe_in_channels2_2,axe_out_channels2_2;F:31, C:1, Y:1, F:19, Y:1, C:4, X:17, W:1, H:1, X:1, Y:5, C:256, F:48, ;5458.93851852417
1;2;Yolo9000_23;9.533460000000002;0.01566508981780847;2;axe_out_channels1_0,axe_yy1_0,axe_out_channels1_1,axe_yy1_1,axe_xx1_0;10013;axe_in_channels1_0,axe_in_channels1_1,axe_out_channels1_0,axe_yy1_0,axe_out_channels1_1,axe_yy1_1,axe_xx1_0,axe_w1_0,axe_h1_0,axe_xx1_1,axe_yy1_2,axe_in_channels1_2,axe_out_channels1_2;axe_out_channels2_0,axe_yy2_0,axe_out_channels2_1,axe_yy2_1,axe_xx2_0;20026;axe_in_channels2_0,axe_in_channels2_1,axe_out_channels2_0,axe_yy2_0,axe_out_channels2_1,axe_yy2_1,axe_xx2_0,axe_w2_0,axe_h2_0,axe_xx2_1,axe_yy2_2,axe_in_channels2_2,axe_out_channels2_2;F:31, C:1, Y:1, F:19, Y:1, C:4, X:17, W:1, H:1, X:1, Y:5, C:256, F:48, ;6564.843327283859
2;0;Yolo9000_23;18.503149;0.11747271900658468;2;axe_out_channels1_0;31;axe_out_channels1_0,axe_in_channels1_0,axe_yy1_0,axe_out_channels1_1,axe_yy1_1,axe_in_channels1_1,axe_xx1_0,axe_w1_0,axe_h1_0,axe_xx1_1,axe_yy1_2,axe_in_channels1_2,axe_out_channels1_2;axe_yy2_0,axe_out_channels2_1,axe_yy2_1;38;axe_out_channels2_0,axe_in_channels2_0,axe_yy2_0,axe_out_channels2_1,axe_yy2_1,axe_in_channels2_1,axe_xx2_0,axe_w2_0,axe_h2_0,axe_xx2_1,axe_yy2_2,axe_in_channels2_2,axe_out_channels2_2;F:31, C:1, Y:1, F:19, Y:1, C:256, X:17, W:1, H:1, X:1, Y:5, C:4, F:48, ;7654.299462080002
2;1;Yolo9000_23;10.620590799999999;0.020427411729340223;2;axe_out_channels1_0,axe_yy1_0,axe_out_channels1_1,axe_yy1_1,axe_xx1_0;10013;axe_out_channels1_0,axe_yy1_0,axe_out_channels1_1,axe_yy1_1,axe_xx1_0,axe_in_channels1_0,axe_in_channels1_1,axe_w1_0,axe_h1_0,axe_xx1_1,axe_yy1_2,axe_in_channels1_2,axe_out_channels1_2;axe_out_channels2_0,axe_yy2_0,axe_out_channels2_1,axe_yy2_1,axe_xx2_0;20026;axe_out_channels2_0,axe_yy2_0,axe_out_channels2_1,axe_yy2_1,axe_xx2_0,axe_in_channels2_0,axe_in_channels2_1,axe_w2_0,axe_h2_0,axe_xx2_1,axe_yy2_2,axe_in_channels2_2,axe_out_channels2_2;F:31, C:1, Y:1, F:19, Y:1, C:256, X:17, W:1, H:1, X:1, Y:5, C:4, F:48, ;8756.97068810463
2;2;Yolo9000_23;26.492631499999998;0.1276887488921794;2;axe_out_channels1_0,axe_yy1_0,axe_out_channels1_1,axe_yy1_1,axe_xx1_0;10013;axe_in_channels1_0,axe_in_channels1_1,axe_out_channels1_0,axe_yy1_0,axe_out_channels1_1,axe_yy1_1,axe_xx1_0,axe_w1_0,axe_h1_0,axe_xx1_1,axe_yy1_2,axe_in_channels1_2,axe_out_channels1_2;axe_out_channels2_0,axe_yy2_0,axe_out_channels2_1,axe_yy2_1,axe_xx2_0;20026;axe_in_channels2_0,axe_in_channels2_1,axe_out_channels2_0,axe_yy2_0,axe_out_channels2_1,axe_yy2_1,axe_xx2_0,axe_w2_0,axe_h2_0,axe_xx2_1,axe_yy2_2,axe_in_channels2_2,axe_out_channels2_2;F:31, C:1, Y:1, F:19, Y:1, C:256, X:17, W:1, H:1, X:1, Y:5, C:4, F:48, ;9857.953043222427
3;0;Yolo9000_23;24.7356814;0.03137824031140066;2;axe_out_channels1_0;31;axe_out_channels1_0,axe_in_channels1_0,axe_yy1_0,axe_out_channels1_1,axe_yy1_1,axe_in_channels1_1,axe_xx1_0,axe_w1_0,axe_h1_0,axe_xx1_1,axe_yy1_2,axe_in_channels1_2,axe_out_channels1_2;axe_yy2_0,axe_out_channels2_1,axe_yy2_1;38;axe_out_channels2_0,axe_in_channels2_0,axe_yy2_0,axe_out_channels2_1,axe_yy2_1,axe_in_channels2_1,axe_xx2_0,axe_w2_0,axe_h2_0,axe_xx2_1,axe_yy2_2,axe_in_channels2_2,axe_out_channels2_2;F:31, C:1, Y:1, F:19, Y:1, C:512, X:17, W:1, H:1, X:1, Y:5, C:2, F:48, ;10951.087752819061
3;1;Yolo9000_23;15.0143156;0.008428621194477657;2;axe_out_channels1_0,axe_yy1_0,axe_out_channels1_1,axe_yy1_1,axe_xx1_0;10013;axe_out_channels1_0,axe_yy1_0,axe_out_channels1_1,axe_yy1_1,axe_xx1_0,axe_in_channels1_0,axe_in_channels1_1,axe_w1_0,axe_h1_0,axe_xx1_1,axe_yy1_2,axe_in_channels1_2,axe_out_channels1_2;axe_out_channels2_0,axe_yy2_0,axe_out_channels2_1,axe_yy2_1,axe_xx2_0;20026;axe_out_channels2_0,axe_yy2_0,axe_out_channels2_1,axe_yy2_1,axe_xx2_0,axe_in_channels2_0,axe_in_channels2_1,axe_w2_0,axe_h2_0,axe_xx2_1,axe_yy2_2,axe_in_channels2_2,axe_out_channels2_2;F:31, C:1, Y:1, F:19, Y:1, C:512, X:17, W:1, H:1, X:1, Y:5, C:2, F:48, ;12042.301223754883
3;2;Yolo9000_23;51.0097622;0.5842104149165455;2;axe_out_channels1_0,axe_yy1_0,axe_out_channels1_1,axe_yy1_1,axe_xx1_0;10013;axe_in_channels1_0,axe_in_channels1_1,axe_out_channels1_0,axe_yy1_0,axe_out_channels1_1,axe_yy1_1,axe_xx1_0,axe_w1_0,axe_h1_0,axe_xx1_1,axe_yy1_2,axe_in_channels1_2,axe_out_channels1_2;axe_out_channels2_0,axe_yy2_0,axe_out_channels2_1,axe_yy2_1,axe_xx2_0;20026;axe_in_channels2_0,axe_in_channels2_1,axe_out_channels2_0,axe_yy2_0,axe_out_channels2_1,axe_yy2_1,axe_xx2_0,axe_w2_0,axe_h2_0,axe_xx2_1,axe_yy2_2,axe_in_channels2_2,axe_out_channels2_2;F:31, C:1, Y:1, F:19, Y:1, C:512, X:17, W:1, H:1, X:1, Y:5, C:2, F:48, ;13133.893625736237
4;0;Yolo9000_23;9.5967573;0.02749018838440364;2;axe_yy1_0,axe_out_channels1_1,axe_yy1_1;589;axe_out_channels1_0,axe_in_channels1_0,axe_yy1_0,axe_out_channels1_1,axe_yy1_1,axe_in_channels1_1,axe_xx1_0,axe_w1_0,axe_h1_0,axe_xx1_1,axe_yy1_2,axe_in_channels1_2,axe_out_channels1_2;axe_yy2_0,axe_out_channels2_1,axe_yy2_1;1178;axe_out_channels2_0,axe_in_channels2_0,axe_yy2_0,axe_out_channels2_1,axe_yy2_1,axe_in_channels2_1,axe_xx2_0,axe_w2_0,axe_h2_0,axe_xx2_1,axe_yy2_2,axe_in_channels2_2,axe_out_channels2_2;F:1, C:2, Y:1, F:589, Y:1, C:4, X:17, W:1, H:1, X:1, Y:5, C:128, F:48, ;14228.909548044205
4;1;Yolo9000_23;8.781569600000001;0.01822816609645671;2;axe_out_channels1_0,axe_yy1_0,axe_out_channels1_1,axe_yy1_1,axe_xx1_0;10013;axe_out_channels1_0,axe_yy1_0,axe_out_channels1_1,axe_yy1_1,axe_xx1_0,axe_in_channels1_0,axe_in_channels1_1,axe_w1_0,axe_h1_0,axe_xx1_1,axe_yy1_2,axe_in_channels1_2,axe_out_channels1_2;axe_out_channels2_0,axe_yy2_0,axe_out_channels2_1,axe_yy2_1,axe_xx2_0;20026;axe_out_channels2_0,axe_yy2_0,axe_out_channels2_1,axe_yy2_1,axe_xx2_0,axe_in_channels2_0,axe_in_channels2_1,axe_w2_0,axe_h2_0,axe_xx2_1,axe_yy2_2,axe_in_channels2_2,axe_out_channels2_2;F:1, C:2, Y:1, F:589, Y:1, C:4, X:17, W:1, H:1, X:1, Y:5, C:128, F:48, ;15325.467957735062
4;2;Yolo9000_23;9.529807199999999;0.012796058594739207;2;axe_out_channels1_0,axe_yy1_0,axe_out_channels1_1,axe_yy1_1,axe_xx1_0;10013;axe_in_channels1_0,axe_in_channels1_1,axe_out_channels1_0,axe_yy1_0,axe_out_channels1_1,axe_yy1_1,axe_xx1_0,axe_w1_0,axe_h1_0,axe_xx1_1,axe_yy1_2,axe_in_channels1_2,axe_out_channels1_2;axe_out_channels2_0,axe_yy2_0,axe_out_channels2_1,axe_yy2_1,axe_xx2_0;20026;axe_in_channels2_0,axe_in_channels2_1,axe_out_channels2_0,axe_yy2_0,axe_out_channels2_1,axe_yy2_1,axe_xx2_0,axe_w2_0,axe_h2_0,axe_xx2_1,axe_yy2_2,axe_in_channels2_2,axe_out_channels2_2;F:1, C:2, Y:1, F:589, Y:1, C:4, X:17, W:1, H:1, X:1, Y:5, C:128, F:48, ;16417.154881954193
