yolo9000_0_xlast,67.98,0.400766
yolo9000_0_flast,76.06,0.268209
yolo9000_2_xlast,264.75,0.162022
yolo9000_2_flast,277.27,0.103544
yolo9000_4_xlast,305.89,0.214741
yolo9000_4_flast,321.00,0.158202
yolo9000_5_xlast,112.27,4.832754
yolo9000_5_flast,133.88,1.164934
yolo9000_8_xlast,337.39,0.285595
yolo9000_8_flast,344.74,3.442580
yolo9000_9_xlast,173.84,1.046843
yolo9000_9_flast,195.84,0.577856
yolo9000_12_xlast,316.42,0.425293
yolo9000_12_flast,326.55,0.222198
yolo9000_13_xlast,224.30,1.255987
yolo9000_13_flast,249.64,1.034395
yolo9000_18_xlast,255.93,0.293034
yolo9000_18_flast,275.85,0.434577
yolo9000_19_xlast,219.91,1.083055
yolo9000_19_flast,242.36,1.173759
yolo9000_23_xlast,264.47,0.177621
yolo9000_23_flast,274.03,1.263348
mobilNet_1_xlast,234.73,1.206208
mobilNet_1_flast,245.06,1.853095
mobilNet_2_xlast,181.01,0.807390
mobilNet_2_flast,220.62,1.173975
mobilNet_3_xlast,320.10,0.353944
mobilNet_3_flast,329.25,0.518511
mobilNet_4_xlast,222.53,2.978529
mobilNet_4_flast,245.44,2.522171
mobilNet_5_xlast,297.32,0.564825
mobilNet_5_flast,307.83,0.513452
mobilNet_6_xlast,192.72,2.127644
mobilNet_6_flast,216.27,2.289800
mobilNet_7_xlast,202.39,0.760334
mobilNet_7_flast,240.41,0.805894
mobilNet_8_xlast,84.31,2.154737
mobilNet_8_flast,115.41,1.046862
mobilNet_9_xlast,105.37,0.666263
mobilNet_9_flast,126.76,0.505738
resNet18_1_xlast,228.60,1.171374
resNet18_1_flast,239.63,0.714875
resNet18_2_xlast,285.91,2.680719
resNet18_2_flast,290.97,2.093941
resNet18_4_xlast,229.15,2.093941
resNet18_4_flast,237.24,6.407371
resNet18_5_xlast,65.10,4.533610
resNet18_5_flast,78.26,5.472082
resNet18_6_xlast,291.88,1.700861
resNet18_6_flast,295.78,5.098344
resNet18_7_xlast,208.81,2.979663
resNet18_7_flast,210.97,1.741176
resNet18_8_xlast,300.75,1.418221
resNet18_8_flast,305.90,2.876864
resNet18_9_xlast,220.09,2.699760
resNet18_9_flast,238.20,1.330562
resNet18_10_xlast,83.98,0.774629
resNet18_10_flast,114.83,6.164699
resNet18_11_xlast,81.89,5.300659
resNet18_11_flast,87.62,1.841651
resNet18_12_xlast,85.88,0.750460
