IdRun;MethodParallelization;NameConv;Time(ms);std;NbMicroKernel;AxeFuse1;SizeAxeFuse1;AxeFuse2;SizeAxeFuse2;Schema;Time_search(2.5030229091644287)
0;0;MobilNet_09;3.6441372000000003;0.656042123047263;1;axe_out_channels1_0,axe_yy1_0;16;;;C:1, C:1, F:16, Y:1, C:32, X:7, H:3, W:3, W:1, H:1, X:1, Y:7, C:32, F:64, ;9.785385370254517
0;1;MobilNet_09;5.0665914;0.05232949424789051;1;axe_out_channels1_0,axe_yy1_0,axe_xx1_0;112;;;C:1, C:1, F:16, Y:1, C:32, X:7, H:3, W:3, W:1, H:1, X:1, Y:7, C:32, F:64, ;17.529235363006592
1;0;MobilNet_09;3.7024932;0.8052284880972357;1;axe_out_channels1_0,axe_yy1_0;16;;;C:1, C:1, F:16, Y:1, C:32, X:7, W:3, W:1, H:3, X:1, Y:7, C:32, F:64, ;24.816614389419556
1;1;MobilNet_09;5.7103145;0.16079029960930485;1;axe_out_channels1_0,axe_yy1_0,axe_xx1_0;112;;;C:1, C:1, F:16, Y:1, C:32, X:7, W:3, W:1, H:3, X:1, Y:7, C:32, F:64, ;32.7417471408844
2;0;MobilNet_09;2.8461313;0.10118503258096036;1;axe_out_channels1_0,axe_yy1_0;16;;;C:1, C:1, F:16, Y:1, C:32, X:7, H:3, W:3, H:1, X:1, Y:7, C:32, F:64, ;40.01699781417847
2;1;MobilNet_09;5.49639;0.09211928032502226;1;axe_out_channels1_0,axe_yy1_0,axe_xx1_0;112;;;C:1, C:1, F:16, Y:1, C:32, X:7, H:3, W:3, H:1, X:1, Y:7, C:32, F:64, ;47.985474824905396
3;0;MobilNet_09;1.6575384;0.0444877747683563;1;axe_out_channels1_0,axe_yy1_0;16;;;C:1, C:1, F:16, Y:1, C:64, X:7, H:3, W:3, W:1, H:1, X:1, Y:7, C:16, F:64, ;55.14168858528137
3;1;MobilNet_09;5.2397097;0.051336715243673434;1;axe_out_channels1_0,axe_yy1_0,axe_xx1_0;112;;;C:1, C:1, F:16, Y:1, C:64, X:7, H:3, W:3, W:1, H:1, X:1, Y:7, C:16, F:64, ;62.87787055969238
4;0;MobilNet_09;1.9850196000000004;0.015384600600600642;1;axe_out_channels1_0,axe_yy1_0;16;;;C:1, C:1, F:16, Y:1, C:64, X:7, W:3, W:1, H:3, X:1, Y:7, C:16, F:64, ;70.07612872123718
4;1;MobilNet_09;5.5520829;0.2445009632453215;1;axe_out_channels1_0,axe_yy1_0,axe_xx1_0;112;;;C:1, C:1, F:16, Y:1, C:64, X:7, W:3, W:1, H:3, X:1, Y:7, C:16, F:64, ;78.06816053390503
5;0;MobilNet_09;1.7811197;0.014429551621931963;1;axe_out_channels1_0,axe_yy1_0;16;;;C:1, C:1, F:16, Y:1, C:64, X:7, H:3, W:3, H:1, X:1, Y:7, C:16, F:64, ;85.22048425674438
5;1;MobilNet_09;5.5984271;0.08795762766747424;1;axe_out_channels1_0,axe_yy1_0,axe_xx1_0;112;;;C:1, C:1, F:16, Y:1, C:64, X:7, H:3, W:3, H:1, X:1, Y:7, C:16, F:64, ;93.13879323005676
6;0;MobilNet_09;2.0437789000000004;0.014975994848089412;1;axe_out_channels1_0,axe_yy1_0;16;;;C:1, C:1, F:16, Y:1, C:128, X:7, H:3, W:3, W:1, H:1, X:1, Y:7, C:8, F:64, ;100.48621416091919
6;1;MobilNet_09;5.1924178;0.07337443382650394;1;axe_out_channels1_0,axe_yy1_0,axe_xx1_0;112;;;C:1, C:1, F:16, Y:1, C:128, X:7, H:3, W:3, W:1, H:1, X:1, Y:7, C:8, F:64, ;108.33959889411926
7;0;MobilNet_09;2.0401745;0.03921363203083851;1;axe_out_channels1_0,axe_yy1_0;16;;;C:1, C:1, F:16, Y:1, C:128, X:7, W:3, W:1, H:3, X:1, Y:7, C:8, F:64, ;115.58250069618225
7;1;MobilNet_09;5.5907002;0.10537782650140394;1;axe_out_channels1_0,axe_yy1_0,axe_xx1_0;112;;;C:1, C:1, F:16, Y:1, C:128, X:7, W:3, W:1, H:3, X:1, Y:7, C:8, F:64, ;123.5193521976471
8;0;MobilNet_09;1.9702250999999997;0.05267421112166746;1;axe_out_channels1_0,axe_yy1_0;16;;;C:1, C:1, F:16, Y:1, C:128, X:7, H:3, W:3, H:1, X:1, Y:7, C:8, F:64, ;130.83742761611938
8;1;MobilNet_09;5.4251627;0.12691417379083397;1;axe_out_channels1_0,axe_yy1_0,axe_xx1_0;112;;;C:1, C:1, F:16, Y:1, C:128, X:7, H:3, W:3, H:1, X:1, Y:7, C:8, F:64, ;138.51074934005737
9;0;MobilNet_09;4.239166;0.6707510804310344;1;axe_out_channels1_0,axe_yy1_0;16;;;C:1, C:2, F:16, Y:1, C:16, X:7, H:3, W:3, W:1, H:1, X:1, Y:7, C:32, F:64, ;145.82128262519836
9;1;MobilNet_09;5.1342692;0.06676632716691862;1;axe_out_channels1_0,axe_yy1_0,axe_xx1_0;112;;;C:1, C:2, F:16, Y:1, C:16, X:7, H:3, W:3, W:1, H:1, X:1, Y:7, C:32, F:64, ;153.54054760932922
10;0;MobilNet_09;3.627396;0.7041996776319911;1;axe_out_channels1_0,axe_yy1_0;16;;;C:2, C:1, F:16, Y:1, C:16, X:7, H:3, W:3, W:1, H:1, X:1, Y:7, C:32, F:64, ;160.80580759048462
10;1;MobilNet_09;5.103757800000001;0.06162929759749007;1;axe_out_channels1_0,axe_yy1_0,axe_xx1_0;112;;;C:2, C:1, F:16, Y:1, C:16, X:7, H:3, W:3, W:1, H:1, X:1, Y:7, C:32, F:64, ;168.61274099349976
11;0;MobilNet_09;3.3364257999999993;0.21827986851920175;1;axe_out_channels1_0,axe_yy1_0;16;;;C:1, C:2, F:16, Y:1, C:16, X:7, W:3, W:1, H:3, X:1, Y:7, C:32, F:64, ;175.89230632781982
11;1;MobilNet_09;5.4621839;0.062903523398058;1;axe_out_channels1_0,axe_yy1_0,axe_xx1_0;112;;;C:1, C:2, F:16, Y:1, C:16, X:7, W:3, W:1, H:3, X:1, Y:7, C:32, F:64, ;183.6613028049469
12;0;MobilNet_09;4.9954846;0.039747906715196984;1;axe_out_channels1_0,axe_yy1_0;16;;;C:2, C:1, F:16, Y:1, C:16, X:7, W:3, W:1, H:3, X:1, Y:7, C:32, F:64, ;191.00583052635193
12;1;MobilNet_09;5.5909266;0.1301987111074452;1;axe_out_channels1_0,axe_yy1_0,axe_xx1_0;112;;;C:2, C:1, F:16, Y:1, C:16, X:7, W:3, W:1, H:3, X:1, Y:7, C:32, F:64, ;198.72553658485413
13;0;MobilNet_09;4.5193744;0.04940807922637758;1;axe_out_channels1_0,axe_yy1_0;16;;;C:1, C:2, F:16, Y:1, C:16, X:7, H:3, W:3, H:1, X:1, Y:7, C:32, F:64, ;206.0272274017334
13;1;MobilNet_09;5.4298968;0.1769951872378457;1;axe_out_channels1_0,axe_yy1_0,axe_xx1_0;112;;;C:1, C:2, F:16, Y:1, C:16, X:7, H:3, W:3, H:1, X:1, Y:7, C:32, F:64, ;213.8223099708557
14;0;MobilNet_09;3.3093813999999995;0.13879438251615223;1;axe_out_channels1_0,axe_yy1_0;16;;;C:2, C:1, F:16, Y:1, C:16, X:7, H:3, W:3, H:1, X:1, Y:7, C:32, F:64, ;221.1433882713318
14;1;MobilNet_09;5.4239718;0.14987991425591363;1;axe_out_channels1_0,axe_yy1_0,axe_xx1_0;112;;;C:2, C:1, F:16, Y:1, C:16, X:7, H:3, W:3, H:1, X:1, Y:7, C:32, F:64, ;229.08738708496094
15;0;MobilNet_09;1.8302958999999999;0.03748192567745156;1;axe_out_channels1_0,axe_yy1_0;16;;;C:1, C:2, F:16, Y:1, C:32, X:7, H:3, W:3, W:1, H:1, X:1, Y:7, C:16, F:64, ;236.26432299613953
15;1;MobilNet_09;5.132789400000001;0.06610323869856902;1;axe_out_channels1_0,axe_yy1_0,axe_xx1_0;112;;;C:1, C:2, F:16, Y:1, C:32, X:7, H:3, W:3, W:1, H:1, X:1, Y:7, C:16, F:64, ;243.9337179660797
16;0;MobilNet_09;1.7675856999999997;0.027794829522952626;1;axe_out_channels1_0,axe_yy1_0;16;;;C:2, C:1, F:16, Y:1, C:32, X:7, H:3, W:3, W:1, H:1, X:1, Y:7, C:16, F:64, ;251.14830207824707
16;1;MobilNet_09;5.1331405;0.0633586649594987;1;axe_out_channels1_0,axe_yy1_0,axe_xx1_0;112;;;C:2, C:1, F:16, Y:1, C:32, X:7, H:3, W:3, W:1, H:1, X:1, Y:7, C:16, F:64, ;258.90521001815796
17;0;MobilNet_09;1.975046;0.024962401679325726;1;axe_out_channels1_0,axe_yy1_0;16;;;C:1, C:2, F:16, Y:1, C:32, X:7, W:3, W:1, H:3, X:1, Y:7, C:16, F:64, ;266.10560131073
17;1;MobilNet_09;5.6338101;0.10937382246172983;1;axe_out_channels1_0,axe_yy1_0,axe_xx1_0;112;;;C:1, C:2, F:16, Y:1, C:32, X:7, W:3, W:1, H:3, X:1, Y:7, C:16, F:64, ;273.98437094688416
18;0;MobilNet_09;2.0088454000000002;0.028368691183063014;1;axe_out_channels1_0,axe_yy1_0;16;;;C:2, C:1, F:16, Y:1, C:32, X:7, W:3, W:1, H:3, X:1, Y:7, C:16, F:64, ;281.232462644577
18;1;MobilNet_09;5.602830300000001;0.13677783432636323;1;axe_out_channels1_0,axe_yy1_0,axe_xx1_0;112;;;C:2, C:1, F:16, Y:1, C:32, X:7, W:3, W:1, H:3, X:1, Y:7, C:16, F:64, ;289.1744239330292
19;0;MobilNet_09;1.7966909999999998;0.020476382624868117;1;axe_out_channels1_0,axe_yy1_0;16;;;C:1, C:2, F:16, Y:1, C:32, X:7, H:3, W:3, H:1, X:1, Y:7, C:16, F:64, ;296.35294675827026
19;1;MobilNet_09;5.6012811;0.10449560350986077;1;axe_out_channels1_0,axe_yy1_0,axe_xx1_0;112;;;C:1, C:2, F:16, Y:1, C:32, X:7, H:3, W:3, H:1, X:1, Y:7, C:16, F:64, ;304.2764971256256
20;0;MobilNet_09;1.7846358000000002;0.01655267978183593;1;axe_out_channels1_0,axe_yy1_0;16;;;C:2, C:1, F:16, Y:1, C:32, X:7, H:3, W:3, H:1, X:1, Y:7, C:16, F:64, ;311.44276309013367
20;1;MobilNet_09;5.6135094;0.17926056052361333;1;axe_out_channels1_0,axe_yy1_0,axe_xx1_0;112;;;C:2, C:1, F:16, Y:1, C:32, X:7, H:3, W:3, H:1, X:1, Y:7, C:16, F:64, ;319.2726972103119
21;0;MobilNet_09;2.1233475;0.029308078443494;1;axe_out_channels1_0,axe_yy1_0;16;;;C:1, C:2, F:16, Y:1, C:64, X:7, H:3, W:3, W:1, H:1, X:1, Y:7, C:8, F:64, ;326.54252529144287
21;1;MobilNet_09;5.2624942;0.1165788836451954;1;axe_out_channels1_0,axe_yy1_0,axe_xx1_0;112;;;C:1, C:2, F:16, Y:1, C:64, X:7, H:3, W:3, W:1, H:1, X:1, Y:7, C:8, F:64, ;334.32608437538147
22;0;MobilNet_09;2.1549240999999997;0.015097208877471343;1;axe_out_channels1_0,axe_yy1_0;16;;;C:2, C:1, F:16, Y:1, C:64, X:7, H:3, W:3, W:1, H:1, X:1, Y:7, C:8, F:64, ;341.69514775276184
22;1;MobilNet_09;5.3083475;0.11174134251587457;1;axe_out_channels1_0,axe_yy1_0,axe_xx1_0;112;;;C:2, C:1, F:16, Y:1, C:64, X:7, H:3, W:3, W:1, H:1, X:1, Y:7, C:8, F:64, ;349.62946033477783
23;0;MobilNet_09;2.05655;0.010747115324588401;1;axe_out_channels1_0,axe_yy1_0;16;;;C:1, C:2, F:16, Y:1, C:64, X:7, W:3, W:1, H:3, X:1, Y:7, C:8, F:64, ;356.9408178329468
23;1;MobilNet_09;5.6483928;0.11913087570969993;1;axe_out_channels1_0,axe_yy1_0,axe_xx1_0;112;;;C:1, C:2, F:16, Y:1, C:64, X:7, W:3, W:1, H:3, X:1, Y:7, C:8, F:64, ;364.9358813762665
24;0;MobilNet_09;2.0544098;0.01845268514769611;1;axe_out_channels1_0,axe_yy1_0;16;;;C:2, C:1, F:16, Y:1, C:64, X:7, W:3, W:1, H:3, X:1, Y:7, C:8, F:64, ;372.23790884017944
24;1;MobilNet_09;5.7420198;0.1992350447967424;1;axe_out_channels1_0,axe_yy1_0,axe_xx1_0;112;;;C:2, C:1, F:16, Y:1, C:64, X:7, W:3, W:1, H:3, X:1, Y:7, C:8, F:64, ;380.2448332309723
25;0;MobilNet_09;1.9888631;0.049089331599544164;1;axe_out_channels1_0,axe_yy1_0;16;;;C:1, C:2, F:16, Y:1, C:64, X:7, H:3, W:3, H:1, X:1, Y:7, C:8, F:64, ;387.5695872306824
25;1;MobilNet_09;5.4786671;0.12034687431292075;1;axe_out_channels1_0,axe_yy1_0,axe_xx1_0;112;;;C:1, C:2, F:16, Y:1, C:64, X:7, H:3, W:3, H:1, X:1, Y:7, C:8, F:64, ;395.37604808807373
26;0;MobilNet_09;1.9662734;0.02426816931373277;1;axe_out_channels1_0,axe_yy1_0;16;;;C:2, C:1, F:16, Y:1, C:64, X:7, H:3, W:3, H:1, X:1, Y:7, C:8, F:64, ;402.6924788951874
26;1;MobilNet_09;5.639867300000001;0.19207491567357274;1;axe_out_channels1_0,axe_yy1_0,axe_xx1_0;112;;;C:2, C:1, F:16, Y:1, C:64, X:7, H:3, W:3, H:1, X:1, Y:7, C:8, F:64, ;410.4625382423401
27;0;MobilNet_09;4.036223099999999;0.7856102282979072;1;axe_out_channels1_0,axe_yy1_0;16;;;C:1, C:4, F:16, Y:1, C:8, X:7, H:3, W:3, W:1, H:1, X:1, Y:7, C:32, F:64, ;417.75659561157227
27;1;MobilNet_09;5.27482;0.2250293935244905;1;axe_out_channels1_0,axe_yy1_0,axe_xx1_0;112;;;C:1, C:4, F:16, Y:1, C:8, X:7, H:3, W:3, W:1, H:1, X:1, Y:7, C:32, F:64, ;425.4629521369934
28;0;MobilNet_09;3.1484615000000002;0.07430212940185493;1;axe_out_channels1_0,axe_yy1_0;16;;;C:2, C:2, F:16, Y:1, C:8, X:7, H:3, W:3, W:1, H:1, X:1, Y:7, C:32, F:64, ;432.70119524002075
28;1;MobilNet_09;5.2115583;0.08756087877248611;1;axe_out_channels1_0,axe_yy1_0,axe_xx1_0;112;;;C:2, C:2, F:16, Y:1, C:8, X:7, H:3, W:3, W:1, H:1, X:1, Y:7, C:32, F:64, ;440.6408681869507
29;0;MobilNet_09;4.6730559;0.38173237234964763;1;axe_out_channels1_0,axe_yy1_0;16;;;C:4, C:1, F:16, Y:1, C:8, X:7, H:3, W:3, W:1, H:1, X:1, Y:7, C:32, F:64, ;447.95090794563293
29;1;MobilNet_09;4.994667699999999;0.0915884794513481;1;axe_out_channels1_0,axe_yy1_0,axe_xx1_0;112;;;C:4, C:1, F:16, Y:1, C:8, X:7, H:3, W:3, W:1, H:1, X:1, Y:7, C:32, F:64, ;455.8889067173004
30;0;MobilNet_09;4.8888157;0.17550288183961518;1;axe_out_channels1_0,axe_yy1_0;16;;;C:1, C:4, F:16, Y:1, C:8, X:7, W:3, W:1, H:3, X:1, Y:7, C:32, F:64, ;463.2303931713104
30;1;MobilNet_09;5.5967441;0.13733678165331392;1;axe_out_channels1_0,axe_yy1_0,axe_xx1_0;112;;;C:1, C:4, F:16, Y:1, C:8, X:7, W:3, W:1, H:3, X:1, Y:7, C:32, F:64, ;471.1160981655121
31;0;MobilNet_09;2.846386;0.24964625953737013;1;axe_out_channels1_0,axe_yy1_0;16;;;C:2, C:2, F:16, Y:1, C:8, X:7, W:3, W:1, H:3, X:1, Y:7, C:32, F:64, ;478.363970041275
31;1;MobilNet_09;5.6364941;0.10964059148002629;1;axe_out_channels1_0,axe_yy1_0,axe_xx1_0;112;;;C:2, C:2, F:16, Y:1, C:8, X:7, W:3, W:1, H:3, X:1, Y:7, C:32, F:64, ;486.1368191242218
32;0;MobilNet_09;4.5490876;0.7395343066994529;1;axe_out_channels1_0,axe_yy1_0;16;;;C:4, C:1, F:16, Y:1, C:8, X:7, W:3, W:1, H:3, X:1, Y:7, C:32, F:64, ;493.45231103897095
32;1;MobilNet_09;5.576137999999999;0.1570750364921175;1;axe_out_channels1_0,axe_yy1_0,axe_xx1_0;112;;;C:4, C:1, F:16, Y:1, C:8, X:7, W:3, W:1, H:3, X:1, Y:7, C:32, F:64, ;501.36908745765686
33;0;MobilNet_09;4.6599107;0.04308811034856383;1;axe_out_channels1_0,axe_yy1_0;16;;;C:1, C:4, F:16, Y:1, C:8, X:7, H:3, W:3, H:1, X:1, Y:7, C:32, F:64, ;508.68099641799927
33;1;MobilNet_09;5.5833238000000005;0.08771225045089197;1;axe_out_channels1_0,axe_yy1_0,axe_xx1_0;112;;;C:1, C:4, F:16, Y:1, C:8, X:7, H:3, W:3, H:1, X:1, Y:7, C:32, F:64, ;516.6320929527283
34;0;MobilNet_09;4.6624026999999995;0.05801183189841555;1;axe_out_channels1_0,axe_yy1_0;16;;;C:2, C:2, F:16, Y:1, C:8, X:7, H:3, W:3, H:1, X:1, Y:7, C:32, F:64, ;523.9533190727234
34;1;MobilNet_09;5.5208865000000005;0.16863291228597702;1;axe_out_channels1_0,axe_yy1_0,axe_xx1_0;112;;;C:2, C:2, F:16, Y:1, C:8, X:7, H:3, W:3, H:1, X:1, Y:7, C:32, F:64, ;531.8609659671783
35;0;MobilNet_09;3.9452678999999997;0.7063763232357735;1;axe_out_channels1_0,axe_yy1_0;16;;;C:4, C:1, F:16, Y:1, C:8, X:7, H:3, W:3, H:1, X:1, Y:7, C:32, F:64, ;539.1358458995819
35;1;MobilNet_09;5.5614931;0.11372378943163125;1;axe_out_channels1_0,axe_yy1_0,axe_xx1_0;112;;;C:4, C:1, F:16, Y:1, C:8, X:7, H:3, W:3, H:1, X:1, Y:7, C:32, F:64, ;547.0033528804779
36;0;MobilNet_09;2.3408714;0.023930922114285554;1;axe_out_channels1_0,axe_yy1_0;16;;;C:1, C:4, F:16, Y:1, C:16, X:7, H:3, W:3, W:1, H:1, X:1, Y:7, C:16, F:64, ;554.1801161766052
36;1;MobilNet_09;5.1737564;0.08504542252725879;1;axe_out_channels1_0,axe_yy1_0,axe_xx1_0;112;;;C:1, C:4, F:16, Y:1, C:16, X:7, H:3, W:3, W:1, H:1, X:1, Y:7, C:16, F:64, ;561.8731732368469
37;0;MobilNet_09;2.257873;0.015137497877786739;1;axe_out_channels1_0,axe_yy1_0;16;;;C:2, C:2, F:16, Y:1, C:16, X:7, H:3, W:3, W:1, H:1, X:1, Y:7, C:16, F:64, ;569.0827167034149
37;1;MobilNet_09;4.9125841999999995;0.11464719955829708;1;axe_out_channels1_0,axe_yy1_0,axe_xx1_0;112;;;C:2, C:2, F:16, Y:1, C:16, X:7, H:3, W:3, W:1, H:1, X:1, Y:7, C:16, F:64, ;576.719877243042
38;0;MobilNet_09;2.2781022;0.026911892623150864;1;axe_out_channels1_0,axe_yy1_0;16;;;C:4, C:1, F:16, Y:1, C:16, X:7, H:3, W:3, W:1, H:1, X:1, Y:7, C:16, F:64, ;584.0105588436127
38;1;MobilNet_09;4.719412;0.2637356399806442;1;axe_out_channels1_0,axe_yy1_0,axe_xx1_0;112;;;C:4, C:1, F:16, Y:1, C:16, X:7, H:3, W:3, W:1, H:1, X:1, Y:7, C:16, F:64, ;591.877848148346
39;0;MobilNet_09;2.0166560999999996;0.015226711788498458;1;axe_out_channels1_0,axe_yy1_0;16;;;C:1, C:4, F:16, Y:1, C:16, X:7, W:3, W:1, H:3, X:1, Y:7, C:16, F:64, ;599.2558677196503
39;1;MobilNet_09;5.635764700000001;0.1591255628848176;1;axe_out_channels1_0,axe_yy1_0,axe_xx1_0;112;;;C:1, C:4, F:16, Y:1, C:16, X:7, W:3, W:1, H:3, X:1, Y:7, C:16, F:64, ;607.2531225681305
40;0;MobilNet_09;2.0394546000000005;0.03624664005173437;1;axe_out_channels1_0,axe_yy1_0;16;;;C:2, C:2, F:16, Y:1, C:16, X:7, W:3, W:1, H:3, X:1, Y:7, C:16, F:64, ;614.636598110199
40;1;MobilNet_09;5.676961100000001;0.1529785815527455;1;axe_out_channels1_0,axe_yy1_0,axe_xx1_0;112;;;C:2, C:2, F:16, Y:1, C:16, X:7, W:3, W:1, H:3, X:1, Y:7, C:16, F:64, ;622.5483593940735
41;0;MobilNet_09;2.0394558999999997;0.016843206710421964;1;axe_out_channels1_0,axe_yy1_0;16;;;C:4, C:1, F:16, Y:1, C:16, X:7, W:3, W:1, H:3, X:1, Y:7, C:16, F:64, ;629.769410610199
41;1;MobilNet_09;5.548193400000001;0.15372626481262075;1;axe_out_channels1_0,axe_yy1_0,axe_xx1_0;112;;;C:4, C:1, F:16, Y:1, C:16, X:7, W:3, W:1, H:3, X:1, Y:7, C:16, F:64, ;637.5858483314514
42;0;MobilNet_09;1.8705742;0.020676887864473237;1;axe_out_channels1_0,axe_yy1_0;16;;;C:1, C:4, F:16, Y:1, C:16, X:7, H:3, W:3, H:1, X:1, Y:7, C:16, F:64, ;644.8184864521027
42;1;MobilNet_09;5.3242046;0.14336901063423735;1;axe_out_channels1_0,axe_yy1_0,axe_xx1_0;112;;;C:1, C:4, F:16, Y:1, C:16, X:7, H:3, W:3, H:1, X:1, Y:7, C:16, F:64, ;652.6360015869141
43;0;MobilNet_09;1.8322202;0.02154369874835793;1;axe_out_channels1_0,axe_yy1_0;16;;;C:2, C:2, F:16, Y:1, C:16, X:7, H:3, W:3, H:1, X:1, Y:7, C:16, F:64, ;659.8354635238647
43;1;MobilNet_09;5.2297852;0.1683930385062279;1;axe_out_channels1_0,axe_yy1_0,axe_xx1_0;112;;;C:2, C:2, F:16, Y:1, C:16, X:7, H:3, W:3, H:1, X:1, Y:7, C:16, F:64, ;667.7108190059662
44;0;MobilNet_09;1.8206491999999996;0.013165196738370468;1;axe_out_channels1_0,axe_yy1_0;16;;;C:4, C:1, F:16, Y:1, C:16, X:7, H:3, W:3, H:1, X:1, Y:7, C:16, F:64, ;674.8810911178589
44;1;MobilNet_09;5.3238011;0.2452087004457428;1;axe_out_channels1_0,axe_yy1_0,axe_xx1_0;112;;;C:4, C:1, F:16, Y:1, C:16, X:7, H:3, W:3, H:1, X:1, Y:7, C:16, F:64, ;682.5111451148987
45;0;MobilNet_09;2.6992539;0.03650457172040234;1;axe_out_channels1_0,axe_yy1_0;16;;;C:1, C:4, F:16, Y:1, C:32, X:7, H:3, W:3, W:1, H:1, X:1, Y:7, C:8, F:64, ;689.8378310203552
45;1;MobilNet_09;5.1691947;0.08275376119071591;1;axe_out_channels1_0,axe_yy1_0,axe_xx1_0;112;;;C:1, C:4, F:16, Y:1, C:32, X:7, H:3, W:3, W:1, H:1, X:1, Y:7, C:8, F:64, ;697.726710319519
46;0;MobilNet_09;2.6871663;0.028050473119182833;1;axe_out_channels1_0,axe_yy1_0;16;;;C:2, C:2, F:16, Y:1, C:32, X:7, H:3, W:3, W:1, H:1, X:1, Y:7, C:8, F:64, ;705.1048018932343
46;1;MobilNet_09;5.2200284;0.13375085784263227;1;axe_out_channels1_0,axe_yy1_0,axe_xx1_0;112;;;C:2, C:2, F:16, Y:1, C:32, X:7, H:3, W:3, W:1, H:1, X:1, Y:7, C:8, F:64, ;712.9206485748291
47;0;MobilNet_09;2.6758081000000002;0.02453253723710611;1;axe_out_channels1_0,axe_yy1_0;16;;;C:4, C:1, F:16, Y:1, C:32, X:7, H:3, W:3, W:1, H:1, X:1, Y:7, C:8, F:64, ;720.287703037262
47;1;MobilNet_09;5.2671618;0.06903976270063518;1;axe_out_channels1_0,axe_yy1_0,axe_xx1_0;112;;;C:4, C:1, F:16, Y:1, C:32, X:7, H:3, W:3, W:1, H:1, X:1, Y:7, C:8, F:64, ;728.0016734600067
48;0;MobilNet_09;2.1038398;0.023114388851103163;1;axe_out_channels1_0,axe_yy1_0;16;;;C:1, C:4, F:16, Y:1, C:32, X:7, W:3, W:1, H:3, X:1, Y:7, C:8, F:64, ;735.4301402568817
48;1;MobilNet_09;5.182209000000001;0.21683571893255948;1;axe_out_channels1_0,axe_yy1_0,axe_xx1_0;112;;;C:1, C:4, F:16, Y:1, C:32, X:7, W:3, W:1, H:3, X:1, Y:7, C:8, F:64, ;743.2375898361206
49;0;MobilNet_09;2.0879807999999995;0.026773661571776124;1;axe_out_channels1_0,axe_yy1_0;16;;;C:2, C:2, F:16, Y:1, C:32, X:7, W:3, W:1, H:3, X:1, Y:7, C:8, F:64, ;750.710443019867
49;1;MobilNet_09;5.4479175;0.13317826177364706;1;axe_out_channels1_0,axe_yy1_0,axe_xx1_0;112;;;C:2, C:2, F:16, Y:1, C:32, X:7, W:3, W:1, H:3, X:1, Y:7, C:8, F:64, ;758.5407762527466
50;0;MobilNet_09;2.0665618999999995;0.00999087478101896;1;axe_out_channels1_0,axe_yy1_0;16;;;C:4, C:1, F:16, Y:1, C:32, X:7, W:3, W:1, H:3, X:1, Y:7, C:8, F:64, ;765.8577628135681
50;1;MobilNet_09;5.549359;0.11820625522280959;1;axe_out_channels1_0,axe_yy1_0,axe_xx1_0;112;;;C:4, C:1, F:16, Y:1, C:32, X:7, W:3, W:1, H:3, X:1, Y:7, C:8, F:64, ;773.773496389389
51;0;MobilNet_09;2.0090395;0.04751610355079629;1;axe_out_channels1_0,axe_yy1_0;16;;;C:1, C:4, F:16, Y:1, C:32, X:7, H:3, W:3, H:1, X:1, Y:7, C:8, F:64, ;781.2671427726746
51;1;MobilNet_09;5.4399659;0.12720789255423584;1;axe_out_channels1_0,axe_yy1_0,axe_xx1_0;112;;;C:1, C:4, F:16, Y:1, C:32, X:7, H:3, W:3, H:1, X:1, Y:7, C:8, F:64, ;789.1902842521667
52;0;MobilNet_09;1.9657823999999997;0.04358738328048611;1;axe_out_channels1_0,axe_yy1_0;16;;;C:2, C:2, F:16, Y:1, C:32, X:7, H:3, W:3, H:1, X:1, Y:7, C:8, F:64, ;796.6262848377228
52;1;MobilNet_09;5.452716700000001;0.16843245442672272;1;axe_out_channels1_0,axe_yy1_0,axe_xx1_0;112;;;C:2, C:2, F:16, Y:1, C:32, X:7, H:3, W:3, H:1, X:1, Y:7, C:8, F:64, ;804.2340407371521
53;0;MobilNet_09;1.9795535000000002;0.044893864512313975;1;axe_out_channels1_0,axe_yy1_0;16;;;C:4, C:1, F:16, Y:1, C:32, X:7, H:3, W:3, H:1, X:1, Y:7, C:8, F:64, ;811.7005050182343
53;1;MobilNet_09;5.1488762999999995;0.16346132923297163;1;axe_out_channels1_0,axe_yy1_0,axe_xx1_0;112;;;C:4, C:1, F:16, Y:1, C:32, X:7, H:3, W:3, H:1, X:1, Y:7, C:8, F:64, ;819.5546345710754
54;0;MobilNet_09;3.2470491000000004;0.028907738207787883;1;axe_out_channels1_0,axe_yy1_0;16;;;C:1, C:16, F:16, Y:1, C:2, X:7, H:3, W:3, W:1, H:1, X:1, Y:7, C:32, F:64, ;826.8987789154053
54;1;MobilNet_09;5.088728099999999;0.10356513269575797;1;axe_out_channels1_0,axe_yy1_0,axe_xx1_0;112;;;C:1, C:16, F:16, Y:1, C:2, X:7, H:3, W:3, W:1, H:1, X:1, Y:7, C:32, F:64, ;834.6581709384918
55;0;MobilNet_09;3.2336407;0.0412225607090341;1;axe_out_channels1_0,axe_yy1_0;16;;;C:16, C:1, F:16, Y:1, C:2, X:7, H:3, W:3, W:1, H:1, X:1, Y:7, C:32, F:64, ;841.8703260421753
55;1;MobilNet_09;5.0268028;0.09782389592303121;1;axe_out_channels1_0,axe_yy1_0,axe_xx1_0;112;;;C:16, C:1, F:16, Y:1, C:2, X:7, H:3, W:3, W:1, H:1, X:1, Y:7, C:32, F:64, ;849.5304248332977
56;0;MobilNet_09;3.6233791;0.1294320496596187;1;axe_out_channels1_0,axe_yy1_0;16;;;C:1, C:16, F:16, Y:1, C:2, X:7, W:3, W:1, H:3, X:1, Y:7, C:32, F:64, ;856.7669248580933
56;1;MobilNet_09;5.6783093000000004;0.258134343386559;1;axe_out_channels1_0,axe_yy1_0,axe_xx1_0;112;;;C:1, C:16, F:16, Y:1, C:2, X:7, W:3, W:1, H:3, X:1, Y:7, C:32, F:64, ;864.5441403388977
57;0;MobilNet_09;3.5877093;0.12127286208138248;1;axe_out_channels1_0,axe_yy1_0;16;;;C:16, C:1, F:16, Y:1, C:2, X:7, W:3, W:1, H:3, X:1, Y:7, C:32, F:64, ;871.7787263393402
57;1;MobilNet_09;5.3883947999999995;0.11319612029376279;1;axe_out_channels1_0,axe_yy1_0,axe_xx1_0;112;;;C:16, C:1, F:16, Y:1, C:2, X:7, W:3, W:1, H:3, X:1, Y:7, C:32, F:64, ;879.8726098537445
58;0;MobilNet_09;3.2463796;0.08842444055599107;1;axe_out_channels1_0,axe_yy1_0;16;;;C:1, C:16, F:16, Y:1, C:2, X:7, H:3, W:3, H:1, X:1, Y:7, C:32, F:64, ;887.0622131824493
58;1;MobilNet_09;5.3770866999999996;0.155577408953903;1;axe_out_channels1_0,axe_yy1_0,axe_xx1_0;112;;;C:1, C:16, F:16, Y:1, C:2, X:7, H:3, W:3, H:1, X:1, Y:7, C:32, F:64, ;894.9358627796173
59;0;MobilNet_09;3.0453824999999997;0.13562737436244202;1;axe_out_channels1_0,axe_yy1_0;16;;;C:16, C:1, F:16, Y:1, C:2, X:7, H:3, W:3, H:1, X:1, Y:7, C:32, F:64, ;902.1854720115662
59;1;MobilNet_09;5.3405062;0.10293591762625903;1;axe_out_channels1_0,axe_yy1_0,axe_xx1_0;112;;;C:16, C:1, F:16, Y:1, C:2, X:7, H:3, W:3, H:1, X:1, Y:7, C:32, F:64, ;909.895046710968
60;0;MobilNet_09;2.2471991000000004;0.03778881169460085;1;axe_out_channels1_0,axe_yy1_0;16;;;C:1, C:16, F:16, Y:1, C:4, X:7, H:3, W:3, W:1, H:1, X:1, Y:7, C:16, F:64, ;917.0565295219421
60;1;MobilNet_09;5.083421899999999;0.13860659053482996;1;axe_out_channels1_0,axe_yy1_0,axe_xx1_0;112;;;C:1, C:16, F:16, Y:1, C:4, X:7, H:3, W:3, W:1, H:1, X:1, Y:7, C:16, F:64, ;924.765463590622
61;0;MobilNet_09;2.2420750999999997;0.013454220709130627;1;axe_out_channels1_0,axe_yy1_0;16;;;C:16, C:1, F:16, Y:1, C:4, X:7, H:3, W:3, W:1, H:1, X:1, Y:7, C:16, F:64, ;931.9679999351501
61;1;MobilNet_09;5.156001000000001;0.052768554532031726;1;axe_out_channels1_0,axe_yy1_0,axe_xx1_0;112;;;C:16, C:1, F:16, Y:1, C:4, X:7, H:3, W:3, W:1, H:1, X:1, Y:7, C:16, F:64, ;939.8177332878113
62;0;MobilNet_09;2.379369;0.012040216833595716;1;axe_out_channels1_0,axe_yy1_0;16;;;C:1, C:16, F:16, Y:1, C:4, X:7, W:3, W:1, H:3, X:1, Y:7, C:16, F:64, ;947.045351266861
62;1;MobilNet_09;5.5204021;0.14812999523827033;1;axe_out_channels1_0,axe_yy1_0,axe_xx1_0;112;;;C:1, C:16, F:16, Y:1, C:4, X:7, W:3, W:1, H:3, X:1, Y:7, C:16, F:64, ;954.8351044654846
63;0;MobilNet_09;2.3883979999999996;0.013879311928190044;1;axe_out_channels1_0,axe_yy1_0;16;;;C:16, C:1, F:16, Y:1, C:4, X:7, W:3, W:1, H:3, X:1, Y:7, C:16, F:64, ;962.0316090583801
63;1;MobilNet_09;5.4211382;0.11873608918504919;1;axe_out_channels1_0,axe_yy1_0,axe_xx1_0;112;;;C:16, C:1, F:16, Y:1, C:4, X:7, W:3, W:1, H:3, X:1, Y:7, C:16, F:64, ;970.014456987381
64;0;MobilNet_09;2.1913892;0.018050340904259946;1;axe_out_channels1_0,axe_yy1_0;16;;;C:1, C:16, F:16, Y:1, C:4, X:7, H:3, W:3, H:1, X:1, Y:7, C:16, F:64, ;977.2508835792542
64;1;MobilNet_09;5.4354827000000006;0.1179036653315325;1;axe_out_channels1_0,axe_yy1_0,axe_xx1_0;112;;;C:1, C:16, F:16, Y:1, C:4, X:7, H:3, W:3, H:1, X:1, Y:7, C:16, F:64, ;984.8955914974213
65;0;MobilNet_09;2.1944567999999998;0.010555528113742121;1;axe_out_channels1_0,axe_yy1_0;16;;;C:16, C:1, F:16, Y:1, C:4, X:7, H:3, W:3, H:1, X:1, Y:7, C:16, F:64, ;992.1878106594086
65;1;MobilNet_09;5.2675982;0.20663081063326447;1;axe_out_channels1_0,axe_yy1_0,axe_xx1_0;112;;;C:16, C:1, F:16, Y:1, C:4, X:7, H:3, W:3, H:1, X:1, Y:7, C:16, F:64, ;1000.1339282989502
66;0;MobilNet_09;2.6830343;0.02120168490969524;1;axe_out_channels1_0,axe_yy1_0;16;;;C:1, C:16, F:16, Y:1, C:8, X:7, H:3, W:3, W:1, H:1, X:1, Y:7, C:8, F:64, ;1007.6208789348602
66;1;MobilNet_09;5.2373383;0.12557160389439143;1;axe_out_channels1_0,axe_yy1_0,axe_xx1_0;112;;;C:1, C:16, F:16, Y:1, C:8, X:7, H:3, W:3, W:1, H:1, X:1, Y:7, C:8, F:64, ;1015.5168869495392
67;0;MobilNet_09;2.7068103;0.01966952509365697;1;axe_out_channels1_0,axe_yy1_0;16;;;C:16, C:1, F:16, Y:1, C:8, X:7, H:3, W:3, W:1, H:1, X:1, Y:7, C:8, F:64, ;1023.050360918045
67;1;MobilNet_09;5.1598322;0.10821184126776522;1;axe_out_channels1_0,axe_yy1_0,axe_xx1_0;112;;;C:16, C:1, F:16, Y:1, C:8, X:7, H:3, W:3, W:1, H:1, X:1, Y:7, C:8, F:64, ;1030.8694293498993
68;0;MobilNet_09;2.5191063;0.014840167047914236;1;axe_out_channels1_0,axe_yy1_0;16;;;C:1, C:16, F:16, Y:1, C:8, X:7, W:3, W:1, H:3, X:1, Y:7, C:8, F:64, ;1038.3694381713867
68;1;MobilNet_09;5.6238809;0.12974475937505153;1;axe_out_channels1_0,axe_yy1_0,axe_xx1_0;112;;;C:1, C:16, F:16, Y:1, C:8, X:7, W:3, W:1, H:3, X:1, Y:7, C:8, F:64, ;1046.018006324768
69;0;MobilNet_09;2.5313103;0.01300217936386048;1;axe_out_channels1_0,axe_yy1_0;16;;;C:16, C:1, F:16, Y:1, C:8, X:7, W:3, W:1, H:3, X:1, Y:7, C:8, F:64, ;1053.4865622520447
69;1;MobilNet_09;5.596028800000001;0.11988705870176297;1;axe_out_channels1_0,axe_yy1_0,axe_xx1_0;112;;;C:16, C:1, F:16, Y:1, C:8, X:7, W:3, W:1, H:3, X:1, Y:7, C:8, F:64, ;1061.3427453041077
70;0;MobilNet_09;2.3595094;0.018209122819070625;1;axe_out_channels1_0,axe_yy1_0;16;;;C:1, C:16, F:16, Y:1, C:8, X:7, H:3, W:3, H:1, X:1, Y:7, C:8, F:64, ;1069.0010404586792
70;1;MobilNet_09;5.3277453;0.13443378739591477;1;axe_out_channels1_0,axe_yy1_0,axe_xx1_0;112;;;C:1, C:16, F:16, Y:1, C:8, X:7, H:3, W:3, H:1, X:1, Y:7, C:8, F:64, ;1076.7351515293121
71;0;MobilNet_09;4.6877464;0.1585594112490333;1;axe_out_channels1_0,axe_yy1_0;16;;;C:2, C:8, F:16, Y:1, C:2, X:7, H:3, W:3, W:1, H:1, X:1, Y:7, C:32, F:64, ;1084.092294216156
71;1;MobilNet_09;5.19372;0.1335104158011652;1;axe_out_channels1_0,axe_yy1_0,axe_xx1_0;112;;;C:2, C:8, F:16, Y:1, C:2, X:7, H:3, W:3, W:1, H:1, X:1, Y:7, C:32, F:64, ;1091.8955392837524
72;0;MobilNet_09;3.7170836;0.12097385605923282;1;axe_out_channels1_0,axe_yy1_0;16;;;C:2, C:8, F:16, Y:1, C:2, X:7, W:3, W:1, H:3, X:1, Y:7, C:32, F:64, ;1099.216607093811
72;1;MobilNet_09;5.245006699999999;0.09863420489064638;1;axe_out_channels1_0,axe_yy1_0,axe_xx1_0;112;;;C:2, C:8, F:16, Y:1, C:2, X:7, W:3, W:1, H:3, X:1, Y:7, C:32, F:64, ;1107.0031423568726
73;0;MobilNet_09;4.2052757;0.5841006604992071;1;axe_out_channels1_0,axe_yy1_0;16;;;C:2, C:8, F:16, Y:1, C:2, X:7, H:3, W:3, H:1, X:1, Y:7, C:32, F:64, ;1114.3488342761993
73;1;MobilNet_09;5.166191599999999;0.06933040410555809;1;axe_out_channels1_0,axe_yy1_0,axe_xx1_0;112;;;C:2, C:8, F:16, Y:1, C:2, X:7, H:3, W:3, H:1, X:1, Y:7, C:32, F:64, ;1122.3333299160004
74;0;MobilNet_09;2.2508682999999996;0.019315550274584457;1;axe_out_channels1_0,axe_yy1_0;16;;;C:2, C:8, F:16, Y:1, C:4, X:7, H:3, W:3, W:1, H:1, X:1, Y:7, C:16, F:64, ;1129.6211891174316
74;1;MobilNet_09;4.7822338;0.04124751952008759;1;axe_out_channels1_0,axe_yy1_0,axe_xx1_0;112;;;C:2, C:8, F:16, Y:1, C:4, X:7, H:3, W:3, W:1, H:1, X:1, Y:7, C:16, F:64, ;1137.4895598888397
75;0;MobilNet_09;2.3995987999999997;0.010337385750759162;1;axe_out_channels1_0,axe_yy1_0;16;;;C:2, C:8, F:16, Y:1, C:4, X:7, W:3, W:1, H:3, X:1, Y:7, C:16, F:64, ;1144.791830778122
75;1;MobilNet_09;5.3844076;0.06015399915417102;1;axe_out_channels1_0,axe_yy1_0,axe_xx1_0;112;;;C:2, C:8, F:16, Y:1, C:4, X:7, W:3, W:1, H:3, X:1, Y:7, C:16, F:64, ;1152.5607905387878
76;0;MobilNet_09;2.1833676;0.009150607588570217;1;axe_out_channels1_0,axe_yy1_0;16;;;C:2, C:8, F:16, Y:1, C:4, X:7, H:3, W:3, H:1, X:1, Y:7, C:16, F:64, ;1159.901300907135
76;1;MobilNet_09;5.1308563;0.07172036485273874;1;axe_out_channels1_0,axe_yy1_0,axe_xx1_0;112;;;C:2, C:8, F:16, Y:1, C:4, X:7, H:3, W:3, H:1, X:1, Y:7, C:16, F:64, ;1167.8293018341064
77;0;MobilNet_09;2.6977653;0.02830694363950303;1;axe_out_channels1_0,axe_yy1_0;16;;;C:2, C:8, F:16, Y:1, C:8, X:7, H:3, W:3, W:1, H:1, X:1, Y:7, C:8, F:64, ;1175.2465481758118
77;1;MobilNet_09;5.117039200000001;0.061072456850531205;1;axe_out_channels1_0,axe_yy1_0,axe_xx1_0;112;;;C:2, C:8, F:16, Y:1, C:8, X:7, H:3, W:3, W:1, H:1, X:1, Y:7, C:8, F:64, ;1183.182126045227
78;0;MobilNet_09;2.5219943000000002;0.005353365129523633;1;axe_out_channels1_0,axe_yy1_0;16;;;C:2, C:8, F:16, Y:1, C:8, X:7, W:3, W:1, H:3, X:1, Y:7, C:8, F:64, ;1190.7493770122528
78;1;MobilNet_09;5.0426533;0.09554347849649406;1;axe_out_channels1_0,axe_yy1_0,axe_xx1_0;112;;;C:2, C:8, F:16, Y:1, C:8, X:7, W:3, W:1, H:3, X:1, Y:7, C:8, F:64, ;1198.6016273498535
79;0;MobilNet_09;2.3803708;0.021346573443061102;1;axe_out_channels1_0,axe_yy1_0;16;;;C:2, C:8, F:16, Y:1, C:8, X:7, H:3, W:3, H:1, X:1, Y:7, C:8, F:64, ;1206.3515193462372
79;1;MobilNet_09;5.0978311000000005;0.08210242986227634;1;axe_out_channels1_0,axe_yy1_0,axe_xx1_0;112;;;C:2, C:8, F:16, Y:1, C:8, X:7, H:3, W:3, H:1, X:1, Y:7, C:8, F:64, ;1214.1091315746307
80;0;MobilNet_09;3.3094713999999996;0.015991081096661284;1;axe_out_channels1_0,axe_yy1_0;16;;;C:1, C:32, F:16, Y:1, C:1, X:7, H:3, W:3, W:1, H:1, X:1, Y:7, C:32, F:64, ;1221.3843643665314
80;1;MobilNet_09;4.762222200000001;0.08221647070119215;1;axe_out_channels1_0,axe_yy1_0,axe_xx1_0;112;;;C:1, C:32, F:16, Y:1, C:1, X:7, H:3, W:3, W:1, H:1, X:1, Y:7, C:32, F:64, ;1229.0256941318512
81;0;MobilNet_09;3.2337867000000005;0.030195644338380973;1;axe_out_channels1_0,axe_yy1_0;16;;;C:16, C:2, F:16, Y:1, C:1, X:7, H:3, W:3, W:1, H:1, X:1, Y:7, C:32, F:64, ;1236.2911131381989
81;1;MobilNet_09;4.650458899999999;0.04025544583643328;1;axe_out_channels1_0,axe_yy1_0,axe_xx1_0;112;;;C:16, C:2, F:16, Y:1, C:1, X:7, H:3, W:3, W:1, H:1, X:1, Y:7, C:32, F:64, ;1244.0588958263397
82;0;MobilNet_09;3.2578207;0.03230777127890447;1;axe_out_channels1_0,axe_yy1_0;16;;;C:32, C:1, F:16, Y:1, C:1, X:7, H:3, W:3, W:1, H:1, X:1, Y:7, C:32, F:64, ;1251.3436319828033
82;1;MobilNet_09;4.666115700000001;0.05717717497577159;1;axe_out_channels1_0,axe_yy1_0,axe_xx1_0;112;;;C:32, C:1, F:16, Y:1, C:1, X:7, H:3, W:3, W:1, H:1, X:1, Y:7, C:32, F:64, ;1259.101387500763
83;0;MobilNet_09;3.5158184000000006;0.04624950053395175;1;axe_out_channels1_0,axe_yy1_0;16;;;C:1, C:32, F:16, Y:1, C:1, X:7, W:3, W:1, H:3, X:1, Y:7, C:32, F:64, ;1266.442610502243
83;1;MobilNet_09;5.3201436;0.10265768432338618;1;axe_out_channels1_0,axe_yy1_0,axe_xx1_0;112;;;C:1, C:32, F:16, Y:1, C:1, X:7, W:3, W:1, H:3, X:1, Y:7, C:32, F:64, ;1274.1960048675537
84;0;MobilNet_09;3.6160962;0.056911747627005814;1;axe_out_channels1_0,axe_yy1_0;16;;;C:16, C:2, F:16, Y:1, C:1, X:7, W:3, W:1, H:3, X:1, Y:7, C:32, F:64, ;1281.5626893043518
84;1;MobilNet_09;5.250794900000001;0.058622248226163985;1;axe_out_channels1_0,axe_yy1_0,axe_xx1_0;112;;;C:16, C:2, F:16, Y:1, C:1, X:7, W:3, W:1, H:3, X:1, Y:7, C:32, F:64, ;1289.3880174160004
85;0;MobilNet_09;3.6194403;0.051789073328357624;1;axe_out_channels1_0,axe_yy1_0;16;;;C:32, C:1, F:16, Y:1, C:1, X:7, W:3, W:1, H:3, X:1, Y:7, C:32, F:64, ;1296.7186329364777
85;1;MobilNet_09;5.2225209;0.05600004354185817;1;axe_out_channels1_0,axe_yy1_0,axe_xx1_0;112;;;C:32, C:1, F:16, Y:1, C:1, X:7, W:3, W:1, H:3, X:1, Y:7, C:32, F:64, ;1304.7082307338715
86;0;MobilNet_09;3.4475010000000004;0.03513746666167043;1;axe_out_channels1_0,axe_yy1_0;16;;;C:1, C:32, F:16, Y:1, C:1, X:7, H:3, W:3, H:1, X:1, Y:7, C:32, F:64, ;1312.0668725967407
86;1;MobilNet_09;5.139629899999999;0.06094153517339373;1;axe_out_channels1_0,axe_yy1_0,axe_xx1_0;112;;;C:1, C:32, F:16, Y:1, C:1, X:7, H:3, W:3, H:1, X:1, Y:7, C:32, F:64, ;1319.9078750610352
87;0;MobilNet_09;3.3928351;0.02703300173658107;1;axe_out_channels1_0,axe_yy1_0;16;;;C:16, C:2, F:16, Y:1, C:1, X:7, H:3, W:3, H:1, X:1, Y:7, C:32, F:64, ;1327.229689836502
87;1;MobilNet_09;5.0647757;0.043209910747535885;1;axe_out_channels1_0,axe_yy1_0,axe_xx1_0;112;;;C:16, C:2, F:16, Y:1, C:1, X:7, H:3, W:3, H:1, X:1, Y:7, C:32, F:64, ;1335.1320359706879
88;0;MobilNet_09;4.662906899999999;0.01915592773242797;1;axe_out_channels1_0,axe_yy1_0;16;;;C:32, C:1, F:16, Y:1, C:1, X:7, H:3, W:3, H:1, X:1, Y:7, C:32, F:64, ;1342.5149493217468
88;1;MobilNet_09;5.1605496;0.07548164841496242;1;axe_out_channels1_0,axe_yy1_0,axe_xx1_0;112;;;C:32, C:1, F:16, Y:1, C:1, X:7, H:3, W:3, H:1, X:1, Y:7, C:32, F:64, ;1350.5066537857056
89;0;MobilNet_09;2.2695379;0.012290014039455024;1;axe_out_channels1_0,axe_yy1_0;16;;;C:1, C:32, F:16, Y:1, C:2, X:7, H:3, W:3, W:1, H:1, X:1, Y:7, C:16, F:64, ;1357.7561285495758
89;1;MobilNet_09;4.710338299999999;0.0703829133256787;1;axe_out_channels1_0,axe_yy1_0,axe_xx1_0;112;;;C:1, C:32, F:16, Y:1, C:2, X:7, H:3, W:3, W:1, H:1, X:1, Y:7, C:16, F:64, ;1365.5894560813904
90;0;MobilNet_09;2.2409586;0.017871165788498438;1;axe_out_channels1_0,axe_yy1_0;16;;;C:16, C:2, F:16, Y:1, C:2, X:7, H:3, W:3, W:1, H:1, X:1, Y:7, C:16, F:64, ;1372.8815083503723
90;1;MobilNet_09;4.6889413;0.06686505913861132;1;axe_out_channels1_0,axe_yy1_0,axe_xx1_0;112;;;C:16, C:2, F:16, Y:1, C:2, X:7, H:3, W:3, W:1, H:1, X:1, Y:7, C:16, F:64, ;1380.8488681316376
91;0;MobilNet_09;2.2964781000000003;0.01928053294102623;1;axe_out_channels1_0,axe_yy1_0;16;;;C:32, C:1, F:16, Y:1, C:2, X:7, H:3, W:3, W:1, H:1, X:1, Y:7, C:16, F:64, ;1388.1541938781738
91;1;MobilNet_09;4.7675414;0.05788295366720673;1;axe_out_channels1_0,axe_yy1_0,axe_xx1_0;112;;;C:32, C:1, F:16, Y:1, C:2, X:7, H:3, W:3, W:1, H:1, X:1, Y:7, C:16, F:64, ;1395.9913940429688
92;0;MobilNet_09;2.4363622;0.012162218291084886;1;axe_out_channels1_0,axe_yy1_0;16;;;C:1, C:32, F:16, Y:1, C:2, X:7, W:3, W:1, H:3, X:1, Y:7, C:16, F:64, ;1403.3019409179688
92;1;MobilNet_09;5.2537282;0.07390222696888106;1;axe_out_channels1_0,axe_yy1_0,axe_xx1_0;112;;;C:1, C:32, F:16, Y:1, C:2, X:7, W:3, W:1, H:3, X:1, Y:7, C:16, F:64, ;1411.236387014389
93;0;MobilNet_09;2.4507138;0.012653313074448154;1;axe_out_channels1_0,axe_yy1_0;16;;;C:16, C:2, F:16, Y:1, C:2, X:7, W:3, W:1, H:3, X:1, Y:7, C:16, F:64, ;1418.5211350917816
93;1;MobilNet_09;5.044075700000001;0.09356948707890837;1;axe_out_channels1_0,axe_yy1_0,axe_xx1_0;112;;;C:16, C:2, F:16, Y:1, C:2, X:7, W:3, W:1, H:3, X:1, Y:7, C:16, F:64, ;1426.5522742271423
94;0;MobilNet_09;2.4298128000000005;0.011643105975640746;1;axe_out_channels1_0,axe_yy1_0;16;;;C:32, C:1, F:16, Y:1, C:2, X:7, W:3, W:1, H:3, X:1, Y:7, C:16, F:64, ;1433.8769454956055
94;1;MobilNet_09;5.2484223000000005;0.06278957493573298;1;axe_out_channels1_0,axe_yy1_0,axe_xx1_0;112;;;C:32, C:1, F:16, Y:1, C:2, X:7, W:3, W:1, H:3, X:1, Y:7, C:16, F:64, ;1441.8483142852783
95;0;MobilNet_09;2.2565087999999998;0.021186392108143354;1;axe_out_channels1_0,axe_yy1_0;16;;;C:1, C:32, F:16, Y:1, C:2, X:7, H:3, W:3, H:1, X:1, Y:7, C:16, F:64, ;1449.1948854923248
95;1;MobilNet_09;4.9746566;0.06666672934710377;1;axe_out_channels1_0,axe_yy1_0,axe_xx1_0;112;;;C:1, C:32, F:16, Y:1, C:2, X:7, H:3, W:3, H:1, X:1, Y:7, C:16, F:64, ;1456.9213688373566
96;0;MobilNet_09;2.2077222;0.010372825910040158;1;axe_out_channels1_0,axe_yy1_0;16;;;C:16, C:2, F:16, Y:1, C:2, X:7, H:3, W:3, H:1, X:1, Y:7, C:16, F:64, ;1464.2935991287231
96;1;MobilNet_09;5.266627199999999;0.04846047011080284;1;axe_out_channels1_0,axe_yy1_0,axe_xx1_0;112;;;C:16, C:2, F:16, Y:1, C:2, X:7, H:3, W:3, H:1, X:1, Y:7, C:16, F:64, ;1472.2590029239655
97;0;MobilNet_09;2.2957861;0.011639505577557833;1;axe_out_channels1_0,axe_yy1_0;16;;;C:32, C:1, F:16, Y:1, C:2, X:7, H:3, W:3, H:1, X:1, Y:7, C:16, F:64, ;1479.558129787445
97;1;MobilNet_09;4.871695;0.0868833022369662;1;axe_out_channels1_0,axe_yy1_0,axe_xx1_0;112;;;C:32, C:1, F:16, Y:1, C:2, X:7, H:3, W:3, H:1, X:1, Y:7, C:16, F:64, ;1487.4310998916626
98;0;MobilNet_09;2.7655676000000002;0.018136934339628603;1;axe_out_channels1_0,axe_yy1_0;16;;;C:1, C:32, F:16, Y:1, C:4, X:7, H:3, W:3, W:1, H:1, X:1, Y:7, C:8, F:64, ;1495.1138107776642
98;1;MobilNet_09;4.82426;0.06529808428277212;1;axe_out_channels1_0,axe_yy1_0,axe_xx1_0;112;;;C:1, C:32, F:16, Y:1, C:4, X:7, H:3, W:3, W:1, H:1, X:1, Y:7, C:8, F:64, ;1502.9801123142242
99;0;MobilNet_09;2.6821872;0.014567265651452933;1;axe_out_channels1_0,axe_yy1_0;16;;;C:16, C:2, F:16, Y:1, C:4, X:7, H:3, W:3, W:1, H:1, X:1, Y:7, C:8, F:64, ;1510.6072959899902
99;1;MobilNet_09;5.0718682;0.048122631725208045;1;axe_out_channels1_0,axe_yy1_0,axe_xx1_0;112;;;C:16, C:2, F:16, Y:1, C:4, X:7, H:3, W:3, W:1, H:1, X:1, Y:7, C:8, F:64, ;1518.4165687561035
100;0;MobilNet_09;2.7569687;0.016267397991381338;1;axe_out_channels1_0,axe_yy1_0;16;;;C:32, C:1, F:16, Y:1, C:4, X:7, H:3, W:3, W:1, H:1, X:1, Y:7, C:8, F:64, ;1526.0775270462036
100;1;MobilNet_09;5.0008141;0.1005232530725602;1;axe_out_channels1_0,axe_yy1_0,axe_xx1_0;112;;;C:32, C:1, F:16, Y:1, C:4, X:7, H:3, W:3, W:1, H:1, X:1, Y:7, C:8, F:64, ;1534.1636233329773
101;0;MobilNet_09;2.5768069;0.012967114347070497;1;axe_out_channels1_0,axe_yy1_0;16;;;C:1, C:32, F:16, Y:1, C:4, X:7, W:3, W:1, H:3, X:1, Y:7, C:8, F:64, ;1541.604707479477
101;1;MobilNet_09;5.3901425000000005;0.09169878563454376;1;axe_out_channels1_0,axe_yy1_0,axe_xx1_0;112;;;C:1, C:32, F:16, Y:1, C:4, X:7, W:3, W:1, H:3, X:1, Y:7, C:8, F:64, ;1549.3896143436432
102;0;MobilNet_09;2.5484238;0.019902341564750584;1;axe_out_channels1_0,axe_yy1_0;16;;;C:16, C:2, F:16, Y:1, C:4, X:7, W:3, W:1, H:3, X:1, Y:7, C:8, F:64, ;1556.8286607265472
102;1;MobilNet_09;5.4777363999999995;0.09083024577441143;1;axe_out_channels1_0,axe_yy1_0,axe_xx1_0;112;;;C:16, C:2, F:16, Y:1, C:4, X:7, W:3, W:1, H:3, X:1, Y:7, C:8, F:64, ;1564.885820388794
103;0;MobilNet_09;2.5845525;0.008002301734501113;1;axe_out_channels1_0,axe_yy1_0;16;;;C:32, C:1, F:16, Y:1, C:4, X:7, W:3, W:1, H:3, X:1, Y:7, C:8, F:64, ;1572.4383380413055
103;1;MobilNet_09;5.4728811;0.09457649452633561;1;axe_out_channels1_0,axe_yy1_0,axe_xx1_0;112;;;C:32, C:1, F:16, Y:1, C:4, X:7, W:3, W:1, H:3, X:1, Y:7, C:8, F:64, ;1580.3347771167755
104;0;MobilNet_09;2.4091779;0.02141174527893512;1;axe_out_channels1_0,axe_yy1_0;16;;;C:1, C:32, F:16, Y:1, C:4, X:7, H:3, W:3, H:1, X:1, Y:7, C:8, F:64, ;1587.9802341461182
104;1;MobilNet_09;5.1815973;0.09376837411094438;1;axe_out_channels1_0,axe_yy1_0,axe_xx1_0;112;;;C:1, C:32, F:16, Y:1, C:4, X:7, H:3, W:3, H:1, X:1, Y:7, C:8, F:64, ;1595.835908651352
105;0;MobilNet_09;4.6633621000000005;0.022872573280896924;1;axe_out_channels1_0,axe_yy1_0;16;;;C:2, C:16, F:16, Y:1, C:1, X:7, H:3, W:3, W:1, H:1, X:1, Y:7, C:32, F:64, ;1603.1968076229095
105;1;MobilNet_09;4.7917572999999996;0.06359742420578049;1;axe_out_channels1_0,axe_yy1_0,axe_xx1_0;112;;;C:2, C:16, F:16, Y:1, C:1, X:7, H:3, W:3, W:1, H:1, X:1, Y:7, C:32, F:64, ;1610.8954138755798
106;0;MobilNet_09;4.9062612;0.3898438853692075;1;axe_out_channels1_0,axe_yy1_0;16;;;C:2, C:16, F:16, Y:1, C:1, X:7, W:3, W:1, H:3, X:1, Y:7, C:32, F:64, ;1618.285614490509
106;1;MobilNet_09;5.3191469;0.09058593666728834;1;axe_out_channels1_0,axe_yy1_0,axe_xx1_0;112;;;C:2, C:16, F:16, Y:1, C:1, X:7, W:3, W:1, H:3, X:1, Y:7, C:32, F:64, ;1626.2321515083313
107;0;MobilNet_09;3.4605642000000003;0.034754303436553044;1;axe_out_channels1_0,axe_yy1_0;16;;;C:2, C:16, F:16, Y:1, C:1, X:7, H:3, W:3, H:1, X:1, Y:7, C:32, F:64, ;1633.5413370132446
107;1;MobilNet_09;5.208904199999999;0.0680901800875868;1;axe_out_channels1_0,axe_yy1_0,axe_xx1_0;112;;;C:2, C:16, F:16, Y:1, C:1, X:7, H:3, W:3, H:1, X:1, Y:7, C:32, F:64, ;1641.454374551773
108;0;MobilNet_09;2.2005845;0.013974383115186168;1;axe_out_channels1_0,axe_yy1_0;16;;;C:2, C:16, F:16, Y:1, C:2, X:7, H:3, W:3, W:1, H:1, X:1, Y:7, C:16, F:64, ;1648.7579486370087
108;1;MobilNet_09;4.7639107;0.04050280426600109;1;axe_out_channels1_0,axe_yy1_0,axe_xx1_0;112;;;C:2, C:16, F:16, Y:1, C:2, X:7, H:3, W:3, W:1, H:1, X:1, Y:7, C:16, F:64, ;1656.5531902313232
109;0;MobilNet_09;2.4146560999999997;0.03007062698864124;1;axe_out_channels1_0,axe_yy1_0;16;;;C:2, C:16, F:16, Y:1, C:2, X:7, W:3, W:1, H:3, X:1, Y:7, C:16, F:64, ;1663.8557441234589
109;1;MobilNet_09;5.2414009;0.08010651904114895;1;axe_out_channels1_0,axe_yy1_0,axe_xx1_0;112;;;C:2, C:16, F:16, Y:1, C:2, X:7, W:3, W:1, H:3, X:1, Y:7, C:16, F:64, ;1671.7337543964386
110;0;MobilNet_09;2.2417065999999997;0.025469408219273446;1;axe_out_channels1_0,axe_yy1_0;16;;;C:2, C:16, F:16, Y:1, C:2, X:7, H:3, W:3, H:1, X:1, Y:7, C:16, F:64, ;1679.1233127117157
110;1;MobilNet_09;5.1268686;0.06545087450935988;1;axe_out_channels1_0,axe_yy1_0,axe_xx1_0;112;;;C:2, C:16, F:16, Y:1, C:2, X:7, H:3, W:3, H:1, X:1, Y:7, C:16, F:64, ;1687.1636741161346
111;0;MobilNet_09;2.6850429;0.009576685026145648;1;axe_out_channels1_0,axe_yy1_0;16;;;C:2, C:16, F:16, Y:1, C:4, X:7, H:3, W:3, W:1, H:1, X:1, Y:7, C:8, F:64, ;1694.7535450458527
111;1;MobilNet_09;4.8838221;0.027302204799063208;1;axe_out_channels1_0,axe_yy1_0,axe_xx1_0;112;;;C:2, C:16, F:16, Y:1, C:4, X:7, H:3, W:3, W:1, H:1, X:1, Y:7, C:8, F:64, ;1702.8007979393005
112;0;MobilNet_09;2.5229308999999995;0.010723354246223489;1;axe_out_channels1_0,axe_yy1_0;16;;;C:2, C:16, F:16, Y:1, C:4, X:7, W:3, W:1, H:3, X:1, Y:7, C:8, F:64, ;1710.375023841858
112;1;MobilNet_09;5.2353597999999995;0.043777294637288855;1;axe_out_channels1_0,axe_yy1_0,axe_xx1_0;112;;;C:2, C:16, F:16, Y:1, C:4, X:7, W:3, W:1, H:3, X:1, Y:7, C:8, F:64, ;1718.1543695926666
113;0;MobilNet_09;2.3733992;0.03316932670947654;1;axe_out_channels1_0,axe_yy1_0;16;;;C:2, C:16, F:16, Y:1, C:4, X:7, H:3, W:3, H:1, X:1, Y:7, C:8, F:64, ;1725.9106030464172
113;1;MobilNet_09;5.2001361;0.08934746055982777;1;axe_out_channels1_0,axe_yy1_0,axe_xx1_0;112;;;C:2, C:16, F:16, Y:1, C:4, X:7, H:3, W:3, H:1, X:1, Y:7, C:8, F:64, ;1733.6874408721924
114;0;MobilNet_09;4.5345251;0.480414268716792;1;axe_out_channels1_0,axe_yy1_0;16;;;C:1, C:8, F:16, Y:1, C:4, X:7, H:3, W:3, W:1, H:1, X:1, Y:7, C:32, F:64, ;1741.0384621620178
114;1;MobilNet_09;4.632355700000001;0.045144188066793406;1;axe_out_channels1_0,axe_yy1_0,axe_xx1_0;112;;;C:1, C:8, F:16, Y:1, C:4, X:7, H:3, W:3, W:1, H:1, X:1, Y:7, C:32, F:64, ;1748.7339508533478
115;0;MobilNet_09;4.768833299999999;0.02727602857107304;1;axe_out_channels1_0,axe_yy1_0;16;;;C:2, C:4, F:16, Y:1, C:4, X:7, H:3, W:3, W:1, H:1, X:1, Y:7, C:32, F:64, ;1756.0972349643707
115;1;MobilNet_09;4.6768578;0.05808350679289252;1;axe_out_channels1_0,axe_yy1_0,axe_xx1_0;112;;;C:2, C:4, F:16, Y:1, C:4, X:7, H:3, W:3, W:1, H:1, X:1, Y:7, C:32, F:64, ;1763.7816650867462
116;0;MobilNet_09;3.2362477999999997;0.02258584058564139;1;axe_out_channels1_0,axe_yy1_0;16;;;C:4, C:2, F:16, Y:1, C:4, X:7, H:3, W:3, W:1, H:1, X:1, Y:7, C:32, F:64, ;1771.113563299179
116;1;MobilNet_09;4.9339854;0.03839036586749315;1;axe_out_channels1_0,axe_yy1_0,axe_xx1_0;112;;;C:4, C:2, F:16, Y:1, C:4, X:7, H:3, W:3, W:1, H:1, X:1, Y:7, C:32, F:64, ;1779.0218091011047
117;0;MobilNet_09;4.050898;0.6838599632078194;1;axe_out_channels1_0,axe_yy1_0;16;;;C:4, C:4, F:16, Y:1, C:2, X:7, H:3, W:3, W:1, H:1, X:1, Y:7, C:32, F:64, ;1786.3854455947876
117;1;MobilNet_09;4.827534;0.050714831680682824;1;axe_out_channels1_0,axe_yy1_0,axe_xx1_0;112;;;C:4, C:4, F:16, Y:1, C:2, X:7, H:3, W:3, W:1, H:1, X:1, Y:7, C:32, F:64, ;1794.2530982494354
118;0;MobilNet_09;3.970425;0.7419147769422039;1;axe_out_channels1_0,axe_yy1_0;16;;;C:8, C:1, F:16, Y:1, C:4, X:7, H:3, W:3, W:1, H:1, X:1, Y:7, C:32, F:64, ;1801.5811245441437
118;1;MobilNet_09;4.6353697;0.054464247181155515;1;axe_out_channels1_0,axe_yy1_0,axe_xx1_0;112;;;C:8, C:1, F:16, Y:1, C:4, X:7, H:3, W:3, W:1, H:1, X:1, Y:7, C:32, F:64, ;1809.2927165031433
119;0;MobilNet_09;4.623438200000001;0.5414241037870035;1;axe_out_channels1_0,axe_yy1_0;16;;;C:1, C:8, F:16, Y:1, C:4, X:7, W:3, W:1, H:3, X:1, Y:7, C:32, F:64, ;1816.670172214508
119;1;MobilNet_09;5.3755724;0.049149552159099115;1;axe_out_channels1_0,axe_yy1_0,axe_xx1_0;112;;;C:1, C:8, F:16, Y:1, C:4, X:7, W:3, W:1, H:3, X:1, Y:7, C:32, F:64, ;1824.4072346687317
120;0;MobilNet_09;3.5637948;0.05446456608805407;1;axe_out_channels1_0,axe_yy1_0;16;;;C:2, C:4, F:16, Y:1, C:4, X:7, W:3, W:1, H:3, X:1, Y:7, C:32, F:64, ;1831.7263679504395
120;1;MobilNet_09;5.1261155;0.09723598867523285;1;axe_out_channels1_0,axe_yy1_0,axe_xx1_0;112;;;C:2, C:4, F:16, Y:1, C:4, X:7, W:3, W:1, H:3, X:1, Y:7, C:32, F:64, ;1839.7631442546844
121;0;MobilNet_09;3.5091823;0.28708952134658283;1;axe_out_channels1_0,axe_yy1_0;16;;;C:4, C:2, F:16, Y:1, C:4, X:7, W:3, W:1, H:3, X:1, Y:7, C:32, F:64, ;1847.0873727798462
121;1;MobilNet_09;5.240802499999999;0.06003867764574759;1;axe_out_channels1_0,axe_yy1_0,axe_xx1_0;112;;;C:4, C:2, F:16, Y:1, C:4, X:7, W:3, W:1, H:3, X:1, Y:7, C:32, F:64, ;1854.991711616516
122;0;MobilNet_09;3.2757815999999997;0.20922158956436585;1;axe_out_channels1_0,axe_yy1_0;16;;;C:4, C:4, F:16, Y:1, C:2, X:7, W:3, W:1, H:3, X:1, Y:7, C:32, F:64, ;1862.307991027832
122;1;MobilNet_09;5.2610244;0.07769087580301834;1;axe_out_channels1_0,axe_yy1_0,axe_xx1_0;112;;;C:4, C:4, F:16, Y:1, C:2, X:7, W:3, W:1, H:3, X:1, Y:7, C:32, F:64, ;1870.2007460594177
123;0;MobilNet_09;4.835951199999999;0.033336938404118686;1;axe_out_channels1_0,axe_yy1_0;16;;;C:8, C:1, F:16, Y:1, C:4, X:7, W:3, W:1, H:3, X:1, Y:7, C:32, F:64, ;1877.5631473064423
123;1;MobilNet_09;5.1441569000000005;0.13297579284475047;1;axe_out_channels1_0,axe_yy1_0,axe_xx1_0;112;;;C:8, C:1, F:16, Y:1, C:4, X:7, W:3, W:1, H:3, X:1, Y:7, C:32, F:64, ;1885.3800723552704
124;0;MobilNet_09;3.3194476;0.0212036050481988;1;axe_out_channels1_0,axe_yy1_0;16;;;C:1, C:8, F:16, Y:1, C:4, X:7, H:3, W:3, H:1, X:1, Y:7, C:32, F:64, ;1892.710461616516
124;1;MobilNet_09;5.0847625999999995;0.08774488232848687;1;axe_out_channels1_0,axe_yy1_0,axe_xx1_0;112;;;C:1, C:8, F:16, Y:1, C:4, X:7, H:3, W:3, H:1, X:1, Y:7, C:32, F:64, ;1900.5134513378143
125;0;MobilNet_09;4.1617942999999995;0.630373413139712;1;axe_out_channels1_0,axe_yy1_0;16;;;C:2, C:4, F:16, Y:1, C:4, X:7, H:3, W:3, H:1, X:1, Y:7, C:32, F:64, ;1907.8233649730682
125;1;MobilNet_09;5.042695800000001;0.08491755863400686;1;axe_out_channels1_0,axe_yy1_0,axe_xx1_0;112;;;C:2, C:4, F:16, Y:1, C:4, X:7, H:3, W:3, H:1, X:1, Y:7, C:32, F:64, ;1915.770961523056
126;0;MobilNet_09;3.1869102;0.11390691542465722;1;axe_out_channels1_0,axe_yy1_0;16;;;C:4, C:2, F:16, Y:1, C:4, X:7, H:3, W:3, H:1, X:1, Y:7, C:32, F:64, ;1923.140276670456
126;1;MobilNet_09;5.084068499999999;0.05817853537731919;1;axe_out_channels1_0,axe_yy1_0,axe_xx1_0;112;;;C:4, C:2, F:16, Y:1, C:4, X:7, H:3, W:3, H:1, X:1, Y:7, C:32, F:64, ;1931.0905258655548
127;0;MobilNet_09;3.8993241;0.608353790142948;1;axe_out_channels1_0,axe_yy1_0;16;;;C:4, C:4, F:16, Y:1, C:2, X:7, H:3, W:3, H:1, X:1, Y:7, C:32, F:64, ;1938.4246315956116
127;1;MobilNet_09;5.0851528;0.0964549152358758;1;axe_out_channels1_0,axe_yy1_0,axe_xx1_0;112;;;C:4, C:4, F:16, Y:1, C:2, X:7, H:3, W:3, H:1, X:1, Y:7, C:32, F:64, ;1946.4682805538177
128;0;MobilNet_09;4.619763600000001;0.06641821004092181;1;axe_out_channels1_0,axe_yy1_0;16;;;C:8, C:1, F:16, Y:1, C:4, X:7, H:3, W:3, H:1, X:1, Y:7, C:32, F:64, ;1953.813325881958
128;1;MobilNet_09;4.909964700000001;0.08182246184520488;1;axe_out_channels1_0,axe_yy1_0,axe_xx1_0;112;;;C:8, C:1, F:16, Y:1, C:4, X:7, H:3, W:3, H:1, X:1, Y:7, C:32, F:64, ;1961.6303482055664
129;0;MobilNet_09;2.4699364000000004;0.013401139348577845;1;axe_out_channels1_0,axe_yy1_0;16;;;C:1, C:8, F:16, Y:1, C:8, X:7, H:3, W:3, W:1, H:1, X:1, Y:7, C:16, F:64, ;1968.9060418605804
129;1;MobilNet_09;4.7956393;0.04646678484476845;1;axe_out_channels1_0,axe_yy1_0,axe_xx1_0;112;;;C:1, C:8, F:16, Y:1, C:8, X:7, H:3, W:3, W:1, H:1, X:1, Y:7, C:16, F:64, ;1976.8715119361877
130;0;MobilNet_09;2.4400465000000002;0.014375556317930747;1;axe_out_channels1_0,axe_yy1_0;16;;;C:2, C:4, F:16, Y:1, C:8, X:7, H:3, W:3, W:1, H:1, X:1, Y:7, C:16, F:64, ;1984.131442308426
130;1;MobilNet_09;4.759819800000001;0.07425551705132769;1;axe_out_channels1_0,axe_yy1_0,axe_xx1_0;112;;;C:2, C:4, F:16, Y:1, C:8, X:7, H:3, W:3, W:1, H:1, X:1, Y:7, C:16, F:64, ;1992.0099239349365
131;0;MobilNet_09;2.4669320000000003;0.02738015326107579;1;axe_out_channels1_0,axe_yy1_0;16;;;C:4, C:2, F:16, Y:1, C:8, X:7, H:3, W:3, W:1, H:1, X:1, Y:7, C:16, F:64, ;1999.3176152706146
131;1;MobilNet_09;4.698796399999999;0.06648150889412767;1;axe_out_channels1_0,axe_yy1_0,axe_xx1_0;112;;;C:4, C:2, F:16, Y:1, C:8, X:7, H:3, W:3, W:1, H:1, X:1, Y:7, C:16, F:64, ;2007.3706398010254
132;0;MobilNet_09;2.2835238999999996;0.011894745087222219;1;axe_out_channels1_0,axe_yy1_0;16;;;C:4, C:4, F:16, Y:1, C:4, X:7, H:3, W:3, W:1, H:1, X:1, Y:7, C:16, F:64, ;2014.6819055080414
132;1;MobilNet_09;4.7355139;0.05589256591077223;1;axe_out_channels1_0,axe_yy1_0,axe_xx1_0;112;;;C:4, C:4, F:16, Y:1, C:4, X:7, H:3, W:3, W:1, H:1, X:1, Y:7, C:16, F:64, ;2022.6509456634521
133;0;MobilNet_09;2.4485593;0.0077923686520850735;1;axe_out_channels1_0,axe_yy1_0;16;;;C:8, C:1, F:16, Y:1, C:8, X:7, H:3, W:3, W:1, H:1, X:1, Y:7, C:16, F:64, ;2029.9447293281555
133;1;MobilNet_09;4.7538772;0.08438082556220958;1;axe_out_channels1_0,axe_yy1_0,axe_xx1_0;112;;;C:8, C:1, F:16, Y:1, C:8, X:7, H:3, W:3, W:1, H:1, X:1, Y:7, C:16, F:64, ;2037.6189317703247
134;0;MobilNet_09;2.2538959;0.014169561083181056;1;axe_out_channels1_0,axe_yy1_0;16;;;C:1, C:8, F:16, Y:1, C:8, X:7, W:3, W:1, H:3, X:1, Y:7, C:16, F:64, ;2044.9208154678345
134;1;MobilNet_09;5.4908634;0.08842325068690914;1;axe_out_channels1_0,axe_yy1_0,axe_xx1_0;112;;;C:1, C:8, F:16, Y:1, C:8, X:7, W:3, W:1, H:3, X:1, Y:7, C:16, F:64, ;2052.695164680481
135;0;MobilNet_09;2.2587169;0.012299240085875246;1;axe_out_channels1_0,axe_yy1_0;16;;;C:2, C:4, F:16, Y:1, C:8, X:7, W:3, W:1, H:3, X:1, Y:7, C:16, F:64, ;2059.971745491028
135;1;MobilNet_09;5.2914094;0.10846214719910371;1;axe_out_channels1_0,axe_yy1_0,axe_xx1_0;112;;;C:2, C:4, F:16, Y:1, C:8, X:7, W:3, W:1, H:3, X:1, Y:7, C:16, F:64, ;2067.9134283065796
136;0;MobilNet_09;2.2632965;0.010872852976565055;1;axe_out_channels1_0,axe_yy1_0;16;;;C:4, C:2, F:16, Y:1, C:8, X:7, W:3, W:1, H:3, X:1, Y:7, C:16, F:64, ;2075.226785182953
136;1;MobilNet_09;5.3250097;0.050165829515816655;1;axe_out_channels1_0,axe_yy1_0,axe_xx1_0;112;;;C:4, C:2, F:16, Y:1, C:8, X:7, W:3, W:1, H:3, X:1, Y:7, C:16, F:64, ;2083.0708377361298
137;0;MobilNet_09;2.4027219000000004;0.009175656809732993;1;axe_out_channels1_0,axe_yy1_0;16;;;C:4, C:4, F:16, Y:1, C:4, X:7, W:3, W:1, H:3, X:1, Y:7, C:16, F:64, ;2090.3840079307556
137;1;MobilNet_09;5.180656;0.1005508120553982;1;axe_out_channels1_0,axe_yy1_0,axe_xx1_0;112;;;C:4, C:4, F:16, Y:1, C:4, X:7, W:3, W:1, H:3, X:1, Y:7, C:16, F:64, ;2098.3399469852448
138;0;MobilNet_09;2.2616683;0.017568318081421504;1;axe_out_channels1_0,axe_yy1_0;16;;;C:8, C:1, F:16, Y:1, C:8, X:7, W:3, W:1, H:3, X:1, Y:7, C:16, F:64, ;2105.6198291778564
138;1;MobilNet_09;5.3265365000000005;0.09907497396643608;1;axe_out_channels1_0,axe_yy1_0,axe_xx1_0;112;;;C:8, C:1, F:16, Y:1, C:8, X:7, W:3, W:1, H:3, X:1, Y:7, C:16, F:64, ;2113.5402591228485
139;0;MobilNet_09;1.9088957999999998;0.012641748224039275;1;axe_out_channels1_0,axe_yy1_0;16;;;C:1, C:8, F:16, Y:1, C:8, X:7, H:3, W:3, H:1, X:1, Y:7, C:16, F:64, ;2120.8586914539337
139;1;MobilNet_09;5.1836812;0.044801740097456036;1;axe_out_channels1_0,axe_yy1_0,axe_xx1_0;112;;;C:1, C:8, F:16, Y:1, C:8, X:7, H:3, W:3, H:1, X:1, Y:7, C:16, F:64, ;2128.838954925537
140;0;MobilNet_09;1.9501017;0.013700512414139875;1;axe_out_channels1_0,axe_yy1_0;16;;;C:2, C:4, F:16, Y:1, C:8, X:7, H:3, W:3, H:1, X:1, Y:7, C:16, F:64, ;2136.1452655792236
140;1;MobilNet_09;5.1130053;0.08679294683791978;1;axe_out_channels1_0,axe_yy1_0,axe_xx1_0;112;;;C:2, C:4, F:16, Y:1, C:8, X:7, H:3, W:3, H:1, X:1, Y:7, C:16, F:64, ;2143.920862197876
141;0;MobilNet_09;1.9077442000000002;0.010828621193854752;1;axe_out_channels1_0,axe_yy1_0;16;;;C:4, C:2, F:16, Y:1, C:8, X:7, H:3, W:3, H:1, X:1, Y:7, C:16, F:64, ;2151.265413761139
141;1;MobilNet_09;5.1733302;0.06854654494108349;1;axe_out_channels1_0,axe_yy1_0,axe_xx1_0;112;;;C:4, C:2, F:16, Y:1, C:8, X:7, H:3, W:3, H:1, X:1, Y:7, C:16, F:64, ;2159.1957499980927
142;0;MobilNet_09;2.1922872;0.01028569277977915;1;axe_out_channels1_0,axe_yy1_0;16;;;C:4, C:4, F:16, Y:1, C:4, X:7, H:3, W:3, H:1, X:1, Y:7, C:16, F:64, ;2166.5430874824524
142;1;MobilNet_09;4.9635076;0.1037287147613427;1;axe_out_channels1_0,axe_yy1_0,axe_xx1_0;112;;;C:4, C:4, F:16, Y:1, C:4, X:7, H:3, W:3, H:1, X:1, Y:7, C:16, F:64, ;2174.554374694824
143;0;MobilNet_09;1.9000089;0.008853377338055786;1;axe_out_channels1_0,axe_yy1_0;16;;;C:8, C:1, F:16, Y:1, C:8, X:7, H:3, W:3, H:1, X:1, Y:7, C:16, F:64, ;2181.8551757335663
143;1;MobilNet_09;5.215604;0.051754283770524934;1;axe_out_channels1_0,axe_yy1_0,axe_xx1_0;112;;;C:8, C:1, F:16, Y:1, C:8, X:7, H:3, W:3, H:1, X:1, Y:7, C:16, F:64, ;2189.896511077881
144;0;MobilNet_09;2.8919865999999996;0.036853399094791704;1;axe_out_channels1_0,axe_yy1_0;16;;;C:1, C:8, F:16, Y:1, C:16, X:7, H:3, W:3, W:1, H:1, X:1, Y:7, C:8, F:64, ;2197.313101053238
144;1;MobilNet_09;4.8412932;0.047540531938126226;1;axe_out_channels1_0,axe_yy1_0,axe_xx1_0;112;;;C:1, C:8, F:16, Y:1, C:16, X:7, H:3, W:3, W:1, H:1, X:1, Y:7, C:8, F:64, ;2205.304435491562
145;0;MobilNet_09;2.8737759;0.047587708584150186;1;axe_out_channels1_0,axe_yy1_0;16;;;C:2, C:4, F:16, Y:1, C:16, X:7, H:3, W:3, W:1, H:1, X:1, Y:7, C:8, F:64, ;2212.8960394859314
145;1;MobilNet_09;5.1032595;0.06327791961537613;1;axe_out_channels1_0,axe_yy1_0,axe_xx1_0;112;;;C:2, C:4, F:16, Y:1, C:16, X:7, H:3, W:3, W:1, H:1, X:1, Y:7, C:8, F:64, ;2220.7604880332947
146;0;MobilNet_09;2.911757;0.048931618027610674;1;axe_out_channels1_0,axe_yy1_0;16;;;C:4, C:2, F:16, Y:1, C:16, X:7, H:3, W:3, W:1, H:1, X:1, Y:7, C:8, F:64, ;2228.3257081508636
146;1;MobilNet_09;4.8815539999999995;0.08450180323401388;1;axe_out_channels1_0,axe_yy1_0,axe_xx1_0;112;;;C:4, C:2, F:16, Y:1, C:16, X:7, H:3, W:3, W:1, H:1, X:1, Y:7, C:8, F:64, ;2236.052128791809
147;0;MobilNet_09;2.6899542999999997;0.024808723131390664;1;axe_out_channels1_0,axe_yy1_0;16;;;C:4, C:4, F:16, Y:1, C:8, X:7, H:3, W:3, W:1, H:1, X:1, Y:7, C:8, F:64, ;2243.701245546341
147;1;MobilNet_09;4.985917;0.06627368834613027;1;axe_out_channels1_0,axe_yy1_0,axe_xx1_0;112;;;C:4, C:4, F:16, Y:1, C:8, X:7, H:3, W:3, W:1, H:1, X:1, Y:7, C:8, F:64, ;2251.4265236854553
148;0;MobilNet_09;2.8665712;0.014602076460558716;1;axe_out_channels1_0,axe_yy1_0;16;;;C:8, C:1, F:16, Y:1, C:16, X:7, H:3, W:3, W:1, H:1, X:1, Y:7, C:8, F:64, ;2258.96279501915
148;1;MobilNet_09;4.9430022000000005;0.05005756243326281;1;axe_out_channels1_0,axe_yy1_0,axe_xx1_0;112;;;C:8, C:1, F:16, Y:1, C:16, X:7, H:3, W:3, W:1, H:1, X:1, Y:7, C:8, F:64, ;2266.802355527878
149;0;MobilNet_09;2.3772957999999997;0.011309439427310256;1;axe_out_channels1_0,axe_yy1_0;16;;;C:1, C:8, F:16, Y:1, C:16, X:7, W:3, W:1, H:3, X:1, Y:7, C:8, F:64, ;2274.363203048706
149;1;MobilNet_09;5.2574554;0.07301780774331708;1;axe_out_channels1_0,axe_yy1_0,axe_xx1_0;112;;;C:1, C:8, F:16, Y:1, C:16, X:7, W:3, W:1, H:3, X:1, Y:7, C:8, F:64, ;2282.1258456707
150;0;MobilNet_09;2.3966273;0.01597522747913162;1;axe_out_channels1_0,axe_yy1_0;16;;;C:2, C:4, F:16, Y:1, C:16, X:7, W:3, W:1, H:3, X:1, Y:7, C:8, F:64, ;2289.652925014496
150;1;MobilNet_09;5.1516215999999995;0.0538220441180005;1;axe_out_channels1_0,axe_yy1_0,axe_xx1_0;112;;;C:2, C:4, F:16, Y:1, C:16, X:7, W:3, W:1, H:3, X:1, Y:7, C:8, F:64, ;2297.413092851639
151;0;MobilNet_09;2.4153734;0.01639548725228984;1;axe_out_channels1_0,axe_yy1_0;16;;;C:4, C:2, F:16, Y:1, C:16, X:7, W:3, W:1, H:3, X:1, Y:7, C:8, F:64, ;2304.9573884010315
151;1;MobilNet_09;5.166142599999999;0.07054133605652788;1;axe_out_channels1_0,axe_yy1_0,axe_xx1_0;112;;;C:4, C:2, F:16, Y:1, C:16, X:7, W:3, W:1, H:3, X:1, Y:7, C:8, F:64, ;2312.9382724761963
152;0;MobilNet_09;2.5372291;0.01675363824039426;1;axe_out_channels1_0,axe_yy1_0;16;;;C:4, C:4, F:16, Y:1, C:8, X:7, W:3, W:1, H:3, X:1, Y:7, C:8, F:64, ;2320.5327031612396
152;1;MobilNet_09;5.221055;0.14003312749703184;1;axe_out_channels1_0,axe_yy1_0,axe_xx1_0;112;;;C:4, C:4, F:16, Y:1, C:8, X:7, W:3, W:1, H:3, X:1, Y:7, C:8, F:64, ;2328.293129682541
153;0;MobilNet_09;2.3704802000000003;0.014626043756258957;1;axe_out_channels1_0,axe_yy1_0;16;;;C:8, C:1, F:16, Y:1, C:16, X:7, W:3, W:1, H:3, X:1, Y:7, C:8, F:64, ;2335.8373205661774
153;1;MobilNet_09;5.210025900000001;0.11487097581586929;1;axe_out_channels1_0,axe_yy1_0,axe_xx1_0;112;;;C:8, C:1, F:16, Y:1, C:16, X:7, W:3, W:1, H:3, X:1, Y:7, C:8, F:64, ;2343.6360545158386
154;0;MobilNet_09;2.0640703;0.032613048805807766;1;axe_out_channels1_0,axe_yy1_0;16;;;C:1, C:8, F:16, Y:1, C:16, X:7, H:3, W:3, H:1, X:1, Y:7, C:8, F:64, ;2351.3541412353516
154;1;MobilNet_09;5.0427162999999995;0.06545417453615929;1;axe_out_channels1_0,axe_yy1_0,axe_xx1_0;112;;;C:1, C:8, F:16, Y:1, C:16, X:7, H:3, W:3, H:1, X:1, Y:7, C:8, F:64, ;2359.1997430324554
155;0;MobilNet_09;2.0697246;0.029047668099866614;1;axe_out_channels1_0,axe_yy1_0;16;;;C:2, C:4, F:16, Y:1, C:16, X:7, H:3, W:3, H:1, X:1, Y:7, C:8, F:64, ;2366.921761035919
155;1;MobilNet_09;5.270904999999999;0.042157130519047376;1;axe_out_channels1_0,axe_yy1_0,axe_xx1_0;112;;;C:2, C:4, F:16, Y:1, C:16, X:7, H:3, W:3, H:1, X:1, Y:7, C:8, F:64, ;2374.741358757019
156;0;MobilNet_09;2.0609503;0.019681899181989523;1;axe_out_channels1_0,axe_yy1_0;16;;;C:4, C:2, F:16, Y:1, C:16, X:7, H:3, W:3, H:1, X:1, Y:7, C:8, F:64, ;2382.441748857498
156;1;MobilNet_09;5.2141252;0.10760678617893941;1;axe_out_channels1_0,axe_yy1_0,axe_xx1_0;112;;;C:4, C:2, F:16, Y:1, C:16, X:7, H:3, W:3, H:1, X:1, Y:7, C:8, F:64, ;2390.2072236537933
157;0;MobilNet_09;2.3809543;0.023797181161011444;1;axe_out_channels1_0,axe_yy1_0;16;;;C:4, C:4, F:16, Y:1, C:8, X:7, H:3, W:3, H:1, X:1, Y:7, C:8, F:64, ;2397.992643594742
157;1;MobilNet_09;5.0508095;0.08445722769455555;1;axe_out_channels1_0,axe_yy1_0,axe_xx1_0;112;;;C:4, C:4, F:16, Y:1, C:8, X:7, H:3, W:3, H:1, X:1, Y:7, C:8, F:64, ;2405.9921877384186
158;0;MobilNet_09;2.8787178000000004;0.23862942828318554;1;axe_out_channels1_0,axe_yy1_0;16;;;C:4, C:8, F:16, Y:1, C:1, X:7, H:3, W:3, W:1, H:1, X:1, Y:7, C:32, F:64, ;2413.2909083366394
158;1;MobilNet_09;5.0936076;0.07884956973275106;1;axe_out_channels1_0,axe_yy1_0,axe_xx1_0;112;;;C:4, C:8, F:16, Y:1, C:1, X:7, H:3, W:3, W:1, H:1, X:1, Y:7, C:32, F:64, ;2421.1590106487274
159;0;MobilNet_09;4.969118700000001;0.02922957578566635;1;axe_out_channels1_0,axe_yy1_0;16;;;C:4, C:8, F:16, Y:1, C:1, X:7, W:3, W:1, H:3, X:1, Y:7, C:32, F:64, ;2428.5569896698
159;1;MobilNet_09;5.278390300000001;0.08796726925743452;1;axe_out_channels1_0,axe_yy1_0,axe_xx1_0;112;;;C:4, C:8, F:16, Y:1, C:1, X:7, W:3, W:1, H:3, X:1, Y:7, C:32, F:64, ;2436.4008827209473
160;0;MobilNet_09;3.6737917;0.443434913784887;1;axe_out_channels1_0,axe_yy1_0;16;;;C:4, C:8, F:16, Y:1, C:1, X:7, H:3, W:3, H:1, X:1, Y:7, C:32, F:64, ;2443.725555419922
160;1;MobilNet_09;5.009909400000001;0.09804096775348559;1;axe_out_channels1_0,axe_yy1_0,axe_xx1_0;112;;;C:4, C:8, F:16, Y:1, C:1, X:7, H:3, W:3, H:1, X:1, Y:7, C:32, F:64, ;2451.601418733597
161;0;MobilNet_09;2.2061512999999997;0.015440294971599442;1;axe_out_channels1_0,axe_yy1_0;16;;;C:4, C:8, F:16, Y:1, C:2, X:7, H:3, W:3, W:1, H:1, X:1, Y:7, C:16, F:64, ;2458.920402765274
161;1;MobilNet_09;5.106333300000001;0.07026547567767547;1;axe_out_channels1_0,axe_yy1_0,axe_xx1_0;112;;;C:4, C:8, F:16, Y:1, C:2, X:7, H:3, W:3, W:1, H:1, X:1, Y:7, C:16, F:64, ;2466.723774909973
162;0;MobilNet_09;2.4139015;0.017739381788833556;1;axe_out_channels1_0,axe_yy1_0;16;;;C:4, C:8, F:16, Y:1, C:2, X:7, W:3, W:1, H:3, X:1, Y:7, C:16, F:64, ;2474.016931295395
162;1;MobilNet_09;5.262789;0.08647966066885324;1;axe_out_channels1_0,axe_yy1_0,axe_xx1_0;112;;;C:4, C:8, F:16, Y:1, C:2, X:7, W:3, W:1, H:3, X:1, Y:7, C:16, F:64, ;2481.9710178375244
163;0;MobilNet_09;2.2601626999999995;0.01924779168138522;1;axe_out_channels1_0,axe_yy1_0;16;;;C:4, C:8, F:16, Y:1, C:2, X:7, H:3, W:3, H:1, X:1, Y:7, C:16, F:64, ;2489.35191488266
163;1;MobilNet_09;5.1946856;0.05744306383228509;1;axe_out_channels1_0,axe_yy1_0,axe_xx1_0;112;;;C:4, C:8, F:16, Y:1, C:2, X:7, H:3, W:3, H:1, X:1, Y:7, C:16, F:64, ;2497.3371210098267
164;0;MobilNet_09;2.6808073;0.011648567569018853;1;axe_out_channels1_0,axe_yy1_0;16;;;C:4, C:8, F:16, Y:1, C:4, X:7, H:3, W:3, W:1, H:1, X:1, Y:7, C:8, F:64, ;2505.048117876053
164;1;MobilNet_09;4.9923378;0.05002925034577279;1;axe_out_channels1_0,axe_yy1_0,axe_xx1_0;112;;;C:4, C:8, F:16, Y:1, C:4, X:7, H:3, W:3, W:1, H:1, X:1, Y:7, C:8, F:64, ;2512.998300075531
165;0;MobilNet_09;2.5361010999999998;0.011168738670503492;1;axe_out_channels1_0,axe_yy1_0;16;;;C:4, C:8, F:16, Y:1, C:4, X:7, W:3, W:1, H:3, X:1, Y:7, C:8, F:64, ;2520.5950520038605
165;1;MobilNet_09;5.4951650999999995;0.0747760204750826;1;axe_out_channels1_0,axe_yy1_0,axe_xx1_0;112;;;C:4, C:8, F:16, Y:1, C:4, X:7, W:3, W:1, H:3, X:1, Y:7, C:8, F:64, ;2528.658609390259
166;0;MobilNet_09;2.3790095;0.021222888645281095;1;axe_out_channels1_0,axe_yy1_0;16;;;C:4, C:8, F:16, Y:1, C:4, X:7, H:3, W:3, H:1, X:1, Y:7, C:8, F:64, ;2536.429418563843
166;1;MobilNet_09;5.0949713;0.0871793009057196;1;axe_out_channels1_0,axe_yy1_0,axe_xx1_0;112;;;C:4, C:8, F:16, Y:1, C:4, X:7, H:3, W:3, H:1, X:1, Y:7, C:8, F:64, ;2544.2161672115326
167;0;MobilNet_09;3.2242933000000003;0.018270494011109754;1;axe_out_channels1_0,axe_yy1_0;16;;;C:8, C:2, F:16, Y:1, C:2, X:7, H:3, W:3, W:1, H:1, X:1, Y:7, C:32, F:64, ;2551.5345363616943
167;1;MobilNet_09;5.0598681999999995;0.09013214389861145;1;axe_out_channels1_0,axe_yy1_0,axe_xx1_0;112;;;C:8, C:2, F:16, Y:1, C:2, X:7, H:3, W:3, W:1, H:1, X:1, Y:7, C:32, F:64, ;2559.436774253845
168;0;MobilNet_09;4.3098706;0.5658790558526089;1;axe_out_channels1_0,axe_yy1_0;16;;;C:8, C:2, F:16, Y:1, C:2, X:7, W:3, W:1, H:3, X:1, Y:7, C:32, F:64, ;2566.8426370620728
168;1;MobilNet_09;5.135772900000001;0.11399140673792053;1;axe_out_channels1_0,axe_yy1_0,axe_xx1_0;112;;;C:8, C:2, F:16, Y:1, C:2, X:7, W:3, W:1, H:3, X:1, Y:7, C:32, F:64, ;2574.8698749542236
169;0;MobilNet_09;3.5626295;0.33801240155392204;1;axe_out_channels1_0,axe_yy1_0;16;;;C:8, C:2, F:16, Y:1, C:2, X:7, H:3, W:3, H:1, X:1, Y:7, C:32, F:64, ;2582.2102732658386
169;1;MobilNet_09;5.2628938;0.11221832255010772;1;axe_out_channels1_0,axe_yy1_0,axe_xx1_0;112;;;C:8, C:2, F:16, Y:1, C:2, X:7, H:3, W:3, H:1, X:1, Y:7, C:32, F:64, ;2590.000636577606
170;0;MobilNet_09;2.2835910999999998;0.012921816772033247;1;axe_out_channels1_0,axe_yy1_0;16;;;C:8, C:2, F:16, Y:1, C:4, X:7, H:3, W:3, W:1, H:1, X:1, Y:7, C:16, F:64, ;2597.328466653824
170;1;MobilNet_09;4.8514365;0.07883811069685791;1;axe_out_channels1_0,axe_yy1_0,axe_xx1_0;112;;;C:8, C:2, F:16, Y:1, C:4, X:7, H:3, W:3, W:1, H:1, X:1, Y:7, C:16, F:64, ;2605.0246181488037
171;0;MobilNet_09;2.3814603000000005;0.012498961021220978;1;axe_out_channels1_0,axe_yy1_0;16;;;C:8, C:2, F:16, Y:1, C:4, X:7, W:3, W:1, H:3, X:1, Y:7, C:16, F:64, ;2612.310783147812
171;1;MobilNet_09;5.2625878;0.09982842546168907;1;axe_out_channels1_0,axe_yy1_0,axe_xx1_0;112;;;C:8, C:2, F:16, Y:1, C:4, X:7, W:3, W:1, H:3, X:1, Y:7, C:16, F:64, ;2620.0301220417023
172;0;MobilNet_09;2.1835522000000003;0.008912557599252895;1;axe_out_channels1_0,axe_yy1_0;16;;;C:8, C:2, F:16, Y:1, C:4, X:7, H:3, W:3, H:1, X:1, Y:7, C:16, F:64, ;2627.399778842926
172;1;MobilNet_09;5.3143043;0.08337229990596388;1;axe_out_channels1_0,axe_yy1_0,axe_xx1_0;112;;;C:8, C:2, F:16, Y:1, C:4, X:7, H:3, W:3, H:1, X:1, Y:7, C:16, F:64, ;2635.2341804504395
173;0;MobilNet_09;2.6828835;0.023907250976429636;1;axe_out_channels1_0,axe_yy1_0;16;;;C:8, C:2, F:16, Y:1, C:8, X:7, H:3, W:3, W:1, H:1, X:1, Y:7, C:8, F:64, ;2642.820148706436
173;1;MobilNet_09;4.9988957;0.13935347894046277;1;axe_out_channels1_0,axe_yy1_0,axe_xx1_0;112;;;C:8, C:2, F:16, Y:1, C:8, X:7, H:3, W:3, W:1, H:1, X:1, Y:7, C:8, F:64, ;2650.833065032959
174;0;MobilNet_09;2.5323059000000003;0.011511761207130775;1;axe_out_channels1_0,axe_yy1_0;16;;;C:8, C:2, F:16, Y:1, C:8, X:7, W:3, W:1, H:3, X:1, Y:7, C:8, F:64, ;2658.492728948593
174;1;MobilNet_09;5.249089;0.11316785193066085;1;axe_out_channels1_0,axe_yy1_0,axe_xx1_0;112;;;C:8, C:2, F:16, Y:1, C:8, X:7, W:3, W:1, H:3, X:1, Y:7, C:8, F:64, ;2666.2782266139984
175;0;MobilNet_09;2.5071278;0.07250243782770341;1;axe_out_channels1_0,axe_yy1_0;16;;;C:8, C:4, F:16, Y:1, C:1, X:7, H:3, W:3, W:1, H:1, X:1, Y:7, C:32, F:64, ;2673.539551973343
175;1;MobilNet_09;4.8928559;0.1041428916733639;1;axe_out_channels1_0,axe_yy1_0,axe_xx1_0;112;;;C:8, C:4, F:16, Y:1, C:1, X:7, H:3, W:3, W:1, H:1, X:1, Y:7, C:32, F:64, ;2681.3255302906036
176;0;MobilNet_09;3.653441800000001;0.050560820503231574;1;axe_out_channels1_0,axe_yy1_0;16;;;C:8, C:4, F:16, Y:1, C:1, X:7, W:3, W:1, H:3, X:1, Y:7, C:32, F:64, ;2688.6416523456573
176;1;MobilNet_09;5.1612409;0.08756337473904262;1;axe_out_channels1_0,axe_yy1_0,axe_xx1_0;112;;;C:8, C:4, F:16, Y:1, C:1, X:7, W:3, W:1, H:3, X:1, Y:7, C:32, F:64, ;2696.4106588363647
177;0;MobilNet_09;3.4374702;0.047969913712242546;1;axe_out_channels1_0,axe_yy1_0;16;;;C:8, C:4, F:16, Y:1, C:1, X:7, H:3, W:3, H:1, X:1, Y:7, C:32, F:64, ;2703.7687799930573
177;1;MobilNet_09;5.1546036;0.08060370600809859;1;axe_out_channels1_0,axe_yy1_0,axe_xx1_0;112;;;C:8, C:4, F:16, Y:1, C:1, X:7, H:3, W:3, H:1, X:1, Y:7, C:32, F:64, ;2711.5938749313354
178;0;MobilNet_09;2.2453889;0.023091322649211744;1;axe_out_channels1_0,axe_yy1_0;16;;;C:8, C:4, F:16, Y:1, C:2, X:7, H:3, W:3, W:1, H:1, X:1, Y:7, C:16, F:64, ;2718.8860285282135
178;1;MobilNet_09;5.2013412;0.10785356456955894;1;axe_out_channels1_0,axe_yy1_0,axe_xx1_0;112;;;C:8, C:4, F:16, Y:1, C:2, X:7, H:3, W:3, W:1, H:1, X:1, Y:7, C:16, F:64, ;2726.880813598633
179;0;MobilNet_09;2.4561883;0.0179070615571064;1;axe_out_channels1_0,axe_yy1_0;16;;;C:8, C:4, F:16, Y:1, C:2, X:7, W:3, W:1, H:3, X:1, Y:7, C:16, F:64, ;2734.2630829811096
179;1;MobilNet_09;5.150387;0.08935499230485107;1;axe_out_channels1_0,axe_yy1_0,axe_xx1_0;112;;;C:8, C:4, F:16, Y:1, C:2, X:7, W:3, W:1, H:3, X:1, Y:7, C:16, F:64, ;2742.3103334903717
180;0;MobilNet_09;2.2182668999999997;0.010306766199443946;1;axe_out_channels1_0,axe_yy1_0;16;;;C:8, C:4, F:16, Y:1, C:2, X:7, H:3, W:3, H:1, X:1, Y:7, C:16, F:64, ;2749.7005643844604
180;1;MobilNet_09;5.099134900000001;0.08634224193342456;1;axe_out_channels1_0,axe_yy1_0,axe_xx1_0;112;;;C:8, C:4, F:16, Y:1, C:2, X:7, H:3, W:3, H:1, X:1, Y:7, C:16, F:64, ;2757.6951701641083
181;0;MobilNet_09;2.680295;0.011791328288195567;1;axe_out_channels1_0,axe_yy1_0;16;;;C:8, C:4, F:16, Y:1, C:4, X:7, H:3, W:3, W:1, H:1, X:1, Y:7, C:8, F:64, ;2765.360321998596
181;1;MobilNet_09;5.0805961;0.06748541686534958;1;axe_out_channels1_0,axe_yy1_0,axe_xx1_0;112;;;C:8, C:4, F:16, Y:1, C:4, X:7, H:3, W:3, W:1, H:1, X:1, Y:7, C:8, F:64, ;2773.1187856197357
182;0;MobilNet_09;2.5394947;0.015453611280538876;1;axe_out_channels1_0,axe_yy1_0;16;;;C:8, C:4, F:16, Y:1, C:4, X:7, W:3, W:1, H:3, X:1, Y:7, C:8, F:64, ;2780.7297914028168
182;1;MobilNet_09;5.4428772;0.11819274222793871;1;axe_out_channels1_0,axe_yy1_0,axe_xx1_0;112;;;C:8, C:4, F:16, Y:1, C:4, X:7, W:3, W:1, H:3, X:1, Y:7, C:8, F:64, ;2788.7191751003265
183;0;MobilNet_09;2.4865861999999996;0.02219146189776589;1;axe_out_channels1_0,axe_yy1_0;16;;;C:1, C:64, F:16, Y:1, C:1, X:7, H:3, W:3, W:1, H:1, X:1, Y:7, C:16, F:64, ;2796.0625026226044
183;1;MobilNet_09;4.7331482000000005;0.06354503232480088;1;axe_out_channels1_0,axe_yy1_0,axe_xx1_0;112;;;C:1, C:64, F:16, Y:1, C:1, X:7, H:3, W:3, W:1, H:1, X:1, Y:7, C:16, F:64, ;2804.0532739162445
184;0;MobilNet_09;2.3604761000000005;0.013193733038454369;1;axe_out_channels1_0,axe_yy1_0;16;;;C:16, C:4, F:16, Y:1, C:1, X:7, H:3, W:3, W:1, H:1, X:1, Y:7, C:16, F:64, ;2811.3855221271515
184;1;MobilNet_09;4.5278827;0.19483579598628695;1;axe_out_channels1_0,axe_yy1_0,axe_xx1_0;112;;;C:16, C:4, F:16, Y:1, C:1, X:7, H:3, W:3, W:1, H:1, X:1, Y:7, C:16, F:64, ;2819.265238761902
185;0;MobilNet_09;2.3940887;0.028465790177158216;1;axe_out_channels1_0,axe_yy1_0;16;;;C:32, C:2, F:16, Y:1, C:1, X:7, H:3, W:3, W:1, H:1, X:1, Y:7, C:16, F:64, ;2826.554117679596
185;1;MobilNet_09;4.935798;0.07180781072139722;1;axe_out_channels1_0,axe_yy1_0,axe_xx1_0;112;;;C:32, C:2, F:16, Y:1, C:1, X:7, H:3, W:3, W:1, H:1, X:1, Y:7, C:16, F:64, ;2834.4282264709473
186;0;MobilNet_09;2.4223142;0.020908612497246168;1;axe_out_channels1_0,axe_yy1_0;16;;;C:64, C:1, F:16, Y:1, C:1, X:7, H:3, W:3, W:1, H:1, X:1, Y:7, C:16, F:64, ;2841.6916992664337
186;1;MobilNet_09;4.720176700000001;0.04423688367652034;1;axe_out_channels1_0,axe_yy1_0,axe_xx1_0;112;;;C:64, C:1, F:16, Y:1, C:1, X:7, H:3, W:3, W:1, H:1, X:1, Y:7, C:16, F:64, ;2849.4507484436035
187;0;MobilNet_09;2.633242;0.017471096376587253;1;axe_out_channels1_0,axe_yy1_0;16;;;C:1, C:64, F:16, Y:1, C:1, X:7, W:3, W:1, H:3, X:1, Y:7, C:16, F:64, ;2856.7691419124603
187;1;MobilNet_09;5.0824812999999995;0.07471496034001479;1;axe_out_channels1_0,axe_yy1_0,axe_xx1_0;112;;;C:1, C:64, F:16, Y:1, C:1, X:7, W:3, W:1, H:3, X:1, Y:7, C:16, F:64, ;2864.7637255191803
188;0;MobilNet_09;2.5701124;0.01414914134638568;1;axe_out_channels1_0,axe_yy1_0;16;;;C:16, C:4, F:16, Y:1, C:1, X:7, W:3, W:1, H:3, X:1, Y:7, C:16, F:64, ;2872.0828034877777
188;1;MobilNet_09;5.426759800000001;0.13604610114134094;1;axe_out_channels1_0,axe_yy1_0,axe_xx1_0;112;;;C:16, C:4, F:16, Y:1, C:1, X:7, W:3, W:1, H:3, X:1, Y:7, C:16, F:64, ;2879.9514355659485
189;0;MobilNet_09;2.5948949999999997;0.018158044222878193;1;axe_out_channels1_0,axe_yy1_0;16;;;C:32, C:2, F:16, Y:1, C:1, X:7, W:3, W:1, H:3, X:1, Y:7, C:16, F:64, ;2887.257817029953
189;1;MobilNet_09;5.142216299999999;0.10662980026901507;1;axe_out_channels1_0,axe_yy1_0,axe_xx1_0;112;;;C:32, C:2, F:16, Y:1, C:1, X:7, W:3, W:1, H:3, X:1, Y:7, C:16, F:64, ;2895.111082315445
190;0;MobilNet_09;2.6289366000000003;0.027466647044005907;1;axe_out_channels1_0,axe_yy1_0;16;;;C:64, C:1, F:16, Y:1, C:1, X:7, W:3, W:1, H:3, X:1, Y:7, C:16, F:64, ;2902.506647348404
190;1;MobilNet_09;5.0820492999999995;0.06053271180617965;1;axe_out_channels1_0,axe_yy1_0,axe_xx1_0;112;;;C:64, C:1, F:16, Y:1, C:1, X:7, W:3, W:1, H:3, X:1, Y:7, C:16, F:64, ;2910.3152215480804
191;0;MobilNet_09;2.4692812;0.015399633617719717;1;axe_out_channels1_0,axe_yy1_0;16;;;C:1, C:64, F:16, Y:1, C:1, X:7, H:3, W:3, H:1, X:1, Y:7, C:16, F:64, ;2917.697046279907
191;1;MobilNet_09;5.065093500000001;0.05694669386233054;1;axe_out_channels1_0,axe_yy1_0,axe_xx1_0;112;;;C:1, C:64, F:16, Y:1, C:1, X:7, H:3, W:3, H:1, X:1, Y:7, C:16, F:64, ;2925.495452642441
192;0;MobilNet_09;2.4521145;0.013142921747085062;1;axe_out_channels1_0,axe_yy1_0;16;;;C:16, C:4, F:16, Y:1, C:1, X:7, H:3, W:3, H:1, X:1, Y:7, C:16, F:64, ;2932.8897070884705
192;1;MobilNet_09;5.2811433;0.0784036430761352;1;axe_out_channels1_0,axe_yy1_0,axe_xx1_0;112;;;C:16, C:4, F:16, Y:1, C:1, X:7, H:3, W:3, H:1, X:1, Y:7, C:16, F:64, ;2940.905040502548
193;0;MobilNet_09;2.5441985;0.014108449753605066;1;axe_out_channels1_0,axe_yy1_0;16;;;C:32, C:2, F:16, Y:1, C:1, X:7, H:3, W:3, H:1, X:1, Y:7, C:16, F:64, ;2948.312484025955
193;1;MobilNet_09;5.054739499999999;0.07074866553971196;1;axe_out_channels1_0,axe_yy1_0,axe_xx1_0;112;;;C:32, C:2, F:16, Y:1, C:1, X:7, H:3, W:3, H:1, X:1, Y:7, C:16, F:64, ;2956.2470304965973
194;0;MobilNet_09;2.4437401;0.01696148263831909;1;axe_out_channels1_0,axe_yy1_0;16;;;C:64, C:1, F:16, Y:1, C:1, X:7, H:3, W:3, H:1, X:1, Y:7, C:16, F:64, ;2963.606588602066
194;1;MobilNet_09;4.952126499999999;0.05279963680036091;1;axe_out_channels1_0,axe_yy1_0,axe_xx1_0;112;;;C:64, C:1, F:16, Y:1, C:1, X:7, H:3, W:3, H:1, X:1, Y:7, C:16, F:64, ;2971.370384454727
195;0;MobilNet_09;2.9100084;0.013023316898547785;1;axe_out_channels1_0,axe_yy1_0;16;;;C:1, C:64, F:16, Y:1, C:2, X:7, H:3, W:3, W:1, H:1, X:1, Y:7, C:8, F:64, ;2979.0196771621704
195;1;MobilNet_09;4.9052139;0.0575020612194901;1;axe_out_channels1_0,axe_yy1_0,axe_xx1_0;112;;;C:1, C:64, F:16, Y:1, C:2, X:7, H:3, W:3, W:1, H:1, X:1, Y:7, C:8, F:64, ;2987.0103211402893
196;0;MobilNet_09;2.9090756000000004;0.012075809216777138;1;axe_out_channels1_0,axe_yy1_0;16;;;C:16, C:4, F:16, Y:1, C:2, X:7, H:3, W:3, W:1, H:1, X:1, Y:7, C:8, F:64, ;2994.7027385234833
196;1;MobilNet_09;5.0010783000000005;0.06173049715343295;1;axe_out_channels1_0,axe_yy1_0,axe_xx1_0;112;;;C:16, C:4, F:16, Y:1, C:2, X:7, H:3, W:3, W:1, H:1, X:1, Y:7, C:8, F:64, ;3002.7055563926697
197;0;MobilNet_09;2.8991163999999996;0.013134185244620233;1;axe_out_channels1_0,axe_yy1_0;16;;;C:32, C:2, F:16, Y:1, C:2, X:7, H:3, W:3, W:1, H:1, X:1, Y:7, C:8, F:64, ;3010.4079003334045
197;1;MobilNet_09;5.0173737;0.08245312062020443;1;axe_out_channels1_0,axe_yy1_0,axe_xx1_0;112;;;C:32, C:2, F:16, Y:1, C:2, X:7, H:3, W:3, W:1, H:1, X:1, Y:7, C:8, F:64, ;3018.419497489929
198;0;MobilNet_09;2.9299902999999996;0.016074265177917105;1;axe_out_channels1_0,axe_yy1_0;16;;;C:64, C:1, F:16, Y:1, C:2, X:7, H:3, W:3, W:1, H:1, X:1, Y:7, C:8, F:64, ;3026.122726202011
198;1;MobilNet_09;5.2055212;0.06950042324446672;1;axe_out_channels1_0,axe_yy1_0,axe_xx1_0;112;;;C:64, C:1, F:16, Y:1, C:2, X:7, H:3, W:3, W:1, H:1, X:1, Y:7, C:8, F:64, ;3033.93931555748
199;0;MobilNet_09;2.8093434;0.020215331761808855;1;axe_out_channels1_0,axe_yy1_0;16;;;C:1, C:64, F:16, Y:1, C:2, X:7, W:3, W:1, H:3, X:1, Y:7, C:8, F:64, ;3041.498659133911
199;1;MobilNet_09;5.615631800000001;0.07651976352132826;1;axe_out_channels1_0,axe_yy1_0,axe_xx1_0;112;;;C:1, C:64, F:16, Y:1, C:2, X:7, W:3, W:1, H:3, X:1, Y:7, C:8, F:64, ;3049.5163037776947
