IdRun;MethodParallelization;NameConv;Time(ms);std;NbMicroKernel;AxeFuse1;SizeAxeFuse1;AxeFuse2;SizeAxeFuse2;Schema;Time_search(3.1266674995422363)
0;0;MobilNet_01;0.11431479999999998;0.0005519742385292986;1;axe_yy1_1,axe_xx1_0;896;;;F:1, Y:1, C:1, Y:8, X:112, H:3, W:3, W:1, H:1, X:1, Y:14, C:32, F:32, ;4.13427472114563
0;1;MobilNet_01;0.09641229999999999;0.0009762798830253548;1;axe_out_channels1_0,axe_yy1_0,axe_yy1_1,axe_xx1_0;896;;;F:1, Y:1, C:1, Y:8, X:112, H:3, W:3, W:1, H:1, X:1, Y:14, C:32, F:32, ;5.0871968269348145
1;0;MobilNet_01;0.13860560000000002;0.0007266278552326501;1;axe_yy1_1,axe_xx1_0;448;;;F:1, Y:2, C:1, Y:4, X:112, H:3, W:3, W:1, H:1, X:1, Y:14, C:32, F:32, ;6.083772659301758
1;1;MobilNet_01;0.0964537;0.0006254217856774742;1;axe_out_channels1_0,axe_yy1_0,axe_yy1_1,axe_xx1_0;896;;;F:1, Y:2, C:1, Y:4, X:112, H:3, W:3, W:1, H:1, X:1, Y:14, C:32, F:32, ;7.050119876861572
2;0;MobilNet_01;0.1841109;0.0014269940048928056;1;axe_yy1_1,axe_xx1_0;224;;;F:1, Y:4, C:1, Y:2, X:112, H:3, W:3, W:1, H:1, X:1, Y:14, C:32, F:32, ;8.01895260810852
2;1;MobilNet_01;0.09615680000000001;0.0006710256030882849;1;axe_out_channels1_0,axe_yy1_0,axe_yy1_1,axe_xx1_0;896;;;F:1, Y:4, C:1, Y:2, X:112, H:3, W:3, W:1, H:1, X:1, Y:14, C:32, F:32, ;8.983203649520874
3;0;MobilNet_01;0.26807570000000003;0.0026096115822091346;1;axe_yy1_1,axe_xx1_0;112;;;F:1, Y:8, C:1, Y:1, X:112, H:3, W:3, W:1, H:1, X:1, Y:14, C:32, F:32, ;9.999744176864624
3;1;MobilNet_01;0.0960062;0.00048296579589035007;1;axe_out_channels1_0,axe_yy1_0,axe_yy1_1,axe_xx1_0;896;;;F:1, Y:8, C:1, Y:1, X:112, H:3, W:3, W:1, H:1, X:1, Y:14, C:32, F:32, ;10.969128370285034
4;0;MobilNet_01;0.1249332;0.0005894281635619376;1;axe_yy1_1,axe_xx1_0;1568;;;F:1, Y:1, C:1, Y:14, X:112, H:3, W:3, W:1, H:1, X:1, Y:8, C:32, F:32, ;11.925748825073242
4;1;MobilNet_01;0.10096749999999999;0.0005514064290521102;1;axe_out_channels1_0,axe_yy1_0,axe_yy1_1,axe_xx1_0;1568;;;F:1, Y:1, C:1, Y:14, X:112, H:3, W:3, W:1, H:1, X:1, Y:8, C:32, F:32, ;12.876474380493164
5;0;MobilNet_01;0.1573818;0.001206042271232643;1;axe_yy1_1,axe_xx1_0;784;;;F:1, Y:2, C:1, Y:7, X:112, H:3, W:3, W:1, H:1, X:1, Y:8, C:32, F:32, ;13.836345911026001
5;1;MobilNet_01;0.1005961;0.0005439250775612399;1;axe_out_channels1_0,axe_yy1_0,axe_yy1_1,axe_xx1_0;1568;;;F:1, Y:2, C:1, Y:7, X:112, H:3, W:3, W:1, H:1, X:1, Y:8, C:32, F:32, ;14.816148042678833
6;0;MobilNet_01;0.2483859;0.0015351277764407765;1;axe_yy1_1,axe_xx1_0;224;;;F:1, Y:7, C:1, Y:2, X:112, H:3, W:3, W:1, H:1, X:1, Y:8, C:32, F:32, ;15.787357091903687
6;1;MobilNet_01;0.100805;0.0006093911715802898;1;axe_out_channels1_0,axe_yy1_0,axe_yy1_1,axe_xx1_0;1568;;;F:1, Y:7, C:1, Y:2, X:112, H:3, W:3, W:1, H:1, X:1, Y:8, C:32, F:32, ;16.738636016845703
7;0;MobilNet_01;0.38510950000000005;0.005162722406831493;1;axe_yy1_1,axe_xx1_0;112;;;F:1, Y:14, C:1, Y:1, X:112, H:3, W:3, W:1, H:1, X:1, Y:8, C:32, F:32, ;17.728898286819458
7;1;MobilNet_01;0.10083500000000001;0.00031129246698241824;1;axe_out_channels1_0,axe_yy1_0,axe_yy1_1,axe_xx1_0;1568;;;F:1, Y:14, C:1, Y:1, X:112, H:3, W:3, W:1, H:1, X:1, Y:8, C:32, F:32, ;18.67729902267456
8;0;MobilNet_01;0.29882820000000004;0.0007094080349136178;2;axe_yy1_1,axe_xx1_0;112;axe_yy2_1,axe_xx2_0;336;F:1, Y:2, C:1, Y:1, X:112, H:3, W:3, W:1, H:1, X:1, Y:11, C:32, F:32, ;19.81049418449402
8;1;MobilNet_01;0.1743983;0.0009283251639377201;2;axe_out_channels1_0,axe_yy1_0,axe_yy1_1,axe_xx1_0;224;axe_out_channels2_0,axe_yy2_0,axe_yy2_1,axe_xx2_0;672;F:1, Y:2, C:1, Y:1, X:112, H:3, W:3, W:1, H:1, X:1, Y:11, C:32, F:32, ;20.952287673950195
9;0;MobilNet_01;0.30921600000000005;0.0010743738641646094;2;axe_yy1_1,axe_xx1_0;224;axe_yy2_1,axe_xx2_0;224;F:1, Y:1, C:1, Y:2, X:112, H:3, W:3, W:1, H:1, X:1, Y:11, C:32, F:32, ;22.092485189437866
9;1;MobilNet_01;0.1743433;0.000367200776142973;2;axe_out_channels1_0,axe_yy1_0,axe_yy1_1,axe_xx1_0;224;axe_out_channels2_0,axe_yy2_0,axe_yy2_1,axe_xx2_0;672;F:1, Y:1, C:1, Y:2, X:112, H:3, W:3, W:1, H:1, X:1, Y:11, C:32, F:32, ;23.20738172531128
10;0;MobilNet_01;0.3154831;0.001394277551278805;2;axe_yy1_1,axe_xx1_0;112;axe_yy2_1,axe_xx2_0;112;F:1, Y:4, C:1, Y:1, X:112, H:3, W:3, W:1, H:1, X:1, Y:13, C:32, F:32, ;24.365234375
10;1;MobilNet_01;0.16579799999999997;0.000499245430625062;2;axe_out_channels1_0,axe_yy1_0,axe_yy1_1,axe_xx1_0;448;axe_out_channels2_0,axe_yy2_0,axe_yy2_1,axe_xx2_0;448;F:1, Y:4, C:1, Y:1, X:112, H:3, W:3, W:1, H:1, X:1, Y:13, C:32, F:32, ;25.476307153701782
11;0;MobilNet_01;0.26957790000000004;0.0017616642387242906;2;axe_yy1_1,axe_xx1_0;448;axe_yy2_1,axe_xx2_0;448;F:1, Y:1, C:1, Y:4, X:112, H:3, W:3, W:1, H:1, X:1, Y:13, C:32, F:32, ;26.595906019210815
11;1;MobilNet_01;0.16538570000000002;0.0006874854253000541;2;axe_out_channels1_0,axe_yy1_0,axe_yy1_1,axe_xx1_0;448;axe_out_channels2_0,axe_yy2_0,axe_yy2_1,axe_xx2_0;448;F:1, Y:1, C:1, Y:4, X:112, H:3, W:3, W:1, H:1, X:1, Y:13, C:32, F:32, ;27.70828366279602
12;0;MobilNet_01;0.17154740000000002;0.0007071971719400466;2;axe_yy1_1,axe_xx1_0;112;axe_yy2_1,axe_xx2_0;896;F:1, Y:1, C:1, Y:1, X:112, H:3, W:3, W:1, H:1, X:1, Y:8, C:32, F:32, ;28.82294750213623
12;1;MobilNet_01;0.1406469;0.00048787610107486076;2;axe_out_channels1_0,axe_yy1_0,axe_yy1_1,axe_xx1_0;112;axe_out_channels2_0,axe_yy2_0,axe_yy2_1,axe_xx2_0;896;F:1, Y:1, C:1, Y:1, X:112, H:3, W:3, W:1, H:1, X:1, Y:8, C:32, F:32, ;29.92662739753723
13;0;MobilNet_01;0.3062037;0.002383568629177694;2;axe_yy1_1,axe_xx1_0;112;axe_yy2_1,axe_xx2_0;112;F:1, Y:1, C:1, Y:1, X:112, H:3, W:3, W:1, H:1, X:1, Y:8, C:32, F:32, ;31.074108362197876
13;1;MobilNet_01;0.14090609999999998;0.0006112702266592072;2;axe_out_channels1_0,axe_yy1_0,axe_yy1_1,axe_xx1_0;112;axe_out_channels2_0,axe_yy2_0,axe_yy2_1,axe_xx2_0;896;F:1, Y:1, C:1, Y:1, X:112, H:3, W:3, W:1, H:1, X:1, Y:8, C:32, F:32, ;32.177950382232666
14;0;MobilNet_01;0.1824281;0.0007609940144311272;2;axe_yy1_1,axe_xx1_0;560;axe_yy2_1,axe_xx2_0;448;F:1, Y:1, C:1, Y:5, X:112, H:3, W:3, W:1, H:1, X:1, Y:12, C:32, F:32, ;33.32065534591675
14;1;MobilNet_01;0.1401615;0.0005125497536825119;2;axe_out_channels1_0,axe_yy1_0,axe_yy1_1,axe_xx1_0;560;axe_out_channels2_0,axe_yy2_0,axe_yy2_1,axe_xx2_0;448;F:1, Y:1, C:1, Y:5, X:112, H:3, W:3, W:1, H:1, X:1, Y:12, C:32, F:32, ;34.423744678497314
15;0;MobilNet_01;0.29644059999999994;0.0015010714306787725;2;axe_yy1_1,axe_xx1_0;112;axe_yy2_1,axe_xx2_0;112;F:1, Y:5, C:1, Y:1, X:112, H:3, W:3, W:1, H:1, X:1, Y:12, C:32, F:32, ;35.56826853752136
15;1;MobilNet_01;0.14152840000000003;0.0003666832965925696;2;axe_out_channels1_0,axe_yy1_0,axe_yy1_1,axe_xx1_0;560;axe_out_channels2_0,axe_yy2_0,axe_yy2_1,axe_xx2_0;448;F:1, Y:5, C:1, Y:1, X:112, H:3, W:3, W:1, H:1, X:1, Y:12, C:32, F:32, ;36.66457772254944
16;0;MobilNet_01;0.19109569999999998;0.0009714068200295944;2;axe_yy1_1,axe_xx1_0;784;axe_yy2_1,axe_xx2_0;224;F:1, Y:1, C:1, Y:7, X:112, H:3, W:3, W:1, H:1, X:1, Y:12, C:32, F:32, ;37.797942876815796
16;1;MobilNet_01;0.1450038;0.0006213398104097321;2;axe_out_channels1_0,axe_yy1_0,axe_yy1_1,axe_xx1_0;784;axe_out_channels2_0,axe_yy2_0,axe_yy2_1,axe_xx2_0;224;F:1, Y:1, C:1, Y:7, X:112, H:3, W:3, W:1, H:1, X:1, Y:12, C:32, F:32, ;38.92405843734741
17;0;MobilNet_01;0.30107150000000005;0.002545268365025573;2;axe_yy1_1,axe_xx1_0;112;axe_yy2_1,axe_xx2_0;112;F:1, Y:7, C:1, Y:1, X:112, H:3, W:3, W:1, H:1, X:1, Y:12, C:32, F:32, ;40.095335960388184
17;1;MobilNet_01;0.1451096;0.0008379021661268082;2;axe_out_channels1_0,axe_yy1_0,axe_yy1_1,axe_xx1_0;784;axe_out_channels2_0,axe_yy2_0,axe_yy2_1,axe_xx2_0;224;F:1, Y:7, C:1, Y:1, X:112, H:3, W:3, W:1, H:1, X:1, Y:12, C:32, F:32, ;41.21925711631775
18;0;MobilNet_01;0.22280119999999998;0.0008850327451569197;2;axe_yy1_1,axe_xx1_0;224;axe_yy2_1,axe_xx2_0;336;F:1, Y:2, C:1, Y:2, X:112, H:3, W:3, W:1, H:1, X:1, Y:10, C:32, F:32, ;42.367732763290405
18;1;MobilNet_01;0.14097149999999997;0.0007150529001409605;2;axe_out_channels1_0,axe_yy1_0,axe_yy1_1,axe_xx1_0;448;axe_out_channels2_0,axe_yy2_0,axe_yy2_1,axe_xx2_0;672;F:1, Y:2, C:1, Y:2, X:112, H:3, W:3, W:1, H:1, X:1, Y:10, C:32, F:32, ;43.53176546096802
19;0;MobilNet_01;0.23983709999999997;0.001740576941706404;2;axe_yy1_1,axe_xx1_0;224;axe_yy2_1,axe_xx2_0;224;F:1, Y:2, C:1, Y:2, X:112, H:3, W:3, W:1, H:1, X:1, Y:10, C:32, F:32, ;44.68565559387207
19;1;MobilNet_01;0.14156039999999998;0.00084534137483031;2;axe_out_channels1_0,axe_yy1_0,axe_yy1_1,axe_xx1_0;448;axe_out_channels2_0,axe_yy2_0,axe_yy2_1,axe_xx2_0;672;F:1, Y:2, C:1, Y:2, X:112, H:3, W:3, W:1, H:1, X:1, Y:10, C:32, F:32, ;45.82004904747009
20;0;MobilNet_01;0.2211185;0.0009012717958529581;2;axe_yy1_1,axe_xx1_0;336;axe_yy2_1,axe_xx2_0;224;F:1, Y:2, C:1, Y:3, X:112, H:3, W:3, W:1, H:1, X:1, Y:10, C:32, F:32, ;46.97886657714844
20;1;MobilNet_01;0.14397189999999999;0.0005816776512811849;2;axe_out_channels1_0,axe_yy1_0,axe_yy1_1,axe_xx1_0;672;axe_out_channels2_0,axe_yy2_0,axe_yy2_1,axe_xx2_0;448;F:1, Y:2, C:1, Y:3, X:112, H:3, W:3, W:1, H:1, X:1, Y:10, C:32, F:32, ;48.08121156692505
21;0;MobilNet_01;0.23867999999999995;0.0011899428557708175;2;axe_yy1_1,axe_xx1_0;224;axe_yy2_1,axe_xx2_0;224;F:1, Y:3, C:1, Y:2, X:112, H:3, W:3, W:1, H:1, X:1, Y:10, C:32, F:32, ;49.20164513587952
21;1;MobilNet_01;0.1435443;0.0008275657134028732;2;axe_out_channels1_0,axe_yy1_0,axe_yy1_1,axe_xx1_0;672;axe_out_channels2_0,axe_yy2_0,axe_yy2_1,axe_xx2_0;448;F:1, Y:3, C:1, Y:2, X:112, H:3, W:3, W:1, H:1, X:1, Y:10, C:32, F:32, ;50.30461263656616
22;0;MobilNet_01;0.1925832;0.0005943301775949086;2;axe_yy1_1,axe_xx1_0;784;axe_yy2_1,axe_xx2_0;336;F:1, Y:1, C:1, Y:7, X:112, H:3, W:3, W:1, H:1, X:1, Y:10, C:32, F:32, ;51.46373772621155
22;1;MobilNet_01;0.1481261;0.0007332994545204587;2;axe_out_channels1_0,axe_yy1_0,axe_yy1_1,axe_xx1_0;784;axe_out_channels2_0,axe_yy2_0,axe_yy2_1,axe_xx2_0;336;F:1, Y:1, C:1, Y:7, X:112, H:3, W:3, W:1, H:1, X:1, Y:10, C:32, F:32, ;52.612027645111084
23;0;MobilNet_01;0.3213696;0.0026908828365426805;2;axe_yy1_1,axe_xx1_0;112;axe_yy2_1,axe_xx2_0;112;F:1, Y:7, C:1, Y:1, X:112, H:3, W:3, W:1, H:1, X:1, Y:10, C:32, F:32, ;53.82244324684143
23;1;MobilNet_01;0.14822220000000003;0.0007101392539495364;2;axe_out_channels1_0,axe_yy1_0,axe_yy1_1,axe_xx1_0;784;axe_out_channels2_0,axe_yy2_0,axe_yy2_1,axe_xx2_0;336;F:1, Y:7, C:1, Y:1, X:112, H:3, W:3, W:1, H:1, X:1, Y:10, C:32, F:32, ;54.975051164627075
24;0;MobilNet_01;0.21092349999999999;0.0009134603713352902;2;axe_yy1_1,axe_xx1_0;448;axe_yy2_1,axe_xx2_0;112;F:1, Y:2, C:1, Y:4, X:112, H:3, W:3, W:1, H:1, X:1, Y:11, C:32, F:32, ;56.116188287734985
24;1;MobilNet_01;0.13919579999999998;0.0008065654096228035;2;axe_out_channels1_0,axe_yy1_0,axe_yy1_1,axe_xx1_0;896;axe_out_channels2_0,axe_yy2_0,axe_yy2_1,axe_xx2_0;224;F:1, Y:2, C:1, Y:4, X:112, H:3, W:3, W:1, H:1, X:1, Y:11, C:32, F:32, ;57.22358322143555
25;0;MobilNet_01;0.2458393;0.0008271240596186266;2;axe_yy1_1,axe_xx1_0;224;axe_yy2_1,axe_xx2_0;224;F:1, Y:4, C:1, Y:2, X:112, H:3, W:3, W:1, H:1, X:1, Y:11, C:32, F:32, ;58.3482940196991
25;1;MobilNet_01;0.1395845;0.000492427913506129;2;axe_out_channels1_0,axe_yy1_0,axe_yy1_1,axe_xx1_0;896;axe_out_channels2_0,axe_yy2_0,axe_yy2_1,axe_xx2_0;224;F:1, Y:4, C:1, Y:2, X:112, H:3, W:3, W:1, H:1, X:1, Y:11, C:32, F:32, ;59.45044660568237
26;0;MobilNet_01;0.201571;0.0009333627376320547;2;axe_yy1_1,axe_xx1_0;1008;axe_yy2_1,axe_xx2_0;112;F:1, Y:1, C:1, Y:9, X:112, H:3, W:3, W:1, H:1, X:1, Y:11, C:32, F:32, ;60.553930044174194
26;1;MobilNet_01;0.14707;0.0007776076131314549;2;axe_out_channels1_0,axe_yy1_0,axe_yy1_1,axe_xx1_0;1008;axe_out_channels2_0,axe_yy2_0,axe_yy2_1,axe_xx2_0;112;F:1, Y:1, C:1, Y:9, X:112, H:3, W:3, W:1, H:1, X:1, Y:11, C:32, F:32, ;61.64744329452515
27;0;MobilNet_01;0.33453540000000004;0.0015487591936773149;2;axe_yy1_1,axe_xx1_0;112;axe_yy2_1,axe_xx2_0;112;F:1, Y:9, C:1, Y:1, X:112, H:3, W:3, W:1, H:1, X:1, Y:11, C:32, F:32, ;62.77409911155701
27;1;MobilNet_01;0.1467559;0.0010453403704057355;2;axe_out_channels1_0,axe_yy1_0,axe_yy1_1,axe_xx1_0;1008;axe_out_channels2_0,axe_yy2_0,axe_yy2_1,axe_xx2_0;112;F:1, Y:9, C:1, Y:1, X:112, H:3, W:3, W:1, H:1, X:1, Y:11, C:32, F:32, ;63.85960674285889
28;0;MobilNet_01;0.22957850000000005;0.0005108845760051874;2;axe_yy1_1,axe_xx1_0;224;axe_yy2_1,axe_xx2_0;336;F:1, Y:2, C:1, Y:2, X:112, W:3, W:1, H:3, X:1, Y:10, C:32, F:32, ;65.02605485916138
28;1;MobilNet_01;0.15399690000000002;0.0007482326443025584;2;axe_out_channels1_0,axe_yy1_0,axe_yy1_1,axe_xx1_0;448;axe_out_channels2_0,axe_yy2_0,axe_yy2_1,axe_xx2_0;672;F:1, Y:2, C:1, Y:2, X:112, W:3, W:1, H:3, X:1, Y:10, C:32, F:32, ;66.17702722549438
29;0;MobilNet_01;0.24495589999999998;0.0010794642606404379;2;axe_yy1_1,axe_xx1_0;224;axe_yy2_1,axe_xx2_0;224;F:1, Y:2, C:1, Y:2, X:112, W:3, W:1, H:3, X:1, Y:10, C:32, F:32, ;67.35232090950012
29;1;MobilNet_01;0.1546629;0.0006399386611230768;2;axe_out_channels1_0,axe_yy1_0,axe_yy1_1,axe_xx1_0;448;axe_out_channels2_0,axe_yy2_0,axe_yy2_1,axe_xx2_0;672;F:1, Y:2, C:1, Y:2, X:112, W:3, W:1, H:3, X:1, Y:10, C:32, F:32, ;68.5074074268341
30;0;MobilNet_01;0.206965;0.000816167874888494;2;axe_yy1_1,axe_xx1_0;448;axe_yy2_1,axe_xx2_0;112;F:1, Y:2, C:1, Y:4, X:112, W:3, W:1, H:3, X:1, Y:11, C:32, F:32, ;69.67256379127502
30;1;MobilNet_01;0.1374135;0.0005429317176220233;2;axe_out_channels1_0,axe_yy1_0,axe_yy1_1,axe_xx1_0;896;axe_out_channels2_0,axe_yy2_0,axe_yy2_1,axe_xx2_0;224;F:1, Y:2, C:1, Y:4, X:112, W:3, W:1, H:3, X:1, Y:11, C:32, F:32, ;70.8198094367981
31;0;MobilNet_01;0.23497099999999999;0.001038333376136973;2;axe_yy1_1,axe_xx1_0;224;axe_yy2_1,axe_xx2_0;224;F:1, Y:4, C:1, Y:2, X:112, W:3, W:1, H:3, X:1, Y:11, C:32, F:32, ;72.00985503196716
31;1;MobilNet_01;0.13793380000000002;0.0005145348967757233;2;axe_out_channels1_0,axe_yy1_0,axe_yy1_1,axe_xx1_0;896;axe_out_channels2_0,axe_yy2_0,axe_yy2_1,axe_xx2_0;224;F:1, Y:4, C:1, Y:2, X:112, W:3, W:1, H:3, X:1, Y:11, C:32, F:32, ;73.16011714935303
32;0;MobilNet_01;0.1799077;0.000914511459742307;2;axe_yy1_1,axe_xx1_0;336;axe_yy2_1,axe_xx2_0;896;F:1, Y:1, C:1, Y:3, X:112, H:3, W:3, W:1, H:1, X:1, Y:8, C:32, F:32, ;74.2709219455719
32;1;MobilNet_01;0.14253199999999996;0.0005845452933691241;2;axe_out_channels1_0,axe_yy1_0,axe_yy1_1,axe_xx1_0;336;axe_out_channels2_0,axe_yy2_0,axe_yy2_1,axe_xx2_0;896;F:1, Y:1, C:1, Y:3, X:112, H:3, W:3, W:1, H:1, X:1, Y:8, C:32, F:32, ;75.36523485183716
33;0;MobilNet_01;0.35811610000000005;0.0015362908220776423;2;axe_yy1_1,axe_xx1_0;112;axe_yy2_1,axe_xx2_0;112;F:1, Y:3, C:1, Y:1, X:112, H:3, W:3, W:1, H:1, X:1, Y:8, C:32, F:32, ;76.51912951469421
33;1;MobilNet_01;0.1440539;0.0007859349146080717;2;axe_out_channels1_0,axe_yy1_0,axe_yy1_1,axe_xx1_0;336;axe_out_channels2_0,axe_yy2_0,axe_yy2_1,axe_xx2_0;896;F:1, Y:3, C:1, Y:1, X:112, H:3, W:3, W:1, H:1, X:1, Y:8, C:32, F:32, ;77.61469674110413
34;0;MobilNet_01;0.1899386;0.0007956197835649896;2;axe_yy1_1,axe_xx1_0;784;axe_yy2_1,axe_xx2_0;448;F:1, Y:1, C:1, Y:7, X:112, H:3, W:3, W:1, H:1, X:1, Y:8, C:32, F:32, ;78.71932625770569
34;1;MobilNet_01;0.1427637;0.00036587212246903903;2;axe_out_channels1_0,axe_yy1_0,axe_yy1_1,axe_xx1_0;784;axe_out_channels2_0,axe_yy2_0,axe_yy2_1,axe_xx2_0;448;F:1, Y:1, C:1, Y:7, X:112, H:3, W:3, W:1, H:1, X:1, Y:8, C:32, F:32, ;79.80898833274841
35;0;MobilNet_01;0.3527918;0.0025338939125385544;2;axe_yy1_1,axe_xx1_0;112;axe_yy2_1,axe_xx2_0;112;F:1, Y:7, C:1, Y:1, X:112, H:3, W:3, W:1, H:1, X:1, Y:8, C:32, F:32, ;80.96859097480774
35;1;MobilNet_01;0.14261479999999999;0.0007961466950254814;2;axe_out_channels1_0,axe_yy1_0,axe_yy1_1,axe_xx1_0;784;axe_out_channels2_0,axe_yy2_0,axe_yy2_1,axe_xx2_0;448;F:1, Y:7, C:1, Y:1, X:112, H:3, W:3, W:1, H:1, X:1, Y:8, C:32, F:32, ;82.06866645812988
36;0;MobilNet_01;0.1881827;0.0007748357309778621;2;axe_yy1_1,axe_xx1_0;1008;axe_yy2_1,axe_xx2_0;224;F:1, Y:1, C:1, Y:9, X:112, H:3, W:3, W:1, H:1, X:1, Y:10, C:32, F:32, ;83.17941403388977
36;1;MobilNet_01;0.1460551;0.0005686057421447713;2;axe_out_channels1_0,axe_yy1_0,axe_yy1_1,axe_xx1_0;1008;axe_out_channels2_0,axe_yy2_0,axe_yy2_1,axe_xx2_0;224;F:1, Y:1, C:1, Y:9, X:112, H:3, W:3, W:1, H:1, X:1, Y:10, C:32, F:32, ;84.27588105201721
37;0;MobilNet_01;0.3495854;0.0014812876290579127;2;axe_yy1_1,axe_xx1_0;112;axe_yy2_1,axe_xx2_0;112;F:1, Y:9, C:1, Y:1, X:112, H:3, W:3, W:1, H:1, X:1, Y:10, C:32, F:32, ;85.42654538154602
37;1;MobilNet_01;0.1453593;0.00048138904225168705;2;axe_out_channels1_0,axe_yy1_0,axe_yy1_1,axe_xx1_0;1008;axe_out_channels2_0,axe_yy2_0,axe_yy2_1,axe_xx2_0;224;F:1, Y:9, C:1, Y:1, X:112, H:3, W:3, W:1, H:1, X:1, Y:10, C:32, F:32, ;86.52088761329651
38;0;MobilNet_01;0.1728865;0.0006701989629953207;2;axe_yy1_1,axe_xx1_0;1008;axe_yy2_1,axe_xx2_0;224;F:1, Y:1, C:1, Y:9, X:112, W:3, W:1, H:3, X:1, Y:10, C:32, F:32, ;87.65454483032227
38;1;MobilNet_01;0.12833180000000002;0.0003223705321520527;2;axe_out_channels1_0,axe_yy1_0,axe_yy1_1,axe_xx1_0;1008;axe_out_channels2_0,axe_yy2_0,axe_yy2_1,axe_xx2_0;224;F:1, Y:1, C:1, Y:9, X:112, W:3, W:1, H:3, X:1, Y:10, C:32, F:32, ;88.78072094917297
39;0;MobilNet_01;0.3331855;0.001955127118629381;2;axe_yy1_1,axe_xx1_0;112;axe_yy2_1,axe_xx2_0;112;F:1, Y:9, C:1, Y:1, X:112, W:3, W:1, H:3, X:1, Y:10, C:32, F:32, ;89.95828366279602
39;1;MobilNet_01;0.1290223;0.0006837400163804982;2;axe_out_channels1_0,axe_yy1_0,axe_yy1_1,axe_xx1_0;1008;axe_out_channels2_0,axe_yy2_0,axe_yy2_1,axe_xx2_0;224;F:1, Y:9, C:1, Y:1, X:112, W:3, W:1, H:3, X:1, Y:10, C:32, F:32, ;91.0802047252655
40;0;MobilNet_01;0.30629870000000003;0.0007579616151230866;2;axe_yy1_1,axe_xx1_0;112;axe_yy2_1,axe_xx2_0;224;F:1, Y:4, C:1, Y:1, X:112, H:3, W:3, W:1, H:1, X:1, Y:8, C:32, F:32, ;92.2275800704956
40;1;MobilNet_01;0.1384166;0.0006834961887238234;2;axe_out_channels1_0,axe_yy1_0,axe_yy1_1,axe_xx1_0;448;axe_out_channels2_0,axe_yy2_0,axe_yy2_1,axe_xx2_0;896;F:1, Y:4, C:1, Y:1, X:112, H:3, W:3, W:1, H:1, X:1, Y:8, C:32, F:32, ;93.32704281806946
41;0;MobilNet_01;0.20011460000000003;0.0005591000268288331;2;axe_yy1_1,axe_xx1_0;448;axe_yy2_1,axe_xx2_0;448;F:1, Y:1, C:1, Y:4, X:112, H:3, W:3, W:1, H:1, X:1, Y:8, C:32, F:32, ;94.4420747756958
41;1;MobilNet_01;0.13843930000000002;0.0005421202910793867;2;axe_out_channels1_0,axe_yy1_0,axe_yy1_1,axe_xx1_0;448;axe_out_channels2_0,axe_yy2_0,axe_yy2_1,axe_xx2_0;896;F:1, Y:1, C:1, Y:4, X:112, H:3, W:3, W:1, H:1, X:1, Y:8, C:32, F:32, ;95.54783463478088
42;0;MobilNet_01;0.29639329999999997;0.001584266016172797;2;axe_yy1_1,axe_xx1_0;224;axe_yy2_1,axe_xx2_0;112;F:1, Y:4, C:1, Y:2, X:112, H:3, W:3, W:1, H:1, X:1, Y:8, C:32, F:32, ;96.66785788536072
42;1;MobilNet_01;0.1399471;0.0005248901694640505;2;axe_out_channels1_0,axe_yy1_0,axe_yy1_1,axe_xx1_0;896;axe_out_channels2_0,axe_yy2_0,axe_yy2_1,axe_xx2_0;448;F:1, Y:4, C:1, Y:2, X:112, H:3, W:3, W:1, H:1, X:1, Y:8, C:32, F:32, ;97.7500913143158
43;0;MobilNet_01;0.20166080000000003;0.0007756542786577042;2;axe_yy1_1,axe_xx1_0;448;axe_yy2_1,axe_xx2_0;448;F:1, Y:2, C:1, Y:4, X:112, H:3, W:3, W:1, H:1, X:1, Y:8, C:32, F:32, ;98.84541034698486
43;1;MobilNet_01;0.1406675;0.0005310345092364528;2;axe_out_channels1_0,axe_yy1_0,axe_yy1_1,axe_xx1_0;896;axe_out_channels2_0,axe_yy2_0,axe_yy2_1,axe_xx2_0;448;F:1, Y:2, C:1, Y:4, X:112, H:3, W:3, W:1, H:1, X:1, Y:8, C:32, F:32, ;99.92900705337524
44;0;MobilNet_01;0.29872099999999996;0.001760289692067758;2;axe_yy1_1,axe_xx1_0;224;axe_yy2_1,axe_xx2_0;112;F:1, Y:4, C:1, Y:2, X:112, H:3, W:3, W:1, H:1, X:1, Y:9, C:32, F:32, ;101.11920499801636
44;1;MobilNet_01;0.1399698;0.0006199743220489068;2;axe_out_channels1_0,axe_yy1_0,axe_yy1_1,axe_xx1_0;896;axe_out_channels2_0,axe_yy2_0,axe_yy2_1,axe_xx2_0;448;F:1, Y:4, C:1, Y:2, X:112, H:3, W:3, W:1, H:1, X:1, Y:9, C:32, F:32, ;102.24755120277405
45;0;MobilNet_01;0.1998292;0.000538994211471703;2;axe_yy1_1,axe_xx1_0;448;axe_yy2_1,axe_xx2_0;448;F:1, Y:2, C:1, Y:4, X:112, H:3, W:3, W:1, H:1, X:1, Y:9, C:32, F:32, ;103.39022898674011
45;1;MobilNet_01;0.1395462;0.0007359786409944235;2;axe_out_channels1_0,axe_yy1_0,axe_yy1_1,axe_xx1_0;896;axe_out_channels2_0,axe_yy2_0,axe_yy2_1,axe_xx2_0;448;F:1, Y:2, C:1, Y:4, X:112, H:3, W:3, W:1, H:1, X:1, Y:9, C:32, F:32, ;104.51299452781677
46;0;MobilNet_01;0.2217242;0.0008185496686212766;2;axe_yy1_1,axe_xx1_0;560;axe_yy2_1,axe_xx2_0;112;F:1, Y:2, C:1, Y:5, X:112, H:3, W:3, W:1, H:1, X:1, Y:9, C:32, F:32, ;105.63104701042175
46;1;MobilNet_01;0.14619109999999996;0.0011924494496623275;2;axe_out_channels1_0,axe_yy1_0,axe_yy1_1,axe_xx1_0;1120;axe_out_channels2_0,axe_yy2_0,axe_yy2_1,axe_xx2_0;224;F:1, Y:2, C:1, Y:5, X:112, H:3, W:3, W:1, H:1, X:1, Y:9, C:32, F:32, ;106.72139549255371
47;0;MobilNet_01;0.26946489999999995;0.0020023588314785224;2;axe_yy1_1,axe_xx1_0;224;axe_yy2_1,axe_xx2_0;224;F:1, Y:5, C:1, Y:2, X:112, H:3, W:3, W:1, H:1, X:1, Y:9, C:32, F:32, ;107.82980990409851
47;1;MobilNet_01;0.14721850000000003;0.0008586887969456698;2;axe_out_channels1_0,axe_yy1_0,axe_yy1_1,axe_xx1_0;1120;axe_out_channels2_0,axe_yy2_0,axe_yy2_1,axe_xx2_0;224;F:1, Y:5, C:1, Y:2, X:112, H:3, W:3, W:1, H:1, X:1, Y:9, C:32, F:32, ;108.91944551467896
48;0;MobilNet_01;0.2158648;0.001515095561342593;2;axe_yy1_1,axe_xx1_0;1232;axe_yy2_1,axe_xx2_0;112;F:1, Y:1, C:1, Y:11, X:112, H:3, W:3, W:1, H:1, X:1, Y:9, C:32, F:32, ;110.01564407348633
48;1;MobilNet_01;0.14742570000000002;0.0006599654612174706;2;axe_out_channels1_0,axe_yy1_0,axe_yy1_1,axe_xx1_0;1232;axe_out_channels2_0,axe_yy2_0,axe_yy2_1,axe_xx2_0;112;F:1, Y:1, C:1, Y:11, X:112, H:3, W:3, W:1, H:1, X:1, Y:9, C:32, F:32, ;111.09830284118652
49;0;MobilNet_01;0.3787081;0.0020624394997187188;2;axe_yy1_1,axe_xx1_0;112;axe_yy2_1,axe_xx2_0;112;F:1, Y:11, C:1, Y:1, X:112, H:3, W:3, W:1, H:1, X:1, Y:9, C:32, F:32, ;112.23007440567017
49;1;MobilNet_01;0.1472203;0.001074170661487265;2;axe_out_channels1_0,axe_yy1_0,axe_yy1_1,axe_xx1_0;1232;axe_out_channels2_0,axe_yy2_0,axe_yy2_1,axe_xx2_0;112;F:1, Y:11, C:1, Y:1, X:112, H:3, W:3, W:1, H:1, X:1, Y:9, C:32, F:32, ;113.31660604476929
50;0;MobilNet_01;0.2807514;0.0019787469873634813;2;axe_yy1_1,axe_xx1_0;224;axe_yy2_1,axe_xx2_0;112;F:1, Y:4, C:1, Y:2, X:112, W:3, W:1, H:3, X:1, Y:9, C:32, F:32, ;114.49142909049988
50;1;MobilNet_01;0.12169780000000001;0.0005069492676787319;2;axe_out_channels1_0,axe_yy1_0,axe_yy1_1,axe_xx1_0;896;axe_out_channels2_0,axe_yy2_0,axe_yy2_1,axe_xx2_0;448;F:1, Y:4, C:1, Y:2, X:112, W:3, W:1, H:3, X:1, Y:9, C:32, F:32, ;115.62289929389954
51;0;MobilNet_01;0.1799158;0.0008062644479325682;2;axe_yy1_1,axe_xx1_0;448;axe_yy2_1,axe_xx2_0;448;F:1, Y:2, C:1, Y:4, X:112, W:3, W:1, H:3, X:1, Y:9, C:32, F:32, ;116.7705192565918
51;1;MobilNet_01;0.12089989999999999;0.00047792017115831853;2;axe_out_channels1_0,axe_yy1_0,axe_yy1_1,axe_xx1_0;896;axe_out_channels2_0,axe_yy2_0,axe_yy2_1,axe_xx2_0;448;F:1, Y:2, C:1, Y:4, X:112, W:3, W:1, H:3, X:1, Y:9, C:32, F:32, ;117.90394401550293
52;0;MobilNet_01;0.2032997;0.0016743084572443602;2;axe_yy1_1,axe_xx1_0;560;axe_yy2_1,axe_xx2_0;112;F:1, Y:2, C:1, Y:5, X:112, W:3, W:1, H:3, X:1, Y:9, C:32, F:32, ;119.03619599342346
52;1;MobilNet_01;0.1319239;0.0012458881530859867;2;axe_out_channels1_0,axe_yy1_0,axe_yy1_1,axe_xx1_0;1120;axe_out_channels2_0,axe_yy2_0,axe_yy2_1,axe_xx2_0;224;F:1, Y:2, C:1, Y:5, X:112, W:3, W:1, H:3, X:1, Y:9, C:32, F:32, ;120.15153408050537
53;0;MobilNet_01;0.25256199999999995;0.0008841258960125551;2;axe_yy1_1,axe_xx1_0;224;axe_yy2_1,axe_xx2_0;224;F:1, Y:5, C:1, Y:2, X:112, W:3, W:1, H:3, X:1, Y:9, C:32, F:32, ;121.27511668205261
53;1;MobilNet_01;0.1312168;0.0007921590496863582;2;axe_out_channels1_0,axe_yy1_0,axe_yy1_1,axe_xx1_0;1120;axe_out_channels2_0,axe_yy2_0,axe_yy2_1,axe_xx2_0;224;F:1, Y:5, C:1, Y:2, X:112, W:3, W:1, H:3, X:1, Y:9, C:32, F:32, ;122.3802740573883
54;0;MobilNet_01;0.1813285;0.0006516764918270412;2;axe_yy1_1,axe_xx1_0;560;axe_yy2_1,axe_xx2_0;896;F:1, Y:1, C:1, Y:5, X:112, H:3, W:3, W:1, H:1, X:1, Y:8, C:32, F:32, ;123.49175667762756
54;1;MobilNet_01;0.1394826;0.0006845907098405647;2;axe_out_channels1_0,axe_yy1_0,axe_yy1_1,axe_xx1_0;560;axe_out_channels2_0,axe_yy2_0,axe_yy2_1,axe_xx2_0;896;F:1, Y:1, C:1, Y:5, X:112, H:3, W:3, W:1, H:1, X:1, Y:8, C:32, F:32, ;124.59165525436401
55;0;MobilNet_01;0.39549049999999997;0.0018255175293598294;2;axe_yy1_1,axe_xx1_0;112;axe_yy2_1,axe_xx2_0;112;F:1, Y:5, C:1, Y:1, X:112, H:3, W:3, W:1, H:1, X:1, Y:8, C:32, F:32, ;125.75979781150818
55;1;MobilNet_01;0.13963090000000003;0.0010002992002396077;2;axe_out_channels1_0,axe_yy1_0,axe_yy1_1,axe_xx1_0;560;axe_out_channels2_0,axe_yy2_0,axe_yy2_1,axe_xx2_0;896;F:1, Y:5, C:1, Y:1, X:112, H:3, W:3, W:1, H:1, X:1, Y:8, C:32, F:32, ;126.85904288291931
56;0;MobilNet_01;0.119262;0.0004931628534267374;1;axe_yy1_0,axe_out_channels1_0,axe_yy1_1,axe_xx1_0;64;;;Y:1, F:2, Y:8, X:4, W:3, C:1, X:28, W:1, H:3, X:1, Y:14, C:32, F:16, ;127.84307837486267
56;1;MobilNet_01;0.0792066;0.0002762271529013765;1;axe_yy1_0,axe_out_channels1_0,axe_yy1_1,axe_xx1_0,axe_xx1_1;1792;;;Y:1, F:2, Y:8, X:4, W:3, C:1, X:28, W:1, H:3, X:1, Y:14, C:32, F:16, ;128.78979349136353
57;0;MobilNet_01;0.12343649999999999;0.0009062814408339143;1;axe_yy1_0,axe_out_channels1_0,axe_yy1_1,axe_xx1_0;64;;;Y:2, F:2, Y:4, X:4, W:3, C:1, X:28, W:1, H:3, X:1, Y:14, C:32, F:16, ;129.7784607410431
57;1;MobilNet_01;0.08058530000000001;0.0005934689629626813;1;axe_yy1_0,axe_out_channels1_0,axe_yy1_1,axe_xx1_0,axe_xx1_1;1792;;;Y:2, F:2, Y:4, X:4, W:3, C:1, X:28, W:1, H:3, X:1, Y:14, C:32, F:16, ;130.7258026599884
58;0;MobilNet_01;0.1229579;0.0008220123417564965;1;axe_yy1_0,axe_out_channels1_0,axe_yy1_1,axe_xx1_0;64;;;Y:4, F:2, Y:2, X:4, W:3, C:1, X:28, W:1, H:3, X:1, Y:14, C:32, F:16, ;131.68059921264648
58;1;MobilNet_01;0.0825449;0.001101923722405501;1;axe_yy1_0,axe_out_channels1_0,axe_yy1_1,axe_xx1_0,axe_xx1_1;1792;;;Y:4, F:2, Y:2, X:4, W:3, C:1, X:28, W:1, H:3, X:1, Y:14, C:32, F:16, ;132.6230731010437
59;0;MobilNet_01;0.1232617;0.0005620377300502152;1;axe_yy1_0,axe_out_channels1_0,axe_yy1_1,axe_xx1_0;64;;;Y:8, F:2, Y:1, X:4, W:3, C:1, X:28, W:1, H:3, X:1, Y:14, C:32, F:16, ;133.57509422302246
59;1;MobilNet_01;0.0819395;0.001121888162875429;1;axe_yy1_0,axe_out_channels1_0,axe_yy1_1,axe_xx1_0,axe_xx1_1;1792;;;Y:8, F:2, Y:1, X:4, W:3, C:1, X:28, W:1, H:3, X:1, Y:14, C:32, F:16, ;134.51630187034607
60;0;MobilNet_01;0.1288288;0.0005356481681103804;1;axe_yy1_0,axe_out_channels1_0,axe_yy1_1,axe_xx1_0;112;;;Y:1, F:2, Y:8, X:7, W:3, C:1, X:16, W:1, H:3, X:1, Y:14, C:32, F:16, ;135.48651218414307
60;1;MobilNet_01;0.0789832;0.0004735172224956579;1;axe_yy1_0,axe_out_channels1_0,axe_yy1_1,axe_xx1_0,axe_xx1_1;1792;;;Y:1, F:2, Y:8, X:7, W:3, C:1, X:16, W:1, H:3, X:1, Y:14, C:32, F:16, ;136.4311499595642
61;0;MobilNet_01;0.1880158;0.011595835440363928;1;axe_yy1_0,axe_out_channels1_0,axe_yy1_1,axe_xx1_0;112;;;Y:2, F:2, Y:4, X:7, W:3, C:1, X:16, W:1, H:3, X:1, Y:14, C:32, F:16, ;137.39624428749084
61;1;MobilNet_01;0.0804815;0.00025811983651010046;1;axe_yy1_0,axe_out_channels1_0,axe_yy1_1,axe_xx1_0,axe_xx1_1;1792;;;Y:2, F:2, Y:4, X:7, W:3, C:1, X:16, W:1, H:3, X:1, Y:14, C:32, F:16, ;138.3396589756012
62;0;MobilNet_01;0.12560870000000002;0.002093427335734389;1;axe_yy1_0,axe_out_channels1_0,axe_yy1_1,axe_xx1_0;112;;;Y:4, F:2, Y:2, X:7, W:3, C:1, X:16, W:1, H:3, X:1, Y:14, C:32, F:16, ;139.31330156326294
62;1;MobilNet_01;0.0822431;0.0004533191921814024;1;axe_yy1_0,axe_out_channels1_0,axe_yy1_1,axe_xx1_0,axe_xx1_1;1792;;;Y:4, F:2, Y:2, X:7, W:3, C:1, X:16, W:1, H:3, X:1, Y:14, C:32, F:16, ;140.25435948371887
63;0;MobilNet_01;0.1285086;0.0019711157348060475;1;axe_yy1_0,axe_out_channels1_0,axe_yy1_1,axe_xx1_0;112;;;Y:8, F:2, Y:1, X:7, W:3, C:1, X:16, W:1, H:3, X:1, Y:14, C:32, F:16, ;141.2123827934265
63;1;MobilNet_01;0.0827044;0.00147798871443594;1;axe_yy1_0,axe_out_channels1_0,axe_yy1_1,axe_xx1_0,axe_xx1_1;1792;;;Y:8, F:2, Y:1, X:7, W:3, C:1, X:16, W:1, H:3, X:1, Y:14, C:32, F:16, ;142.15242743492126
64;0;MobilNet_01;0.11971309999999999;0.0006688587967575868;1;axe_yy1_0,axe_out_channels1_0,axe_yy1_1,axe_xx1_0;128;;;Y:1, F:2, Y:8, X:8, W:3, C:1, X:14, W:1, H:3, X:1, Y:14, C:32, F:16, ;143.12080550193787
64;1;MobilNet_01;0.07879169999999999;0.000557365418733526;1;axe_yy1_0,axe_out_channels1_0,axe_yy1_1,axe_xx1_0,axe_xx1_1;1792;;;Y:1, F:2, Y:8, X:8, W:3, C:1, X:14, W:1, H:3, X:1, Y:14, C:32, F:16, ;144.0618715286255
65;0;MobilNet_01;0.1234771;0.0011428475357631988;1;axe_yy1_0,axe_out_channels1_0,axe_yy1_1,axe_xx1_0;128;;;Y:2, F:2, Y:4, X:8, W:3, C:1, X:14, W:1, H:3, X:1, Y:14, C:32, F:16, ;145.02645611763
65;1;MobilNet_01;0.0811923;0.0006896900825733252;1;axe_yy1_0,axe_out_channels1_0,axe_yy1_1,axe_xx1_0,axe_xx1_1;1792;;;Y:2, F:2, Y:4, X:8, W:3, C:1, X:14, W:1, H:3, X:1, Y:14, C:32, F:16, ;145.96986889839172
66;0;MobilNet_01;0.1254307;0.0011805109105806665;1;axe_yy1_0,axe_out_channels1_0,axe_yy1_1,axe_xx1_0;128;;;Y:4, F:2, Y:2, X:8, W:3, C:1, X:14, W:1, H:3, X:1, Y:14, C:32, F:16, ;146.93413877487183
66;1;MobilNet_01;0.0834086;0.0010060174153562135;1;axe_yy1_0,axe_out_channels1_0,axe_yy1_1,axe_xx1_0,axe_xx1_1;1792;;;Y:4, F:2, Y:2, X:8, W:3, C:1, X:14, W:1, H:3, X:1, Y:14, C:32, F:16, ;147.87721920013428
67;0;MobilNet_01;0.1254745;0.0009781043144777575;1;axe_yy1_0,axe_out_channels1_0,axe_yy1_1,axe_xx1_0;128;;;Y:8, F:2, Y:1, X:8, W:3, C:1, X:14, W:1, H:3, X:1, Y:14, C:32, F:16, ;148.84125685691833
67;1;MobilNet_01;0.0827785;0.001395847645697763;1;axe_yy1_0,axe_out_channels1_0,axe_yy1_1,axe_xx1_0,axe_xx1_1;1792;;;Y:8, F:2, Y:1, X:8, W:3, C:1, X:14, W:1, H:3, X:1, Y:14, C:32, F:16, ;149.78050899505615
68;0;MobilNet_01;0.1139843;0.0010802948717827019;1;axe_yy1_0,axe_out_channels1_0,axe_yy1_1,axe_xx1_0;224;;;Y:1, F:2, Y:8, X:14, W:3, C:1, X:8, W:1, H:3, X:1, Y:14, C:32, F:16, ;150.73612523078918
68;1;MobilNet_01;0.079004;0.00024597438891071216;1;axe_yy1_0,axe_out_channels1_0,axe_yy1_1,axe_xx1_0,axe_xx1_1;1792;;;Y:1, F:2, Y:8, X:14, W:3, C:1, X:8, W:1, H:3, X:1, Y:14, C:32, F:16, ;151.67679476737976
69;0;MobilNet_01;0.11944320000000001;0.0010185694674395074;1;axe_yy1_0,axe_out_channels1_0,axe_yy1_1,axe_xx1_0;224;;;Y:2, F:2, Y:4, X:14, W:3, C:1, X:8, W:1, H:3, X:1, Y:14, C:32, F:16, ;152.63938570022583
69;1;MobilNet_01;0.0806972;0.000779282849804872;1;axe_yy1_0,axe_out_channels1_0,axe_yy1_1,axe_xx1_0,axe_xx1_1;1792;;;Y:2, F:2, Y:4, X:14, W:3, C:1, X:8, W:1, H:3, X:1, Y:14, C:32, F:16, ;153.5830855369568
70;0;MobilNet_01;0.1219541;0.0006195541057889989;1;axe_yy1_0,axe_out_channels1_0,axe_yy1_1,axe_xx1_0;224;;;Y:4, F:2, Y:2, X:14, W:3, C:1, X:8, W:1, H:3, X:1, Y:14, C:32, F:16, ;154.5432572364807
70;1;MobilNet_01;0.0830243;0.0010391853588268072;1;axe_yy1_0,axe_out_channels1_0,axe_yy1_1,axe_xx1_0,axe_xx1_1;1792;;;Y:4, F:2, Y:2, X:14, W:3, C:1, X:8, W:1, H:3, X:1, Y:14, C:32, F:16, ;155.51301169395447
71;0;MobilNet_01;0.12224119999999998;0.0009282648113550369;1;axe_yy1_0,axe_out_channels1_0,axe_yy1_1,axe_xx1_0;224;;;Y:8, F:2, Y:1, X:14, W:3, C:1, X:8, W:1, H:3, X:1, Y:14, C:32, F:16, ;156.46817088127136
71;1;MobilNet_01;0.08301670000000001;0.0017328560846186845;1;axe_yy1_0,axe_out_channels1_0,axe_yy1_1,axe_xx1_0,axe_xx1_1;1792;;;Y:8, F:2, Y:1, X:14, W:3, C:1, X:8, W:1, H:3, X:1, Y:14, C:32, F:16, ;157.40964102745056
72;0;MobilNet_01;0.11138970000000001;0.0011074719906164659;1;axe_yy1_0,axe_out_channels1_0,axe_yy1_1,axe_xx1_0;256;;;Y:1, F:2, Y:8, X:16, W:3, C:1, X:7, W:1, H:3, X:1, Y:14, C:32, F:16, ;158.36650252342224
72;1;MobilNet_01;0.07903460000000001;0.00048433752693757034;1;axe_yy1_0,axe_out_channels1_0,axe_yy1_1,axe_xx1_0,axe_xx1_1;1792;;;Y:1, F:2, Y:8, X:16, W:3, C:1, X:7, W:1, H:3, X:1, Y:14, C:32, F:16, ;159.3101408481598
73;0;MobilNet_01;0.11910530000000001;0.0011459574206749556;1;axe_yy1_0,axe_out_channels1_0,axe_yy1_1,axe_xx1_0;256;;;Y:2, F:2, Y:4, X:16, W:3, C:1, X:7, W:1, H:3, X:1, Y:14, C:32, F:16, ;160.26385593414307
73;1;MobilNet_01;0.0805071;0.0006127313359050591;1;axe_yy1_0,axe_out_channels1_0,axe_yy1_1,axe_xx1_0,axe_xx1_1;1792;;;Y:2, F:2, Y:4, X:16, W:3, C:1, X:7, W:1, H:3, X:1, Y:14, C:32, F:16, ;161.2056303024292
74;0;MobilNet_01;0.1210968;0.0005627331161394357;1;axe_yy1_0,axe_out_channels1_0,axe_yy1_1,axe_xx1_0;256;;;Y:4, F:2, Y:2, X:16, W:3, C:1, X:7, W:1, H:3, X:1, Y:14, C:32, F:16, ;162.1626501083374
74;1;MobilNet_01;0.08362209999999999;0.0006004720559693027;1;axe_yy1_0,axe_out_channels1_0,axe_yy1_1,axe_xx1_0,axe_xx1_1;1792;;;Y:4, F:2, Y:2, X:16, W:3, C:1, X:7, W:1, H:3, X:1, Y:14, C:32, F:16, ;163.11080646514893
75;0;MobilNet_01;0.12181559999999998;0.0010746138097009557;1;axe_yy1_0,axe_out_channels1_0,axe_yy1_1,axe_xx1_0;256;;;Y:8, F:2, Y:1, X:16, W:3, C:1, X:7, W:1, H:3, X:1, Y:14, C:32, F:16, ;164.08731484413147
75;1;MobilNet_01;0.08190030000000001;0.0009358853615694591;1;axe_yy1_0,axe_out_channels1_0,axe_yy1_1,axe_xx1_0,axe_xx1_1;1792;;;Y:8, F:2, Y:1, X:16, W:3, C:1, X:7, W:1, H:3, X:1, Y:14, C:32, F:16, ;165.02817511558533
76;0;MobilNet_01;0.09815159999999999;0.0015378440883262521;1;axe_yy1_0,axe_out_channels1_0,axe_yy1_1,axe_xx1_0;448;;;Y:1, F:2, Y:8, X:28, W:3, C:1, X:4, W:1, H:3, X:1, Y:14, C:32, F:16, ;165.99633765220642
76;1;MobilNet_01;0.0789145;0.0001935656219476989;1;axe_yy1_0,axe_out_channels1_0,axe_yy1_1,axe_xx1_0,axe_xx1_1;1792;;;Y:1, F:2, Y:8, X:28, W:3, C:1, X:4, W:1, H:3, X:1, Y:14, C:32, F:16, ;166.93826818466187
77;0;MobilNet_01;0.1136898;0.001216812458844832;1;axe_yy1_0,axe_out_channels1_0,axe_yy1_1,axe_xx1_0;448;;;Y:2, F:2, Y:4, X:28, W:3, C:1, X:4, W:1, H:3, X:1, Y:14, C:32, F:16, ;167.9107460975647
77;1;MobilNet_01;0.08088200000000001;0.0009013617475797395;1;axe_yy1_0,axe_out_channels1_0,axe_yy1_1,axe_xx1_0,axe_xx1_1;1792;;;Y:2, F:2, Y:4, X:28, W:3, C:1, X:4, W:1, H:3, X:1, Y:14, C:32, F:16, ;168.8536901473999
78;0;MobilNet_01;0.11555669999999998;0.001158782813990612;1;axe_yy1_0,axe_out_channels1_0,axe_yy1_1,axe_xx1_0;448;;;Y:4, F:2, Y:2, X:28, W:3, C:1, X:4, W:1, H:3, X:1, Y:14, C:32, F:16, ;169.8265528678894
78;1;MobilNet_01;0.0824115;0.0005679672965937392;1;axe_yy1_0,axe_out_channels1_0,axe_yy1_1,axe_xx1_0,axe_xx1_1;1792;;;Y:4, F:2, Y:2, X:28, W:3, C:1, X:4, W:1, H:3, X:1, Y:14, C:32, F:16, ;170.77221751213074
79;0;MobilNet_01;0.11556820000000001;0.0010999851635363057;1;axe_yy1_0,axe_out_channels1_0,axe_yy1_1,axe_xx1_0;448;;;Y:8, F:2, Y:1, X:28, W:3, C:1, X:4, W:1, H:3, X:1, Y:14, C:32, F:16, ;171.74102926254272
79;1;MobilNet_01;0.0821971;0.0008465014412273645;1;axe_yy1_0,axe_out_channels1_0,axe_yy1_1,axe_xx1_0,axe_xx1_1;1792;;;Y:8, F:2, Y:1, X:28, W:3, C:1, X:4, W:1, H:3, X:1, Y:14, C:32, F:16, ;172.68443632125854
80;0;MobilNet_01;0.08476760000000001;0.0017856203515865278;1;axe_yy1_0,axe_out_channels1_0,axe_yy1_1,axe_xx1_0;896;;;Y:1, F:2, Y:8, X:56, W:3, C:1, X:2, W:1, H:3, X:1, Y:14, C:32, F:16, ;173.63781881332397
80;1;MobilNet_01;0.0794118;0.0002489902809348215;1;axe_yy1_0,axe_out_channels1_0,axe_yy1_1,axe_xx1_0,axe_xx1_1;1792;;;Y:1, F:2, Y:8, X:56, W:3, C:1, X:2, W:1, H:3, X:1, Y:14, C:32, F:16, ;174.57745337486267
81;0;MobilNet_01;0.10160070000000002;0.0024325730019878144;1;axe_yy1_0,axe_out_channels1_0,axe_yy1_1,axe_xx1_0;896;;;Y:2, F:2, Y:4, X:56, W:3, C:1, X:2, W:1, H:3, X:1, Y:14, C:32, F:16, ;175.53211951255798
81;1;MobilNet_01;0.08066179999999999;0.00043671702508604103;1;axe_yy1_0,axe_out_channels1_0,axe_yy1_1,axe_xx1_0,axe_xx1_1;1792;;;Y:2, F:2, Y:4, X:56, W:3, C:1, X:2, W:1, H:3, X:1, Y:14, C:32, F:16, ;176.4782271385193
82;0;MobilNet_01;0.1048983;0.001606640535402988;1;axe_yy1_0,axe_out_channels1_0,axe_yy1_1,axe_xx1_0;896;;;Y:4, F:2, Y:2, X:56, W:3, C:1, X:2, W:1, H:3, X:1, Y:14, C:32, F:16, ;177.43566250801086
82;1;MobilNet_01;0.0830632;0.0007537385223006705;1;axe_yy1_0,axe_out_channels1_0,axe_yy1_1,axe_xx1_0,axe_xx1_1;1792;;;Y:4, F:2, Y:2, X:56, W:3, C:1, X:2, W:1, H:3, X:1, Y:14, C:32, F:16, ;178.37473821640015
83;0;MobilNet_01;0.1036775;0.0011776187201297402;1;axe_yy1_0,axe_out_channels1_0,axe_yy1_1,axe_xx1_0;896;;;Y:8, F:2, Y:1, X:56, W:3, C:1, X:2, W:1, H:3, X:1, Y:14, C:32, F:16, ;179.32929491996765
83;1;MobilNet_01;0.0819814;0.0008857240202230041;1;axe_yy1_0,axe_out_channels1_0,axe_yy1_1,axe_xx1_0,axe_xx1_1;1792;;;Y:8, F:2, Y:1, X:56, W:3, C:1, X:2, W:1, H:3, X:1, Y:14, C:32, F:16, ;180.26991534233093
84;0;MobilNet_01;0.0788806;0.00023953087483662673;1;axe_yy1_0,axe_out_channels1_0,axe_yy1_1,axe_xx1_0;1792;;;Y:1, F:2, Y:8, X:112, W:3, C:1, X:1, W:1, H:3, X:1, Y:14, C:32, F:16, ;181.2098205089569
84;1;MobilNet_01;0.0787345;0.00046401276922084764;1;axe_yy1_0,axe_out_channels1_0,axe_yy1_1,axe_xx1_0,axe_xx1_1;1792;;;Y:1, F:2, Y:8, X:112, W:3, C:1, X:1, W:1, H:3, X:1, Y:14, C:32, F:16, ;182.15488600730896
85;0;MobilNet_01;0.08079839999999999;0.0006483505533274412;1;axe_yy1_0,axe_out_channels1_0,axe_yy1_1,axe_xx1_0;1792;;;Y:2, F:2, Y:4, X:112, W:3, C:1, X:1, W:1, H:3, X:1, Y:14, C:32, F:16, ;183.09985065460205
85;1;MobilNet_01;0.0806529;0.0007142902001287703;1;axe_yy1_0,axe_out_channels1_0,axe_yy1_1,axe_xx1_0,axe_xx1_1;1792;;;Y:2, F:2, Y:4, X:112, W:3, C:1, X:1, W:1, H:3, X:1, Y:14, C:32, F:16, ;184.04241299629211
86;0;MobilNet_01;0.0827122;0.001206849766955277;1;axe_yy1_0,axe_out_channels1_0,axe_yy1_1,axe_xx1_0;1792;;;Y:4, F:2, Y:2, X:112, W:3, C:1, X:1, W:1, H:3, X:1, Y:14, C:32, F:16, ;184.98441529273987
86;1;MobilNet_01;0.0834443;0.0009399981968067811;1;axe_yy1_0,axe_out_channels1_0,axe_yy1_1,axe_xx1_0,axe_xx1_1;1792;;;Y:4, F:2, Y:2, X:112, W:3, C:1, X:1, W:1, H:3, X:1, Y:14, C:32, F:16, ;185.9288454055786
87;0;MobilNet_01;0.08224800000000002;0.0015103701533068;1;axe_yy1_0,axe_out_channels1_0,axe_yy1_1,axe_xx1_0;1792;;;Y:8, F:2, Y:1, X:112, W:3, C:1, X:1, W:1, H:3, X:1, Y:14, C:32, F:16, ;186.8691086769104
87;1;MobilNet_01;0.08281300000000001;0.0010400283649978038;1;axe_yy1_0,axe_out_channels1_0,axe_yy1_1,axe_xx1_0,axe_xx1_1;1792;;;Y:8, F:2, Y:1, X:112, W:3, C:1, X:1, W:1, H:3, X:1, Y:14, C:32, F:16, ;187.81042528152466
88;0;MobilNet_01;0.1637399;0.0010349850675251287;1;axe_yy1_0,axe_out_channels1_0,axe_yy1_1,axe_xx1_0;64;;;Y:1, F:2, Y:8, X:4, W:3, C:2, X:28, W:1, H:3, X:1, Y:14, C:16, F:16, ;188.7729287147522
88;1;MobilNet_01;0.0827199;0.0001859679811150305;1;axe_yy1_0,axe_out_channels1_0,axe_yy1_1,axe_xx1_0,axe_xx1_1;1792;;;Y:1, F:2, Y:8, X:4, W:3, C:2, X:28, W:1, H:3, X:1, Y:14, C:16, F:16, ;189.73021602630615
89;0;MobilNet_01;0.16820770000000002;0.0011419165512418145;1;axe_yy1_0,axe_out_channels1_0,axe_yy1_1,axe_xx1_0;64;;;Y:2, F:2, Y:4, X:4, W:3, C:2, X:28, W:1, H:3, X:1, Y:14, C:16, F:16, ;190.69554924964905
89;1;MobilNet_01;0.0836664;0.0006267562843721607;1;axe_yy1_0,axe_out_channels1_0,axe_yy1_1,axe_xx1_0,axe_xx1_1;1792;;;Y:2, F:2, Y:4, X:4, W:3, C:2, X:28, W:1, H:3, X:1, Y:14, C:16, F:16, ;191.6516354084015
90;0;MobilNet_01;0.16842910000000003;0.000987184526823634;1;axe_yy1_0,axe_out_channels1_0,axe_yy1_1,axe_xx1_0;64;;;Y:4, F:2, Y:2, X:4, W:3, C:2, X:28, W:1, H:3, X:1, Y:14, C:16, F:16, ;192.61085176467896
90;1;MobilNet_01;0.08672840000000001;0.0005169663818857057;1;axe_yy1_0,axe_out_channels1_0,axe_yy1_1,axe_xx1_0,axe_xx1_1;1792;;;Y:4, F:2, Y:2, X:4, W:3, C:2, X:28, W:1, H:3, X:1, Y:14, C:16, F:16, ;193.57003498077393
91;0;MobilNet_01;0.16828749999999998;0.0006883669442964304;1;axe_yy1_0,axe_out_channels1_0,axe_yy1_1,axe_xx1_0;64;;;Y:8, F:2, Y:1, X:4, W:3, C:2, X:28, W:1, H:3, X:1, Y:14, C:16, F:16, ;194.52748465538025
91;1;MobilNet_01;0.0874454;0.0007561669392402686;1;axe_yy1_0,axe_out_channels1_0,axe_yy1_1,axe_xx1_0,axe_xx1_1;1792;;;Y:8, F:2, Y:1, X:4, W:3, C:2, X:28, W:1, H:3, X:1, Y:14, C:16, F:16, ;195.48187398910522
92;0;MobilNet_01;0.17004529999999998;0.0016555308544391387;1;axe_yy1_0,axe_out_channels1_0,axe_yy1_1,axe_xx1_0;112;;;Y:1, F:2, Y:8, X:7, W:3, C:2, X:16, W:1, H:3, X:1, Y:14, C:16, F:16, ;196.45406675338745
92;1;MobilNet_01;0.0826725;0.0003980060929181877;1;axe_yy1_0,axe_out_channels1_0,axe_yy1_1,axe_xx1_0,axe_xx1_1;1792;;;Y:1, F:2, Y:8, X:7, W:3, C:2, X:16, W:1, H:3, X:1, Y:14, C:16, F:16, ;197.40879106521606
93;0;MobilNet_01;0.2730958;0.03291415956940113;1;axe_yy1_0,axe_out_channels1_0,axe_yy1_1,axe_xx1_0;112;;;Y:2, F:2, Y:4, X:7, W:3, C:2, X:16, W:1, H:3, X:1, Y:14, C:16, F:16, ;198.38070464134216
93;1;MobilNet_01;0.08296880000000001;0.0004063059930643395;1;axe_yy1_0,axe_out_channels1_0,axe_yy1_1,axe_xx1_0,axe_xx1_1;1792;;;Y:2, F:2, Y:4, X:7, W:3, C:2, X:16, W:1, H:3, X:1, Y:14, C:16, F:16, ;199.33442378044128
94;0;MobilNet_01;0.13785019999999998;0.002263643691043273;1;axe_yy1_0,axe_out_channels1_0,axe_yy1_1,axe_xx1_0;112;;;Y:4, F:2, Y:2, X:7, W:3, C:2, X:16, W:1, H:3, X:1, Y:14, C:16, F:16, ;200.30380058288574
94;1;MobilNet_01;0.0874867;0.0007504562678797448;1;axe_yy1_0,axe_out_channels1_0,axe_yy1_1,axe_xx1_0,axe_xx1_1;1792;;;Y:4, F:2, Y:2, X:7, W:3, C:2, X:16, W:1, H:3, X:1, Y:14, C:16, F:16, ;201.26976537704468
95;0;MobilNet_01;0.151766;0.003242155856833542;1;axe_yy1_0,axe_out_channels1_0,axe_yy1_1,axe_xx1_0;112;;;Y:8, F:2, Y:1, X:7, W:3, C:2, X:16, W:1, H:3, X:1, Y:14, C:16, F:16, ;202.23620176315308
95;1;MobilNet_01;0.0882879;0.0007095317399524871;1;axe_yy1_0,axe_out_channels1_0,axe_yy1_1,axe_xx1_0,axe_xx1_1;1792;;;Y:8, F:2, Y:1, X:7, W:3, C:2, X:16, W:1, H:3, X:1, Y:14, C:16, F:16, ;203.2260663509369
96;0;MobilNet_01;0.1653027;0.0014293127754274042;1;axe_yy1_0,axe_out_channels1_0,axe_yy1_1,axe_xx1_0;128;;;Y:1, F:2, Y:8, X:8, W:3, C:2, X:14, W:1, H:3, X:1, Y:14, C:16, F:16, ;204.23037338256836
96;1;MobilNet_01;0.0823104;0.000366126535503781;1;axe_yy1_0,axe_out_channels1_0,axe_yy1_1,axe_xx1_0,axe_xx1_1;1792;;;Y:1, F:2, Y:8, X:8, W:3, C:2, X:14, W:1, H:3, X:1, Y:14, C:16, F:16, ;205.18836379051208
97;0;MobilNet_01;0.1694806;0.0007987680764777755;1;axe_yy1_0,axe_out_channels1_0,axe_yy1_1,axe_xx1_0;128;;;Y:2, F:2, Y:4, X:8, W:3, C:2, X:14, W:1, H:3, X:1, Y:14, C:16, F:16, ;206.16014885902405
97;1;MobilNet_01;0.0834399;0.00039829045933840687;1;axe_yy1_0,axe_out_channels1_0,axe_yy1_1,axe_xx1_0,axe_xx1_1;1792;;;Y:2, F:2, Y:4, X:8, W:3, C:2, X:14, W:1, H:3, X:1, Y:14, C:16, F:16, ;207.1187710762024
98;0;MobilNet_01;0.1718607;0.0014864163649529723;1;axe_yy1_0,axe_out_channels1_0,axe_yy1_1,axe_xx1_0;128;;;Y:4, F:2, Y:2, X:8, W:3, C:2, X:14, W:1, H:3, X:1, Y:14, C:16, F:16, ;208.09160208702087
98;1;MobilNet_01;0.0876511;0.0011118224183744455;1;axe_yy1_0,axe_out_channels1_0,axe_yy1_1,axe_xx1_0,axe_xx1_1;1792;;;Y:4, F:2, Y:2, X:8, W:3, C:2, X:14, W:1, H:3, X:1, Y:14, C:16, F:16, ;209.04519200325012
99;0;MobilNet_01;0.17286830000000003;0.0009252559699888479;1;axe_yy1_0,axe_out_channels1_0,axe_yy1_1,axe_xx1_0;128;;;Y:8, F:2, Y:1, X:8, W:3, C:2, X:14, W:1, H:3, X:1, Y:14, C:16, F:16, ;210.013521194458
99;1;MobilNet_01;0.0869818;0.0006080491427508141;1;axe_yy1_0,axe_out_channels1_0,axe_yy1_1,axe_xx1_0,axe_xx1_1;1792;;;Y:8, F:2, Y:1, X:8, W:3, C:2, X:14, W:1, H:3, X:1, Y:14, C:16, F:16, ;210.96820497512817
100;0;MobilNet_01;0.1533474;0.001839203534141884;1;axe_yy1_0,axe_out_channels1_0,axe_yy1_1,axe_xx1_0;224;;;Y:1, F:2, Y:8, X:14, W:3, C:2, X:8, W:1, H:3, X:1, Y:14, C:16, F:16, ;211.93100929260254
100;1;MobilNet_01;0.082745;0.0003881072016853079;1;axe_yy1_0,axe_out_channels1_0,axe_yy1_1,axe_xx1_0,axe_xx1_1;1792;;;Y:1, F:2, Y:8, X:14, W:3, C:2, X:8, W:1, H:3, X:1, Y:14, C:16, F:16, ;212.88812828063965
101;0;MobilNet_01;0.1630948;0.0015144482691726404;1;axe_yy1_0,axe_out_channels1_0,axe_yy1_1,axe_xx1_0;224;;;Y:2, F:2, Y:4, X:14, W:3, C:2, X:8, W:1, H:3, X:1, Y:14, C:16, F:16, ;213.853257894516
101;1;MobilNet_01;0.0834651;0.0005571210730173418;1;axe_yy1_0,axe_out_channels1_0,axe_yy1_1,axe_xx1_0,axe_xx1_1;1792;;;Y:2, F:2, Y:4, X:14, W:3, C:2, X:8, W:1, H:3, X:1, Y:14, C:16, F:16, ;214.8098931312561
102;0;MobilNet_01;0.16389769999999998;0.0013100943515640417;1;axe_yy1_0,axe_out_channels1_0,axe_yy1_1,axe_xx1_0;224;;;Y:4, F:2, Y:2, X:14, W:3, C:2, X:8, W:1, H:3, X:1, Y:14, C:16, F:16, ;215.7773334980011
102;1;MobilNet_01;0.0883027;0.0009200407654011869;1;axe_yy1_0,axe_out_channels1_0,axe_yy1_1,axe_xx1_0,axe_xx1_1;1792;;;Y:4, F:2, Y:2, X:14, W:3, C:2, X:8, W:1, H:3, X:1, Y:14, C:16, F:16, ;216.73403930664062
103;0;MobilNet_01;0.1678235;0.0016193331497872808;1;axe_yy1_0,axe_out_channels1_0,axe_yy1_1,axe_xx1_0;224;;;Y:8, F:2, Y:1, X:14, W:3, C:2, X:8, W:1, H:3, X:1, Y:14, C:16, F:16, ;217.7013132572174
103;1;MobilNet_01;0.08680230000000001;0.0006691367647947628;1;axe_yy1_0,axe_out_channels1_0,axe_yy1_1,axe_xx1_0,axe_xx1_1;1792;;;Y:8, F:2, Y:1, X:14, W:3, C:2, X:8, W:1, H:3, X:1, Y:14, C:16, F:16, ;218.6560924053192
104;0;MobilNet_01;0.1465643;0.0017639605466109472;1;axe_yy1_0,axe_out_channels1_0,axe_yy1_1,axe_xx1_0;256;;;Y:1, F:2, Y:8, X:16, W:3, C:2, X:7, W:1, H:3, X:1, Y:14, C:16, F:16, ;219.62095999717712
104;1;MobilNet_01;0.08226140000000001;0.00026922377309591245;1;axe_yy1_0,axe_out_channels1_0,axe_yy1_1,axe_xx1_0,axe_xx1_1;1792;;;Y:1, F:2, Y:8, X:16, W:3, C:2, X:7, W:1, H:3, X:1, Y:14, C:16, F:16, ;220.57670712471008
105;0;MobilNet_01;0.16099650000000001;0.0015061689314283448;1;axe_yy1_0,axe_out_channels1_0,axe_yy1_1,axe_xx1_0;256;;;Y:2, F:2, Y:4, X:16, W:3, C:2, X:7, W:1, H:3, X:1, Y:14, C:16, F:16, ;221.53784823417664
105;1;MobilNet_01;0.0835888;0.0002578169117804309;1;axe_yy1_0,axe_out_channels1_0,axe_yy1_1,axe_xx1_0,axe_xx1_1;1792;;;Y:2, F:2, Y:4, X:16, W:3, C:2, X:7, W:1, H:3, X:1, Y:14, C:16, F:16, ;222.49274110794067
106;0;MobilNet_01;0.1642452;0.0011081440159112907;1;axe_yy1_0,axe_out_channels1_0,axe_yy1_1,axe_xx1_0;256;;;Y:4, F:2, Y:2, X:16, W:3, C:2, X:7, W:1, H:3, X:1, Y:14, C:16, F:16, ;223.45638394355774
106;1;MobilNet_01;0.0866598;0.00047513425471123284;1;axe_yy1_0,axe_out_channels1_0,axe_yy1_1,axe_xx1_0,axe_xx1_1;1792;;;Y:4, F:2, Y:2, X:16, W:3, C:2, X:7, W:1, H:3, X:1, Y:14, C:16, F:16, ;224.41209387779236
107;0;MobilNet_01;0.16466240000000001;0.0010058985237090259;1;axe_yy1_0,axe_out_channels1_0,axe_yy1_1,axe_xx1_0;256;;;Y:8, F:2, Y:1, X:16, W:3, C:2, X:7, W:1, H:3, X:1, Y:14, C:16, F:16, ;225.3709318637848
107;1;MobilNet_01;0.0876164;0.0006916406870622946;1;axe_yy1_0,axe_out_channels1_0,axe_yy1_1,axe_xx1_0,axe_xx1_1;1792;;;Y:8, F:2, Y:1, X:16, W:3, C:2, X:7, W:1, H:3, X:1, Y:14, C:16, F:16, ;226.3247516155243
108;0;MobilNet_01;0.12001599999999998;0.002251155792032171;1;axe_yy1_0,axe_out_channels1_0,axe_yy1_1,axe_xx1_0;448;;;Y:1, F:2, Y:8, X:28, W:3, C:2, X:4, W:1, H:3, X:1, Y:14, C:16, F:16, ;227.29537963867188
108;1;MobilNet_01;0.0824408;0.0002395223580378259;1;axe_yy1_0,axe_out_channels1_0,axe_yy1_1,axe_xx1_0,axe_xx1_1;1792;;;Y:1, F:2, Y:8, X:28, W:3, C:2, X:4, W:1, H:3, X:1, Y:14, C:16, F:16, ;228.2492709159851
109;0;MobilNet_01;0.1374555;0.0015281897951498011;1;axe_yy1_0,axe_out_channels1_0,axe_yy1_1,axe_xx1_0;448;;;Y:2, F:2, Y:4, X:28, W:3, C:2, X:4, W:1, H:3, X:1, Y:14, C:16, F:16, ;229.2279510498047
109;1;MobilNet_01;0.08290220000000001;0.0004923589747328706;1;axe_yy1_0,axe_out_channels1_0,axe_yy1_1,axe_xx1_0,axe_xx1_1;1792;;;Y:2, F:2, Y:4, X:28, W:3, C:2, X:4, W:1, H:3, X:1, Y:14, C:16, F:16, ;230.1849467754364
110;0;MobilNet_01;0.1423445;0.0015299259622609171;1;axe_yy1_0,axe_out_channels1_0,axe_yy1_1,axe_xx1_0;448;;;Y:4, F:2, Y:2, X:28, W:3, C:2, X:4, W:1, H:3, X:1, Y:14, C:16, F:16, ;231.1644389629364
110;1;MobilNet_01;0.08687230000000001;0.0004006851756678787;1;axe_yy1_0,axe_out_channels1_0,axe_yy1_1,axe_xx1_0,axe_xx1_1;1792;;;Y:4, F:2, Y:2, X:28, W:3, C:2, X:4, W:1, H:3, X:1, Y:14, C:16, F:16, ;232.12145900726318
111;0;MobilNet_01;0.1413206;0.002068149569059255;1;axe_yy1_0,axe_out_channels1_0,axe_yy1_1,axe_xx1_0;448;;;Y:8, F:2, Y:1, X:28, W:3, C:2, X:4, W:1, H:3, X:1, Y:14, C:16, F:16, ;233.10018849372864
111;1;MobilNet_01;0.0888272;0.0013118759697471386;1;axe_yy1_0,axe_out_channels1_0,axe_yy1_1,axe_xx1_0,axe_xx1_1;1792;;;Y:8, F:2, Y:1, X:28, W:3, C:2, X:4, W:1, H:3, X:1, Y:14, C:16, F:16, ;234.05678486824036
112;0;MobilNet_01;0.0861526;0.003007886207954019;1;axe_yy1_0,axe_out_channels1_0,axe_yy1_1,axe_xx1_0;896;;;Y:1, F:2, Y:8, X:56, W:3, C:2, X:2, W:1, H:3, X:1, Y:14, C:16, F:16, ;235.01209664344788
112;1;MobilNet_01;0.0828721;0.0003617602659220615;1;axe_yy1_0,axe_out_channels1_0,axe_yy1_1,axe_xx1_0,axe_xx1_1;1792;;;Y:1, F:2, Y:8, X:56, W:3, C:2, X:2, W:1, H:3, X:1, Y:14, C:16, F:16, ;235.96732211112976
113;0;MobilNet_01;0.10873680000000001;0.0019664731780525287;1;axe_yy1_0,axe_out_channels1_0,axe_yy1_1,axe_xx1_0;896;;;Y:2, F:2, Y:4, X:56, W:3, C:2, X:2, W:1, H:3, X:1, Y:14, C:16, F:16, ;236.93288898468018
113;1;MobilNet_01;0.08325429999999999;0.0005861631257593737;1;axe_yy1_0,axe_out_channels1_0,axe_yy1_1,axe_xx1_0,axe_xx1_1;1792;;;Y:2, F:2, Y:4, X:56, W:3, C:2, X:2, W:1, H:3, X:1, Y:14, C:16, F:16, ;237.88821578025818
114;0;MobilNet_01;0.1114794;0.002559531371169342;1;axe_yy1_0,axe_out_channels1_0,axe_yy1_1,axe_xx1_0;896;;;Y:4, F:2, Y:2, X:56, W:3, C:2, X:2, W:1, H:3, X:1, Y:14, C:16, F:16, ;238.85065579414368
114;1;MobilNet_01;0.0866599;0.0008244336783513876;1;axe_yy1_0,axe_out_channels1_0,axe_yy1_1,axe_xx1_0,axe_xx1_1;1792;;;Y:4, F:2, Y:2, X:56, W:3, C:2, X:2, W:1, H:3, X:1, Y:14, C:16, F:16, ;239.80727529525757
115;0;MobilNet_01;0.11262449999999999;0.0019187445504808614;1;axe_yy1_0,axe_out_channels1_0,axe_yy1_1,axe_xx1_0;896;;;Y:8, F:2, Y:1, X:56, W:3, C:2, X:2, W:1, H:3, X:1, Y:14, C:16, F:16, ;240.76839113235474
115;1;MobilNet_01;0.0879245;0.0007408900390746258;1;axe_yy1_0,axe_out_channels1_0,axe_yy1_1,axe_xx1_0,axe_xx1_1;1792;;;Y:8, F:2, Y:1, X:56, W:3, C:2, X:2, W:1, H:3, X:1, Y:14, C:16, F:16, ;241.72202563285828
116;0;MobilNet_01;0.0826799;0.00047435270632726245;1;axe_yy1_0,axe_out_channels1_0,axe_yy1_1,axe_xx1_0;1792;;;Y:1, F:2, Y:8, X:112, W:3, C:2, X:1, W:1, H:3, X:1, Y:14, C:16, F:16, ;242.7017855644226
116;1;MobilNet_01;0.08268879999999998;0.0004430798573620804;1;axe_yy1_0,axe_out_channels1_0,axe_yy1_1,axe_xx1_0,axe_xx1_1;1792;;;Y:1, F:2, Y:8, X:112, W:3, C:2, X:1, W:1, H:3, X:1, Y:14, C:16, F:16, ;243.65676617622375
117;0;MobilNet_01;0.0836965;0.0006393992883949753;1;axe_yy1_0,axe_out_channels1_0,axe_yy1_1,axe_xx1_0;1792;;;Y:2, F:2, Y:4, X:112, W:3, C:2, X:1, W:1, H:3, X:1, Y:14, C:16, F:16, ;244.6156198978424
117;1;MobilNet_01;0.08347740000000001;0.0006481983029906834;1;axe_yy1_0,axe_out_channels1_0,axe_yy1_1,axe_xx1_0,axe_xx1_1;1792;;;Y:2, F:2, Y:4, X:112, W:3, C:2, X:1, W:1, H:3, X:1, Y:14, C:16, F:16, ;245.56911277770996
118;0;MobilNet_01;0.08680879999999999;0.0006745252849226651;1;axe_yy1_0,axe_out_channels1_0,axe_yy1_1,axe_xx1_0;1792;;;Y:4, F:2, Y:2, X:112, W:3, C:2, X:1, W:1, H:3, X:1, Y:14, C:16, F:16, ;246.52400970458984
118;1;MobilNet_01;0.08714380000000001;0.0008793257416907576;1;axe_yy1_0,axe_out_channels1_0,axe_yy1_1,axe_xx1_0,axe_xx1_1;1792;;;Y:4, F:2, Y:2, X:112, W:3, C:2, X:1, W:1, H:3, X:1, Y:14, C:16, F:16, ;247.48128199577332
119;0;MobilNet_01;0.08747040000000002;0.0011381620447018966;1;axe_yy1_0,axe_out_channels1_0,axe_yy1_1,axe_xx1_0;1792;;;Y:8, F:2, Y:1, X:112, W:3, C:2, X:1, W:1, H:3, X:1, Y:14, C:16, F:16, ;248.43537712097168
119;1;MobilNet_01;0.08685709999999999;0.0006945579097526732;1;axe_yy1_0,axe_out_channels1_0,axe_yy1_1,axe_xx1_0,axe_xx1_1;1792;;;Y:8, F:2, Y:1, X:112, W:3, C:2, X:1, W:1, H:3, X:1, Y:14, C:16, F:16, ;249.3886742591858
120;0;MobilNet_01;0.26054370000000004;0.0011321355086737694;1;axe_yy1_0,axe_out_channels1_0,axe_yy1_1,axe_xx1_0;64;;;Y:1, F:2, Y:8, X:4, W:3, C:4, X:28, W:1, H:3, X:1, Y:14, C:8, F:16, ;250.3639132976532
120;1;MobilNet_01;0.08810720000000001;0.0003802054181623376;1;axe_yy1_0,axe_out_channels1_0,axe_yy1_1,axe_xx1_0,axe_xx1_1;1792;;;Y:1, F:2, Y:8, X:4, W:3, C:4, X:28, W:1, H:3, X:1, Y:14, C:8, F:16, ;251.31556010246277
121;0;MobilNet_01;0.2698298;0.001787458519798442;1;axe_yy1_0,axe_out_channels1_0,axe_yy1_1,axe_xx1_0;64;;;Y:2, F:2, Y:4, X:4, W:3, C:4, X:28, W:1, H:3, X:1, Y:14, C:8, F:16, ;252.2872850894928
121;1;MobilNet_01;0.0916289;0.002032164188740663;1;axe_yy1_0,axe_out_channels1_0,axe_yy1_1,axe_xx1_0,axe_xx1_1;1792;;;Y:2, F:2, Y:4, X:4, W:3, C:4, X:28, W:1, H:3, X:1, Y:14, C:8, F:16, ;253.24139714241028
122;0;MobilNet_01;0.27011709999999994;0.0017166324854202164;1;axe_yy1_0,axe_out_channels1_0,axe_yy1_1,axe_xx1_0;64;;;Y:4, F:2, Y:2, X:4, W:3, C:4, X:28, W:1, H:3, X:1, Y:14, C:8, F:16, ;254.21537494659424
122;1;MobilNet_01;0.0999424;0.0004841367988492485;1;axe_yy1_0,axe_out_channels1_0,axe_yy1_1,axe_xx1_0,axe_xx1_1;1792;;;Y:4, F:2, Y:2, X:4, W:3, C:4, X:28, W:1, H:3, X:1, Y:14, C:8, F:16, ;255.1712236404419
123;0;MobilNet_01;0.27052469999999995;0.0020711614157279067;1;axe_yy1_0,axe_out_channels1_0,axe_yy1_1,axe_xx1_0;64;;;Y:8, F:2, Y:1, X:4, W:3, C:4, X:28, W:1, H:3, X:1, Y:14, C:8, F:16, ;256.14357352256775
123;1;MobilNet_01;0.09984119999999999;0.000911960064915125;1;axe_yy1_0,axe_out_channels1_0,axe_yy1_1,axe_xx1_0,axe_xx1_1;1792;;;Y:8, F:2, Y:1, X:4, W:3, C:4, X:28, W:1, H:3, X:1, Y:14, C:8, F:16, ;257.09763383865356
124;0;MobilNet_01;0.2528053;0.001828342093263726;1;axe_yy1_0,axe_out_channels1_0,axe_yy1_1,axe_xx1_0;112;;;Y:1, F:2, Y:8, X:7, W:3, C:4, X:16, W:1, H:3, X:1, Y:14, C:8, F:16, ;258.08185863494873
124;1;MobilNet_01;0.0878299;0.000421143787796999;1;axe_yy1_0,axe_out_channels1_0,axe_yy1_1,axe_xx1_0,axe_xx1_1;1792;;;Y:1, F:2, Y:8, X:7, W:3, C:4, X:16, W:1, H:3, X:1, Y:14, C:8, F:16, ;259.03604912757874
125;0;MobilNet_01;0.3993153;0.018759913827360725;1;axe_yy1_0,axe_out_channels1_0,axe_yy1_1,axe_xx1_0;112;;;Y:2, F:2, Y:4, X:7, W:3, C:4, X:16, W:1, H:3, X:1, Y:14, C:8, F:16, ;260.02353596687317
125;1;MobilNet_01;0.0939706;0.0022640170582396233;1;axe_yy1_0,axe_out_channels1_0,axe_yy1_1,axe_xx1_0,axe_xx1_1;1792;;;Y:2, F:2, Y:4, X:7, W:3, C:4, X:16, W:1, H:3, X:1, Y:14, C:8, F:16, ;260.97871565818787
126;0;MobilNet_01;0.16819900000000002;0.0068946853010126595;1;axe_yy1_0,axe_out_channels1_0,axe_yy1_1,axe_xx1_0;112;;;Y:4, F:2, Y:2, X:7, W:3, C:4, X:16, W:1, H:3, X:1, Y:14, C:8, F:16, ;261.9577350616455
126;1;MobilNet_01;0.0997975;0.0014315512041139173;1;axe_yy1_0,axe_out_channels1_0,axe_yy1_1,axe_xx1_0,axe_xx1_1;1792;;;Y:4, F:2, Y:2, X:7, W:3, C:4, X:16, W:1, H:3, X:1, Y:14, C:8, F:16, ;262.91095542907715
127;0;MobilNet_01;0.1784283;0.004881405495346596;1;axe_yy1_0,axe_out_channels1_0,axe_yy1_1,axe_xx1_0;112;;;Y:8, F:2, Y:1, X:7, W:3, C:4, X:16, W:1, H:3, X:1, Y:14, C:8, F:16, ;263.888756275177
127;1;MobilNet_01;0.0998639;0.00041028488882726707;1;axe_yy1_0,axe_out_channels1_0,axe_yy1_1,axe_xx1_0,axe_xx1_1;1792;;;Y:8, F:2, Y:1, X:7, W:3, C:4, X:16, W:1, H:3, X:1, Y:14, C:8, F:16, ;264.83723545074463
128;0;MobilNet_01;0.262434;0.0015110788199164192;1;axe_yy1_0,axe_out_channels1_0,axe_yy1_1,axe_xx1_0;128;;;Y:1, F:2, Y:8, X:8, W:3, C:4, X:14, W:1, H:3, X:1, Y:14, C:8, F:16, ;265.82230520248413
128;1;MobilNet_01;0.08769869999999999;0.00037313832555769714;1;axe_yy1_0,axe_out_channels1_0,axe_yy1_1,axe_xx1_0,axe_xx1_1;1792;;;Y:1, F:2, Y:8, X:8, W:3, C:4, X:14, W:1, H:3, X:1, Y:14, C:8, F:16, ;266.78815841674805
129;0;MobilNet_01;0.26939440000000003;0.0027611764231935546;1;axe_yy1_0,axe_out_channels1_0,axe_yy1_1,axe_xx1_0;128;;;Y:2, F:2, Y:4, X:8, W:3, C:4, X:14, W:1, H:3, X:1, Y:14, C:8, F:16, ;267.7746489048004
129;1;MobilNet_01;0.09241189999999999;0.0026387847373364895;1;axe_yy1_0,axe_out_channels1_0,axe_yy1_1,axe_xx1_0,axe_xx1_1;1792;;;Y:2, F:2, Y:4, X:8, W:3, C:4, X:14, W:1, H:3, X:1, Y:14, C:8, F:16, ;268.7292950153351
130;0;MobilNet_01;0.27233070000000004;0.0030161518545988378;1;axe_yy1_0,axe_out_channels1_0,axe_yy1_1,axe_xx1_0;128;;;Y:4, F:2, Y:2, X:8, W:3, C:4, X:14, W:1, H:3, X:1, Y:14, C:8, F:16, ;269.7129487991333
130;1;MobilNet_01;0.0986291;0.0013886270521633974;1;axe_yy1_0,axe_out_channels1_0,axe_yy1_1,axe_xx1_0,axe_xx1_1;1792;;;Y:4, F:2, Y:2, X:8, W:3, C:4, X:14, W:1, H:3, X:1, Y:14, C:8, F:16, ;270.6671450138092
131;0;MobilNet_01;0.27363649999999995;0.003322928926414173;1;axe_yy1_0,axe_out_channels1_0,axe_yy1_1,axe_xx1_0;128;;;Y:8, F:2, Y:1, X:8, W:3, C:4, X:14, W:1, H:3, X:1, Y:14, C:8, F:16, ;271.64896845817566
131;1;MobilNet_01;0.099837;0.0009163401115306459;1;axe_yy1_0,axe_out_channels1_0,axe_yy1_1,axe_xx1_0,axe_xx1_1;1792;;;Y:8, F:2, Y:1, X:8, W:3, C:4, X:14, W:1, H:3, X:1, Y:14, C:8, F:16, ;272.60044026374817
132;0;MobilNet_01;0.236612;0.0031155861406804253;1;axe_yy1_0,axe_out_channels1_0,axe_yy1_1,axe_xx1_0;224;;;Y:1, F:2, Y:8, X:14, W:3, C:4, X:8, W:1, H:3, X:1, Y:14, C:8, F:16, ;273.5723497867584
132;1;MobilNet_01;0.0876463;0.0004511217241499264;1;axe_yy1_0,axe_out_channels1_0,axe_yy1_1,axe_xx1_0,axe_xx1_1;1792;;;Y:1, F:2, Y:8, X:14, W:3, C:4, X:8, W:1, H:3, X:1, Y:14, C:8, F:16, ;274.52623081207275
133;0;MobilNet_01;0.2532453;0.0031872341316570986;1;axe_yy1_0,axe_out_channels1_0,axe_yy1_1,axe_xx1_0;224;;;Y:2, F:2, Y:4, X:14, W:3, C:4, X:8, W:1, H:3, X:1, Y:14, C:8, F:16, ;275.5041675567627
133;1;MobilNet_01;0.09091960000000002;0.002232697570205156;1;axe_yy1_0,axe_out_channels1_0,axe_yy1_1,axe_xx1_0,axe_xx1_1;1792;;;Y:2, F:2, Y:4, X:14, W:3, C:4, X:8, W:1, H:3, X:1, Y:14, C:8, F:16, ;276.4575583934784
134;0;MobilNet_01;0.250714;0.0018103161602328003;1;axe_yy1_0,axe_out_channels1_0,axe_yy1_1,axe_xx1_0;224;;;Y:4, F:2, Y:2, X:14, W:3, C:4, X:8, W:1, H:3, X:1, Y:14, C:8, F:16, ;277.43787908554077
134;1;MobilNet_01;0.09952240000000001;0.0011296259734974237;1;axe_yy1_0,axe_out_channels1_0,axe_yy1_1,axe_xx1_0,axe_xx1_1;1792;;;Y:4, F:2, Y:2, X:14, W:3, C:4, X:8, W:1, H:3, X:1, Y:14, C:8, F:16, ;278.392126083374
135;0;MobilNet_01;0.2531014;0.001934989726070918;1;axe_yy1_0,axe_out_channels1_0,axe_yy1_1,axe_xx1_0;224;;;Y:8, F:2, Y:1, X:14, W:3, C:4, X:8, W:1, H:3, X:1, Y:14, C:8, F:16, ;279.3692057132721
135;1;MobilNet_01;0.10028619999999999;0.000740548823508619;1;axe_yy1_0,axe_out_channels1_0,axe_yy1_1,axe_xx1_0,axe_xx1_1;1792;;;Y:8, F:2, Y:1, X:14, W:3, C:4, X:8, W:1, H:3, X:1, Y:14, C:8, F:16, ;280.31974387168884
136;0;MobilNet_01;0.22451730000000003;0.0025847450183722202;1;axe_yy1_0,axe_out_channels1_0,axe_yy1_1,axe_xx1_0;256;;;Y:1, F:2, Y:8, X:16, W:3, C:4, X:7, W:1, H:3, X:1, Y:14, C:8, F:16, ;281.2955913543701
136;1;MobilNet_01;0.08851089999999999;0.0004244427994441662;1;axe_yy1_0,axe_out_channels1_0,axe_yy1_1,axe_xx1_0,axe_xx1_1;1792;;;Y:1, F:2, Y:8, X:16, W:3, C:4, X:7, W:1, H:3, X:1, Y:14, C:8, F:16, ;282.24722957611084
137;0;MobilNet_01;0.2416145;0.0015158357595729227;1;axe_yy1_0,axe_out_channels1_0,axe_yy1_1,axe_xx1_0;256;;;Y:2, F:2, Y:4, X:16, W:3, C:4, X:7, W:1, H:3, X:1, Y:14, C:8, F:16, ;283.22128438949585
137;1;MobilNet_01;0.0918361;0.002341975211226628;1;axe_yy1_0,axe_out_channels1_0,axe_yy1_1,axe_xx1_0,axe_xx1_1;1792;;;Y:2, F:2, Y:4, X:16, W:3, C:4, X:7, W:1, H:3, X:1, Y:14, C:8, F:16, ;284.17714738845825
138;0;MobilNet_01;0.2453005;0.0033040718893510776;1;axe_yy1_0,axe_out_channels1_0,axe_yy1_1,axe_xx1_0;256;;;Y:4, F:2, Y:2, X:16, W:3, C:4, X:7, W:1, H:3, X:1, Y:14, C:8, F:16, ;285.15008878707886
138;1;MobilNet_01;0.09979020000000001;0.0007343581959779582;1;axe_yy1_0,axe_out_channels1_0,axe_yy1_1,axe_xx1_0,axe_xx1_1;1792;;;Y:4, F:2, Y:2, X:16, W:3, C:4, X:7, W:1, H:3, X:1, Y:14, C:8, F:16, ;286.10316133499146
139;0;MobilNet_01;0.2478182;0.0020579337598669242;1;axe_yy1_0,axe_out_channels1_0,axe_yy1_1,axe_xx1_0;256;;;Y:8, F:2, Y:1, X:16, W:3, C:4, X:7, W:1, H:3, X:1, Y:14, C:8, F:16, ;287.07375597953796
139;1;MobilNet_01;0.1006264;0.0008992800676096381;1;axe_yy1_0,axe_out_channels1_0,axe_yy1_1,axe_xx1_0,axe_xx1_1;1792;;;Y:8, F:2, Y:1, X:16, W:3, C:4, X:7, W:1, H:3, X:1, Y:14, C:8, F:16, ;288.02721524238586
140;0;MobilNet_01;0.15355239999999998;0.00434647719883586;1;axe_yy1_0,axe_out_channels1_0,axe_yy1_1,axe_xx1_0;448;;;Y:1, F:2, Y:8, X:28, W:3, C:4, X:4, W:1, H:3, X:1, Y:14, C:8, F:16, ;289.00830006599426
140;1;MobilNet_01;0.0878479;0.0003959324311040966;1;axe_yy1_0,axe_out_channels1_0,axe_yy1_1,axe_xx1_0,axe_xx1_1;1792;;;Y:1, F:2, Y:8, X:28, W:3, C:4, X:4, W:1, H:3, X:1, Y:14, C:8, F:16, ;289.9624915122986
141;0;MobilNet_01;0.1801645;0.0031667422455893073;1;axe_yy1_0,axe_out_channels1_0,axe_yy1_1,axe_xx1_0;448;;;Y:2, F:2, Y:4, X:28, W:3, C:4, X:4, W:1, H:3, X:1, Y:14, C:8, F:16, ;290.952419757843
141;1;MobilNet_01;0.0910511;0.001822452548079101;1;axe_yy1_0,axe_out_channels1_0,axe_yy1_1,axe_xx1_0,axe_xx1_1;1792;;;Y:2, F:2, Y:4, X:28, W:3, C:4, X:4, W:1, H:3, X:1, Y:14, C:8, F:16, ;291.933984041214
142;0;MobilNet_01;0.1843576;0.00489127124988995;1;axe_yy1_0,axe_out_channels1_0,axe_yy1_1,axe_xx1_0;448;;;Y:4, F:2, Y:2, X:28, W:3, C:4, X:4, W:1, H:3, X:1, Y:14, C:8, F:16, ;292.92132019996643
142;1;MobilNet_01;0.099505;0.0007408361492259948;1;axe_yy1_0,axe_out_channels1_0,axe_yy1_1,axe_xx1_0,axe_xx1_1;1792;;;Y:4, F:2, Y:2, X:28, W:3, C:4, X:4, W:1, H:3, X:1, Y:14, C:8, F:16, ;293.8777058124542
143;0;MobilNet_01;0.1846486;0.002342765809892233;1;axe_yy1_0,axe_out_channels1_0,axe_yy1_1,axe_xx1_0;448;;;Y:8, F:2, Y:1, X:28, W:3, C:4, X:4, W:1, H:3, X:1, Y:14, C:8, F:16, ;294.86683988571167
143;1;MobilNet_01;0.10060759999999999;0.0008323981258988976;1;axe_yy1_0,axe_out_channels1_0,axe_yy1_1,axe_xx1_0,axe_xx1_1;1792;;;Y:8, F:2, Y:1, X:28, W:3, C:4, X:4, W:1, H:3, X:1, Y:14, C:8, F:16, ;295.81705832481384
144;0;MobilNet_01;0.09515900000000002;0.004142847378313615;1;axe_yy1_0,axe_out_channels1_0,axe_yy1_1,axe_xx1_0;896;;;Y:1, F:2, Y:8, X:56, W:3, C:4, X:2, W:1, H:3, X:1, Y:14, C:8, F:16, ;296.78124594688416
144;1;MobilNet_01;0.0878767;0.0004255977091103764;1;axe_yy1_0,axe_out_channels1_0,axe_yy1_1,axe_xx1_0,axe_xx1_1;1792;;;Y:1, F:2, Y:8, X:56, W:3, C:4, X:2, W:1, H:3, X:1, Y:14, C:8, F:16, ;297.7343924045563
145;0;MobilNet_01;0.12203230000000001;0.0016404323241145937;1;axe_yy1_0,axe_out_channels1_0,axe_yy1_1,axe_xx1_0;896;;;Y:2, F:2, Y:4, X:56, W:3, C:4, X:2, W:1, H:3, X:1, Y:14, C:8, F:16, ;298.7056984901428
145;1;MobilNet_01;0.0922344;0.002106799477881086;1;axe_yy1_0,axe_out_channels1_0,axe_yy1_1,axe_xx1_0,axe_xx1_1;1792;;;Y:2, F:2, Y:4, X:56, W:3, C:4, X:2, W:1, H:3, X:1, Y:14, C:8, F:16, ;299.65885376930237
146;0;MobilNet_01;0.1251468;0.002783167504840483;1;axe_yy1_0,axe_out_channels1_0,axe_yy1_1,axe_xx1_0;896;;;Y:4, F:2, Y:2, X:56, W:3, C:4, X:2, W:1, H:3, X:1, Y:14, C:8, F:16, ;300.63395977020264
146;1;MobilNet_01;0.0999998;0.0005340630674367954;1;axe_yy1_0,axe_out_channels1_0,axe_yy1_1,axe_xx1_0,axe_xx1_1;1792;;;Y:4, F:2, Y:2, X:56, W:3, C:4, X:2, W:1, H:3, X:1, Y:14, C:8, F:16, ;301.58922004699707
147;0;MobilNet_01;0.1284682;0.0016991509526819541;1;axe_yy1_0,axe_out_channels1_0,axe_yy1_1,axe_xx1_0;896;;;Y:8, F:2, Y:1, X:56, W:3, C:4, X:2, W:1, H:3, X:1, Y:14, C:8, F:16, ;302.5571632385254
147;1;MobilNet_01;0.10024279999999999;0.0005306039577688794;1;axe_yy1_0,axe_out_channels1_0,axe_yy1_1,axe_xx1_0,axe_xx1_1;1792;;;Y:8, F:2, Y:1, X:56, W:3, C:4, X:2, W:1, H:3, X:1, Y:14, C:8, F:16, ;303.5077214241028
148;0;MobilNet_01;0.08797100000000001;0.0002704559113792853;1;axe_yy1_0,axe_out_channels1_0,axe_yy1_1,axe_xx1_0;1792;;;Y:1, F:2, Y:8, X:112, W:3, C:4, X:1, W:1, H:3, X:1, Y:14, C:8, F:16, ;304.4620261192322
148;1;MobilNet_01;0.0879823;0.00019523168287959844;1;axe_yy1_0,axe_out_channels1_0,axe_yy1_1,axe_xx1_0,axe_xx1_1;1792;;;Y:1, F:2, Y:8, X:112, W:3, C:4, X:1, W:1, H:3, X:1, Y:14, C:8, F:16, ;305.41147780418396
149;0;MobilNet_01;0.09105550000000001;0.0023901243168504846;1;axe_yy1_0,axe_out_channels1_0,axe_yy1_1,axe_xx1_0;1792;;;Y:2, F:2, Y:4, X:112, W:3, C:4, X:1, W:1, H:3, X:1, Y:14, C:8, F:16, ;306.3625829219818
149;1;MobilNet_01;0.0931485;0.001805015803254919;1;axe_yy1_0,axe_out_channels1_0,axe_yy1_1,axe_xx1_0,axe_xx1_1;1792;;;Y:2, F:2, Y:4, X:112, W:3, C:4, X:1, W:1, H:3, X:1, Y:14, C:8, F:16, ;307.3207366466522
150;0;MobilNet_01;0.09978000000000001;0.0007024608174126158;1;axe_yy1_0,axe_out_channels1_0,axe_yy1_1,axe_xx1_0;1792;;;Y:4, F:2, Y:2, X:112, W:3, C:4, X:1, W:1, H:3, X:1, Y:14, C:8, F:16, ;308.2770006656647
150;1;MobilNet_01;0.1000829;0.000528840136525211;1;axe_yy1_0,axe_out_channels1_0,axe_yy1_1,axe_xx1_0,axe_xx1_1;1792;;;Y:4, F:2, Y:2, X:112, W:3, C:4, X:1, W:1, H:3, X:1, Y:14, C:8, F:16, ;309.2322323322296
151;0;MobilNet_01;0.10023739999999999;0.0008161819895096919;1;axe_yy1_0,axe_out_channels1_0,axe_yy1_1,axe_xx1_0;1792;;;Y:8, F:2, Y:1, X:112, W:3, C:4, X:1, W:1, H:3, X:1, Y:14, C:8, F:16, ;310.18353939056396
151;1;MobilNet_01;0.10018500000000001;0.0008756543838752828;1;axe_yy1_0,axe_out_channels1_0,axe_yy1_1,axe_xx1_0,axe_xx1_1;1792;;;Y:8, F:2, Y:1, X:112, W:3, C:4, X:1, W:1, H:3, X:1, Y:14, C:8, F:16, ;311.13458824157715
152;0;MobilNet_01;0.2033097;0.0009078555006167091;2;axe_yy1_0,axe_out_channels1_0,axe_yy1_1,axe_xx1_0;40;axe_yy2_0,axe_out_channels2_0,axe_yy2_1,axe_xx2_0;32;Y:1, F:2, Y:5, X:4, W:3, C:1, X:28, W:1, H:3, X:1, Y:12, C:32, F:16, ;312.2363398075104
152;1;MobilNet_01;0.1239365;0.0005024138234563232;2;axe_yy1_0,axe_out_channels1_0,axe_yy1_1,axe_xx1_0,axe_xx1_1;1120;axe_yy2_0,axe_out_channels2_0,axe_yy2_1,axe_xx2_0,axe_xx2_1;896;Y:1, F:2, Y:5, X:4, W:3, C:1, X:28, W:1, H:3, X:1, Y:12, C:32, F:16, ;313.31637740135193
153;0;MobilNet_01;0.2066719;0.0006571285186323952;2;axe_yy1_0,axe_out_channels1_0,axe_yy1_1,axe_xx1_0;40;axe_yy2_0,axe_out_channels2_0,axe_yy2_1,axe_xx2_0;32;Y:5, F:2, Y:1, X:4, W:3, C:1, X:28, W:1, H:3, X:1, Y:12, C:32, F:16, ;314.4138090610504
153;1;MobilNet_01;0.1310311;0.0007151358542263088;2;axe_yy1_0,axe_out_channels1_0,axe_yy1_1,axe_xx1_0,axe_xx1_1;1120;axe_yy2_0,axe_out_channels2_0,axe_yy2_1,axe_xx2_0,axe_xx2_1;896;Y:5, F:2, Y:1, X:4, W:3, C:1, X:28, W:1, H:3, X:1, Y:12, C:32, F:16, ;315.4932098388672
154;0;MobilNet_01;0.1961213;0.001198799153319682;2;axe_yy1_0,axe_out_channels1_0,axe_yy1_1,axe_xx1_0;70;axe_yy2_0,axe_out_channels2_0,axe_yy2_1,axe_xx2_0;56;Y:1, F:2, Y:5, X:7, W:3, C:1, X:16, W:1, H:3, X:1, Y:12, C:32, F:16, ;316.62083411216736
154;1;MobilNet_01;0.1236315;0.0006354367395736579;2;axe_yy1_0,axe_out_channels1_0,axe_yy1_1,axe_xx1_0,axe_xx1_1;1120;axe_yy2_0,axe_out_channels2_0,axe_yy2_1,axe_xx2_0,axe_xx2_1;896;Y:1, F:2, Y:5, X:7, W:3, C:1, X:16, W:1, H:3, X:1, Y:12, C:32, F:16, ;317.701940536499
155;0;MobilNet_01;0.22855360000000005;0.0010595752167732032;2;axe_yy1_0,axe_out_channels1_0,axe_yy1_1,axe_xx1_0;70;axe_yy2_0,axe_out_channels2_0,axe_yy2_1,axe_xx2_0;56;Y:5, F:2, Y:1, X:7, W:3, C:1, X:16, W:1, H:3, X:1, Y:12, C:32, F:16, ;318.8308160305023
155;1;MobilNet_01;0.13200420000000004;0.00037279962446333097;2;axe_yy1_0,axe_out_channels1_0,axe_yy1_1,axe_xx1_0,axe_xx1_1;1120;axe_yy2_0,axe_out_channels2_0,axe_yy2_1,axe_xx2_0,axe_xx2_1;896;Y:5, F:2, Y:1, X:7, W:3, C:1, X:16, W:1, H:3, X:1, Y:12, C:32, F:16, ;319.9092788696289
156;0;MobilNet_01;0.1759936;0.0008359371028971029;2;axe_yy1_0,axe_out_channels1_0,axe_yy1_1,axe_xx1_0;80;axe_yy2_0,axe_out_channels2_0,axe_yy2_1,axe_xx2_0;64;Y:1, F:2, Y:5, X:8, W:3, C:1, X:14, W:1, H:3, X:1, Y:12, C:32, F:16, ;321.0363345146179
156;1;MobilNet_01;0.123825;0.0004577372608822642;2;axe_yy1_0,axe_out_channels1_0,axe_yy1_1,axe_xx1_0,axe_xx1_1;1120;axe_yy2_0,axe_out_channels2_0,axe_yy2_1,axe_xx2_0,axe_xx2_1;896;Y:1, F:2, Y:5, X:8, W:3, C:1, X:14, W:1, H:3, X:1, Y:12, C:32, F:16, ;322.1131136417389
157;0;MobilNet_01;0.1775997;0.0009059583930843683;2;axe_yy1_0,axe_out_channels1_0,axe_yy1_1,axe_xx1_0;80;axe_yy2_0,axe_out_channels2_0,axe_yy2_1,axe_xx2_0;64;Y:5, F:2, Y:1, X:8, W:3, C:1, X:14, W:1, H:3, X:1, Y:12, C:32, F:16, ;323.2312126159668
157;1;MobilNet_01;0.1321717;0.0009580407141661611;2;axe_yy1_0,axe_out_channels1_0,axe_yy1_1,axe_xx1_0,axe_xx1_1;1120;axe_yy2_0,axe_out_channels2_0,axe_yy2_1,axe_xx2_0,axe_xx2_1;896;Y:5, F:2, Y:1, X:8, W:3, C:1, X:14, W:1, H:3, X:1, Y:12, C:32, F:16, ;324.31027269363403
158;0;MobilNet_01;0.1749976;0.000788521426468559;2;axe_yy1_0,axe_out_channels1_0,axe_yy1_1,axe_xx1_0;140;axe_yy2_0,axe_out_channels2_0,axe_yy2_1,axe_xx2_0;112;Y:1, F:2, Y:5, X:14, W:3, C:1, X:8, W:1, H:3, X:1, Y:12, C:32, F:16, ;325.4211621284485
158;1;MobilNet_01;0.12370909999999999;0.0005294575431514807;2;axe_yy1_0,axe_out_channels1_0,axe_yy1_1,axe_xx1_0,axe_xx1_1;1120;axe_yy2_0,axe_out_channels2_0,axe_yy2_1,axe_xx2_0,axe_xx2_1;896;Y:1, F:2, Y:5, X:14, W:3, C:1, X:8, W:1, H:3, X:1, Y:12, C:32, F:16, ;326.5018718242645
159;0;MobilNet_01;0.1840527;0.0009824924478081206;2;axe_yy1_0,axe_out_channels1_0,axe_yy1_1,axe_xx1_0;140;axe_yy2_0,axe_out_channels2_0,axe_yy2_1,axe_xx2_0;112;Y:5, F:2, Y:1, X:14, W:3, C:1, X:8, W:1, H:3, X:1, Y:12, C:32, F:16, ;327.6117060184479
159;1;MobilNet_01;0.13139430000000002;0.000811454379494004;2;axe_yy1_0,axe_out_channels1_0,axe_yy1_1,axe_xx1_0,axe_xx1_1;1120;axe_yy2_0,axe_out_channels2_0,axe_yy2_1,axe_xx2_0,axe_xx2_1;896;Y:5, F:2, Y:1, X:14, W:3, C:1, X:8, W:1, H:3, X:1, Y:12, C:32, F:16, ;328.6923472881317
160;0;MobilNet_01;0.15821870000000002;0.0007279048083369135;2;axe_yy1_0,axe_out_channels1_0,axe_yy1_1,axe_xx1_0;160;axe_yy2_0,axe_out_channels2_0,axe_yy2_1,axe_xx2_0;128;Y:1, F:2, Y:5, X:16, W:3, C:1, X:7, W:1, H:3, X:1, Y:12, C:32, F:16, ;329.8019132614136
160;1;MobilNet_01;0.1235039;0.0007635410205090506;2;axe_yy1_0,axe_out_channels1_0,axe_yy1_1,axe_xx1_0,axe_xx1_1;1120;axe_yy2_0,axe_out_channels2_0,axe_yy2_1,axe_xx2_0,axe_xx2_1;896;Y:1, F:2, Y:5, X:16, W:3, C:1, X:7, W:1, H:3, X:1, Y:12, C:32, F:16, ;330.8797070980072
161;0;MobilNet_01;0.1717667;0.0009578589718742523;2;axe_yy1_0,axe_out_channels1_0,axe_yy1_1,axe_xx1_0;160;axe_yy2_0,axe_out_channels2_0,axe_yy2_1,axe_xx2_0;128;Y:5, F:2, Y:1, X:16, W:3, C:1, X:7, W:1, H:3, X:1, Y:12, C:32, F:16, ;331.97833728790283
161;1;MobilNet_01;0.13206330000000002;0.00033770994951289247;2;axe_yy1_0,axe_out_channels1_0,axe_yy1_1,axe_xx1_0,axe_xx1_1;1120;axe_yy2_0,axe_out_channels2_0,axe_yy2_1,axe_xx2_0,axe_xx2_1;896;Y:5, F:2, Y:1, X:16, W:3, C:1, X:7, W:1, H:3, X:1, Y:12, C:32, F:16, ;333.0607924461365
162;0;MobilNet_01;0.14509790000000003;0.001054061141490386;2;axe_yy1_0,axe_out_channels1_0,axe_yy1_1,axe_xx1_0;280;axe_yy2_0,axe_out_channels2_0,axe_yy2_1,axe_xx2_0;224;Y:1, F:2, Y:5, X:28, W:3, C:1, X:4, W:1, H:3, X:1, Y:12, C:32, F:16, ;334.18621277809143
162;1;MobilNet_01;0.12349980000000002;0.0006011724877271085;2;axe_yy1_0,axe_out_channels1_0,axe_yy1_1,axe_xx1_0,axe_xx1_1;1120;axe_yy2_0,axe_out_channels2_0,axe_yy2_1,axe_xx2_0,axe_xx2_1;896;Y:1, F:2, Y:5, X:28, W:3, C:1, X:4, W:1, H:3, X:1, Y:12, C:32, F:16, ;335.2648825645447
163;0;MobilNet_01;0.16513329999999998;0.0023429734121410747;2;axe_yy1_0,axe_out_channels1_0,axe_yy1_1,axe_xx1_0;280;axe_yy2_0,axe_out_channels2_0,axe_yy2_1,axe_xx2_0;224;Y:5, F:2, Y:1, X:28, W:3, C:1, X:4, W:1, H:3, X:1, Y:12, C:32, F:16, ;336.38449025154114
163;1;MobilNet_01;0.1320529;0.0007508366600000271;2;axe_yy1_0,axe_out_channels1_0,axe_yy1_1,axe_xx1_0,axe_xx1_1;1120;axe_yy2_0,axe_out_channels2_0,axe_yy2_1,axe_xx2_0,axe_xx2_1;896;Y:5, F:2, Y:1, X:28, W:3, C:1, X:4, W:1, H:3, X:1, Y:12, C:32, F:16, ;337.4648790359497
164;0;MobilNet_01;0.138454;0.0013577575630428194;2;axe_yy1_0,axe_out_channels1_0,axe_yy1_1,axe_xx1_0;560;axe_yy2_0,axe_out_channels2_0,axe_yy2_1,axe_xx2_0;448;Y:1, F:2, Y:5, X:56, W:3, C:1, X:2, W:1, H:3, X:1, Y:12, C:32, F:16, ;338.6009259223938
164;1;MobilNet_01;0.12403040000000001;0.0008572311473575837;2;axe_yy1_0,axe_out_channels1_0,axe_yy1_1,axe_xx1_0,axe_xx1_1;1120;axe_yy2_0,axe_out_channels2_0,axe_yy2_1,axe_xx2_0,axe_xx2_1;896;Y:1, F:2, Y:5, X:56, W:3, C:1, X:2, W:1, H:3, X:1, Y:12, C:32, F:16, ;339.68747544288635
165;0;MobilNet_01;0.1571453;0.0014527081640852714;2;axe_yy1_0,axe_out_channels1_0,axe_yy1_1,axe_xx1_0;560;axe_yy2_0,axe_out_channels2_0,axe_yy2_1,axe_xx2_0;448;Y:5, F:2, Y:1, X:56, W:3, C:1, X:2, W:1, H:3, X:1, Y:12, C:32, F:16, ;340.8096754550934
165;1;MobilNet_01;0.1301759;0.0005808711475017507;2;axe_yy1_0,axe_out_channels1_0,axe_yy1_1,axe_xx1_0,axe_xx1_1;1120;axe_yy2_0,axe_out_channels2_0,axe_yy2_1,axe_xx2_0,axe_xx2_1;896;Y:5, F:2, Y:1, X:56, W:3, C:1, X:2, W:1, H:3, X:1, Y:12, C:32, F:16, ;341.88937735557556
166;0;MobilNet_01;0.124553;0.0003992755940450157;2;axe_yy1_0,axe_out_channels1_0,axe_yy1_1,axe_xx1_0;1120;axe_yy2_0,axe_out_channels2_0,axe_yy2_1,axe_xx2_0;896;Y:1, F:2, Y:5, X:112, W:3, C:1, X:1, W:1, H:3, X:1, Y:12, C:32, F:16, ;342.9888300895691
166;1;MobilNet_01;0.12408630000000001;0.00044663140283683633;2;axe_yy1_0,axe_out_channels1_0,axe_yy1_1,axe_xx1_0,axe_xx1_1;1120;axe_yy2_0,axe_out_channels2_0,axe_yy2_1,axe_xx2_0,axe_xx2_1;896;Y:1, F:2, Y:5, X:112, W:3, C:1, X:1, W:1, H:3, X:1, Y:12, C:32, F:16, ;344.0867569446564
167;0;MobilNet_01;0.13168530000000003;0.0005332374799280286;2;axe_yy1_0,axe_out_channels1_0,axe_yy1_1,axe_xx1_0;1120;axe_yy2_0,axe_out_channels2_0,axe_yy2_1,axe_xx2_0;896;Y:5, F:2, Y:1, X:112, W:3, C:1, X:1, W:1, H:3, X:1, Y:12, C:32, F:16, ;345.16887187957764
167;1;MobilNet_01;0.1320751;0.000722792425250848;2;axe_yy1_0,axe_out_channels1_0,axe_yy1_1,axe_xx1_0,axe_xx1_1;1120;axe_yy2_0,axe_out_channels2_0,axe_yy2_1,axe_xx2_0,axe_xx2_1;896;Y:5, F:2, Y:1, X:112, W:3, C:1, X:1, W:1, H:3, X:1, Y:12, C:32, F:16, ;346.25034618377686
168;0;MobilNet_01;0.9122571;0.0023245468569163914;2;axe_yy1_0,axe_out_channels1_0,axe_yy1_1,axe_xx1_0;56;axe_xx2_1;28;Y:1, F:2, Y:7, X:4, W:3, C:1, X:28, W:1, H:3, X:1, Y:12, C:32, F:16, ;347.44926357269287
168;1;MobilNet_01;0.1219308;0.0004481407814515456;2;axe_yy1_0,axe_out_channels1_0,axe_yy1_1,axe_xx1_0,axe_xx1_1;1568;axe_yy2_0,axe_out_channels2_0,axe_yy2_1,axe_xx2_0,axe_xx2_1;448;Y:1, F:2, Y:7, X:4, W:3, C:1, X:28, W:1, H:3, X:1, Y:12, C:32, F:16, ;348.55315685272217
169;0;MobilNet_01;0.9034331999999999;0.002232248812296721;2;axe_yy1_0,axe_out_channels1_0,axe_yy1_1,axe_xx1_0;56;axe_xx2_1;28;Y:7, F:2, Y:1, X:4, W:3, C:1, X:28, W:1, H:3, X:1, Y:12, C:32, F:16, ;349.7358412742615
169;1;MobilNet_01;0.1278118;0.0004229810397641984;2;axe_yy1_0,axe_out_channels1_0,axe_yy1_1,axe_xx1_0,axe_xx1_1;1568;axe_yy2_0,axe_out_channels2_0,axe_yy2_1,axe_xx2_0,axe_xx2_1;448;Y:7, F:2, Y:1, X:4, W:3, C:1, X:28, W:1, H:3, X:1, Y:12, C:32, F:16, ;350.8408489227295
170;0;MobilNet_01;0.1904431;0.001571642990631142;2;axe_yy1_0,axe_out_channels1_0,axe_yy1_1,axe_xx1_0;98;axe_yy2_0,axe_out_channels2_0,axe_yy2_1,axe_xx2_0;28;Y:1, F:2, Y:7, X:7, W:3, C:1, X:16, W:1, H:3, X:1, Y:12, C:32, F:16, ;351.9799482822418
170;1;MobilNet_01;0.12105859999999999;0.0003815020838737294;2;axe_yy1_0,axe_out_channels1_0,axe_yy1_1,axe_xx1_0,axe_xx1_1;1568;axe_yy2_0,axe_out_channels2_0,axe_yy2_1,axe_xx2_0,axe_xx2_1;448;Y:1, F:2, Y:7, X:7, W:3, C:1, X:16, W:1, H:3, X:1, Y:12, C:32, F:16, ;353.0893061161041
171;0;MobilNet_01;0.2128437;0.002038483360246045;2;axe_yy1_0,axe_out_channels1_0,axe_yy1_1,axe_xx1_0;98;axe_yy2_0,axe_out_channels2_0,axe_yy2_1,axe_xx2_0;28;Y:7, F:2, Y:1, X:7, W:3, C:1, X:16, W:1, H:3, X:1, Y:12, C:32, F:16, ;354.2299335002899
171;1;MobilNet_01;0.12729430000000003;0.0005323450103081613;2;axe_yy1_0,axe_out_channels1_0,axe_yy1_1,axe_xx1_0,axe_xx1_1;1568;axe_yy2_0,axe_out_channels2_0,axe_yy2_1,axe_xx2_0,axe_xx2_1;448;Y:7, F:2, Y:1, X:7, W:3, C:1, X:16, W:1, H:3, X:1, Y:12, C:32, F:16, ;355.33828997612
172;0;MobilNet_01;0.18452259999999998;0.0009357707197812926;2;axe_yy1_0,axe_out_channels1_0,axe_yy1_1,axe_xx1_0;112;axe_yy2_0,axe_out_channels2_0,axe_yy2_1,axe_xx2_0;32;Y:1, F:2, Y:7, X:8, W:3, C:1, X:14, W:1, H:3, X:1, Y:12, C:32, F:16, ;356.4946644306183
172;1;MobilNet_01;0.1222121;0.0005643310110210152;2;axe_yy1_0,axe_out_channels1_0,axe_yy1_1,axe_xx1_0,axe_xx1_1;1568;axe_yy2_0,axe_out_channels2_0,axe_yy2_1,axe_xx2_0,axe_xx2_1;448;Y:1, F:2, Y:7, X:8, W:3, C:1, X:14, W:1, H:3, X:1, Y:12, C:32, F:16, ;357.60446310043335
173;0;MobilNet_01;0.18828669999999997;0.0016129156239555727;2;axe_yy1_0,axe_out_channels1_0,axe_yy1_1,axe_xx1_0;112;axe_yy2_0,axe_out_channels2_0,axe_yy2_1,axe_xx2_0;32;Y:7, F:2, Y:1, X:8, W:3, C:1, X:14, W:1, H:3, X:1, Y:12, C:32, F:16, ;358.74887108802795
173;1;MobilNet_01;0.1276968;0.0004937383517613414;2;axe_yy1_0,axe_out_channels1_0,axe_yy1_1,axe_xx1_0,axe_xx1_1;1568;axe_yy2_0,axe_out_channels2_0,axe_yy2_1,axe_xx2_0,axe_xx2_1;448;Y:7, F:2, Y:1, X:8, W:3, C:1, X:14, W:1, H:3, X:1, Y:12, C:32, F:16, ;359.85203433036804
174;0;MobilNet_01;0.1933392;0.0010015623595163673;2;axe_yy1_0,axe_out_channels1_0,axe_yy1_1,axe_xx1_0;196;axe_yy2_0,axe_out_channels2_0,axe_yy2_1,axe_xx2_0;56;Y:1, F:2, Y:7, X:14, W:3, C:1, X:8, W:1, H:3, X:1, Y:12, C:32, F:16, ;360.9856231212616
174;1;MobilNet_01;0.12205560000000001;0.0008600692065177106;2;axe_yy1_0,axe_out_channels1_0,axe_yy1_1,axe_xx1_0,axe_xx1_1;1568;axe_yy2_0,axe_out_channels2_0,axe_yy2_1,axe_xx2_0,axe_xx2_1;448;Y:1, F:2, Y:7, X:14, W:3, C:1, X:8, W:1, H:3, X:1, Y:12, C:32, F:16, ;362.0890438556671
175;0;MobilNet_01;0.2105104;0.0018596584202481908;2;axe_yy1_0,axe_out_channels1_0,axe_yy1_1,axe_xx1_0;196;axe_yy2_0,axe_out_channels2_0,axe_yy2_1,axe_xx2_0;56;Y:7, F:2, Y:1, X:14, W:3, C:1, X:8, W:1, H:3, X:1, Y:12, C:32, F:16, ;363.2236840724945
175;1;MobilNet_01;0.12659990000000002;0.000743688032712647;2;axe_yy1_0,axe_out_channels1_0,axe_yy1_1,axe_xx1_0,axe_xx1_1;1568;axe_yy2_0,axe_out_channels2_0,axe_yy2_1,axe_xx2_0,axe_xx2_1;448;Y:7, F:2, Y:1, X:14, W:3, C:1, X:8, W:1, H:3, X:1, Y:12, C:32, F:16, ;364.3293445110321
176;0;MobilNet_01;0.15046049999999997;0.0005987923262701341;2;axe_yy1_0,axe_out_channels1_0,axe_yy1_1,axe_xx1_0;224;axe_yy2_0,axe_out_channels2_0,axe_yy2_1,axe_xx2_0;64;Y:1, F:2, Y:7, X:16, W:3, C:1, X:7, W:1, H:3, X:1, Y:12, C:32, F:16, ;365.4632444381714
176;1;MobilNet_01;0.1255725;0.0005539861460361593;2;axe_yy1_0,axe_out_channels1_0,axe_yy1_1,axe_xx1_0,axe_xx1_1;1568;axe_yy2_0,axe_out_channels2_0,axe_yy2_1,axe_xx2_0,axe_xx2_1;448;Y:1, F:2, Y:7, X:16, W:3, C:1, X:7, W:1, H:3, X:1, Y:12, C:32, F:16, ;366.56975173950195
177;0;MobilNet_01;0.15733970000000003;0.00097354538158219;2;axe_yy1_0,axe_out_channels1_0,axe_yy1_1,axe_xx1_0;224;axe_yy2_0,axe_out_channels2_0,axe_yy2_1,axe_xx2_0;64;Y:7, F:2, Y:1, X:16, W:3, C:1, X:7, W:1, H:3, X:1, Y:12, C:32, F:16, ;367.69811367988586
177;1;MobilNet_01;0.13075989999999998;0.0005349871867624509;2;axe_yy1_0,axe_out_channels1_0,axe_yy1_1,axe_xx1_0,axe_xx1_1;1568;axe_yy2_0,axe_out_channels2_0,axe_yy2_1,axe_xx2_0,axe_xx2_1;448;Y:7, F:2, Y:1, X:16, W:3, C:1, X:7, W:1, H:3, X:1, Y:12, C:32, F:16, ;368.8047206401825
178;0;MobilNet_01;0.18014380000000002;0.0017455950160332168;2;axe_yy1_0,axe_out_channels1_0,axe_yy1_1,axe_xx1_0;392;axe_yy2_0,axe_out_channels2_0,axe_yy2_1,axe_xx2_0;112;Y:1, F:2, Y:7, X:28, W:3, C:1, X:4, W:1, H:3, X:1, Y:12, C:32, F:16, ;369.9574065208435
178;1;MobilNet_01;0.1263888;0.00034901570165251765;2;axe_yy1_0,axe_out_channels1_0,axe_yy1_1,axe_xx1_0,axe_xx1_1;1568;axe_yy2_0,axe_out_channels2_0,axe_yy2_1,axe_xx2_0,axe_xx2_1;448;Y:1, F:2, Y:7, X:28, W:3, C:1, X:4, W:1, H:3, X:1, Y:12, C:32, F:16, ;371.0662887096405
179;0;MobilNet_01;0.1744305;0.0014165211788039042;2;axe_yy1_0,axe_out_channels1_0,axe_yy1_1,axe_xx1_0;392;axe_yy2_0,axe_out_channels2_0,axe_yy2_1,axe_xx2_0;112;Y:7, F:2, Y:1, X:28, W:3, C:1, X:4, W:1, H:3, X:1, Y:12, C:32, F:16, ;372.21923422813416
179;1;MobilNet_01;0.13051339999999997;0.0009001941124002086;2;axe_yy1_0,axe_out_channels1_0,axe_yy1_1,axe_xx1_0,axe_xx1_1;1568;axe_yy2_0,axe_out_channels2_0,axe_yy2_1,axe_xx2_0,axe_xx2_1;448;Y:7, F:2, Y:1, X:28, W:3, C:1, X:4, W:1, H:3, X:1, Y:12, C:32, F:16, ;373.3214473724365
180;0;MobilNet_01;0.131764;0.0008118695708055552;2;axe_yy1_0,axe_out_channels1_0,axe_yy1_1,axe_xx1_0;784;axe_yy2_0,axe_out_channels2_0,axe_yy2_1,axe_xx2_0;224;Y:1, F:2, Y:7, X:56, W:3, C:1, X:2, W:1, H:3, X:1, Y:12, C:32, F:16, ;374.46352338790894
180;1;MobilNet_01;0.1255538;0.0006433777739400141;2;axe_yy1_0,axe_out_channels1_0,axe_yy1_1,axe_xx1_0,axe_xx1_1;1568;axe_yy2_0,axe_out_channels2_0,axe_yy2_1,axe_xx2_0,axe_xx2_1;448;Y:1, F:2, Y:7, X:56, W:3, C:1, X:2, W:1, H:3, X:1, Y:12, C:32, F:16, ;375.56843614578247
181;0;MobilNet_01;0.1380478;0.0007044018455398864;2;axe_yy1_0,axe_out_channels1_0,axe_yy1_1,axe_xx1_0;784;axe_yy2_0,axe_out_channels2_0,axe_yy2_1,axe_xx2_0;224;Y:7, F:2, Y:1, X:56, W:3, C:1, X:2, W:1, H:3, X:1, Y:12, C:32, F:16, ;376.7060880661011
181;1;MobilNet_01;0.1316512;0.0009146652721077764;2;axe_yy1_0,axe_out_channels1_0,axe_yy1_1,axe_xx1_0,axe_xx1_1;1568;axe_yy2_0,axe_out_channels2_0,axe_yy2_1,axe_xx2_0,axe_xx2_1;448;Y:7, F:2, Y:1, X:56, W:3, C:1, X:2, W:1, H:3, X:1, Y:12, C:32, F:16, ;377.8081934452057
182;0;MobilNet_01;0.1254323;0.0007345481672429706;2;axe_yy1_0,axe_out_channels1_0,axe_yy1_1,axe_xx1_0;1568;axe_yy2_0,axe_out_channels2_0,axe_yy2_1,axe_xx2_0;448;Y:1, F:2, Y:7, X:112, W:3, C:1, X:1, W:1, H:3, X:1, Y:12, C:32, F:16, ;378.9087085723877
182;1;MobilNet_01;0.12475070000000002;0.0005416565424694878;2;axe_yy1_0,axe_out_channels1_0,axe_yy1_1,axe_xx1_0,axe_xx1_1;1568;axe_yy2_0,axe_out_channels2_0,axe_yy2_1,axe_xx2_0,axe_xx2_1;448;Y:1, F:2, Y:7, X:112, W:3, C:1, X:1, W:1, H:3, X:1, Y:12, C:32, F:16, ;380.012487411499
183;0;MobilNet_01;0.13106500000000001;0.0007253851390813012;2;axe_yy1_0,axe_out_channels1_0,axe_yy1_1,axe_xx1_0;1568;axe_yy2_0,axe_out_channels2_0,axe_yy2_1,axe_xx2_0;448;Y:7, F:2, Y:1, X:112, W:3, C:1, X:1, W:1, H:3, X:1, Y:12, C:32, F:16, ;381.1129744052887
183;1;MobilNet_01;0.1311362;0.0006279013935324618;2;axe_yy1_0,axe_out_channels1_0,axe_yy1_1,axe_xx1_0,axe_xx1_1;1568;axe_yy2_0,axe_out_channels2_0,axe_yy2_1,axe_xx2_0,axe_xx2_1;448;Y:7, F:2, Y:1, X:112, W:3, C:1, X:1, W:1, H:3, X:1, Y:12, C:32, F:16, ;382.2149586677551
184;0;MobilNet_01;0.26989729999999995;0.0012022271041696086;2;axe_yy1_0,axe_out_channels1_0,axe_yy1_1,axe_xx1_0;40;axe_yy2_0,axe_out_channels2_0,axe_yy2_1,axe_xx2_0;32;Y:1, F:2, Y:5, X:4, W:3, C:2, X:28, W:1, H:3, X:1, Y:12, C:16, F:16, ;383.3494749069214
184;1;MobilNet_01;0.12973200000000001;0.0007160043295958521;2;axe_yy1_0,axe_out_channels1_0,axe_yy1_1,axe_xx1_0,axe_xx1_1;1120;axe_yy2_0,axe_out_channels2_0,axe_yy2_1,axe_xx2_0,axe_xx2_1;896;Y:1, F:2, Y:5, X:4, W:3, C:2, X:28, W:1, H:3, X:1, Y:12, C:16, F:16, ;384.45564341545105
185;0;MobilNet_01;0.2704605;0.0004998838365060396;2;axe_yy1_0,axe_out_channels1_0,axe_yy1_1,axe_xx1_0;40;axe_yy2_0,axe_out_channels2_0,axe_yy2_1,axe_xx2_0;32;Y:5, F:2, Y:1, X:4, W:3, C:2, X:28, W:1, H:3, X:1, Y:12, C:16, F:16, ;385.57979702949524
185;1;MobilNet_01;0.1386241;0.0011174346021132447;2;axe_yy1_0,axe_out_channels1_0,axe_yy1_1,axe_xx1_0,axe_xx1_1;1120;axe_yy2_0,axe_out_channels2_0,axe_yy2_1,axe_xx2_0,axe_xx2_1;896;Y:5, F:2, Y:1, X:4, W:3, C:2, X:28, W:1, H:3, X:1, Y:12, C:16, F:16, ;386.6813621520996
186;0;MobilNet_01;0.2413326;0.00225175012823359;2;axe_yy1_0,axe_out_channels1_0,axe_yy1_1,axe_xx1_0;70;axe_yy2_0,axe_out_channels2_0,axe_yy2_1,axe_xx2_0;56;Y:1, F:2, Y:5, X:7, W:3, C:2, X:16, W:1, H:3, X:1, Y:12, C:16, F:16, ;387.82727694511414
186;1;MobilNet_01;0.1294397;0.0007288305770204739;2;axe_yy1_0,axe_out_channels1_0,axe_yy1_1,axe_xx1_0,axe_xx1_1;1120;axe_yy2_0,axe_out_channels2_0,axe_yy2_1,axe_xx2_0,axe_xx2_1;896;Y:1, F:2, Y:5, X:7, W:3, C:2, X:16, W:1, H:3, X:1, Y:12, C:16, F:16, ;388.932336807251
187;0;MobilNet_01;0.30121149999999997;0.00173377122193212;2;axe_yy1_0,axe_out_channels1_0,axe_yy1_1,axe_xx1_0;70;axe_yy2_0,axe_out_channels2_0,axe_yy2_1,axe_xx2_0;56;Y:5, F:2, Y:1, X:7, W:3, C:2, X:16, W:1, H:3, X:1, Y:12, C:16, F:16, ;390.0822505950928
187;1;MobilNet_01;0.1388003;0.001716211528337924;2;axe_yy1_0,axe_out_channels1_0,axe_yy1_1,axe_xx1_0,axe_xx1_1;1120;axe_yy2_0,axe_out_channels2_0,axe_yy2_1,axe_xx2_0,axe_xx2_1;896;Y:5, F:2, Y:1, X:7, W:3, C:2, X:16, W:1, H:3, X:1, Y:12, C:16, F:16, ;391.18658208847046
188;0;MobilNet_01;0.2277011;0.002031545099179441;2;axe_yy1_0,axe_out_channels1_0,axe_yy1_1,axe_xx1_0;80;axe_yy2_0,axe_out_channels2_0,axe_yy2_1,axe_xx2_0;64;Y:1, F:2, Y:5, X:8, W:3, C:2, X:14, W:1, H:3, X:1, Y:12, C:16, F:16, ;392.350709438324
188;1;MobilNet_01;0.1282452;0.00040380931143301136;2;axe_yy1_0,axe_out_channels1_0,axe_yy1_1,axe_xx1_0,axe_xx1_1;1120;axe_yy2_0,axe_out_channels2_0,axe_yy2_1,axe_xx2_0,axe_xx2_1;896;Y:1, F:2, Y:5, X:8, W:3, C:2, X:14, W:1, H:3, X:1, Y:12, C:16, F:16, ;393.4547345638275
189;0;MobilNet_01;0.22995649999999998;0.003410400071839083;2;axe_yy1_0,axe_out_channels1_0,axe_yy1_1,axe_xx1_0;80;axe_yy2_0,axe_out_channels2_0,axe_yy2_1,axe_xx2_0;64;Y:5, F:2, Y:1, X:8, W:3, C:2, X:14, W:1, H:3, X:1, Y:12, C:16, F:16, ;394.5936613082886
189;1;MobilNet_01;0.13814010000000002;0.002252328326421342;2;axe_yy1_0,axe_out_channels1_0,axe_yy1_1,axe_xx1_0,axe_xx1_1;1120;axe_yy2_0,axe_out_channels2_0,axe_yy2_1,axe_xx2_0,axe_xx2_1;896;Y:5, F:2, Y:1, X:8, W:3, C:2, X:14, W:1, H:3, X:1, Y:12, C:16, F:16, ;395.697998046875
190;0;MobilNet_01;0.21884439999999997;0.0010706957737845026;2;axe_yy1_0,axe_out_channels1_0,axe_yy1_1,axe_xx1_0;140;axe_yy2_0,axe_out_channels2_0,axe_yy2_1,axe_xx2_0;112;Y:1, F:2, Y:5, X:14, W:3, C:2, X:8, W:1, H:3, X:1, Y:12, C:16, F:16, ;396.83768105506897
190;1;MobilNet_01;0.12853450000000002;0.0007412705646388516;2;axe_yy1_0,axe_out_channels1_0,axe_yy1_1,axe_xx1_0,axe_xx1_1;1120;axe_yy2_0,axe_out_channels2_0,axe_yy2_1,axe_xx2_0,axe_xx2_1;896;Y:1, F:2, Y:5, X:14, W:3, C:2, X:8, W:1, H:3, X:1, Y:12, C:16, F:16, ;397.9427664279938
191;0;MobilNet_01;0.21791109999999997;0.0032940678939572536;2;axe_yy1_0,axe_out_channels1_0,axe_yy1_1,axe_xx1_0;140;axe_yy2_0,axe_out_channels2_0,axe_yy2_1,axe_xx2_0;112;Y:5, F:2, Y:1, X:14, W:3, C:2, X:8, W:1, H:3, X:1, Y:12, C:16, F:16, ;399.0749680995941
191;1;MobilNet_01;0.1392755;0.001122699714972794;2;axe_yy1_0,axe_out_channels1_0,axe_yy1_1,axe_xx1_0,axe_xx1_1;1120;axe_yy2_0,axe_out_channels2_0,axe_yy2_1,axe_xx2_0,axe_xx2_1;896;Y:5, F:2, Y:1, X:14, W:3, C:2, X:8, W:1, H:3, X:1, Y:12, C:16, F:16, ;400.17800760269165
192;0;MobilNet_01;0.1949119;0.0012726053944565891;2;axe_yy1_0,axe_out_channels1_0,axe_yy1_1,axe_xx1_0;160;axe_yy2_0,axe_out_channels2_0,axe_yy2_1,axe_xx2_0;128;Y:1, F:2, Y:5, X:16, W:3, C:2, X:7, W:1, H:3, X:1, Y:12, C:16, F:16, ;401.32032561302185
192;1;MobilNet_01;0.12937629999999997;0.00036248753082002665;2;axe_yy1_0,axe_out_channels1_0,axe_yy1_1,axe_xx1_0,axe_xx1_1;1120;axe_yy2_0,axe_out_channels2_0,axe_yy2_1,axe_xx2_0,axe_xx2_1;896;Y:1, F:2, Y:5, X:16, W:3, C:2, X:7, W:1, H:3, X:1, Y:12, C:16, F:16, ;402.42042875289917
193;0;MobilNet_01;0.22294310000000003;0.0030015864288739057;2;axe_yy1_0,axe_out_channels1_0,axe_yy1_1,axe_xx1_0;160;axe_yy2_0,axe_out_channels2_0,axe_yy2_1,axe_xx2_0;128;Y:5, F:2, Y:1, X:16, W:3, C:2, X:7, W:1, H:3, X:1, Y:12, C:16, F:16, ;403.54280066490173
193;1;MobilNet_01;0.1385397;0.002973574416422093;2;axe_yy1_0,axe_out_channels1_0,axe_yy1_1,axe_xx1_0,axe_xx1_1;1120;axe_yy2_0,axe_out_channels2_0,axe_yy2_1,axe_xx2_0,axe_xx2_1;896;Y:5, F:2, Y:1, X:16, W:3, C:2, X:7, W:1, H:3, X:1, Y:12, C:16, F:16, ;404.646550655365
194;0;MobilNet_01;0.1693687;0.002130666423915295;2;axe_yy1_0,axe_out_channels1_0,axe_yy1_1,axe_xx1_0;280;axe_yy2_0,axe_out_channels2_0,axe_yy2_1,axe_xx2_0;224;Y:1, F:2, Y:5, X:28, W:3, C:2, X:4, W:1, H:3, X:1, Y:12, C:16, F:16, ;405.8142337799072
194;1;MobilNet_01;0.12872679999999997;0.0009766718793945064;2;axe_yy1_0,axe_out_channels1_0,axe_yy1_1,axe_xx1_0,axe_xx1_1;1120;axe_yy2_0,axe_out_channels2_0,axe_yy2_1,axe_xx2_0,axe_xx2_1;896;Y:1, F:2, Y:5, X:28, W:3, C:2, X:4, W:1, H:3, X:1, Y:12, C:16, F:16, ;406.9199426174164
195;0;MobilNet_01;0.21008239999999997;0.0023751782754142872;2;axe_yy1_0,axe_out_channels1_0,axe_yy1_1,axe_xx1_0;280;axe_yy2_0,axe_out_channels2_0,axe_yy2_1,axe_xx2_0;224;Y:5, F:2, Y:1, X:28, W:3, C:2, X:4, W:1, H:3, X:1, Y:12, C:16, F:16, ;408.0723714828491
195;1;MobilNet_01;0.13846790000000003;0.0015044318828049308;2;axe_yy1_0,axe_out_channels1_0,axe_yy1_1,axe_xx1_0,axe_xx1_1;1120;axe_yy2_0,axe_out_channels2_0,axe_yy2_1,axe_xx2_0,axe_xx2_1;896;Y:5, F:2, Y:1, X:28, W:3, C:2, X:4, W:1, H:3, X:1, Y:12, C:16, F:16, ;409.17406821250916
196;0;MobilNet_01;0.1490725;0.0010580173202741061;2;axe_yy1_0,axe_out_channels1_0,axe_yy1_1,axe_xx1_0;560;axe_yy2_0,axe_out_channels2_0,axe_yy2_1,axe_xx2_0;448;Y:1, F:2, Y:5, X:56, W:3, C:2, X:2, W:1, H:3, X:1, Y:12, C:16, F:16, ;410.3119475841522
196;1;MobilNet_01;0.129254;0.0004750298937961666;2;axe_yy1_0,axe_out_channels1_0,axe_yy1_1,axe_xx1_0,axe_xx1_1;1120;axe_yy2_0,axe_out_channels2_0,axe_yy2_1,axe_xx2_0,axe_xx2_1;896;Y:1, F:2, Y:5, X:56, W:3, C:2, X:2, W:1, H:3, X:1, Y:12, C:16, F:16, ;411.4106979370117
197;0;MobilNet_01;0.16973980000000002;0.0031221368259575057;2;axe_yy1_0,axe_out_channels1_0,axe_yy1_1,axe_xx1_0;560;axe_yy2_0,axe_out_channels2_0,axe_yy2_1,axe_xx2_0;448;Y:5, F:2, Y:1, X:56, W:3, C:2, X:2, W:1, H:3, X:1, Y:12, C:16, F:16, ;412.5470552444458
197;1;MobilNet_01;0.1339854;0.0005864727103625548;2;axe_yy1_0,axe_out_channels1_0,axe_yy1_1,axe_xx1_0,axe_xx1_1;1120;axe_yy2_0,axe_out_channels2_0,axe_yy2_1,axe_xx2_0,axe_xx2_1;896;Y:5, F:2, Y:1, X:56, W:3, C:2, X:2, W:1, H:3, X:1, Y:12, C:16, F:16, ;413.6518585681915
198;0;MobilNet_01;0.12965440000000003;0.0007244737676410385;2;axe_yy1_0,axe_out_channels1_0,axe_yy1_1,axe_xx1_0;1120;axe_yy2_0,axe_out_channels2_0,axe_yy2_1,axe_xx2_0;896;Y:1, F:2, Y:5, X:112, W:3, C:2, X:1, W:1, H:3, X:1, Y:12, C:16, F:16, ;414.75377583503723
198;1;MobilNet_01;0.1292945;0.0007938118479841403;2;axe_yy1_0,axe_out_channels1_0,axe_yy1_1,axe_xx1_0,axe_xx1_1;1120;axe_yy2_0,axe_out_channels2_0,axe_yy2_1,axe_xx2_0,axe_xx2_1;896;Y:1, F:2, Y:5, X:112, W:3, C:2, X:1, W:1, H:3, X:1, Y:12, C:16, F:16, ;415.85904026031494
199;0;MobilNet_01;0.13351549999999998;0.000403707629355699;2;axe_yy1_0,axe_out_channels1_0,axe_yy1_1,axe_xx1_0;1120;axe_yy2_0,axe_out_channels2_0,axe_yy2_1,axe_xx2_0;896;Y:5, F:2, Y:1, X:112, W:3, C:2, X:1, W:1, H:3, X:1, Y:12, C:16, F:16, ;416.9611909389496
199;1;MobilNet_01;0.13396800000000003;0.0006549731292198151;2;axe_yy1_0,axe_out_channels1_0,axe_yy1_1,axe_xx1_0,axe_xx1_1;1120;axe_yy2_0,axe_out_channels2_0,axe_yy2_1,axe_xx2_0,axe_xx2_1;896;Y:5, F:2, Y:1, X:112, W:3, C:2, X:1, W:1, H:3, X:1, Y:12, C:16, F:16, ;418.0648584365845
