IdRun;MethodParallelization;NameConv;Time(ms);std;NbMicroKernel;AxeFuse1;SizeAxeFuse1;AxeFuse2;SizeAxeFuse2;Schema;Time_search(3.8912010192871094)
0;0;MobilNet_03;7.740793200000001;0.03621301375417387;1;axe_xx1_2;56;;;X:1, Y:7, X:1, F:4, C:8, W:3, X:56, H:3, W:1, H:1, X:1, Y:8, C:16, F:32, ;5.92641019821167
0;1;MobilNet_03;0.3597024;0.002993249712269245;1;axe_xx1_0,axe_yy1_0,axe_xx1_1,axe_out_channels1_0,axe_xx1_2;1568;;;X:1, Y:7, X:1, F:4, C:8, W:3, X:56, H:3, W:1, H:1, X:1, Y:8, C:16, F:32, ;7.634708642959595
1;0;MobilNet_03;1.1268914;0.012277975518789733;1;axe_xx1_0,axe_yy1_0,axe_xx1_1,axe_out_channels1_0;32;;;X:1, Y:4, X:2, F:4, C:8, W:3, X:28, H:3, W:1, H:1, X:1, Y:14, C:16, F:32, ;9.384464502334595
1;1;MobilNet_03;0.44493869999999996;0.003460063931490279;1;axe_xx1_0,axe_yy1_0,axe_xx1_1,axe_out_channels1_0,axe_xx1_2;896;;;X:1, Y:4, X:2, F:4, C:8, W:3, X:28, H:3, W:1, H:1, X:1, Y:14, C:16, F:32, ;11.109254598617554
2;0;MobilNet_03;1.1094268999999999;0.010189154051735622;1;axe_xx1_0,axe_yy1_0,axe_xx1_1,axe_out_channels1_0;32;;;X:2, Y:4, X:1, F:4, C:8, W:3, X:28, H:3, W:1, H:1, X:1, Y:14, C:16, F:32, ;12.854773044586182
2;1;MobilNet_03;0.4417632;0.004430794303508116;1;axe_xx1_0,axe_yy1_0,axe_xx1_1,axe_out_channels1_0,axe_xx1_2;896;;;X:2, Y:4, X:1, F:4, C:8, W:3, X:28, H:3, W:1, H:1, X:1, Y:14, C:16, F:32, ;14.576476097106934
3;0;MobilNet_03;0.9881996000000001;0.011200980887404522;1;axe_yy1_0,axe_xx1_0,axe_out_channels1_0;32;;;Y:8, X:2, F:2, C:8, W:3, X:28, H:3, W:1, H:1, X:1, Y:7, C:16, F:64, ;16.315499544143677
3;1;MobilNet_03;0.45170069999999996;0.002263479801102714;1;axe_yy1_0,axe_xx1_0,axe_out_channels1_0,axe_xx1_1;896;;;Y:8, X:2, F:2, C:8, W:3, X:28, H:3, W:1, H:1, X:1, Y:7, C:16, F:64, ;18.027877807617188
4;0;MobilNet_03;1.3288085000000003;0.02447769373225349;1;axe_yy1_0,axe_xx1_0,axe_out_channels1_0;32;;;Y:8, X:2, F:2, C:8, W:3, X:28, W:1, H:3, X:1, Y:7, C:16, F:64, ;19.79545783996582
4;1;MobilNet_03;0.7008279;0.02546269853118478;1;axe_yy1_0,axe_xx1_0,axe_out_channels1_0,axe_xx1_1;896;;;Y:8, X:2, F:2, C:8, W:3, X:28, W:1, H:3, X:1, Y:7, C:16, F:64, ;21.54239797592163
5;0;MobilNet_03;0.5358503000000001;0.007928631761533654;1;axe_xx1_0,axe_yy1_0,axe_xx1_1,axe_out_channels1_0;56;;;X:1, Y:7, X:2, F:4, C:4, W:3, X:28, H:3, W:1, H:1, X:1, Y:8, C:32, F:32, ;23.26830744743347
5;1;MobilNet_03;0.3375797;0.004867858154260455;1;axe_xx1_0,axe_yy1_0,axe_xx1_1,axe_out_channels1_0,axe_xx1_2;1568;;;X:1, Y:7, X:2, F:4, C:4, W:3, X:28, H:3, W:1, H:1, X:1, Y:8, C:32, F:32, ;24.9813129901886
6;0;MobilNet_03;0.5290944;0.0075198754271597;1;axe_xx1_0,axe_yy1_0,axe_xx1_1,axe_out_channels1_0;56;;;X:2, Y:7, X:1, F:4, C:4, W:3, X:28, H:3, W:1, H:1, X:1, Y:8, C:32, F:32, ;26.70656728744507
6;1;MobilNet_03;0.3365013;0.0028185740029312693;1;axe_xx1_0,axe_yy1_0,axe_xx1_1,axe_out_channels1_0,axe_xx1_2;1568;;;X:2, Y:7, X:1, F:4, C:4, W:3, X:28, H:3, W:1, H:1, X:1, Y:8, C:32, F:32, ;28.41796636581421
7;0;MobilNet_03;0.6989674;0.018049130800124435;1;axe_xx1_0,axe_yy1_0,axe_xx1_1,axe_out_channels1_0;56;;;X:1, Y:7, X:2, F:4, C:8, W:3, X:28, H:3, W:1, H:1, X:1, Y:8, C:16, F:32, ;30.1887948513031
7;1;MobilNet_03;0.35408239999999996;0.004248328899696919;1;axe_xx1_0,axe_yy1_0,axe_xx1_1,axe_out_channels1_0,axe_xx1_2;1568;;;X:1, Y:7, X:2, F:4, C:8, W:3, X:28, H:3, W:1, H:1, X:1, Y:8, C:16, F:32, ;31.90208339691162
8;0;MobilNet_03;0.6893513;0.010986103194945874;1;axe_xx1_0,axe_yy1_0,axe_xx1_1,axe_out_channels1_0;56;;;X:2, Y:7, X:1, F:4, C:8, W:3, X:28, H:3, W:1, H:1, X:1, Y:8, C:16, F:32, ;33.63357973098755
8;1;MobilNet_03;0.35646140000000004;0.0031338854222833328;1;axe_xx1_0,axe_yy1_0,axe_xx1_1,axe_out_channels1_0,axe_xx1_2;1568;;;X:2, Y:7, X:1, F:4, C:8, W:3, X:28, H:3, W:1, H:1, X:1, Y:8, C:16, F:32, ;35.34509015083313
9;0;MobilNet_03;0.5316761000000001;0.008287688380362764;1;axe_yy1_0,axe_xx1_0,axe_out_channels1_0;32;;;Y:8, X:2, F:2, C:2, H:3, X:28, W:3, H:1, X:1, Y:7, C:64, F:64, ;37.088194131851196
9;1;MobilNet_03;0.4302276;0.005792520197634187;1;axe_yy1_0,axe_xx1_0,axe_out_channels1_0,axe_xx1_1;896;;;Y:8, X:2, F:2, C:2, H:3, X:28, W:3, H:1, X:1, Y:7, C:64, F:64, ;38.821532011032104
10;0;MobilNet_03;8.8416539;0.05089046203455036;1;axe_xx1_1;56;;;F:1, F:1, X:1, Y:4, F:8, C:8, W:3, X:56, W:1, H:3, X:1, Y:14, C:16, F:16, ;40.923492670059204
10;1;MobilNet_03;0.3324506;0.01576939570306993;1;axe_out_channels1_0,axe_out_channels1_1,axe_xx1_0,axe_yy1_0,axe_out_channels1_2,axe_xx1_1;1792;;;F:1, F:1, X:1, Y:4, F:8, C:8, W:3, X:56, W:1, H:3, X:1, Y:14, C:16, F:16, ;42.66986560821533
11;0;MobilNet_03;8.84863;0.03873233805491202;1;axe_xx1_1;56;;;F:1, F:2, X:1, Y:4, F:4, C:8, W:3, X:56, W:1, H:3, X:1, Y:14, C:16, F:16, ;44.77601480484009
11;1;MobilNet_03;0.331069;0.01645008595114323;1;axe_out_channels1_0,axe_out_channels1_1,axe_xx1_0,axe_yy1_0,axe_out_channels1_2,axe_xx1_1;1792;;;F:1, F:2, X:1, Y:4, F:4, C:8, W:3, X:56, W:1, H:3, X:1, Y:14, C:16, F:16, ;46.49237656593323
12;0;MobilNet_03;8.7811213;0.05572455778388911;1;axe_xx1_1;56;;;F:1, F:4, X:1, Y:4, F:2, C:8, W:3, X:56, W:1, H:3, X:1, Y:14, C:16, F:16, ;48.58291411399841
12;1;MobilNet_03;0.33349029999999996;0.018167957915241877;1;axe_out_channels1_0,axe_out_channels1_1,axe_xx1_0,axe_yy1_0,axe_out_channels1_2,axe_xx1_1;1792;;;F:1, F:4, X:1, Y:4, F:2, C:8, W:3, X:56, W:1, H:3, X:1, Y:14, C:16, F:16, ;50.29992485046387
13;0;MobilNet_03;8.981309099999999;0.021918275700656967;1;axe_xx1_1;56;;;F:1, F:8, X:1, Y:4, F:1, C:8, W:3, X:56, W:1, H:3, X:1, Y:14, C:16, F:16, ;52.39887619018555
13;1;MobilNet_03;0.29734309999999997;0.002739943373502468;1;axe_out_channels1_0,axe_out_channels1_1,axe_xx1_0,axe_yy1_0,axe_out_channels1_2,axe_xx1_1;1792;;;F:1, F:8, X:1, Y:4, F:1, C:8, W:3, X:56, W:1, H:3, X:1, Y:14, C:16, F:16, ;54.12150979042053
14;0;MobilNet_03;8.7957569;0.0391236988651377;1;axe_xx1_1;56;;;F:2, F:1, X:1, Y:4, F:4, C:8, W:3, X:56, W:1, H:3, X:1, Y:14, C:16, F:16, ;56.22233319282532
14;1;MobilNet_03;0.33162349999999996;0.018504867080041412;1;axe_out_channels1_0,axe_out_channels1_1,axe_xx1_0,axe_yy1_0,axe_out_channels1_2,axe_xx1_1;1792;;;F:2, F:1, X:1, Y:4, F:4, C:8, W:3, X:56, W:1, H:3, X:1, Y:14, C:16, F:16, ;57.940449714660645
15;0;MobilNet_03;8.8994961;0.04501760600576206;1;axe_xx1_1;56;;;F:2, F:2, X:1, Y:4, F:2, C:8, W:3, X:56, W:1, H:3, X:1, Y:14, C:16, F:16, ;60.04925847053528
15;1;MobilNet_03;0.3187877;0.003629813302361426;1;axe_out_channels1_0,axe_out_channels1_1,axe_xx1_0,axe_yy1_0,axe_out_channels1_2,axe_xx1_1;1792;;;F:2, F:2, X:1, Y:4, F:2, C:8, W:3, X:56, W:1, H:3, X:1, Y:14, C:16, F:16, ;61.763389348983765
16;0;MobilNet_03;8.9397443;0.03092264782986765;1;axe_xx1_1;56;;;F:2, F:4, X:1, Y:4, F:1, C:8, W:3, X:56, W:1, H:3, X:1, Y:14, C:16, F:16, ;63.86426568031311
16;1;MobilNet_03;0.2948467;0.0013700819720002058;1;axe_out_channels1_0,axe_out_channels1_1,axe_xx1_0,axe_yy1_0,axe_out_channels1_2,axe_xx1_1;1792;;;F:2, F:4, X:1, Y:4, F:1, C:8, W:3, X:56, W:1, H:3, X:1, Y:14, C:16, F:16, ;65.58980298042297
17;0;MobilNet_03;8.840124800000002;0.026833021353548803;1;axe_xx1_1;56;;;F:4, F:1, X:1, Y:4, F:2, C:8, W:3, X:56, W:1, H:3, X:1, Y:14, C:16, F:16, ;67.67715668678284
17;1;MobilNet_03;0.316065;0.0021423644414524856;1;axe_out_channels1_0,axe_out_channels1_1,axe_xx1_0,axe_yy1_0,axe_out_channels1_2,axe_xx1_1;1792;;;F:4, F:1, X:1, Y:4, F:2, C:8, W:3, X:56, W:1, H:3, X:1, Y:14, C:16, F:16, ;69.38790607452393
18;0;MobilNet_03;9.0339803;0.01196831126809485;1;axe_xx1_1;56;;;F:4, F:2, X:1, Y:4, F:1, C:8, W:3, X:56, W:1, H:3, X:1, Y:14, C:16, F:16, ;71.51265954971313
18;1;MobilNet_03;0.303323;0.01191136484203217;1;axe_out_channels1_0,axe_out_channels1_1,axe_xx1_0,axe_yy1_0,axe_out_channels1_2,axe_xx1_1;1792;;;F:4, F:2, X:1, Y:4, F:1, C:8, W:3, X:56, W:1, H:3, X:1, Y:14, C:16, F:16, ;73.22316145896912
19;0;MobilNet_03;8.834551399999999;0.0354972846262922;1;axe_xx1_1;56;;;F:8, F:1, X:1, Y:4, F:1, C:8, W:3, X:56, W:1, H:3, X:1, Y:14, C:16, F:16, ;75.32200622558594
19;1;MobilNet_03;0.2976888;0.0021631312396616083;1;axe_out_channels1_0,axe_out_channels1_1,axe_xx1_0,axe_yy1_0,axe_out_channels1_2,axe_xx1_1;1792;;;F:8, F:1, X:1, Y:4, F:1, C:8, W:3, X:56, W:1, H:3, X:1, Y:14, C:16, F:16, ;77.04603028297424
20;0;MobilNet_03;1.0638862;0.008013193031494913;1;axe_xx1_1;56;;;Y:8, X:1, F:2, C:1, H:3, X:56, W:3, H:1, X:1, Y:7, C:128, F:64, ;78.84694910049438
20;1;MobilNet_03;0.40144450000000004;0.002254693249646174;1;axe_yy1_0,axe_xx1_0,axe_out_channels1_0,axe_xx1_1;896;;;Y:8, X:1, F:2, C:1, H:3, X:56, W:3, H:1, X:1, Y:7, C:128, F:64, ;80.5752820968628
21;0;MobilNet_03;0.6101647;0.006479765135404228;1;axe_xx1_0,axe_yy1_0,axe_xx1_1,axe_out_channels1_0;64;;;X:1, Y:4, X:4, F:4, C:4, W:3, X:14, H:3, W:1, H:1, X:1, Y:14, C:32, F:32, ;82.30552172660828
21;1;MobilNet_03;0.36046579999999995;0.003099008318801358;1;axe_xx1_0,axe_yy1_0,axe_xx1_1,axe_out_channels1_0,axe_xx1_2;896;;;X:1, Y:4, X:4, F:4, C:4, W:3, X:14, H:3, W:1, H:1, X:1, Y:14, C:32, F:32, ;84.02511787414551
22;0;MobilNet_03;0.6183467;0.00793035888279971;1;axe_xx1_0,axe_yy1_0,axe_xx1_1,axe_out_channels1_0;64;;;X:2, Y:4, X:2, F:4, C:4, W:3, X:14, H:3, W:1, H:1, X:1, Y:14, C:32, F:32, ;85.76114296913147
22;1;MobilNet_03;0.35941309999999993;0.002112100018938491;1;axe_xx1_0,axe_yy1_0,axe_xx1_1,axe_out_channels1_0,axe_xx1_2;896;;;X:2, Y:4, X:2, F:4, C:4, W:3, X:14, H:3, W:1, H:1, X:1, Y:14, C:32, F:32, ;87.48324847221375
23;0;MobilNet_03;0.6129277;0.01176041523118977;1;axe_xx1_0,axe_yy1_0,axe_xx1_1,axe_out_channels1_0;64;;;X:4, Y:4, X:1, F:4, C:4, W:3, X:14, H:3, W:1, H:1, X:1, Y:14, C:32, F:32, ;89.20923471450806
23;1;MobilNet_03;0.3604149;0.004988935767275427;1;axe_xx1_0,axe_yy1_0,axe_xx1_1,axe_out_channels1_0,axe_xx1_2;896;;;X:4, Y:4, X:1, F:4, C:4, W:3, X:14, H:3, W:1, H:1, X:1, Y:14, C:32, F:32, ;90.92820405960083
24;0;MobilNet_03;0.8302033999999999;0.007580043234705197;1;axe_xx1_0,axe_yy1_0,axe_xx1_1,axe_out_channels1_0;64;;;X:1, Y:4, X:4, F:4, C:8, W:3, X:14, H:3, W:1, H:1, X:1, Y:14, C:16, F:32, ;92.66157078742981
24;1;MobilNet_03;0.394829;0.004513628628941468;1;axe_xx1_0,axe_yy1_0,axe_xx1_1,axe_out_channels1_0,axe_xx1_2;896;;;X:1, Y:4, X:4, F:4, C:8, W:3, X:14, H:3, W:1, H:1, X:1, Y:14, C:16, F:32, ;94.38175511360168
25;0;MobilNet_03;0.8463611;0.016619757028609048;1;axe_xx1_0,axe_yy1_0,axe_xx1_1,axe_out_channels1_0;64;;;X:2, Y:4, X:2, F:4, C:8, W:3, X:14, H:3, W:1, H:1, X:1, Y:14, C:16, F:32, ;96.11926937103271
25;1;MobilNet_03;0.3936438;0.003517136357891183;1;axe_xx1_0,axe_yy1_0,axe_xx1_1,axe_out_channels1_0,axe_xx1_2;896;;;X:2, Y:4, X:2, F:4, C:8, W:3, X:14, H:3, W:1, H:1, X:1, Y:14, C:16, F:32, ;97.83653140068054
26;0;MobilNet_03;0.8425429;0.010152214856374958;1;axe_xx1_0,axe_yy1_0,axe_xx1_1,axe_out_channels1_0;64;;;X:4, Y:4, X:1, F:4, C:8, W:3, X:14, H:3, W:1, H:1, X:1, Y:14, C:16, F:32, ;99.57370352745056
26;1;MobilNet_03;0.39695779999999997;0.0022633045221533985;1;axe_xx1_0,axe_yy1_0,axe_xx1_1,axe_out_channels1_0,axe_xx1_2;896;;;X:4, Y:4, X:1, F:4, C:8, W:3, X:14, H:3, W:1, H:1, X:1, Y:14, C:16, F:32, ;101.29096579551697
27;0;MobilNet_03;1.4676815;0.010865773292775773;1;axe_xx1_1;56;;;Y:14, X:1, F:2, C:1, H:3, X:56, W:3, H:1, X:1, Y:4, C:128, F:64, ;103.05239939689636
27;1;MobilNet_03;0.30030399999999996;0.0052761651414640195;1;axe_yy1_0,axe_xx1_0,axe_out_channels1_0,axe_xx1_1;1568;;;Y:14, X:1, F:2, C:1, H:3, X:56, W:3, H:1, X:1, Y:4, C:128, F:64, ;104.74105858802795
28;0;MobilNet_03;0.4070289000000001;0.0033463302123370995;1;axe_yy1_0,axe_xx1_0,axe_out_channels1_0;32;;;Y:8, X:2, F:2, C:1, H:3, X:28, W:3, H:1, X:1, Y:7, C:128, F:64, ;106.47596216201782
28;1;MobilNet_03;0.4353223;0.0038503153390339407;1;axe_yy1_0,axe_xx1_0,axe_out_channels1_0,axe_xx1_1;896;;;Y:8, X:2, F:2, C:1, H:3, X:28, W:3, H:1, X:1, Y:7, C:128, F:64, ;108.20410537719727
29;0;MobilNet_03;0.3493742;0.0018715853066317684;2;axe_out_channels1_0,axe_out_channels1_1,axe_xx1_0,axe_yy1_0,axe_out_channels1_2;1344;axe_out_channels2_0,axe_out_channels2_1,axe_xx2_0,axe_yy2_0,axe_out_channels2_2;896;F:1, F:8, X:56, Y:3, F:1, C:1, W:3, X:1, W:1, H:3, X:1, Y:10, C:128, F:16, ;110.30021715164185
29;1;MobilNet_03;0.34907679999999996;0.001724534592288602;2;axe_out_channels1_0,axe_out_channels1_1,axe_xx1_0,axe_yy1_0,axe_out_channels1_2,axe_xx1_1;1344;axe_out_channels2_0,axe_out_channels2_1,axe_xx2_0,axe_yy2_0,axe_out_channels2_2,axe_xx2_1;896;F:1, F:8, X:56, Y:3, F:1, C:1, W:3, X:1, W:1, H:3, X:1, Y:10, C:128, F:16, ;112.3952054977417
30;0;MobilNet_03;0.3511117;0.002053497457996969;2;axe_out_channels1_0,axe_out_channels1_1,axe_xx1_0,axe_yy1_0,axe_out_channels1_2;1344;axe_out_channels2_0,axe_out_channels2_1,axe_xx2_0,axe_yy2_0,axe_out_channels2_2;896;F:2, F:4, X:56, Y:3, F:1, C:1, W:3, X:1, W:1, H:3, X:1, Y:10, C:128, F:16, ;114.49073624610901
30;1;MobilNet_03;0.35176569999999996;0.001092432977349189;2;axe_out_channels1_0,axe_out_channels1_1,axe_xx1_0,axe_yy1_0,axe_out_channels1_2,axe_xx1_1;1344;axe_out_channels2_0,axe_out_channels2_1,axe_xx2_0,axe_yy2_0,axe_out_channels2_2,axe_xx2_1;896;F:2, F:4, X:56, Y:3, F:1, C:1, W:3, X:1, W:1, H:3, X:1, Y:10, C:128, F:16, ;116.58616709709167
31;0;MobilNet_03;0.35023230000000005;0.0015925349635094283;2;axe_out_channels1_0,axe_out_channels1_1,axe_xx1_0,axe_yy1_0,axe_out_channels1_2;1344;axe_out_channels2_0,axe_out_channels2_1,axe_xx2_0,axe_yy2_0,axe_out_channels2_2;896;F:4, F:2, X:56, Y:3, F:1, C:1, W:3, X:1, W:1, H:3, X:1, Y:10, C:128, F:16, ;118.68320655822754
31;1;MobilNet_03;0.3482966;0.0014810337065711903;2;axe_out_channels1_0,axe_out_channels1_1,axe_xx1_0,axe_yy1_0,axe_out_channels1_2,axe_xx1_1;1344;axe_out_channels2_0,axe_out_channels2_1,axe_xx2_0,axe_yy2_0,axe_out_channels2_2,axe_xx2_1;896;F:4, F:2, X:56, Y:3, F:1, C:1, W:3, X:1, W:1, H:3, X:1, Y:10, C:128, F:16, ;120.7751955986023
32;0;MobilNet_03;0.35182769999999997;0.0030385883910131655;2;axe_out_channels1_0,axe_out_channels1_1,axe_xx1_0,axe_yy1_0,axe_out_channels1_2;1344;axe_out_channels2_0,axe_out_channels2_1,axe_xx2_0,axe_yy2_0,axe_out_channels2_2;896;F:8, F:1, X:56, Y:3, F:1, C:1, W:3, X:1, W:1, H:3, X:1, Y:10, C:128, F:16, ;122.86689472198486
32;1;MobilNet_03;0.34803710000000004;0.0016656442267183014;2;axe_out_channels1_0,axe_out_channels1_1,axe_xx1_0,axe_yy1_0,axe_out_channels1_2,axe_xx1_1;1344;axe_out_channels2_0,axe_out_channels2_1,axe_xx2_0,axe_yy2_0,axe_out_channels2_2,axe_xx2_1;896;F:8, F:1, X:56, Y:3, F:1, C:1, W:3, X:1, W:1, H:3, X:1, Y:10, C:128, F:16, ;124.95890522003174
33;0;MobilNet_03;0.34048560000000005;0.0035598048598202703;2;axe_out_channels1_0,axe_out_channels1_1,axe_xx1_0,axe_yy1_0,axe_out_channels1_2;1344;axe_out_channels2_0,axe_out_channels2_1,axe_xx2_0,axe_yy2_0,axe_out_channels2_2;896;F:1, F:8, X:56, Y:3, F:1, C:2, W:3, X:1, W:1, H:3, X:1, Y:10, C:64, F:16, ;127.07864189147949
33;1;MobilNet_03;0.3391793000000001;0.003725175272386523;2;axe_out_channels1_0,axe_out_channels1_1,axe_xx1_0,axe_yy1_0,axe_out_channels1_2,axe_xx1_1;1344;axe_out_channels2_0,axe_out_channels2_1,axe_xx2_0,axe_yy2_0,axe_out_channels2_2,axe_xx2_1;896;F:1, F:8, X:56, Y:3, F:1, C:2, W:3, X:1, W:1, H:3, X:1, Y:10, C:64, F:16, ;129.19370532035828
34;0;MobilNet_03;0.3393466;0.004806269555486877;2;axe_out_channels1_0,axe_out_channels1_1,axe_xx1_0,axe_yy1_0,axe_out_channels1_2;1344;axe_out_channels2_0,axe_out_channels2_1,axe_xx2_0,axe_yy2_0,axe_out_channels2_2;896;F:2, F:4, X:56, Y:3, F:1, C:2, W:3, X:1, W:1, H:3, X:1, Y:10, C:64, F:16, ;131.31331276893616
34;1;MobilNet_03;0.3385094;0.004024666276848296;2;axe_out_channels1_0,axe_out_channels1_1,axe_xx1_0,axe_yy1_0,axe_out_channels1_2,axe_xx1_1;1344;axe_out_channels2_0,axe_out_channels2_1,axe_xx2_0,axe_yy2_0,axe_out_channels2_2,axe_xx2_1;896;F:2, F:4, X:56, Y:3, F:1, C:2, W:3, X:1, W:1, H:3, X:1, Y:10, C:64, F:16, ;133.43318486213684
35;0;MobilNet_03;0.3382669;0.003985105831718899;2;axe_out_channels1_0,axe_out_channels1_1,axe_xx1_0,axe_yy1_0,axe_out_channels1_2;1344;axe_out_channels2_0,axe_out_channels2_1,axe_xx2_0,axe_yy2_0,axe_out_channels2_2;896;F:4, F:2, X:56, Y:3, F:1, C:2, W:3, X:1, W:1, H:3, X:1, Y:10, C:64, F:16, ;135.5543189048767
35;1;MobilNet_03;0.3404443;0.0032049286435114174;2;axe_out_channels1_0,axe_out_channels1_1,axe_xx1_0,axe_yy1_0,axe_out_channels1_2,axe_xx1_1;1344;axe_out_channels2_0,axe_out_channels2_1,axe_xx2_0,axe_yy2_0,axe_out_channels2_2,axe_xx2_1;896;F:4, F:2, X:56, Y:3, F:1, C:2, W:3, X:1, W:1, H:3, X:1, Y:10, C:64, F:16, ;137.67190861701965
36;0;MobilNet_03;0.34089539999999996;0.00344193539160747;2;axe_out_channels1_0,axe_out_channels1_1,axe_xx1_0,axe_yy1_0,axe_out_channels1_2;1344;axe_out_channels2_0,axe_out_channels2_1,axe_xx2_0,axe_yy2_0,axe_out_channels2_2;896;F:8, F:1, X:56, Y:3, F:1, C:2, W:3, X:1, W:1, H:3, X:1, Y:10, C:64, F:16, ;139.7880344390869
36;1;MobilNet_03;0.33910809999999997;0.003788996871204823;2;axe_out_channels1_0,axe_out_channels1_1,axe_xx1_0,axe_yy1_0,axe_out_channels1_2,axe_xx1_1;1344;axe_out_channels2_0,axe_out_channels2_1,axe_xx2_0,axe_yy2_0,axe_out_channels2_2,axe_xx2_1;896;F:8, F:1, X:56, Y:3, F:1, C:2, W:3, X:1, W:1, H:3, X:1, Y:10, C:64, F:16, ;141.90551710128784
37;0;MobilNet_03;1.775365;0.010580105386998778;2;axe_xx1_0,axe_yy1_0,axe_xx1_1,axe_out_channels1_0;40;axe_xx2_2;28;X:1, Y:5, X:2, F:4, C:4, W:3, X:28, H:3, W:1, H:1, X:1, Y:9, C:32, F:32, ;144.09903240203857
37;1;MobilNet_03;0.3834469;0.004429372448778721;2;axe_xx1_0,axe_yy1_0,axe_xx1_1,axe_out_channels1_0,axe_xx1_2;1120;axe_xx2_0,axe_yy2_0,axe_xx2_1,axe_out_channels2_0,axe_xx2_2;224;X:1, Y:5, X:2, F:4, C:4, W:3, X:28, H:3, W:1, H:1, X:1, Y:9, C:32, F:32, ;146.21961617469788
38;0;MobilNet_03;1.7680087999999998;0.00418608324809719;2;axe_xx1_0,axe_yy1_0,axe_xx1_1,axe_out_channels1_0;40;axe_xx2_2;28;X:2, Y:5, X:1, F:4, C:4, W:3, X:28, H:3, W:1, H:1, X:1, Y:9, C:32, F:32, ;148.42763090133667
38;1;MobilNet_03;0.3825007;0.0015319755252614204;2;axe_xx1_0,axe_yy1_0,axe_xx1_1,axe_out_channels1_0,axe_xx1_2;1120;axe_xx2_0,axe_yy2_0,axe_xx2_1,axe_out_channels2_0,axe_xx2_2;224;X:2, Y:5, X:1, F:4, C:4, W:3, X:28, H:3, W:1, H:1, X:1, Y:9, C:32, F:32, ;150.54079914093018
39;0;MobilNet_03;0.34622490000000006;0.006132309719021044;2;axe_out_channels1_0,axe_out_channels1_1,axe_xx1_0,axe_yy1_0,axe_out_channels1_2;1344;axe_out_channels2_0,axe_out_channels2_1,axe_xx2_0,axe_yy2_0,axe_out_channels2_2;896;F:1, F:8, X:56, Y:3, F:1, C:4, W:3, X:1, W:1, H:3, X:1, Y:10, C:32, F:16, ;152.64883041381836
39;1;MobilNet_03;0.350321;0.0051473829272747915;2;axe_out_channels1_0,axe_out_channels1_1,axe_xx1_0,axe_yy1_0,axe_out_channels1_2,axe_xx1_1;1344;axe_out_channels2_0,axe_out_channels2_1,axe_xx2_0,axe_yy2_0,axe_out_channels2_2,axe_xx2_1;896;F:1, F:8, X:56, Y:3, F:1, C:4, W:3, X:1, W:1, H:3, X:1, Y:10, C:32, F:16, ;154.75597476959229
40;0;MobilNet_03;0.3485151;0.007155571374111225;2;axe_out_channels1_0,axe_out_channels1_1,axe_xx1_0,axe_yy1_0,axe_out_channels1_2;1344;axe_out_channels2_0,axe_out_channels2_1,axe_xx2_0,axe_yy2_0,axe_out_channels2_2;896;F:2, F:4, X:56, Y:3, F:1, C:4, W:3, X:1, W:1, H:3, X:1, Y:10, C:32, F:16, ;156.8578794002533
40;1;MobilNet_03;0.34732320000000005;0.006226887710566175;2;axe_out_channels1_0,axe_out_channels1_1,axe_xx1_0,axe_yy1_0,axe_out_channels1_2,axe_xx1_1;1344;axe_out_channels2_0,axe_out_channels2_1,axe_xx2_0,axe_yy2_0,axe_out_channels2_2,axe_xx2_1;896;F:2, F:4, X:56, Y:3, F:1, C:4, W:3, X:1, W:1, H:3, X:1, Y:10, C:32, F:16, ;158.96184706687927
41;0;MobilNet_03;0.3472896;0.0056661291584290535;2;axe_out_channels1_0,axe_out_channels1_1,axe_xx1_0,axe_yy1_0,axe_out_channels1_2;1344;axe_out_channels2_0,axe_out_channels2_1,axe_xx2_0,axe_yy2_0,axe_out_channels2_2;896;F:4, F:2, X:56, Y:3, F:1, C:4, W:3, X:1, W:1, H:3, X:1, Y:10, C:32, F:16, ;161.07376050949097
41;1;MobilNet_03;0.3518859;0.001537440629748024;2;axe_out_channels1_0,axe_out_channels1_1,axe_xx1_0,axe_yy1_0,axe_out_channels1_2,axe_xx1_1;1344;axe_out_channels2_0,axe_out_channels2_1,axe_xx2_0,axe_yy2_0,axe_out_channels2_2,axe_xx2_1;896;F:4, F:2, X:56, Y:3, F:1, C:4, W:3, X:1, W:1, H:3, X:1, Y:10, C:32, F:16, ;163.1725299358368
42;0;MobilNet_03;0.3490983;0.005546041814663867;2;axe_out_channels1_0,axe_out_channels1_1,axe_xx1_0,axe_yy1_0,axe_out_channels1_2;1344;axe_out_channels2_0,axe_out_channels2_1,axe_xx2_0,axe_yy2_0,axe_out_channels2_2;896;F:8, F:1, X:56, Y:3, F:1, C:4, W:3, X:1, W:1, H:3, X:1, Y:10, C:32, F:16, ;165.27973175048828
42;1;MobilNet_03;0.3507173;0.004215231050606833;2;axe_out_channels1_0,axe_out_channels1_1,axe_xx1_0,axe_yy1_0,axe_out_channels1_2,axe_xx1_1;1344;axe_out_channels2_0,axe_out_channels2_1,axe_xx2_0,axe_yy2_0,axe_out_channels2_2,axe_xx2_1;896;F:8, F:1, X:56, Y:3, F:1, C:4, W:3, X:1, W:1, H:3, X:1, Y:10, C:32, F:16, ;167.37959718704224
43;0;MobilNet_03;1.6935482;0.009732120856216327;2;axe_xx1_0,axe_yy1_0,axe_xx1_1,axe_out_channels1_0;40;axe_xx2_2;28;X:1, Y:5, X:2, F:4, C:4, W:3, X:28, W:1, H:3, X:1, Y:9, C:32, F:32, ;169.58934545516968
43;1;MobilNet_03;0.3310586;0.004211523980698662;2;axe_xx1_0,axe_yy1_0,axe_xx1_1,axe_out_channels1_0,axe_xx1_2;1120;axe_xx2_0,axe_yy2_0,axe_xx2_1,axe_out_channels2_0,axe_xx2_2;224;X:1, Y:5, X:2, F:4, C:4, W:3, X:28, W:1, H:3, X:1, Y:9, C:32, F:32, ;171.72473335266113
44;0;MobilNet_03;1.7122582000000002;0.04968753685744548;2;axe_xx1_0,axe_yy1_0,axe_xx1_1,axe_out_channels1_0;40;axe_xx2_2;28;X:2, Y:5, X:1, F:4, C:4, W:3, X:28, W:1, H:3, X:1, Y:9, C:32, F:32, ;173.940447807312
44;1;MobilNet_03;0.3299981;0.004313258871201674;2;axe_xx1_0,axe_yy1_0,axe_xx1_1,axe_out_channels1_0,axe_xx1_2;1120;axe_xx2_0,axe_yy2_0,axe_xx2_1,axe_out_channels2_0,axe_xx2_2;224;X:2, Y:5, X:1, F:4, C:4, W:3, X:28, W:1, H:3, X:1, Y:9, C:32, F:32, ;176.07702159881592
45;0;MobilNet_03;0.4512535000000001;0.010624057645269065;1;axe_out_channels1_0,axe_out_channels1_1,axe_xx1_0,axe_yy1_0,axe_out_channels1_2;64;;;F:1, F:1, X:2, Y:4, F:8, C:4, W:3, X:28, W:1, H:3, X:1, Y:14, C:32, F:16, ;177.8012890815735
45;1;MobilNet_03;0.299736;0.013544784627302124;1;axe_out_channels1_0,axe_out_channels1_1,axe_xx1_0,axe_yy1_0,axe_out_channels1_2,axe_xx1_1;1792;;;F:1, F:1, X:2, Y:4, F:8, C:4, W:3, X:28, W:1, H:3, X:1, Y:14, C:32, F:16, ;179.5106999874115
46;0;MobilNet_03;0.43943179999999993;0.006100346003301779;1;axe_out_channels1_0,axe_out_channels1_1,axe_xx1_0,axe_yy1_0,axe_out_channels1_2;64;;;F:1, F:2, X:2, Y:4, F:4, C:4, W:3, X:28, W:1, H:3, X:1, Y:14, C:32, F:16, ;181.23216319084167
46;1;MobilNet_03;0.2964359;0.010763984498781113;1;axe_out_channels1_0,axe_out_channels1_1,axe_xx1_0,axe_yy1_0,axe_out_channels1_2,axe_xx1_1;1792;;;F:1, F:2, X:2, Y:4, F:4, C:4, W:3, X:28, W:1, H:3, X:1, Y:14, C:32, F:16, ;182.94122123718262
47;0;MobilNet_03;0.37589870000000003;0.005897582539481742;1;axe_out_channels1_0,axe_out_channels1_1,axe_xx1_0,axe_yy1_0,axe_out_channels1_2;64;;;F:1, F:4, X:2, Y:4, F:2, C:4, W:3, X:28, W:1, H:3, X:1, Y:14, C:32, F:16, ;184.66249775886536
47;1;MobilNet_03;0.28790330000000003;0.008495738485264238;1;axe_out_channels1_0,axe_out_channels1_1,axe_xx1_0,axe_yy1_0,axe_out_channels1_2,axe_xx1_1;1792;;;F:1, F:4, X:2, Y:4, F:2, C:4, W:3, X:28, W:1, H:3, X:1, Y:14, C:32, F:16, ;186.38153195381165
48;0;MobilNet_03;0.3820579;0.019913079568213445;1;axe_out_channels1_0,axe_out_channels1_1,axe_xx1_0,axe_yy1_0,axe_out_channels1_2;64;;;F:1, F:8, X:2, Y:4, F:1, C:4, W:3, X:28, W:1, H:3, X:1, Y:14, C:32, F:16, ;188.11780214309692
48;1;MobilNet_03;0.29152169999999994;0.007107002702264859;1;axe_out_channels1_0,axe_out_channels1_1,axe_xx1_0,axe_yy1_0,axe_out_channels1_2,axe_xx1_1;1792;;;F:1, F:8, X:2, Y:4, F:1, C:4, W:3, X:28, W:1, H:3, X:1, Y:14, C:32, F:16, ;189.83100605010986
49;0;MobilNet_03;0.44729329999999995;0.01000380485665328;1;axe_out_channels1_0,axe_out_channels1_1,axe_xx1_0,axe_yy1_0,axe_out_channels1_2;64;;;F:2, F:1, X:2, Y:4, F:4, C:4, W:3, X:28, W:1, H:3, X:1, Y:14, C:32, F:16, ;191.55578446388245
49;1;MobilNet_03;0.2933454;0.0076522109902955595;1;axe_out_channels1_0,axe_out_channels1_1,axe_xx1_0,axe_yy1_0,axe_out_channels1_2,axe_xx1_1;1792;;;F:2, F:1, X:2, Y:4, F:4, C:4, W:3, X:28, W:1, H:3, X:1, Y:14, C:32, F:16, ;193.27059817314148
50;0;MobilNet_03;0.37533110000000003;0.004693876595097068;1;axe_out_channels1_0,axe_out_channels1_1,axe_xx1_0,axe_yy1_0,axe_out_channels1_2;64;;;F:2, F:2, X:2, Y:4, F:2, C:4, W:3, X:28, W:1, H:3, X:1, Y:14, C:32, F:16, ;194.98878002166748
50;1;MobilNet_03;0.28949840000000004;0.007140061193015087;1;axe_out_channels1_0,axe_out_channels1_1,axe_xx1_0,axe_yy1_0,axe_out_channels1_2,axe_xx1_1;1792;;;F:2, F:2, X:2, Y:4, F:2, C:4, W:3, X:28, W:1, H:3, X:1, Y:14, C:32, F:16, ;196.70387840270996
51;0;MobilNet_03;0.37368619999999997;0.0025032279880186775;1;axe_out_channels1_0,axe_out_channels1_1,axe_xx1_0,axe_yy1_0,axe_out_channels1_2;64;;;F:2, F:4, X:2, Y:4, F:1, C:4, W:3, X:28, W:1, H:3, X:1, Y:14, C:32, F:16, ;198.4341311454773
51;1;MobilNet_03;0.29219919999999994;0.008817983236545637;1;axe_out_channels1_0,axe_out_channels1_1,axe_xx1_0,axe_yy1_0,axe_out_channels1_2,axe_xx1_1;1792;;;F:2, F:4, X:2, Y:4, F:1, C:4, W:3, X:28, W:1, H:3, X:1, Y:14, C:32, F:16, ;200.14497756958008
52;0;MobilNet_03;0.3784499;0.004914537159285707;1;axe_out_channels1_0,axe_out_channels1_1,axe_xx1_0,axe_yy1_0,axe_out_channels1_2;64;;;F:4, F:1, X:2, Y:4, F:2, C:4, W:3, X:28, W:1, H:3, X:1, Y:14, C:32, F:16, ;201.86401224136353
52;1;MobilNet_03;0.2915842;0.006263883536592938;1;axe_out_channels1_0,axe_out_channels1_1,axe_xx1_0,axe_yy1_0,axe_out_channels1_2,axe_xx1_1;1792;;;F:4, F:1, X:2, Y:4, F:2, C:4, W:3, X:28, W:1, H:3, X:1, Y:14, C:32, F:16, ;203.577734708786
53;0;MobilNet_03;0.3849508;0.019794107596959248;1;axe_out_channels1_0,axe_out_channels1_1,axe_xx1_0,axe_yy1_0,axe_out_channels1_2;64;;;F:4, F:2, X:2, Y:4, F:1, C:4, W:3, X:28, W:1, H:3, X:1, Y:14, C:32, F:16, ;205.30998611450195
53;1;MobilNet_03;0.2863043;0.002462589167928753;1;axe_out_channels1_0,axe_out_channels1_1,axe_xx1_0,axe_yy1_0,axe_out_channels1_2,axe_xx1_1;1792;;;F:4, F:2, X:2, Y:4, F:1, C:4, W:3, X:28, W:1, H:3, X:1, Y:14, C:32, F:16, ;207.02084732055664
54;0;MobilNet_03;0.3888276;0.022685142138412967;1;axe_out_channels1_0,axe_out_channels1_1,axe_xx1_0,axe_yy1_0,axe_out_channels1_2;64;;;F:8, F:1, X:2, Y:4, F:1, C:4, W:3, X:28, W:1, H:3, X:1, Y:14, C:32, F:16, ;208.74896430969238
54;1;MobilNet_03;0.29640900000000003;0.009232039839602071;1;axe_out_channels1_0,axe_out_channels1_1,axe_xx1_0,axe_yy1_0,axe_out_channels1_2,axe_xx1_1;1792;;;F:8, F:1, X:2, Y:4, F:1, C:4, W:3, X:28, W:1, H:3, X:1, Y:14, C:32, F:16, ;210.45965313911438
55;0;MobilNet_03;0.5926289;0.016417598000012048;1;axe_out_channels1_0,axe_out_channels1_1,axe_xx1_0,axe_yy1_0,axe_out_channels1_2;64;;;F:1, F:1, X:2, Y:4, F:8, C:8, W:3, X:28, W:1, H:3, X:1, Y:14, C:16, F:16, ;212.18493247032166
55;1;MobilNet_03;0.294108;0.0009153421218320514;1;axe_out_channels1_0,axe_out_channels1_1,axe_xx1_0,axe_yy1_0,axe_out_channels1_2,axe_xx1_1;1792;;;F:1, F:1, X:2, Y:4, F:8, C:8, W:3, X:28, W:1, H:3, X:1, Y:14, C:16, F:16, ;213.90037727355957
56;0;MobilNet_03;0.5932312;0.013591768860600874;1;axe_out_channels1_0,axe_out_channels1_1,axe_xx1_0,axe_yy1_0,axe_out_channels1_2;64;;;F:1, F:2, X:2, Y:4, F:4, C:8, W:3, X:28, W:1, H:3, X:1, Y:14, C:16, F:16, ;215.62352919578552
56;1;MobilNet_03;0.2980798;0.0024827791605376427;1;axe_out_channels1_0,axe_out_channels1_1,axe_xx1_0,axe_yy1_0,axe_out_channels1_2,axe_xx1_1;1792;;;F:1, F:2, X:2, Y:4, F:4, C:8, W:3, X:28, W:1, H:3, X:1, Y:14, C:16, F:16, ;217.33875250816345
57;0;MobilNet_03;0.46321020000000007;0.009440053631203586;1;axe_out_channels1_0,axe_out_channels1_1,axe_xx1_0,axe_yy1_0,axe_out_channels1_2;64;;;F:1, F:4, X:2, Y:4, F:2, C:8, W:3, X:28, W:1, H:3, X:1, Y:14, C:16, F:16, ;219.05854725837708
57;1;MobilNet_03;0.29542440000000003;0.004467610081464136;1;axe_out_channels1_0,axe_out_channels1_1,axe_xx1_0,axe_yy1_0,axe_out_channels1_2,axe_xx1_1;1792;;;F:1, F:4, X:2, Y:4, F:2, C:8, W:3, X:28, W:1, H:3, X:1, Y:14, C:16, F:16, ;220.77514243125916
58;0;MobilNet_03;0.46200339999999995;0.023381050345097822;1;axe_out_channels1_0,axe_out_channels1_1,axe_xx1_0,axe_yy1_0,axe_out_channels1_2;64;;;F:1, F:8, X:2, Y:4, F:1, C:8, W:3, X:28, W:1, H:3, X:1, Y:14, C:16, F:16, ;222.5045623779297
58;1;MobilNet_03;0.2975088;0.00751089216804503;1;axe_out_channels1_0,axe_out_channels1_1,axe_xx1_0,axe_yy1_0,axe_out_channels1_2,axe_xx1_1;1792;;;F:1, F:8, X:2, Y:4, F:1, C:8, W:3, X:28, W:1, H:3, X:1, Y:14, C:16, F:16, ;224.22592210769653
59;0;MobilNet_03;0.6057059;0.013981927781604377;1;axe_out_channels1_0,axe_out_channels1_1,axe_xx1_0,axe_yy1_0,axe_out_channels1_2;64;;;F:2, F:1, X:2, Y:4, F:4, C:8, W:3, X:28, W:1, H:3, X:1, Y:14, C:16, F:16, ;225.9526493549347
59;1;MobilNet_03;0.3105572;0.010431998723159433;1;axe_out_channels1_0,axe_out_channels1_1,axe_xx1_0,axe_yy1_0,axe_out_channels1_2,axe_xx1_1;1792;;;F:2, F:1, X:2, Y:4, F:4, C:8, W:3, X:28, W:1, H:3, X:1, Y:14, C:16, F:16, ;227.66553378105164
60;0;MobilNet_03;0.4600681000000001;0.010486286410832013;1;axe_out_channels1_0,axe_out_channels1_1,axe_xx1_0,axe_yy1_0,axe_out_channels1_2;64;;;F:2, F:2, X:2, Y:4, F:2, C:8, W:3, X:28, W:1, H:3, X:1, Y:14, C:16, F:16, ;229.4077205657959
60;1;MobilNet_03;0.29371420000000004;0.0013800416515453526;1;axe_out_channels1_0,axe_out_channels1_1,axe_xx1_0,axe_yy1_0,axe_out_channels1_2,axe_xx1_1;1792;;;F:2, F:2, X:2, Y:4, F:2, C:8, W:3, X:28, W:1, H:3, X:1, Y:14, C:16, F:16, ;231.12441301345825
61;0;MobilNet_03;0.4704853;0.02979413673208204;1;axe_out_channels1_0,axe_out_channels1_1,axe_xx1_0,axe_yy1_0,axe_out_channels1_2;64;;;F:2, F:4, X:2, Y:4, F:1, C:8, W:3, X:28, W:1, H:3, X:1, Y:14, C:16, F:16, ;232.85216689109802
61;1;MobilNet_03;0.29482990000000003;0.005225205994982404;1;axe_out_channels1_0,axe_out_channels1_1,axe_xx1_0,axe_yy1_0,axe_out_channels1_2,axe_xx1_1;1792;;;F:2, F:4, X:2, Y:4, F:1, C:8, W:3, X:28, W:1, H:3, X:1, Y:14, C:16, F:16, ;234.5612370967865
62;0;MobilNet_03;0.4554759;0.009233117430748953;1;axe_out_channels1_0,axe_out_channels1_1,axe_xx1_0,axe_yy1_0,axe_out_channels1_2;64;;;F:4, F:1, X:2, Y:4, F:2, C:8, W:3, X:28, W:1, H:3, X:1, Y:14, C:16, F:16, ;236.28472995758057
62;1;MobilNet_03;0.30090480000000003;0.007253425160570695;1;axe_out_channels1_0,axe_out_channels1_1,axe_xx1_0,axe_yy1_0,axe_out_channels1_2,axe_xx1_1;1792;;;F:4, F:1, X:2, Y:4, F:2, C:8, W:3, X:28, W:1, H:3, X:1, Y:14, C:16, F:16, ;237.99617862701416
63;0;MobilNet_03;0.4474314;0.00840974807232655;1;axe_out_channels1_0,axe_out_channels1_1,axe_xx1_0,axe_yy1_0,axe_out_channels1_2;64;;;F:4, F:2, X:2, Y:4, F:1, C:8, W:3, X:28, W:1, H:3, X:1, Y:14, C:16, F:16, ;239.72427678108215
63;1;MobilNet_03;0.30630979999999997;0.01020320226987588;1;axe_out_channels1_0,axe_out_channels1_1,axe_xx1_0,axe_yy1_0,axe_out_channels1_2,axe_xx1_1;1792;;;F:4, F:2, X:2, Y:4, F:1, C:8, W:3, X:28, W:1, H:3, X:1, Y:14, C:16, F:16, ;241.4345691204071
64;0;MobilNet_03;0.4481011;0.006716484905811978;1;axe_out_channels1_0,axe_out_channels1_1,axe_xx1_0,axe_yy1_0,axe_out_channels1_2;64;;;F:8, F:1, X:2, Y:4, F:1, C:8, W:3, X:28, W:1, H:3, X:1, Y:14, C:16, F:16, ;243.16607761383057
64;1;MobilNet_03;0.29905349999999997;0.008156265190024164;1;axe_out_channels1_0,axe_out_channels1_1,axe_xx1_0,axe_yy1_0,axe_out_channels1_2,axe_xx1_1;1792;;;F:8, F:1, X:2, Y:4, F:1, C:8, W:3, X:28, W:1, H:3, X:1, Y:14, C:16, F:16, ;244.8766086101532
65;0;MobilNet_03;0.333913;0.003545289494526502;1;axe_yy1_0,axe_xx1_0,axe_out_channels1_0;56;;;Y:14, X:2, F:2, C:1, H:3, X:28, W:3, H:1, X:1, Y:4, C:128, F:64, ;246.57525658607483
65;1;MobilNet_03;0.284888;0.0012519414523051683;1;axe_yy1_0,axe_xx1_0,axe_out_channels1_0,axe_xx1_1;1568;;;Y:14, X:2, F:2, C:1, H:3, X:28, W:3, H:1, X:1, Y:4, C:128, F:64, ;248.26968789100647
66;0;MobilNet_03;0.3825683999999999;0.009167783049352785;1;axe_yy1_0,axe_xx1_0,axe_out_channels1_0;56;;;Y:14, X:2, F:2, C:4, H:3, X:28, W:3, H:1, X:1, Y:4, C:32, F:64, ;249.9739806652069
66;1;MobilNet_03;0.2893536;0.0022891543940940294;1;axe_yy1_0,axe_xx1_0,axe_out_channels1_0,axe_xx1_1;1568;;;Y:14, X:2, F:2, C:4, H:3, X:28, W:3, H:1, X:1, Y:4, C:32, F:64, ;251.6771101951599
67;0;MobilNet_03;1.0794975999999998;0.004454344602744571;2;axe_xx1_1;56;axe_xx2_1;56;Y:7, X:1, F:2, C:1, H:3, X:56, W:3, H:1, X:1, Y:6, C:128, F:64, ;253.87899112701416
67;1;MobilNet_03;0.34785370000000004;0.001022670821916811;2;axe_yy1_0,axe_xx1_0,axe_out_channels1_0,axe_xx1_1;784;axe_yy2_0,axe_xx2_0,axe_out_channels2_0,axe_xx2_1;224;Y:7, X:1, F:2, C:1, H:3, X:56, W:3, H:1, X:1, Y:6, C:128, F:64, ;256.0205433368683
68;0;MobilNet_03;0.9378519999999998;0.006615645637426473;2;axe_xx1_0,axe_yy1_0,axe_xx1_1,axe_out_channels1_0;16;axe_xx2_0,axe_yy2_0,axe_xx2_1,axe_out_channels2_0;48;X:1, Y:1, X:4, F:4, C:4, W:3, X:14, H:3, W:1, H:1, X:1, Y:11, C:32, F:32, ;257.90867924690247
68;1;MobilNet_03;0.5401977;0.003195684654342492;2;axe_xx1_0,axe_yy1_0,axe_xx1_1,axe_out_channels1_0,axe_xx1_2;224;axe_xx2_0,axe_yy2_0,axe_xx2_1,axe_out_channels2_0,axe_xx2_2;672;X:1, Y:1, X:4, F:4, C:4, W:3, X:14, H:3, W:1, H:1, X:1, Y:11, C:32, F:32, ;259.7823417186737
69;0;MobilNet_03;0.9362314999999999;0.003006247769229937;2;axe_xx1_0,axe_yy1_0,axe_xx1_1,axe_out_channels1_0;16;axe_xx2_0,axe_yy2_0,axe_xx2_1,axe_out_channels2_0;48;X:2, Y:1, X:2, F:4, C:4, W:3, X:14, H:3, W:1, H:1, X:1, Y:11, C:32, F:32, ;261.67142510414124
69;1;MobilNet_03;0.5457794;0.009237667326766022;2;axe_xx1_0,axe_yy1_0,axe_xx1_1,axe_out_channels1_0,axe_xx1_2;224;axe_xx2_0,axe_yy2_0,axe_xx2_1,axe_out_channels2_0,axe_xx2_2;672;X:2, Y:1, X:2, F:4, C:4, W:3, X:14, H:3, W:1, H:1, X:1, Y:11, C:32, F:32, ;263.5429003238678
70;0;MobilNet_03;0.9399363999999999;0.00473373937178633;2;axe_xx1_0,axe_yy1_0,axe_xx1_1,axe_out_channels1_0;16;axe_xx2_0,axe_yy2_0,axe_xx2_1,axe_out_channels2_0;48;X:4, Y:1, X:1, F:4, C:4, W:3, X:14, H:3, W:1, H:1, X:1, Y:11, C:32, F:32, ;265.46016669273376
70;1;MobilNet_03;0.5400232;0.0034417019859366207;2;axe_xx1_0,axe_yy1_0,axe_xx1_1,axe_out_channels1_0,axe_xx1_2;224;axe_xx2_0,axe_yy2_0,axe_xx2_1,axe_out_channels2_0,axe_xx2_2;672;X:4, Y:1, X:1, F:4, C:4, W:3, X:14, H:3, W:1, H:1, X:1, Y:11, C:32, F:32, ;267.3289158344269
71;0;MobilNet_03;1.176141;0.00799738619800247;2;axe_xx1_1;56;axe_xx2_1;56;Y:7, X:1, F:2, C:1, H:3, X:56, W:3, H:1, X:1, Y:5, C:128, F:64, ;269.5238435268402
71;1;MobilNet_03;0.37458139999999995;0.002049827417125638;2;axe_yy1_0,axe_xx1_0,axe_out_channels1_0,axe_xx1_1;784;axe_yy2_0,axe_xx2_0,axe_out_channels2_0,axe_xx2_1;336;Y:7, X:1, F:2, C:1, H:3, X:56, W:3, H:1, X:1, Y:5, C:128, F:64, ;271.64899945259094
72;0;MobilNet_03;1.2698326000000002;0.013409333288422679;2;axe_xx1_1;56;axe_xx2_1;56;Y:7, X:1, F:2, C:1, H:3, X:56, W:3, H:1, X:1, Y:4, C:128, F:64, ;273.83516216278076
72;1;MobilNet_03;0.3912597;0.0012582214471228814;2;axe_yy1_0,axe_xx1_0,axe_out_channels1_0,axe_xx1_1;784;axe_yy2_0,axe_xx2_0,axe_out_channels2_0,axe_xx2_1;448;Y:7, X:1, F:2, C:1, H:3, X:56, W:3, H:1, X:1, Y:4, C:128, F:64, ;275.96459341049194
73;0;MobilNet_03;1.1060740999999998;0.004086870158201781;2;axe_yy1_0,axe_xx1_0,axe_out_channels1_0;28;axe_xx2_1;28;Y:7, X:2, F:2, C:2, H:3, X:28, W:3, H:1, X:1, Y:6, C:64, F:64, ;278.17118287086487
73;1;MobilNet_03;0.34614649999999997;0.0039003298129773748;2;axe_yy1_0,axe_xx1_0,axe_out_channels1_0,axe_xx1_1;784;axe_yy2_0,axe_xx2_0,axe_out_channels2_0,axe_xx2_1;224;Y:7, X:2, F:2, C:2, H:3, X:28, W:3, H:1, X:1, Y:6, C:64, F:64, ;280.3562660217285
74;0;MobilNet_03;3.9675094;0.032505807810912765;1;axe_xx1_1;56;;;Y:14, X:1, F:2, C:4, H:3, X:56, W:3, H:1, X:1, Y:4, C:32, F:64, ;282.2314121723175
74;1;MobilNet_03;0.3031698;0.0018064883503637638;1;axe_yy1_0,axe_xx1_0,axe_out_channels1_0,axe_xx1_1;1568;;;Y:14, X:1, F:2, C:4, H:3, X:56, W:3, H:1, X:1, Y:4, C:32, F:64, ;283.92855191230774
75;0;MobilNet_03;0.791489;0.003778410194777721;2;axe_yy1_0,axe_xx1_0,axe_out_channels1_0;28;axe_xx2_1;28;Y:7, X:2, F:2, C:1, H:3, X:28, W:3, H:1, X:1, Y:6, C:128, F:64, ;286.1205904483795
75;1;MobilNet_03;0.3515507;0.0014447099397456927;2;axe_yy1_0,axe_xx1_0,axe_out_channels1_0,axe_xx1_1;784;axe_yy2_0,axe_xx2_0,axe_out_channels2_0,axe_xx2_1;224;Y:7, X:2, F:2, C:1, H:3, X:28, W:3, H:1, X:1, Y:6, C:128, F:64, ;288.2704396247864
76;0;MobilNet_03;0.7479145000000001;0.00856063640449702;1;axe_yy1_0,axe_xx1_0,axe_out_channels1_0;32;;;Y:8, X:2, F:2, C:4, H:3, X:28, W:3, H:1, X:1, Y:7, C:32, F:64, ;290.02158975601196
76;1;MobilNet_03;0.46357839999999995;0.02997665269238712;1;axe_yy1_0,axe_xx1_0,axe_out_channels1_0,axe_xx1_1;896;;;Y:8, X:2, F:2, C:4, H:3, X:28, W:3, H:1, X:1, Y:7, C:32, F:64, ;291.7619652748108
77;0;MobilNet_03;1.3709754;0.003749400544086999;2;axe_yy1_0,axe_xx1_0,axe_out_channels1_0;28;axe_xx2_1;28;Y:7, X:2, F:2, C:2, H:3, X:28, W:3, H:1, X:1, Y:5, C:64, F:64, ;293.9711751937866
77;1;MobilNet_03;0.3582504;0.0010871665189840939;2;axe_yy1_0,axe_xx1_0,axe_out_channels1_0,axe_xx1_1;784;axe_yy2_0,axe_xx2_0,axe_out_channels2_0,axe_xx2_1;336;Y:7, X:2, F:2, C:2, H:3, X:28, W:3, H:1, X:1, Y:5, C:64, F:64, ;296.1140830516815
78;0;MobilNet_03;0.3364374;0.0006869859096080553;1;axe_yy1_0,axe_xx1_0,axe_out_channels1_0;64;;;Y:8, X:4, F:2, C:1, H:3, X:14, W:3, H:1, X:1, Y:7, C:128, F:64, ;297.84289717674255
78;1;MobilNet_03;0.38418640000000004;0.0009168686056355012;1;axe_yy1_0,axe_xx1_0,axe_out_channels1_0,axe_xx1_1;896;;;Y:8, X:4, F:2, C:1, H:3, X:14, W:3, H:1, X:1, Y:7, C:128, F:64, ;299.57829427719116
79;0;MobilNet_03;0.39025030000000005;0.0034657472801691612;1;axe_yy1_0,axe_xx1_0,axe_out_channels1_0;64;;;Y:8, X:4, F:2, C:4, W:3, X:14, H:3, W:1, H:1, X:1, Y:7, C:32, F:64, ;301.2977683544159
79;1;MobilNet_03;0.37334119999999993;0.001333557932749835;1;axe_yy1_0,axe_xx1_0,axe_out_channels1_0,axe_xx1_1;896;;;Y:8, X:4, F:2, C:4, W:3, X:14, H:3, W:1, H:1, X:1, Y:7, C:32, F:64, ;303.00466537475586
80;0;MobilNet_03;0.6205127000000001;0.002983439359196017;1;axe_yy1_0,axe_xx1_0,axe_out_channels1_0;64;;;Y:8, X:4, F:2, C:4, W:3, X:14, W:1, H:3, X:1, Y:7, C:32, F:64, ;304.74258279800415
80;1;MobilNet_03;0.5913009;0.011174294979550158;1;axe_yy1_0,axe_xx1_0,axe_out_channels1_0,axe_xx1_1;896;;;Y:8, X:4, F:2, C:4, W:3, X:14, W:1, H:3, X:1, Y:7, C:32, F:64, ;306.48400950431824
81;0;MobilNet_03;0.3701676;0.0065325379631503075;1;axe_yy1_0,axe_xx1_0,axe_out_channels1_0;64;;;Y:8, X:4, F:2, C:4, H:3, X:14, W:3, H:1, X:1, Y:7, C:32, F:64, ;308.2163829803467
81;1;MobilNet_03;0.382316;0.01216791950170611;1;axe_yy1_0,axe_xx1_0,axe_out_channels1_0,axe_xx1_1;896;;;Y:8, X:4, F:2, C:4, H:3, X:14, W:3, H:1, X:1, Y:7, C:32, F:64, ;309.9505307674408
82;0;MobilNet_03;0.46082609999999996;0.003357145944101927;1;axe_yy1_0,axe_xx1_0,axe_out_channels1_0;64;;;Y:8, X:4, F:2, C:8, W:3, X:14, H:3, W:1, H:1, X:1, Y:7, C:16, F:64, ;311.66285848617554
82;1;MobilNet_03;0.4180363000000001;0.0010174158491000687;1;axe_yy1_0,axe_xx1_0,axe_out_channels1_0,axe_xx1_1;896;;;Y:8, X:4, F:2, C:8, W:3, X:14, H:3, W:1, H:1, X:1, Y:7, C:16, F:64, ;313.3748302459717
83;0;MobilNet_03;0.6742337;0.010086790114302944;1;axe_yy1_0,axe_xx1_0,axe_out_channels1_0;64;;;Y:8, X:4, F:2, C:8, W:3, X:14, W:1, H:3, X:1, Y:7, C:16, F:64, ;315.1169857978821
83;1;MobilNet_03;0.5840117;0.008036940401048149;1;axe_yy1_0,axe_xx1_0,axe_out_channels1_0,axe_xx1_1;896;;;Y:8, X:4, F:2, C:8, W:3, X:14, W:1, H:3, X:1, Y:7, C:16, F:64, ;316.8607921600342
84;0;MobilNet_03;0.9667781999999999;0.0021785744788737496;2;axe_yy1_0,axe_xx1_0,axe_out_channels1_0;28;axe_xx2_1;28;Y:7, X:2, F:2, C:1, H:3, X:28, W:3, H:1, X:1, Y:5, C:128, F:64, ;319.0426468849182
84;1;MobilNet_03;0.376101;0.0035801089927542705;2;axe_yy1_0,axe_xx1_0,axe_out_channels1_0,axe_xx1_1;784;axe_yy2_0,axe_xx2_0,axe_out_channels2_0,axe_xx2_1;336;Y:7, X:2, F:2, C:1, H:3, X:28, W:3, H:1, X:1, Y:5, C:128, F:64, ;321.17912554740906
85;0;MobilNet_03;1.1320131999999998;0.003927838026192008;2;axe_yy1_0,axe_xx1_0,axe_out_channels1_0;28;axe_xx2_1;28;Y:7, X:2, F:2, C:1, H:3, X:28, W:3, H:1, X:1, Y:4, C:128, F:64, ;323.36461091041565
85;1;MobilNet_03;0.3930403;0.0012545685353937584;2;axe_yy1_0,axe_xx1_0,axe_out_channels1_0,axe_xx1_1;784;axe_yy2_0,axe_xx2_0,axe_out_channels2_0,axe_xx2_1;448;Y:7, X:2, F:2, C:1, H:3, X:28, W:3, H:1, X:1, Y:4, C:128, F:64, ;325.49052119255066
86;0;MobilNet_03;0.7236103;0.007337611287742067;2;axe_xx1_0,axe_yy1_0,axe_xx1_1,axe_out_channels1_0;32;axe_xx2_0,axe_yy2_0,axe_xx2_1,axe_out_channels2_0;48;X:1, Y:2, X:4, F:4, C:4, W:3, X:14, H:3, W:1, H:1, X:1, Y:10, C:32, F:32, ;327.6285443305969
86;1;MobilNet_03;0.40096360000000003;0.005962786684093268;2;axe_xx1_0,axe_yy1_0,axe_xx1_1,axe_out_channels1_0,axe_xx1_2;448;axe_xx2_0,axe_yy2_0,axe_xx2_1,axe_out_channels2_0,axe_xx2_2;672;X:1, Y:2, X:4, F:4, C:4, W:3, X:14, H:3, W:1, H:1, X:1, Y:10, C:32, F:32, ;329.7526650428772
87;0;MobilNet_03;0.7200963;0.004384780360519787;2;axe_xx1_0,axe_yy1_0,axe_xx1_1,axe_out_channels1_0;32;axe_xx2_0,axe_yy2_0,axe_xx2_1,axe_out_channels2_0;48;X:2, Y:2, X:2, F:4, C:4, W:3, X:14, H:3, W:1, H:1, X:1, Y:10, C:32, F:32, ;331.8981146812439
87;1;MobilNet_03;0.40205250000000003;0.007612949221556649;2;axe_xx1_0,axe_yy1_0,axe_xx1_1,axe_out_channels1_0,axe_xx1_2;448;axe_xx2_0,axe_yy2_0,axe_xx2_1,axe_out_channels2_0,axe_xx2_2;672;X:2, Y:2, X:2, F:4, C:4, W:3, X:14, H:3, W:1, H:1, X:1, Y:10, C:32, F:32, ;334.0228292942047
88;0;MobilNet_03;0.7217927;0.005618924684492571;2;axe_xx1_0,axe_yy1_0,axe_xx1_1,axe_out_channels1_0;32;axe_xx2_0,axe_yy2_0,axe_xx2_1,axe_out_channels2_0;48;X:4, Y:2, X:1, F:4, C:4, W:3, X:14, H:3, W:1, H:1, X:1, Y:10, C:32, F:32, ;336.1630117893219
88;1;MobilNet_03;0.40204000000000006;0.009853152074336412;2;axe_xx1_0,axe_yy1_0,axe_xx1_1,axe_out_channels1_0,axe_xx1_2;448;axe_xx2_0,axe_yy2_0,axe_xx2_1,axe_out_channels2_0,axe_xx2_2;672;X:4, Y:2, X:1, F:4, C:4, W:3, X:14, H:3, W:1, H:1, X:1, Y:10, C:32, F:32, ;338.2800350189209
89;0;MobilNet_03;0.7576807;0.007946922197303823;2;axe_xx1_0,axe_yy1_0,axe_xx1_1,axe_out_channels1_0;48;axe_xx2_0,axe_yy2_0,axe_xx2_1,axe_out_channels2_0;32;X:1, Y:3, X:4, F:4, C:4, W:3, X:14, H:3, W:1, H:1, X:1, Y:10, C:32, F:32, ;340.42982602119446
89;1;MobilNet_03;0.39689430000000003;0.002528621721412681;2;axe_xx1_0,axe_yy1_0,axe_xx1_1,axe_out_channels1_0,axe_xx1_2;672;axe_xx2_0,axe_yy2_0,axe_xx2_1,axe_out_channels2_0,axe_xx2_2;448;X:1, Y:3, X:4, F:4, C:4, W:3, X:14, H:3, W:1, H:1, X:1, Y:10, C:32, F:32, ;342.5588626861572
90;0;MobilNet_03;0.7592782;0.0036664103643754666;2;axe_xx1_0,axe_yy1_0,axe_xx1_1,axe_out_channels1_0;48;axe_xx2_0,axe_yy2_0,axe_xx2_1,axe_out_channels2_0;32;X:2, Y:3, X:2, F:4, C:4, W:3, X:14, H:3, W:1, H:1, X:1, Y:10, C:32, F:32, ;344.7079498767853
90;1;MobilNet_03;0.398702;0.0027960601209559297;2;axe_xx1_0,axe_yy1_0,axe_xx1_1,axe_out_channels1_0,axe_xx1_2;672;axe_xx2_0,axe_yy2_0,axe_xx2_1,axe_out_channels2_0,axe_xx2_2;448;X:2, Y:3, X:2, F:4, C:4, W:3, X:14, H:3, W:1, H:1, X:1, Y:10, C:32, F:32, ;346.8394567966461
91;0;MobilNet_03;0.7634279;0.005558814719884077;2;axe_xx1_0,axe_yy1_0,axe_xx1_1,axe_out_channels1_0;48;axe_xx2_0,axe_yy2_0,axe_xx2_1,axe_out_channels2_0;32;X:4, Y:3, X:1, F:4, C:4, W:3, X:14, H:3, W:1, H:1, X:1, Y:10, C:32, F:32, ;348.98624873161316
91;1;MobilNet_03;0.3974353;0.001792808414192653;2;axe_xx1_0,axe_yy1_0,axe_xx1_1,axe_out_channels1_0,axe_xx1_2;672;axe_xx2_0,axe_yy2_0,axe_xx2_1,axe_out_channels2_0,axe_xx2_2;448;X:4, Y:3, X:1, F:4, C:4, W:3, X:14, H:3, W:1, H:1, X:1, Y:10, C:32, F:32, ;351.1148724555969
92;0;MobilNet_03;0.7630589999999999;0.0106466451241694;2;axe_xx1_0,axe_yy1_0,axe_xx1_1,axe_out_channels1_0;64;axe_xx2_0,axe_yy2_0,axe_xx2_1,axe_out_channels2_0;16;X:1, Y:4, X:4, F:4, C:4, W:3, X:14, H:3, W:1, H:1, X:1, Y:11, C:32, F:32, ;353.2464346885681
92;1;MobilNet_03;0.38593350000000004;0.004113111456063399;2;axe_xx1_0,axe_yy1_0,axe_xx1_1,axe_out_channels1_0,axe_xx1_2;896;axe_xx2_0,axe_yy2_0,axe_xx2_1,axe_out_channels2_0,axe_xx2_2;224;X:1, Y:4, X:4, F:4, C:4, W:3, X:14, H:3, W:1, H:1, X:1, Y:11, C:32, F:32, ;355.3586184978485
93;0;MobilNet_03;0.7686003000000001;0.006150678906429744;2;axe_xx1_0,axe_yy1_0,axe_xx1_1,axe_out_channels1_0;64;axe_xx2_0,axe_yy2_0,axe_xx2_1,axe_out_channels2_0;16;X:2, Y:4, X:2, F:4, C:4, W:3, X:14, H:3, W:1, H:1, X:1, Y:11, C:32, F:32, ;357.48960161209106
93;1;MobilNet_03;0.38319139999999996;0.00221157207433989;2;axe_xx1_0,axe_yy1_0,axe_xx1_1,axe_out_channels1_0,axe_xx1_2;896;axe_xx2_0,axe_yy2_0,axe_xx2_1,axe_out_channels2_0,axe_xx2_2;224;X:2, Y:4, X:2, F:4, C:4, W:3, X:14, H:3, W:1, H:1, X:1, Y:11, C:32, F:32, ;359.6033351421356
94;0;MobilNet_03;0.7663494000000001;0.009595204981656167;2;axe_xx1_0,axe_yy1_0,axe_xx1_1,axe_out_channels1_0;64;axe_xx2_0,axe_yy2_0,axe_xx2_1,axe_out_channels2_0;16;X:4, Y:4, X:1, F:4, C:4, W:3, X:14, H:3, W:1, H:1, X:1, Y:11, C:32, F:32, ;361.7367260456085
94;1;MobilNet_03;0.3842515;0.0021306967522385714;2;axe_xx1_0,axe_yy1_0,axe_xx1_1,axe_out_channels1_0,axe_xx1_2;896;axe_xx2_0,axe_yy2_0,axe_xx2_1,axe_out_channels2_0,axe_xx2_2;224;X:4, Y:4, X:1, F:4, C:4, W:3, X:14, H:3, W:1, H:1, X:1, Y:11, C:32, F:32, ;363.8422248363495
95;0;MobilNet_03;0.8287502999999999;0.011243001201191812;2;axe_xx1_0,axe_yy1_0,axe_xx1_1,axe_out_channels1_0;32;axe_xx2_0,axe_yy2_0,axe_xx2_1,axe_out_channels2_0;48;X:1, Y:2, X:4, F:4, C:4, W:3, X:14, W:1, H:3, X:1, Y:10, C:32, F:32, ;366.00808906555176
95;1;MobilNet_03;0.3890125000000001;0.012635588971235172;2;axe_xx1_0,axe_yy1_0,axe_xx1_1,axe_out_channels1_0,axe_xx1_2;448;axe_xx2_0,axe_yy2_0,axe_xx2_1,axe_out_channels2_0,axe_xx2_2;672;X:1, Y:2, X:4, F:4, C:4, W:3, X:14, W:1, H:3, X:1, Y:10, C:32, F:32, ;368.1523771286011
96;0;MobilNet_03;0.839573;0.010054359442550268;2;axe_xx1_0,axe_yy1_0,axe_xx1_1,axe_out_channels1_0;32;axe_xx2_0,axe_yy2_0,axe_xx2_1,axe_out_channels2_0;48;X:2, Y:2, X:2, F:4, C:4, W:3, X:14, W:1, H:3, X:1, Y:10, C:32, F:32, ;370.32041573524475
96;1;MobilNet_03;0.3904123;0.01552861743395077;2;axe_xx1_0,axe_yy1_0,axe_xx1_1,axe_out_channels1_0,axe_xx1_2;448;axe_xx2_0,axe_yy2_0,axe_xx2_1,axe_out_channels2_0,axe_xx2_2;672;X:2, Y:2, X:2, F:4, C:4, W:3, X:14, W:1, H:3, X:1, Y:10, C:32, F:32, ;372.47665667533875
97;0;MobilNet_03;0.8345689999999999;0.012398120825350915;2;axe_xx1_0,axe_yy1_0,axe_xx1_1,axe_out_channels1_0;32;axe_xx2_0,axe_yy2_0,axe_xx2_1,axe_out_channels2_0;48;X:4, Y:2, X:1, F:4, C:4, W:3, X:14, W:1, H:3, X:1, Y:10, C:32, F:32, ;374.64352011680603
97;1;MobilNet_03;0.3871731;0.010897087046087125;2;axe_xx1_0,axe_yy1_0,axe_xx1_1,axe_out_channels1_0,axe_xx1_2;448;axe_xx2_0,axe_yy2_0,axe_xx2_1,axe_out_channels2_0,axe_xx2_2;672;X:4, Y:2, X:1, F:4, C:4, W:3, X:14, W:1, H:3, X:1, Y:10, C:32, F:32, ;376.79031324386597
98;0;MobilNet_03;0.8784172;0.02284937180668214;2;axe_xx1_0,axe_yy1_0,axe_xx1_1,axe_out_channels1_0;64;axe_xx2_0,axe_yy2_0,axe_xx2_1,axe_out_channels2_0;16;X:1, Y:4, X:4, F:4, C:4, W:3, X:14, W:1, H:3, X:1, Y:11, C:32, F:32, ;378.9622881412506
98;1;MobilNet_03;0.4125599999999999;0.020690954265088875;2;axe_xx1_0,axe_yy1_0,axe_xx1_1,axe_out_channels1_0,axe_xx1_2;896;axe_xx2_0,axe_yy2_0,axe_xx2_1,axe_out_channels2_0,axe_xx2_2;224;X:1, Y:4, X:4, F:4, C:4, W:3, X:14, W:1, H:3, X:1, Y:11, C:32, F:32, ;381.1214032173157
99;0;MobilNet_03;0.8750713000000001;0.014722830183426005;2;axe_xx1_0,axe_yy1_0,axe_xx1_1,axe_out_channels1_0;64;axe_xx2_0,axe_yy2_0,axe_xx2_1,axe_out_channels2_0;16;X:2, Y:4, X:2, F:4, C:4, W:3, X:14, W:1, H:3, X:1, Y:11, C:32, F:32, ;383.29617190361023
99;1;MobilNet_03;0.39961979999999997;0.014801366462593906;2;axe_xx1_0,axe_yy1_0,axe_xx1_1,axe_out_channels1_0,axe_xx1_2;896;axe_xx2_0,axe_yy2_0,axe_xx2_1,axe_out_channels2_0,axe_xx2_2;224;X:2, Y:4, X:2, F:4, C:4, W:3, X:14, W:1, H:3, X:1, Y:11, C:32, F:32, ;385.4789102077484
100;0;MobilNet_03;0.8550702000000001;0.008578419887135385;2;axe_xx1_0,axe_yy1_0,axe_xx1_1,axe_out_channels1_0;64;axe_xx2_0,axe_yy2_0,axe_xx2_1,axe_out_channels2_0;16;X:4, Y:4, X:1, F:4, C:4, W:3, X:14, W:1, H:3, X:1, Y:11, C:32, F:32, ;387.65131425857544
100;1;MobilNet_03;0.4075691;0.010535421960700004;2;axe_xx1_0,axe_yy1_0,axe_xx1_1,axe_out_channels1_0,axe_xx1_2;896;axe_xx2_0,axe_yy2_0,axe_xx2_1,axe_out_channels2_0,axe_xx2_2;224;X:4, Y:4, X:1, F:4, C:4, W:3, X:14, W:1, H:3, X:1, Y:11, C:32, F:32, ;389.8023180961609
101;0;MobilNet_03;1.6747114;0.007350683317896359;2;axe_yy1_0,axe_xx1_0,axe_out_channels1_0;28;axe_xx2_1;28;Y:7, X:2, F:2, C:2, H:3, X:28, W:3, H:1, X:1, Y:4, C:64, F:64, ;392.0162396430969
101;1;MobilNet_03;0.3926383;0.007066398545935558;2;axe_yy1_0,axe_xx1_0,axe_out_channels1_0,axe_xx1_1;784;axe_yy2_0,axe_xx2_0,axe_out_channels2_0,axe_xx2_1;448;Y:7, X:2, F:2, C:2, H:3, X:28, W:3, H:1, X:1, Y:4, C:64, F:64, ;394.15441846847534
102;0;MobilNet_03;0.3500651;0.004691545639765211;1;axe_yy1_0,axe_xx1_0,axe_out_channels1_0;56;;;Y:14, X:2, F:2, C:2, H:3, X:28, W:3, H:1, X:1, Y:4, C:64, F:64, ;395.86437702178955
102;1;MobilNet_03;0.29030449999999997;0.004253680647392321;1;axe_yy1_0,axe_xx1_0,axe_out_channels1_0,axe_xx1_1;1568;;;Y:14, X:2, F:2, C:2, H:3, X:28, W:3, H:1, X:1, Y:4, C:64, F:64, ;397.56329798698425
103;0;MobilNet_03;0.37359139999999996;0.002596962002032375;1;axe_xx1_0,axe_yy1_0,axe_xx1_1,axe_out_channels1_0;112;;;X:1, Y:7, X:4, F:4, C:2, W:3, X:14, H:3, W:1, H:1, X:1, Y:8, C:64, F:32, ;399.28517746925354
103;1;MobilNet_03;0.3281852;0.005257978486072375;1;axe_xx1_0,axe_yy1_0,axe_xx1_1,axe_out_channels1_0,axe_xx1_2;1568;;;X:1, Y:7, X:4, F:4, C:2, W:3, X:14, H:3, W:1, H:1, X:1, Y:8, C:64, F:32, ;400.9967257976532
104;0;MobilNet_03;0.3735404;0.001613266016501928;1;axe_xx1_0,axe_yy1_0,axe_xx1_1,axe_out_channels1_0;112;;;X:2, Y:7, X:2, F:4, C:2, W:3, X:14, H:3, W:1, H:1, X:1, Y:8, C:64, F:32, ;402.71794986724854
104;1;MobilNet_03;0.32322850000000003;0.002526658000205013;1;axe_xx1_0,axe_yy1_0,axe_xx1_1,axe_out_channels1_0,axe_xx1_2;1568;;;X:2, Y:7, X:2, F:4, C:2, W:3, X:14, H:3, W:1, H:1, X:1, Y:8, C:64, F:32, ;404.43574690818787
105;0;MobilNet_03;0.39704269999999997;0.0025291159344719657;1;axe_xx1_0,axe_yy1_0,axe_xx1_1,axe_out_channels1_0;112;;;X:4, Y:7, X:1, F:4, C:2, W:3, X:14, H:3, W:1, H:1, X:1, Y:8, C:64, F:32, ;406.15302753448486
105;1;MobilNet_03;0.3248423;0.002588290287042777;1;axe_xx1_0,axe_yy1_0,axe_xx1_1,axe_out_channels1_0,axe_xx1_2;1568;;;X:4, Y:7, X:1, F:4, C:2, W:3, X:14, H:3, W:1, H:1, X:1, Y:8, C:64, F:32, ;407.8605053424835
106;0;MobilNet_03;0.4042846;0.005124909837255679;1;axe_xx1_0,axe_yy1_0,axe_xx1_1,axe_out_channels1_0;112;;;X:1, Y:4, X:7, F:4, C:2, W:3, X:8, H:3, W:1, H:1, X:1, Y:14, C:64, F:32, ;409.5966889858246
106;1;MobilNet_03;0.3459905;0.004285178951922541;1;axe_xx1_0,axe_yy1_0,axe_xx1_1,axe_out_channels1_0,axe_xx1_2;896;;;X:1, Y:4, X:7, F:4, C:2, W:3, X:8, H:3, W:1, H:1, X:1, Y:14, C:64, F:32, ;411.3253684043884
107;0;MobilNet_03;0.4019348;0.0051684487576060855;1;axe_xx1_0,axe_yy1_0,axe_xx1_1,axe_out_channels1_0;112;;;X:7, Y:4, X:1, F:4, C:2, W:3, X:8, H:3, W:1, H:1, X:1, Y:14, C:64, F:32, ;413.0567536354065
107;1;MobilNet_03;0.3451756;0.0037038973581890837;1;axe_xx1_0,axe_yy1_0,axe_xx1_1,axe_out_channels1_0,axe_xx1_2;896;;;X:7, Y:4, X:1, F:4, C:2, W:3, X:8, H:3, W:1, H:1, X:1, Y:14, C:64, F:32, ;414.7795820236206
108;0;MobilNet_03;0.3958268;0.0013206676190472676;1;axe_xx1_0,axe_yy1_0,axe_xx1_1,axe_out_channels1_0;112;;;X:1, Y:7, X:4, F:4, C:4, W:3, X:14, H:3, W:1, H:1, X:1, Y:8, C:32, F:32, ;416.5022552013397
108;1;MobilNet_03;0.3327815;0.002057061168268939;1;axe_xx1_0,axe_yy1_0,axe_xx1_1,axe_out_channels1_0,axe_xx1_2;1568;;;X:1, Y:7, X:4, F:4, C:4, W:3, X:14, H:3, W:1, H:1, X:1, Y:8, C:32, F:32, ;418.2108938694
109;0;MobilNet_03;0.3967994;0.001989552572816299;1;axe_xx1_0,axe_yy1_0,axe_xx1_1,axe_out_channels1_0;112;;;X:2, Y:7, X:2, F:4, C:4, W:3, X:14, H:3, W:1, H:1, X:1, Y:8, C:32, F:32, ;419.97057127952576
109;1;MobilNet_03;0.3304413;0.0013351398466078372;1;axe_xx1_0,axe_yy1_0,axe_xx1_1,axe_out_channels1_0,axe_xx1_2;1568;;;X:2, Y:7, X:2, F:4, C:4, W:3, X:14, H:3, W:1, H:1, X:1, Y:8, C:32, F:32, ;421.68173909187317
110;0;MobilNet_03;0.4418717;0.006951997986909947;1;axe_xx1_0,axe_yy1_0,axe_xx1_1,axe_out_channels1_0;112;;;X:4, Y:7, X:1, F:4, C:4, W:3, X:14, H:3, W:1, H:1, X:1, Y:8, C:32, F:32, ;423.4139280319214
110;1;MobilNet_03;0.33352079999999995;0.001763393081533429;1;axe_xx1_0,axe_yy1_0,axe_xx1_1,axe_out_channels1_0,axe_xx1_2;1568;;;X:4, Y:7, X:1, F:4, C:4, W:3, X:14, H:3, W:1, H:1, X:1, Y:8, C:32, F:32, ;425.1283931732178
111;0;MobilNet_03;0.4347791;0.0028996819980818627;1;axe_xx1_0,axe_yy1_0,axe_xx1_1,axe_out_channels1_0;112;;;X:1, Y:4, X:7, F:4, C:4, W:3, X:8, H:3, W:1, H:1, X:1, Y:14, C:32, F:32, ;426.85960960388184
111;1;MobilNet_03;0.358708;0.0027558666150595858;1;axe_xx1_0,axe_yy1_0,axe_xx1_1,axe_out_channels1_0,axe_xx1_2;896;;;X:1, Y:4, X:7, F:4, C:4, W:3, X:8, H:3, W:1, H:1, X:1, Y:14, C:32, F:32, ;428.57413387298584
112;0;MobilNet_03;0.4350587;0.001662684519083531;1;axe_xx1_0,axe_yy1_0,axe_xx1_1,axe_out_channels1_0;112;;;X:7, Y:4, X:1, F:4, C:4, W:3, X:8, H:3, W:1, H:1, X:1, Y:14, C:32, F:32, ;430.3077440261841
112;1;MobilNet_03;0.35928949999999993;0.0024817746573772654;1;axe_xx1_0,axe_yy1_0,axe_xx1_1,axe_out_channels1_0,axe_xx1_2;896;;;X:7, Y:4, X:1, F:4, C:4, W:3, X:8, H:3, W:1, H:1, X:1, Y:14, C:32, F:32, ;432.0254428386688
113;0;MobilNet_03;0.43513440000000003;0.0041162622171091075;1;axe_xx1_0,axe_yy1_0,axe_xx1_1,axe_out_channels1_0;112;;;X:1, Y:7, X:4, F:4, C:8, W:3, X:14, H:3, W:1, H:1, X:1, Y:8, C:16, F:32, ;433.74873971939087
113;1;MobilNet_03;0.34716709999999995;0.0011418106191483884;1;axe_xx1_0,axe_yy1_0,axe_xx1_1,axe_out_channels1_0,axe_xx1_2;1568;;;X:1, Y:7, X:4, F:4, C:8, W:3, X:14, H:3, W:1, H:1, X:1, Y:8, C:16, F:32, ;435.45350527763367
114;0;MobilNet_03;0.43713389999999996;0.00542545069925072;1;axe_xx1_0,axe_yy1_0,axe_xx1_1,axe_out_channels1_0;112;;;X:2, Y:7, X:2, F:4, C:8, W:3, X:14, H:3, W:1, H:1, X:1, Y:8, C:16, F:32, ;437.18047189712524
114;1;MobilNet_03;0.34975590000000006;0.0029772152239970766;1;axe_xx1_0,axe_yy1_0,axe_xx1_1,axe_out_channels1_0,axe_xx1_2;1568;;;X:2, Y:7, X:2, F:4, C:8, W:3, X:14, H:3, W:1, H:1, X:1, Y:8, C:16, F:32, ;438.89586329460144
115;0;MobilNet_03;0.5197472000000001;0.0116237234378662;1;axe_xx1_0,axe_yy1_0,axe_xx1_1,axe_out_channels1_0;112;;;X:4, Y:7, X:1, F:4, C:8, W:3, X:14, H:3, W:1, H:1, X:1, Y:8, C:16, F:32, ;440.621376991272
115;1;MobilNet_03;0.3575972;0.003057216897768284;1;axe_xx1_0,axe_yy1_0,axe_xx1_1,axe_out_channels1_0,axe_xx1_2;1568;;;X:4, Y:7, X:1, F:4, C:8, W:3, X:14, H:3, W:1, H:1, X:1, Y:8, C:16, F:32, ;442.3353581428528
116;0;MobilNet_03;0.5148096000000001;0.006181459879348895;1;axe_xx1_0,axe_yy1_0,axe_xx1_1,axe_out_channels1_0;112;;;X:1, Y:4, X:7, F:4, C:8, W:3, X:8, H:3, W:1, H:1, X:1, Y:14, C:16, F:32, ;444.0728826522827
116;1;MobilNet_03;0.38808040000000005;0.0022529173619997693;1;axe_xx1_0,axe_yy1_0,axe_xx1_1,axe_out_channels1_0,axe_xx1_2;896;;;X:1, Y:4, X:7, F:4, C:8, W:3, X:8, H:3, W:1, H:1, X:1, Y:14, C:16, F:32, ;445.7876636981964
117;0;MobilNet_03;0.5038197;0.005171512062250266;1;axe_xx1_0,axe_yy1_0,axe_xx1_1,axe_out_channels1_0;112;;;X:7, Y:4, X:1, F:4, C:8, W:3, X:8, H:3, W:1, H:1, X:1, Y:14, C:16, F:32, ;447.5322268009186
117;1;MobilNet_03;0.38685420000000004;0.001849770731739476;1;axe_xx1_0,axe_yy1_0,axe_xx1_1,axe_out_channels1_0,axe_xx1_2;896;;;X:7, Y:4, X:1, F:4, C:8, W:3, X:8, H:3, W:1, H:1, X:1, Y:14, C:16, F:32, ;449.25111532211304
118;0;MobilNet_03;0.5808136;0.0064687587093661455;2;axe_out_channels1_0,axe_out_channels1_1,axe_xx1_0,axe_yy1_0,axe_out_channels1_2;32;axe_out_channels2_0,axe_out_channels2_1,axe_xx2_0,axe_yy2_0,axe_out_channels2_2;48;F:1, F:1, X:2, Y:2, F:8, C:4, W:3, X:28, W:1, H:3, X:1, Y:10, C:32, F:16, ;451.37040519714355
118;1;MobilNet_03;0.34930809999999995;0.008877022490114577;2;axe_out_channels1_0,axe_out_channels1_1,axe_xx1_0,axe_yy1_0,axe_out_channels1_2,axe_xx1_1;896;axe_out_channels2_0,axe_out_channels2_1,axe_xx2_0,axe_yy2_0,axe_out_channels2_2,axe_xx2_1;1344;F:1, F:1, X:2, Y:2, F:8, C:4, W:3, X:28, W:1, H:3, X:1, Y:10, C:32, F:16, ;453.5140736103058
119;0;MobilNet_03;0.5713203;0.00909674542954784;2;axe_out_channels1_0,axe_out_channels1_1,axe_xx1_0,axe_yy1_0,axe_out_channels1_2;32;axe_out_channels2_0,axe_out_channels2_1,axe_xx2_0,axe_yy2_0,axe_out_channels2_2;48;F:1, F:2, X:2, Y:2, F:4, C:4, W:3, X:28, W:1, H:3, X:1, Y:10, C:32, F:16, ;455.6347858905792
119;1;MobilNet_03;0.34399939999999996;0.010150367492854641;2;axe_out_channels1_0,axe_out_channels1_1,axe_xx1_0,axe_yy1_0,axe_out_channels1_2,axe_xx1_1;896;axe_out_channels2_0,axe_out_channels2_1,axe_xx2_0,axe_yy2_0,axe_out_channels2_2,axe_xx2_1;1344;F:1, F:2, X:2, Y:2, F:4, C:4, W:3, X:28, W:1, H:3, X:1, Y:10, C:32, F:16, ;457.74141216278076
120;0;MobilNet_03;0.5343446000000001;0.00615520750584413;2;axe_out_channels1_0,axe_out_channels1_1,axe_xx1_0,axe_yy1_0,axe_out_channels1_2;32;axe_out_channels2_0,axe_out_channels2_1,axe_xx2_0,axe_yy2_0,axe_out_channels2_2;48;F:1, F:4, X:2, Y:2, F:2, C:4, W:3, X:28, W:1, H:3, X:1, Y:10, C:32, F:16, ;459.86731004714966
120;1;MobilNet_03;0.3407046;0.009182861952572315;2;axe_out_channels1_0,axe_out_channels1_1,axe_xx1_0,axe_yy1_0,axe_out_channels1_2,axe_xx1_1;896;axe_out_channels2_0,axe_out_channels2_1,axe_xx2_0,axe_yy2_0,axe_out_channels2_2,axe_xx2_1;1344;F:1, F:4, X:2, Y:2, F:2, C:4, W:3, X:28, W:1, H:3, X:1, Y:10, C:32, F:16, ;461.97152829170227
121;0;MobilNet_03;0.5649791;0.007631132202366827;2;axe_out_channels1_0,axe_out_channels1_1,axe_xx1_0,axe_yy1_0,axe_out_channels1_2;32;axe_out_channels2_0,axe_out_channels2_1,axe_xx2_0,axe_yy2_0,axe_out_channels2_2;48;F:1, F:8, X:2, Y:2, F:1, C:4, W:3, X:28, W:1, H:3, X:1, Y:10, C:32, F:16, ;464.1039209365845
121;1;MobilNet_03;0.3385298;0.00500764610970065;2;axe_out_channels1_0,axe_out_channels1_1,axe_xx1_0,axe_yy1_0,axe_out_channels1_2,axe_xx1_1;896;axe_out_channels2_0,axe_out_channels2_1,axe_xx2_0,axe_yy2_0,axe_out_channels2_2,axe_xx2_1;1344;F:1, F:8, X:2, Y:2, F:1, C:4, W:3, X:28, W:1, H:3, X:1, Y:10, C:32, F:16, ;466.2047348022461
122;0;MobilNet_03;0.5735741000000001;0.006596490937612213;2;axe_out_channels1_0,axe_out_channels1_1,axe_xx1_0,axe_yy1_0,axe_out_channels1_2;32;axe_out_channels2_0,axe_out_channels2_1,axe_xx2_0,axe_yy2_0,axe_out_channels2_2;48;F:2, F:1, X:2, Y:2, F:4, C:4, W:3, X:28, W:1, H:3, X:1, Y:10, C:32, F:16, ;468.3243203163147
122;1;MobilNet_03;0.3477019;0.014948469904642415;2;axe_out_channels1_0,axe_out_channels1_1,axe_xx1_0,axe_yy1_0,axe_out_channels1_2,axe_xx1_1;896;axe_out_channels2_0,axe_out_channels2_1,axe_xx2_0,axe_yy2_0,axe_out_channels2_2,axe_xx2_1;1344;F:2, F:1, X:2, Y:2, F:4, C:4, W:3, X:28, W:1, H:3, X:1, Y:10, C:32, F:16, ;470.4308068752289
123;0;MobilNet_03;0.5318309999999999;0.007755149282895848;2;axe_out_channels1_0,axe_out_channels1_1,axe_xx1_0,axe_yy1_0,axe_out_channels1_2;32;axe_out_channels2_0,axe_out_channels2_1,axe_xx2_0,axe_yy2_0,axe_out_channels2_2;48;F:2, F:2, X:2, Y:2, F:2, C:4, W:3, X:28, W:1, H:3, X:1, Y:10, C:32, F:16, ;472.55200147628784
123;1;MobilNet_03;0.3455102;0.012432538226766082;2;axe_out_channels1_0,axe_out_channels1_1,axe_xx1_0,axe_yy1_0,axe_out_channels1_2,axe_xx1_1;896;axe_out_channels2_0,axe_out_channels2_1,axe_xx2_0,axe_yy2_0,axe_out_channels2_2,axe_xx2_1;1344;F:2, F:2, X:2, Y:2, F:2, C:4, W:3, X:28, W:1, H:3, X:1, Y:10, C:32, F:16, ;474.6583318710327
124;0;MobilNet_03;0.562505;0.0028185727948733265;2;axe_out_channels1_0,axe_out_channels1_1,axe_xx1_0,axe_yy1_0,axe_out_channels1_2;32;axe_out_channels2_0,axe_out_channels2_1,axe_xx2_0,axe_yy2_0,axe_out_channels2_2;48;F:2, F:4, X:2, Y:2, F:1, C:4, W:3, X:28, W:1, H:3, X:1, Y:10, C:32, F:16, ;476.79078125953674
124;1;MobilNet_03;0.3342301;0.005102212391698334;2;axe_out_channels1_0,axe_out_channels1_1,axe_xx1_0,axe_yy1_0,axe_out_channels1_2,axe_xx1_1;896;axe_out_channels2_0,axe_out_channels2_1,axe_xx2_0,axe_yy2_0,axe_out_channels2_2,axe_xx2_1;1344;F:2, F:4, X:2, Y:2, F:1, C:4, W:3, X:28, W:1, H:3, X:1, Y:10, C:32, F:16, ;478.9232225418091
125;0;MobilNet_03;0.5331422000000001;0.004094706236105351;2;axe_out_channels1_0,axe_out_channels1_1,axe_xx1_0,axe_yy1_0,axe_out_channels1_2;32;axe_out_channels2_0,axe_out_channels2_1,axe_xx2_0,axe_yy2_0,axe_out_channels2_2;48;F:4, F:1, X:2, Y:2, F:2, C:4, W:3, X:28, W:1, H:3, X:1, Y:10, C:32, F:16, ;481.03862166404724
125;1;MobilNet_03;0.34638080000000004;0.015850876201648916;2;axe_out_channels1_0,axe_out_channels1_1,axe_xx1_0,axe_yy1_0,axe_out_channels1_2,axe_xx1_1;896;axe_out_channels2_0,axe_out_channels2_1,axe_xx2_0,axe_yy2_0,axe_out_channels2_2,axe_xx2_1;1344;F:4, F:1, X:2, Y:2, F:2, C:4, W:3, X:28, W:1, H:3, X:1, Y:10, C:32, F:16, ;483.14089798927307
126;0;MobilNet_03;0.5594250000000001;0.0019481105718105647;2;axe_out_channels1_0,axe_out_channels1_1,axe_xx1_0,axe_yy1_0,axe_out_channels1_2;32;axe_out_channels2_0,axe_out_channels2_1,axe_xx2_0,axe_yy2_0,axe_out_channels2_2;48;F:4, F:2, X:2, Y:2, F:1, C:4, W:3, X:28, W:1, H:3, X:1, Y:10, C:32, F:16, ;485.27673053741455
126;1;MobilNet_03;0.33711260000000004;0.004625863534519796;2;axe_out_channels1_0,axe_out_channels1_1,axe_xx1_0,axe_yy1_0,axe_out_channels1_2,axe_xx1_1;896;axe_out_channels2_0,axe_out_channels2_1,axe_xx2_0,axe_yy2_0,axe_out_channels2_2,axe_xx2_1;1344;F:4, F:2, X:2, Y:2, F:1, C:4, W:3, X:28, W:1, H:3, X:1, Y:10, C:32, F:16, ;487.37914967536926
127;0;MobilNet_03;0.5645045;0.0039641830999589305;2;axe_out_channels1_0,axe_out_channels1_1,axe_xx1_0,axe_yy1_0,axe_out_channels1_2;32;axe_out_channels2_0,axe_out_channels2_1,axe_xx2_0,axe_yy2_0,axe_out_channels2_2;48;F:8, F:1, X:2, Y:2, F:1, C:4, W:3, X:28, W:1, H:3, X:1, Y:10, C:32, F:16, ;489.51000905036926
127;1;MobilNet_03;0.33736390000000005;0.005327194298127296;2;axe_out_channels1_0,axe_out_channels1_1,axe_xx1_0,axe_yy1_0,axe_out_channels1_2,axe_xx1_1;896;axe_out_channels2_0,axe_out_channels2_1,axe_xx2_0,axe_yy2_0,axe_out_channels2_2,axe_xx2_1;1344;F:8, F:1, X:2, Y:2, F:1, C:4, W:3, X:28, W:1, H:3, X:1, Y:10, C:32, F:16, ;491.61127734184265
128;0;MobilNet_03;0.5774456;0.013348693353283689;2;axe_out_channels1_0,axe_out_channels1_1,axe_xx1_0,axe_yy1_0,axe_out_channels1_2;48;axe_out_channels2_0,axe_out_channels2_1,axe_xx2_0,axe_yy2_0,axe_out_channels2_2;32;F:1, F:1, X:2, Y:3, F:8, C:4, W:3, X:28, W:1, H:3, X:1, Y:10, C:32, F:16, ;493.73983097076416
128;1;MobilNet_03;0.3485642;0.004312861829458485;2;axe_out_channels1_0,axe_out_channels1_1,axe_xx1_0,axe_yy1_0,axe_out_channels1_2,axe_xx1_1;1344;axe_out_channels2_0,axe_out_channels2_1,axe_xx2_0,axe_yy2_0,axe_out_channels2_2,axe_xx2_1;896;F:1, F:1, X:2, Y:3, F:8, C:4, W:3, X:28, W:1, H:3, X:1, Y:10, C:32, F:16, ;495.8481843471527
129;0;MobilNet_03;0.5720679999999999;0.010647721662402722;2;axe_out_channels1_0,axe_out_channels1_1,axe_xx1_0,axe_yy1_0,axe_out_channels1_2;48;axe_out_channels2_0,axe_out_channels2_1,axe_xx2_0,axe_yy2_0,axe_out_channels2_2;32;F:1, F:2, X:2, Y:3, F:4, C:4, W:3, X:28, W:1, H:3, X:1, Y:10, C:32, F:16, ;497.9735543727875
129;1;MobilNet_03;0.34974140000000004;0.003537588958598783;2;axe_out_channels1_0,axe_out_channels1_1,axe_xx1_0,axe_yy1_0,axe_out_channels1_2,axe_xx1_1;1344;axe_out_channels2_0,axe_out_channels2_1,axe_xx2_0,axe_yy2_0,axe_out_channels2_2,axe_xx2_1;896;F:1, F:2, X:2, Y:3, F:4, C:4, W:3, X:28, W:1, H:3, X:1, Y:10, C:32, F:16, ;500.09778594970703
130;0;MobilNet_03;0.5372058000000001;0.014513254237420347;2;axe_out_channels1_0,axe_out_channels1_1,axe_xx1_0,axe_yy1_0,axe_out_channels1_2;48;axe_out_channels2_0,axe_out_channels2_1,axe_xx2_0,axe_yy2_0,axe_out_channels2_2;32;F:1, F:4, X:2, Y:3, F:2, C:4, W:3, X:28, W:1, H:3, X:1, Y:10, C:32, F:16, ;502.2348222732544
130;1;MobilNet_03;0.3448903;0.0030054287231608013;2;axe_out_channels1_0,axe_out_channels1_1,axe_xx1_0,axe_yy1_0,axe_out_channels1_2,axe_xx1_1;1344;axe_out_channels2_0,axe_out_channels2_1,axe_xx2_0,axe_yy2_0,axe_out_channels2_2,axe_xx2_1;896;F:1, F:4, X:2, Y:3, F:2, C:4, W:3, X:28, W:1, H:3, X:1, Y:10, C:32, F:16, ;504.34685802459717
131;0;MobilNet_03;0.5639168999999999;0.01829893982967318;2;axe_out_channels1_0,axe_out_channels1_1,axe_xx1_0,axe_yy1_0,axe_out_channels1_2;48;axe_out_channels2_0,axe_out_channels2_1,axe_xx2_0,axe_yy2_0,axe_out_channels2_2;32;F:1, F:8, X:2, Y:3, F:1, C:4, W:3, X:28, W:1, H:3, X:1, Y:10, C:32, F:16, ;506.4866952896118
131;1;MobilNet_03;0.3434665;0.005013347609133042;2;axe_out_channels1_0,axe_out_channels1_1,axe_xx1_0,axe_yy1_0,axe_out_channels1_2,axe_xx1_1;1344;axe_out_channels2_0,axe_out_channels2_1,axe_xx2_0,axe_yy2_0,axe_out_channels2_2,axe_xx2_1;896;F:1, F:8, X:2, Y:3, F:1, C:4, W:3, X:28, W:1, H:3, X:1, Y:10, C:32, F:16, ;508.59265208244324
132;0;MobilNet_03;0.5765565;0.01671310636147572;2;axe_out_channels1_0,axe_out_channels1_1,axe_xx1_0,axe_yy1_0,axe_out_channels1_2;48;axe_out_channels2_0,axe_out_channels2_1,axe_xx2_0,axe_yy2_0,axe_out_channels2_2;32;F:2, F:1, X:2, Y:3, F:4, C:4, W:3, X:28, W:1, H:3, X:1, Y:10, C:32, F:16, ;510.72368836402893
132;1;MobilNet_03;0.3509893;0.006677611774429531;2;axe_out_channels1_0,axe_out_channels1_1,axe_xx1_0,axe_yy1_0,axe_out_channels1_2,axe_xx1_1;1344;axe_out_channels2_0,axe_out_channels2_1,axe_xx2_0,axe_yy2_0,axe_out_channels2_2,axe_xx2_1;896;F:2, F:1, X:2, Y:3, F:4, C:4, W:3, X:28, W:1, H:3, X:1, Y:10, C:32, F:16, ;512.8331687450409
133;0;MobilNet_03;0.5398102;0.00913138382502893;2;axe_out_channels1_0,axe_out_channels1_1,axe_xx1_0,axe_yy1_0,axe_out_channels1_2;48;axe_out_channels2_0,axe_out_channels2_1,axe_xx2_0,axe_yy2_0,axe_out_channels2_2;32;F:2, F:2, X:2, Y:3, F:2, C:4, W:3, X:28, W:1, H:3, X:1, Y:10, C:32, F:16, ;514.9604403972626
133;1;MobilNet_03;0.34850420000000004;0.0025531622275131814;2;axe_out_channels1_0,axe_out_channels1_1,axe_xx1_0,axe_yy1_0,axe_out_channels1_2,axe_xx1_1;1344;axe_out_channels2_0,axe_out_channels2_1,axe_xx2_0,axe_yy2_0,axe_out_channels2_2,axe_xx2_1;896;F:2, F:2, X:2, Y:3, F:2, C:4, W:3, X:28, W:1, H:3, X:1, Y:10, C:32, F:16, ;517.0782413482666
134;0;MobilNet_03;0.5697307;0.017311092132213976;2;axe_out_channels1_0,axe_out_channels1_1,axe_xx1_0,axe_yy1_0,axe_out_channels1_2;48;axe_out_channels2_0,axe_out_channels2_1,axe_xx2_0,axe_yy2_0,axe_out_channels2_2;32;F:2, F:4, X:2, Y:3, F:1, C:4, W:3, X:28, W:1, H:3, X:1, Y:10, C:32, F:16, ;519.2212224006653
134;1;MobilNet_03;0.3423488;0.0048710115746115785;2;axe_out_channels1_0,axe_out_channels1_1,axe_xx1_0,axe_yy1_0,axe_out_channels1_2,axe_xx1_1;1344;axe_out_channels2_0,axe_out_channels2_1,axe_xx2_0,axe_yy2_0,axe_out_channels2_2,axe_xx2_1;896;F:2, F:4, X:2, Y:3, F:1, C:4, W:3, X:28, W:1, H:3, X:1, Y:10, C:32, F:16, ;521.32905626297
135;0;MobilNet_03;0.5397350000000001;0.006755489471533495;2;axe_out_channels1_0,axe_out_channels1_1,axe_xx1_0,axe_yy1_0,axe_out_channels1_2;48;axe_out_channels2_0,axe_out_channels2_1,axe_xx2_0,axe_yy2_0,axe_out_channels2_2;32;F:4, F:1, X:2, Y:3, F:2, C:4, W:3, X:28, W:1, H:3, X:1, Y:10, C:32, F:16, ;523.4554448127747
135;1;MobilNet_03;0.35465120000000006;0.013452191834790335;2;axe_out_channels1_0,axe_out_channels1_1,axe_xx1_0,axe_yy1_0,axe_out_channels1_2,axe_xx1_1;1344;axe_out_channels2_0,axe_out_channels2_1,axe_xx2_0,axe_yy2_0,axe_out_channels2_2,axe_xx2_1;896;F:4, F:1, X:2, Y:3, F:2, C:4, W:3, X:28, W:1, H:3, X:1, Y:10, C:32, F:16, ;525.5665149688721
136;0;MobilNet_03;0.556421;0.011041063680642359;2;axe_out_channels1_0,axe_out_channels1_1,axe_xx1_0,axe_yy1_0,axe_out_channels1_2;48;axe_out_channels2_0,axe_out_channels2_1,axe_xx2_0,axe_yy2_0,axe_out_channels2_2;32;F:4, F:2, X:2, Y:3, F:1, C:4, W:3, X:28, W:1, H:3, X:1, Y:10, C:32, F:16, ;527.7063837051392
136;1;MobilNet_03;0.3448212;0.0047361359102120444;2;axe_out_channels1_0,axe_out_channels1_1,axe_xx1_0,axe_yy1_0,axe_out_channels1_2,axe_xx1_1;1344;axe_out_channels2_0,axe_out_channels2_1,axe_xx2_0,axe_yy2_0,axe_out_channels2_2,axe_xx2_1;896;F:4, F:2, X:2, Y:3, F:1, C:4, W:3, X:28, W:1, H:3, X:1, Y:10, C:32, F:16, ;529.8130466938019
137;0;MobilNet_03;0.5607305;0.013271124121565572;2;axe_out_channels1_0,axe_out_channels1_1,axe_xx1_0,axe_yy1_0,axe_out_channels1_2;48;axe_out_channels2_0,axe_out_channels2_1,axe_xx2_0,axe_yy2_0,axe_out_channels2_2;32;F:8, F:1, X:2, Y:3, F:1, C:4, W:3, X:28, W:1, H:3, X:1, Y:10, C:32, F:16, ;531.9552822113037
137;1;MobilNet_03;0.34209770000000006;0.006015380437678064;2;axe_out_channels1_0,axe_out_channels1_1,axe_xx1_0,axe_yy1_0,axe_out_channels1_2,axe_xx1_1;1344;axe_out_channels2_0,axe_out_channels2_1,axe_xx2_0,axe_yy2_0,axe_out_channels2_2,axe_xx2_1;896;F:8, F:1, X:2, Y:3, F:1, C:4, W:3, X:28, W:1, H:3, X:1, Y:10, C:32, F:16, ;534.0588848590851
138;0;MobilNet_03;2.8180661999999996;0.011954978751967719;2;axe_out_channels1_0,axe_out_channels1_1,axe_xx1_0,axe_yy1_0,axe_out_channels1_2;64;axe_xx2_1;28;F:1, F:1, X:2, Y:4, F:8, C:4, W:3, X:28, W:1, H:3, X:1, Y:11, C:32, F:16, ;536.2907290458679
138;1;MobilNet_03;0.35288939999999996;0.006473636863464003;2;axe_out_channels1_0,axe_out_channels1_1,axe_xx1_0,axe_yy1_0,axe_out_channels1_2,axe_xx1_1;1792;axe_out_channels2_0,axe_out_channels2_1,axe_xx2_0,axe_yy2_0,axe_out_channels2_2,axe_xx2_1;448;F:1, F:1, X:2, Y:4, F:8, C:4, W:3, X:28, W:1, H:3, X:1, Y:11, C:32, F:16, ;538.3937275409698
139;0;MobilNet_03;2.8059549;0.014487473516455586;2;axe_out_channels1_0,axe_out_channels1_1,axe_xx1_0,axe_yy1_0,axe_out_channels1_2;64;axe_xx2_1;28;F:1, F:2, X:2, Y:4, F:4, C:4, W:3, X:28, W:1, H:3, X:1, Y:11, C:32, F:16, ;540.6341426372528
139;1;MobilNet_03;0.3451838;0.0039617714169295475;2;axe_out_channels1_0,axe_out_channels1_1,axe_xx1_0,axe_yy1_0,axe_out_channels1_2,axe_xx1_1;1792;axe_out_channels2_0,axe_out_channels2_1,axe_xx2_0,axe_yy2_0,axe_out_channels2_2,axe_xx2_1;448;F:1, F:2, X:2, Y:4, F:4, C:4, W:3, X:28, W:1, H:3, X:1, Y:11, C:32, F:16, ;542.7427871227264
140;0;MobilNet_03;2.7507193;0.012711379776011783;2;axe_out_channels1_0,axe_out_channels1_1,axe_xx1_0,axe_yy1_0,axe_out_channels1_2;64;axe_xx2_1;28;F:1, F:4, X:2, Y:4, F:2, C:4, W:3, X:28, W:1, H:3, X:1, Y:11, C:32, F:16, ;544.9830119609833
140;1;MobilNet_03;0.3443117;0.0036242859172532214;2;axe_out_channels1_0,axe_out_channels1_1,axe_xx1_0,axe_yy1_0,axe_out_channels1_2,axe_xx1_1;1792;axe_out_channels2_0,axe_out_channels2_1,axe_xx2_0,axe_yy2_0,axe_out_channels2_2,axe_xx2_1;448;F:1, F:4, X:2, Y:4, F:2, C:4, W:3, X:28, W:1, H:3, X:1, Y:11, C:32, F:16, ;547.0916588306427
141;0;MobilNet_03;2.6695365000000004;0.013062190354224637;2;axe_out_channels1_0,axe_out_channels1_1,axe_xx1_0,axe_yy1_0,axe_out_channels1_2;64;axe_xx2_1;28;F:1, F:8, X:2, Y:4, F:1, C:4, W:3, X:28, W:1, H:3, X:1, Y:11, C:32, F:16, ;549.3269047737122
141;1;MobilNet_03;0.34801629999999995;0.00355840037235834;2;axe_out_channels1_0,axe_out_channels1_1,axe_xx1_0,axe_yy1_0,axe_out_channels1_2,axe_xx1_1;1792;axe_out_channels2_0,axe_out_channels2_1,axe_xx2_0,axe_yy2_0,axe_out_channels2_2,axe_xx2_1;448;F:1, F:8, X:2, Y:4, F:1, C:4, W:3, X:28, W:1, H:3, X:1, Y:11, C:32, F:16, ;551.4348411560059
142;0;MobilNet_03;2.7826143;0.014441550755026119;2;axe_out_channels1_0,axe_out_channels1_1,axe_xx1_0,axe_yy1_0,axe_out_channels1_2;64;axe_xx2_1;28;F:2, F:1, X:2, Y:4, F:4, C:4, W:3, X:28, W:1, H:3, X:1, Y:11, C:32, F:16, ;553.6771950721741
142;1;MobilNet_03;0.34663520000000003;0.004704643914261732;2;axe_out_channels1_0,axe_out_channels1_1,axe_xx1_0,axe_yy1_0,axe_out_channels1_2,axe_xx1_1;1792;axe_out_channels2_0,axe_out_channels2_1,axe_xx2_0,axe_yy2_0,axe_out_channels2_2,axe_xx2_1;448;F:2, F:1, X:2, Y:4, F:4, C:4, W:3, X:28, W:1, H:3, X:1, Y:11, C:32, F:16, ;555.7851760387421
143;0;MobilNet_03;2.7203498;0.011896216657408377;2;axe_out_channels1_0,axe_out_channels1_1,axe_xx1_0,axe_yy1_0,axe_out_channels1_2;64;axe_xx2_1;28;F:2, F:2, X:2, Y:4, F:2, C:4, W:3, X:28, W:1, H:3, X:1, Y:11, C:32, F:16, ;558.0337061882019
143;1;MobilNet_03;0.34351259999999995;0.003252017072525919;2;axe_out_channels1_0,axe_out_channels1_1,axe_xx1_0,axe_yy1_0,axe_out_channels1_2,axe_xx1_1;1792;axe_out_channels2_0,axe_out_channels2_1,axe_xx2_0,axe_yy2_0,axe_out_channels2_2,axe_xx2_1;448;F:2, F:2, X:2, Y:4, F:2, C:4, W:3, X:28, W:1, H:3, X:1, Y:11, C:32, F:16, ;560.1434078216553
144;0;MobilNet_03;2.7052619000000004;0.010479640580191638;2;axe_out_channels1_0,axe_out_channels1_1,axe_xx1_0,axe_yy1_0,axe_out_channels1_2;64;axe_xx2_1;28;F:2, F:4, X:2, Y:4, F:1, C:4, W:3, X:28, W:1, H:3, X:1, Y:11, C:32, F:16, ;562.3886723518372
144;1;MobilNet_03;0.34512719999999997;0.004107401022544552;2;axe_out_channels1_0,axe_out_channels1_1,axe_xx1_0,axe_yy1_0,axe_out_channels1_2,axe_xx1_1;1792;axe_out_channels2_0,axe_out_channels2_1,axe_xx2_0,axe_yy2_0,axe_out_channels2_2,axe_xx2_1;448;F:2, F:4, X:2, Y:4, F:1, C:4, W:3, X:28, W:1, H:3, X:1, Y:11, C:32, F:16, ;564.4914400577545
145;0;MobilNet_03;2.7507568;0.014276672250913355;2;axe_out_channels1_0,axe_out_channels1_1,axe_xx1_0,axe_yy1_0,axe_out_channels1_2;64;axe_xx2_1;28;F:4, F:1, X:2, Y:4, F:2, C:4, W:3, X:28, W:1, H:3, X:1, Y:11, C:32, F:16, ;566.738240480423
145;1;MobilNet_03;0.3466268;0.004518503508906473;2;axe_out_channels1_0,axe_out_channels1_1,axe_xx1_0,axe_yy1_0,axe_out_channels1_2,axe_xx1_1;1792;axe_out_channels2_0,axe_out_channels2_1,axe_xx2_0,axe_yy2_0,axe_out_channels2_2,axe_xx2_1;448;F:4, F:1, X:2, Y:4, F:2, C:4, W:3, X:28, W:1, H:3, X:1, Y:11, C:32, F:16, ;568.844963312149
146;0;MobilNet_03;2.7096297000000003;0.011990414238465646;2;axe_out_channels1_0,axe_out_channels1_1,axe_xx1_0,axe_yy1_0,axe_out_channels1_2;64;axe_xx2_1;28;F:4, F:2, X:2, Y:4, F:1, C:4, W:3, X:28, W:1, H:3, X:1, Y:11, C:32, F:16, ;571.0964508056641
146;1;MobilNet_03;0.34698890000000004;0.0035945830481434126;2;axe_out_channels1_0,axe_out_channels1_1,axe_xx1_0,axe_yy1_0,axe_out_channels1_2,axe_xx1_1;1792;axe_out_channels2_0,axe_out_channels2_1,axe_xx2_0,axe_yy2_0,axe_out_channels2_2,axe_xx2_1;448;F:4, F:2, X:2, Y:4, F:1, C:4, W:3, X:28, W:1, H:3, X:1, Y:11, C:32, F:16, ;573.1971907615662
147;0;MobilNet_03;2.7012507999999995;0.011542739681722085;2;axe_out_channels1_0,axe_out_channels1_1,axe_xx1_0,axe_yy1_0,axe_out_channels1_2;64;axe_xx2_1;28;F:8, F:1, X:2, Y:4, F:1, C:4, W:3, X:28, W:1, H:3, X:1, Y:11, C:32, F:16, ;575.4334654808044
147;1;MobilNet_03;0.3465107;0.00527284407222516;2;axe_out_channels1_0,axe_out_channels1_1,axe_xx1_0,axe_yy1_0,axe_out_channels1_2,axe_xx1_1;1792;axe_out_channels2_0,axe_out_channels2_1,axe_xx2_0,axe_yy2_0,axe_out_channels2_2,axe_xx2_1;448;F:8, F:1, X:2, Y:4, F:1, C:4, W:3, X:28, W:1, H:3, X:1, Y:11, C:32, F:16, ;577.5391089916229
148;0;MobilNet_03;0.37023409999999995;0.0063771376251418625;1;axe_out_channels1_0,axe_out_channels1_1,axe_xx1_0,axe_yy1_0,axe_out_channels1_2;128;;;F:1, F:1, X:4, Y:4, F:8, C:2, W:3, X:14, W:1, H:3, X:1, Y:14, C:64, F:16, ;579.2682678699493
148;1;MobilNet_03;0.2850992;0.003593109900907563;1;axe_out_channels1_0,axe_out_channels1_1,axe_xx1_0,axe_yy1_0,axe_out_channels1_2,axe_xx1_1;1792;;;F:1, F:1, X:4, Y:4, F:8, C:2, W:3, X:14, W:1, H:3, X:1, Y:14, C:64, F:16, ;580.9850468635559
149;0;MobilNet_03;0.332528;0.004663941230332985;1;axe_out_channels1_0,axe_out_channels1_1,axe_xx1_0,axe_yy1_0,axe_out_channels1_2;128;;;F:1, F:2, X:4, Y:4, F:4, C:2, W:3, X:14, W:1, H:3, X:1, Y:14, C:64, F:16, ;582.709424495697
149;1;MobilNet_03;0.283292;0.004186588396295969;1;axe_out_channels1_0,axe_out_channels1_1,axe_xx1_0,axe_yy1_0,axe_out_channels1_2,axe_xx1_1;1792;;;F:1, F:2, X:4, Y:4, F:4, C:2, W:3, X:14, W:1, H:3, X:1, Y:14, C:64, F:16, ;584.4299552440643
150;0;MobilNet_03;0.3401941;0.0019450749831304679;1;axe_out_channels1_0,axe_out_channels1_1,axe_xx1_0,axe_yy1_0,axe_out_channels1_2;128;;;F:1, F:4, X:4, Y:4, F:2, C:2, W:3, X:14, W:1, H:3, X:1, Y:14, C:64, F:16, ;586.1584267616272
150;1;MobilNet_03;0.28066199999999997;0.0026030032270437224;1;axe_out_channels1_0,axe_out_channels1_1,axe_xx1_0,axe_yy1_0,axe_out_channels1_2,axe_xx1_1;1792;;;F:1, F:4, X:4, Y:4, F:2, C:2, W:3, X:14, W:1, H:3, X:1, Y:14, C:64, F:16, ;587.8764476776123
151;0;MobilNet_03;0.35140699999999997;0.0031150789717116294;1;axe_out_channels1_0,axe_out_channels1_1,axe_xx1_0,axe_yy1_0,axe_out_channels1_2;128;;;F:1, F:8, X:4, Y:4, F:1, C:2, W:3, X:14, W:1, H:3, X:1, Y:14, C:64, F:16, ;589.6166732311249
151;1;MobilNet_03;0.2912821;0.007001648726550045;1;axe_out_channels1_0,axe_out_channels1_1,axe_xx1_0,axe_yy1_0,axe_out_channels1_2,axe_xx1_1;1792;;;F:1, F:8, X:4, Y:4, F:1, C:2, W:3, X:14, W:1, H:3, X:1, Y:14, C:64, F:16, ;591.333251953125
152;0;MobilNet_03;0.3345252;0.007704243801957459;1;axe_out_channels1_0,axe_out_channels1_1,axe_xx1_0,axe_yy1_0,axe_out_channels1_2;128;;;F:2, F:1, X:4, Y:4, F:4, C:2, W:3, X:14, W:1, H:3, X:1, Y:14, C:64, F:16, ;593.0618150234222
152;1;MobilNet_03;0.27942229999999996;0.0012645355708717722;1;axe_out_channels1_0,axe_out_channels1_1,axe_xx1_0,axe_yy1_0,axe_out_channels1_2,axe_xx1_1;1792;;;F:2, F:1, X:4, Y:4, F:4, C:2, W:3, X:14, W:1, H:3, X:1, Y:14, C:64, F:16, ;594.7850322723389
153;0;MobilNet_03;0.3395802;0.00193457084646699;1;axe_out_channels1_0,axe_out_channels1_1,axe_xx1_0,axe_yy1_0,axe_out_channels1_2;128;;;F:2, F:2, X:4, Y:4, F:2, C:2, W:3, X:14, W:1, H:3, X:1, Y:14, C:64, F:16, ;596.5173842906952
153;1;MobilNet_03;0.27987690000000004;0.0006730479106274674;1;axe_out_channels1_0,axe_out_channels1_1,axe_xx1_0,axe_yy1_0,axe_out_channels1_2,axe_xx1_1;1792;;;F:2, F:2, X:4, Y:4, F:2, C:2, W:3, X:14, W:1, H:3, X:1, Y:14, C:64, F:16, ;598.2381558418274
154;0;MobilNet_03;0.3490984999999999;0.0016128072575481568;1;axe_out_channels1_0,axe_out_channels1_1,axe_xx1_0,axe_yy1_0,axe_out_channels1_2;128;;;F:2, F:4, X:4, Y:4, F:1, C:2, W:3, X:14, W:1, H:3, X:1, Y:14, C:64, F:16, ;599.9729471206665
154;1;MobilNet_03;0.2864325;0.004050232666156352;1;axe_out_channels1_0,axe_out_channels1_1,axe_xx1_0,axe_yy1_0,axe_out_channels1_2,axe_xx1_1;1792;;;F:2, F:4, X:4, Y:4, F:1, C:2, W:3, X:14, W:1, H:3, X:1, Y:14, C:64, F:16, ;601.7041356563568
155;0;MobilNet_03;0.34047299999999997;0.0030968422626927675;1;axe_out_channels1_0,axe_out_channels1_1,axe_xx1_0,axe_yy1_0,axe_out_channels1_2;128;;;F:4, F:1, X:4, Y:4, F:2, C:2, W:3, X:14, W:1, H:3, X:1, Y:14, C:64, F:16, ;603.4290969371796
155;1;MobilNet_03;0.27924380000000004;0.00039633162881607303;1;axe_out_channels1_0,axe_out_channels1_1,axe_xx1_0,axe_yy1_0,axe_out_channels1_2,axe_xx1_1;1792;;;F:4, F:1, X:4, Y:4, F:2, C:2, W:3, X:14, W:1, H:3, X:1, Y:14, C:64, F:16, ;605.1464059352875
156;0;MobilNet_03;0.3480961;0.002918434904190938;1;axe_out_channels1_0,axe_out_channels1_1,axe_xx1_0,axe_yy1_0,axe_out_channels1_2;128;;;F:4, F:2, X:4, Y:4, F:1, C:2, W:3, X:14, W:1, H:3, X:1, Y:14, C:64, F:16, ;606.8794558048248
156;1;MobilNet_03;0.2930333;0.0066934887472826984;1;axe_out_channels1_0,axe_out_channels1_1,axe_xx1_0,axe_yy1_0,axe_out_channels1_2,axe_xx1_1;1792;;;F:4, F:2, X:4, Y:4, F:1, C:2, W:3, X:14, W:1, H:3, X:1, Y:14, C:64, F:16, ;608.6203863620758
157;0;MobilNet_03;0.35232640000000004;0.0022725410975381563;1;axe_out_channels1_0,axe_out_channels1_1,axe_xx1_0,axe_yy1_0,axe_out_channels1_2;128;;;F:8, F:1, X:4, Y:4, F:1, C:2, W:3, X:14, W:1, H:3, X:1, Y:14, C:64, F:16, ;610.4025366306305
157;1;MobilNet_03;0.2902579;0.0030894787408234435;1;axe_out_channels1_0,axe_out_channels1_1,axe_xx1_0,axe_yy1_0,axe_out_channels1_2,axe_xx1_1;1792;;;F:8, F:1, X:4, Y:4, F:1, C:2, W:3, X:14, W:1, H:3, X:1, Y:14, C:64, F:16, ;612.1187238693237
158;0;MobilNet_03;0.45404100000000003;0.011621163564807096;1;axe_out_channels1_0,axe_out_channels1_1,axe_xx1_0,axe_yy1_0,axe_out_channels1_2;128;;;F:1, F:1, X:4, Y:4, F:8, C:4, W:3, X:14, W:1, H:3, X:1, Y:14, C:32, F:16, ;613.8539364337921
158;1;MobilNet_03;0.28238769999999996;0.002757253526609402;1;axe_out_channels1_0,axe_out_channels1_1,axe_xx1_0,axe_yy1_0,axe_out_channels1_2,axe_xx1_1;1792;;;F:1, F:1, X:4, Y:4, F:8, C:4, W:3, X:14, W:1, H:3, X:1, Y:14, C:32, F:16, ;615.5686440467834
159;0;MobilNet_03;0.384166;0.0035913064753651876;1;axe_out_channels1_0,axe_out_channels1_1,axe_xx1_0,axe_yy1_0,axe_out_channels1_2;128;;;F:1, F:2, X:4, Y:4, F:4, C:4, W:3, X:14, W:1, H:3, X:1, Y:14, C:32, F:16, ;617.2967059612274
159;1;MobilNet_03;0.2892359;0.005297595010002177;1;axe_out_channels1_0,axe_out_channels1_1,axe_xx1_0,axe_yy1_0,axe_out_channels1_2,axe_xx1_1;1792;;;F:1, F:2, X:4, Y:4, F:4, C:4, W:3, X:14, W:1, H:3, X:1, Y:14, C:32, F:16, ;619.0085759162903
160;0;MobilNet_03;0.4099117;0.004877616816643146;1;axe_out_channels1_0,axe_out_channels1_1,axe_xx1_0,axe_yy1_0,axe_out_channels1_2;128;;;F:1, F:4, X:4, Y:4, F:2, C:4, W:3, X:14, W:1, H:3, X:1, Y:14, C:32, F:16, ;620.7357144355774
160;1;MobilNet_03;0.28694359999999997;0.006581217701915054;1;axe_out_channels1_0,axe_out_channels1_1,axe_xx1_0,axe_yy1_0,axe_out_channels1_2,axe_xx1_1;1792;;;F:1, F:4, X:4, Y:4, F:2, C:4, W:3, X:14, W:1, H:3, X:1, Y:14, C:32, F:16, ;622.4452278614044
161;0;MobilNet_03;0.4268128;0.0012344050226728756;1;axe_out_channels1_0,axe_out_channels1_1,axe_xx1_0,axe_yy1_0,axe_out_channels1_2;128;;;F:1, F:8, X:4, Y:4, F:1, C:4, W:3, X:14, W:1, H:3, X:1, Y:14, C:32, F:16, ;624.1834042072296
161;1;MobilNet_03;0.2912926;0.008063009056177467;1;axe_out_channels1_0,axe_out_channels1_1,axe_xx1_0,axe_yy1_0,axe_out_channels1_2,axe_xx1_1;1792;;;F:1, F:8, X:4, Y:4, F:1, C:4, W:3, X:14, W:1, H:3, X:1, Y:14, C:32, F:16, ;625.8928873538971
162;0;MobilNet_03;0.37782879999999996;0.0027129003225330613;1;axe_out_channels1_0,axe_out_channels1_1,axe_xx1_0,axe_yy1_0,axe_out_channels1_2;128;;;F:2, F:1, X:4, Y:4, F:4, C:4, W:3, X:14, W:1, H:3, X:1, Y:14, C:32, F:16, ;627.6385736465454
162;1;MobilNet_03;0.2875779;0.0046580364629315585;1;axe_out_channels1_0,axe_out_channels1_1,axe_xx1_0,axe_yy1_0,axe_out_channels1_2,axe_xx1_1;1792;;;F:2, F:1, X:4, Y:4, F:4, C:4, W:3, X:14, W:1, H:3, X:1, Y:14, C:32, F:16, ;629.3500318527222
163;0;MobilNet_03;0.41160040000000003;0.005187729796356002;1;axe_out_channels1_0,axe_out_channels1_1,axe_xx1_0,axe_yy1_0,axe_out_channels1_2;128;;;F:2, F:2, X:4, Y:4, F:2, C:4, W:3, X:14, W:1, H:3, X:1, Y:14, C:32, F:16, ;631.0901305675507
163;1;MobilNet_03;0.28092079999999997;0.0008880708079877343;1;axe_out_channels1_0,axe_out_channels1_1,axe_xx1_0,axe_yy1_0,axe_out_channels1_2,axe_xx1_1;1792;;;F:2, F:2, X:4, Y:4, F:2, C:4, W:3, X:14, W:1, H:3, X:1, Y:14, C:32, F:16, ;632.8042411804199
164;0;MobilNet_03;0.4325952;0.0025499844626977707;1;axe_out_channels1_0,axe_out_channels1_1,axe_xx1_0,axe_yy1_0,axe_out_channels1_2;128;;;F:2, F:4, X:4, Y:4, F:1, C:4, W:3, X:14, W:1, H:3, X:1, Y:14, C:32, F:16, ;634.5440657138824
164;1;MobilNet_03;0.29509739999999995;0.009952269803416697;1;axe_out_channels1_0,axe_out_channels1_1,axe_xx1_0,axe_yy1_0,axe_out_channels1_2,axe_xx1_1;1792;;;F:2, F:4, X:4, Y:4, F:1, C:4, W:3, X:14, W:1, H:3, X:1, Y:14, C:32, F:16, ;636.2541391849518
165;0;MobilNet_03;0.40978539999999997;0.004856741174903191;1;axe_out_channels1_0,axe_out_channels1_1,axe_xx1_0,axe_yy1_0,axe_out_channels1_2;128;;;F:4, F:1, X:4, Y:4, F:2, C:4, W:3, X:14, W:1, H:3, X:1, Y:14, C:32, F:16, ;637.9895014762878
165;1;MobilNet_03;0.2867022;0.007135996535873594;1;axe_out_channels1_0,axe_out_channels1_1,axe_xx1_0,axe_yy1_0,axe_out_channels1_2,axe_xx1_1;1792;;;F:4, F:1, X:4, Y:4, F:2, C:4, W:3, X:14, W:1, H:3, X:1, Y:14, C:32, F:16, ;639.7061898708344
166;0;MobilNet_03;0.43072710000000003;0.001570789129705196;1;axe_out_channels1_0,axe_out_channels1_1,axe_xx1_0,axe_yy1_0,axe_out_channels1_2;128;;;F:4, F:2, X:4, Y:4, F:1, C:4, W:3, X:14, W:1, H:3, X:1, Y:14, C:32, F:16, ;641.4472887516022
166;1;MobilNet_03;0.29103309999999993;0.009469381568508054;1;axe_out_channels1_0,axe_out_channels1_1,axe_xx1_0,axe_yy1_0,axe_out_channels1_2,axe_xx1_1;1792;;;F:4, F:2, X:4, Y:4, F:1, C:4, W:3, X:14, W:1, H:3, X:1, Y:14, C:32, F:16, ;643.1630849838257
167;0;MobilNet_03;0.4306433;0.0029856695078323784;1;axe_out_channels1_0,axe_out_channels1_1,axe_xx1_0,axe_yy1_0,axe_out_channels1_2;128;;;F:8, F:1, X:4, Y:4, F:1, C:4, W:3, X:14, W:1, H:3, X:1, Y:14, C:32, F:16, ;644.9040985107422
167;1;MobilNet_03;0.29262119999999997;0.009455652603601719;1;axe_out_channels1_0,axe_out_channels1_1,axe_xx1_0,axe_yy1_0,axe_out_channels1_2,axe_xx1_1;1792;;;F:8, F:1, X:4, Y:4, F:1, C:4, W:3, X:14, W:1, H:3, X:1, Y:14, C:32, F:16, ;646.6134452819824
168;0;MobilNet_03;0.6138511999999999;0.02366488353573711;1;axe_out_channels1_0,axe_out_channels1_1,axe_xx1_0,axe_yy1_0,axe_out_channels1_2;128;;;F:1, F:1, X:4, Y:4, F:8, C:8, W:3, X:14, W:1, H:3, X:1, Y:14, C:16, F:16, ;648.3537375926971
168;1;MobilNet_03;0.29532529999999996;0.0045867114810068475;1;axe_out_channels1_0,axe_out_channels1_1,axe_xx1_0,axe_yy1_0,axe_out_channels1_2,axe_xx1_1;1792;;;F:1, F:1, X:4, Y:4, F:8, C:8, W:3, X:14, W:1, H:3, X:1, Y:14, C:16, F:16, ;650.0665674209595
169;0;MobilNet_03;0.4607699;0.008315060510302978;1;axe_out_channels1_0,axe_out_channels1_1,axe_xx1_0,axe_yy1_0,axe_out_channels1_2;128;;;F:1, F:2, X:4, Y:4, F:4, C:8, W:3, X:14, W:1, H:3, X:1, Y:14, C:16, F:16, ;651.7992360591888
169;1;MobilNet_03;0.29591599999999996;0.002991649310998865;1;axe_out_channels1_0,axe_out_channels1_1,axe_xx1_0,axe_yy1_0,axe_out_channels1_2,axe_xx1_1;1792;;;F:1, F:2, X:4, Y:4, F:4, C:8, W:3, X:14, W:1, H:3, X:1, Y:14, C:16, F:16, ;653.5088324546814
170;0;MobilNet_03;0.5414398;0.005153400446307282;1;axe_out_channels1_0,axe_out_channels1_1,axe_xx1_0,axe_yy1_0,axe_out_channels1_2;128;;;F:1, F:4, X:4, Y:4, F:2, C:8, W:3, X:14, W:1, H:3, X:1, Y:14, C:16, F:16, ;655.2404472827911
170;1;MobilNet_03;0.29133;0.003490865737893681;1;axe_out_channels1_0,axe_out_channels1_1,axe_xx1_0,axe_yy1_0,axe_out_channels1_2,axe_xx1_1;1792;;;F:1, F:4, X:4, Y:4, F:2, C:8, W:3, X:14, W:1, H:3, X:1, Y:14, C:16, F:16, ;656.9512610435486
171;0;MobilNet_03;0.615096;0.0030307221911617054;1;axe_out_channels1_0,axe_out_channels1_1,axe_xx1_0,axe_yy1_0,axe_out_channels1_2;128;;;F:1, F:8, X:4, Y:4, F:1, C:8, W:3, X:14, W:1, H:3, X:1, Y:14, C:16, F:16, ;658.6949465274811
171;1;MobilNet_03;0.29371810000000004;0.0035524744742221528;1;axe_out_channels1_0,axe_out_channels1_1,axe_xx1_0,axe_yy1_0,axe_out_channels1_2,axe_xx1_1;1792;;;F:1, F:8, X:4, Y:4, F:1, C:8, W:3, X:14, W:1, H:3, X:1, Y:14, C:16, F:16, ;660.4057626724243
172;0;MobilNet_03;0.4617672;0.00804212271480609;1;axe_out_channels1_0,axe_out_channels1_1,axe_xx1_0,axe_yy1_0,axe_out_channels1_2;128;;;F:2, F:1, X:4, Y:4, F:4, C:8, W:3, X:14, W:1, H:3, X:1, Y:14, C:16, F:16, ;662.1358716487885
172;1;MobilNet_03;0.2943445;0.0013592872580878543;1;axe_out_channels1_0,axe_out_channels1_1,axe_xx1_0,axe_yy1_0,axe_out_channels1_2,axe_xx1_1;1792;;;F:2, F:1, X:4, Y:4, F:4, C:8, W:3, X:14, W:1, H:3, X:1, Y:14, C:16, F:16, ;663.851044178009
173;0;MobilNet_03;0.5428828;0.002537837378556783;1;axe_out_channels1_0,axe_out_channels1_1,axe_xx1_0,axe_yy1_0,axe_out_channels1_2;128;;;F:2, F:2, X:4, Y:4, F:2, C:8, W:3, X:14, W:1, H:3, X:1, Y:14, C:16, F:16, ;665.5848526954651
173;1;MobilNet_03;0.2924585;0.003722531322903813;1;axe_out_channels1_0,axe_out_channels1_1,axe_xx1_0,axe_yy1_0,axe_out_channels1_2,axe_xx1_1;1792;;;F:2, F:2, X:4, Y:4, F:2, C:8, W:3, X:14, W:1, H:3, X:1, Y:14, C:16, F:16, ;667.296187877655
174;0;MobilNet_03;0.6149725;0.0025482706390805576;1;axe_out_channels1_0,axe_out_channels1_1,axe_xx1_0,axe_yy1_0,axe_out_channels1_2;128;;;F:2, F:4, X:4, Y:4, F:1, C:8, W:3, X:14, W:1, H:3, X:1, Y:14, C:16, F:16, ;669.0395221710205
174;1;MobilNet_03;0.3021529;0.011244066688258288;1;axe_out_channels1_0,axe_out_channels1_1,axe_xx1_0,axe_yy1_0,axe_out_channels1_2,axe_xx1_1;1792;;;F:2, F:4, X:4, Y:4, F:1, C:8, W:3, X:14, W:1, H:3, X:1, Y:14, C:16, F:16, ;670.7493443489075
175;0;MobilNet_03;0.5430598;0.003972661395085184;1;axe_out_channels1_0,axe_out_channels1_1,axe_xx1_0,axe_yy1_0,axe_out_channels1_2;128;;;F:4, F:1, X:4, Y:4, F:2, C:8, W:3, X:14, W:1, H:3, X:1, Y:14, C:16, F:16, ;672.4841041564941
175;1;MobilNet_03;0.2915724;0.0031900228902000064;1;axe_out_channels1_0,axe_out_channels1_1,axe_xx1_0,axe_yy1_0,axe_out_channels1_2,axe_xx1_1;1792;;;F:4, F:1, X:4, Y:4, F:2, C:8, W:3, X:14, W:1, H:3, X:1, Y:14, C:16, F:16, ;674.198450088501
176;0;MobilNet_03;0.6166508;0.0017431406598435715;1;axe_out_channels1_0,axe_out_channels1_1,axe_xx1_0,axe_yy1_0,axe_out_channels1_2;128;;;F:4, F:2, X:4, Y:4, F:1, C:8, W:3, X:14, W:1, H:3, X:1, Y:14, C:16, F:16, ;675.946038722992
176;1;MobilNet_03;0.295141;0.005446229907009074;1;axe_out_channels1_0,axe_out_channels1_1,axe_xx1_0,axe_yy1_0,axe_out_channels1_2,axe_xx1_1;1792;;;F:4, F:2, X:4, Y:4, F:1, C:8, W:3, X:14, W:1, H:3, X:1, Y:14, C:16, F:16, ;677.657116651535
177;0;MobilNet_03;1.3104387;0.11014770800252723;1;axe_out_channels1_0,axe_out_channels1_1,axe_xx1_0,axe_yy1_0,axe_out_channels1_2;128;;;F:8, F:1, X:4, Y:4, F:1, C:8, W:3, X:14, W:1, H:3, X:1, Y:14, C:16, F:16, ;679.56165599823
177;1;MobilNet_03;0.2983694;0.00962507432906364;1;axe_out_channels1_0,axe_out_channels1_1,axe_xx1_0,axe_yy1_0,axe_out_channels1_2,axe_xx1_1;1792;;;F:8, F:1, X:4, Y:4, F:1, C:8, W:3, X:14, W:1, H:3, X:1, Y:14, C:16, F:16, ;681.4320249557495
178;0;MobilNet_03;2.8009057;0.01433225794527853;2;axe_yy1_0,axe_xx1_0,axe_out_channels1_0;28;axe_xx2_1;28;Y:7, X:2, F:2, C:4, H:3, X:28, W:3, H:1, X:1, Y:4, C:32, F:64, ;683.6916146278381
178;1;MobilNet_03;0.4090446;0.0014769513329829112;2;axe_yy1_0,axe_xx1_0,axe_out_channels1_0,axe_xx1_1;784;axe_yy2_0,axe_xx2_0,axe_out_channels2_0,axe_xx2_1;448;Y:7, X:2, F:2, C:4, H:3, X:28, W:3, H:1, X:1, Y:4, C:32, F:64, ;685.8448808193207
179;0;MobilNet_03;0.3448628000000001;0.0027333083177717137;1;axe_yy1_0,axe_xx1_0,axe_out_channels1_0;64;;;Y:8, X:4, F:2, C:2, H:3, X:14, W:3, H:1, X:1, Y:7, C:64, F:64, ;687.5770485401154
179;1;MobilNet_03;0.35742419999999997;0.006815007319145004;1;axe_yy1_0,axe_xx1_0,axe_out_channels1_0,axe_xx1_1;896;;;Y:8, X:4, F:2, C:2, H:3, X:14, W:3, H:1, X:1, Y:7, C:64, F:64, ;689.3087866306305
180;0;MobilNet_03;0.6973511;0.0034215025193619435;2;axe_xx1_0,axe_yy1_0,axe_xx1_1,axe_out_channels1_0;80;axe_xx2_0,axe_yy2_0,axe_xx2_1,axe_out_channels2_0;16;X:1, Y:5, X:4, F:4, C:4, W:3, X:14, H:3, W:1, H:1, X:1, Y:9, C:32, F:32, ;691.4432318210602
180;1;MobilNet_03;0.3806997;0.0006365844877154968;2;axe_xx1_0,axe_yy1_0,axe_xx1_1,axe_out_channels1_0,axe_xx1_2;1120;axe_xx2_0,axe_yy2_0,axe_xx2_1,axe_out_channels2_0,axe_xx2_2;224;X:1, Y:5, X:4, F:4, C:4, W:3, X:14, H:3, W:1, H:1, X:1, Y:9, C:32, F:32, ;693.56378698349
181;0;MobilNet_03;0.6961349;0.00537569270792145;2;axe_xx1_0,axe_yy1_0,axe_xx1_1,axe_out_channels1_0;80;axe_xx2_0,axe_yy2_0,axe_xx2_1,axe_out_channels2_0;16;X:2, Y:5, X:2, F:4, C:4, W:3, X:14, H:3, W:1, H:1, X:1, Y:9, C:32, F:32, ;695.7036504745483
181;1;MobilNet_03;0.38135769999999997;0.0006630279104230808;2;axe_xx1_0,axe_yy1_0,axe_xx1_1,axe_out_channels1_0,axe_xx1_2;1120;axe_xx2_0,axe_yy2_0,axe_xx2_1,axe_out_channels2_0,axe_xx2_2;224;X:2, Y:5, X:2, F:4, C:4, W:3, X:14, H:3, W:1, H:1, X:1, Y:9, C:32, F:32, ;697.8458440303802
182;0;MobilNet_03;0.6966336;0.00350994157216325;2;axe_xx1_0,axe_yy1_0,axe_xx1_1,axe_out_channels1_0;80;axe_xx2_0,axe_yy2_0,axe_xx2_1,axe_out_channels2_0;16;X:4, Y:5, X:1, F:4, C:4, W:3, X:14, H:3, W:1, H:1, X:1, Y:9, C:32, F:32, ;699.976396560669
182;1;MobilNet_03;0.3810567;0.0009372906752976999;2;axe_xx1_0,axe_yy1_0,axe_xx1_1,axe_out_channels1_0,axe_xx1_2;1120;axe_xx2_0,axe_yy2_0,axe_xx2_1,axe_out_channels2_0,axe_xx2_2;224;X:4, Y:5, X:1, F:4, C:4, W:3, X:14, H:3, W:1, H:1, X:1, Y:9, C:32, F:32, ;702.0859162807465
183;0;MobilNet_03;0.6689806999999999;0.003759429798519989;2;axe_xx1_0,axe_yy1_0,axe_xx1_1,axe_out_channels1_0;80;axe_xx2_0,axe_yy2_0,axe_xx2_1,axe_out_channels2_0;16;X:1, Y:5, X:4, F:4, C:4, W:3, X:14, W:1, H:3, X:1, Y:9, C:32, F:32, ;704.2376730442047
183;1;MobilNet_03;0.33278290000000005;0.0033274142648609347;2;axe_xx1_0,axe_yy1_0,axe_xx1_1,axe_out_channels1_0,axe_xx1_2;1120;axe_xx2_0,axe_yy2_0,axe_xx2_1,axe_out_channels2_0,axe_xx2_2;224;X:1, Y:5, X:4, F:4, C:4, W:3, X:14, W:1, H:3, X:1, Y:9, C:32, F:32, ;706.3710725307465
184;0;MobilNet_03;0.6638306999999999;0.005133030489876326;2;axe_xx1_0,axe_yy1_0,axe_xx1_1,axe_out_channels1_0;80;axe_xx2_0,axe_yy2_0,axe_xx2_1,axe_out_channels2_0;16;X:2, Y:5, X:2, F:4, C:4, W:3, X:14, W:1, H:3, X:1, Y:9, C:32, F:32, ;708.5231490135193
184;1;MobilNet_03;0.32911830000000003;0.001737084629486996;2;axe_xx1_0,axe_yy1_0,axe_xx1_1,axe_out_channels1_0,axe_xx1_2;1120;axe_xx2_0,axe_yy2_0,axe_xx2_1,axe_out_channels2_0,axe_xx2_2;224;X:2, Y:5, X:2, F:4, C:4, W:3, X:14, W:1, H:3, X:1, Y:9, C:32, F:32, ;710.6580696105957
185;0;MobilNet_03;0.6725725000000001;0.004320317332094951;2;axe_xx1_0,axe_yy1_0,axe_xx1_1,axe_out_channels1_0;80;axe_xx2_0,axe_yy2_0,axe_xx2_1,axe_out_channels2_0;16;X:4, Y:5, X:1, F:4, C:4, W:3, X:14, W:1, H:3, X:1, Y:9, C:32, F:32, ;712.8087856769562
185;1;MobilNet_03;0.32934220000000003;0.0013660789728269626;2;axe_xx1_0,axe_yy1_0,axe_xx1_1,axe_out_channels1_0,axe_xx1_2;1120;axe_xx2_0,axe_yy2_0,axe_xx2_1,axe_out_channels2_0,axe_xx2_2;224;X:4, Y:5, X:1, F:4, C:4, W:3, X:14, W:1, H:3, X:1, Y:9, C:32, F:32, ;714.9348936080933
186;0;MobilNet_03;1.5322168;0.01040857980514151;1;axe_xx1_1;56;;;Y:8, X:1, F:2, C:2, H:3, X:56, W:3, H:1, X:1, Y:7, C:64, F:64, ;716.7316868305206
186;1;MobilNet_03;0.3957216;0.008130609942679586;1;axe_yy1_0,axe_xx1_0,axe_out_channels1_0,axe_xx1_1;896;;;Y:8, X:1, F:2, C:2, H:3, X:56, W:3, H:1, X:1, Y:7, C:64, F:64, ;718.4657826423645
187;0;MobilNet_03;2.8099867000000005;0.009536476865698215;2;axe_out_channels1_0,axe_out_channels1_1,axe_xx1_0,axe_yy1_0,axe_out_channels1_2;80;axe_xx2_1;28;F:1, F:1, X:2, Y:5, F:8, C:4, W:3, X:28, W:1, H:3, X:1, Y:9, C:32, F:16, ;720.689689874649
187;1;MobilNet_03;0.3590904;0.0036137234869314675;2;axe_out_channels1_0,axe_out_channels1_1,axe_xx1_0,axe_yy1_0,axe_out_channels1_2,axe_xx1_1;2240;axe_out_channels2_0,axe_out_channels2_1,axe_xx2_0,axe_yy2_0,axe_out_channels2_2,axe_xx2_1;448;F:1, F:1, X:2, Y:5, F:8, C:4, W:3, X:28, W:1, H:3, X:1, Y:9, C:32, F:16, ;722.8005092144012
188;0;MobilNet_03;2.7925636000000003;0.018067596388009213;2;axe_out_channels1_0,axe_out_channels1_1,axe_xx1_0,axe_yy1_0,axe_out_channels1_2;80;axe_xx2_1;28;F:1, F:2, X:2, Y:5, F:4, C:4, W:3, X:28, W:1, H:3, X:1, Y:9, C:32, F:16, ;725.0308649539948
188;1;MobilNet_03;0.3591633;0.0033449726172272267;2;axe_out_channels1_0,axe_out_channels1_1,axe_xx1_0,axe_yy1_0,axe_out_channels1_2,axe_xx1_1;2240;axe_out_channels2_0,axe_out_channels2_1,axe_xx2_0,axe_yy2_0,axe_out_channels2_2,axe_xx2_1;448;F:1, F:2, X:2, Y:5, F:4, C:4, W:3, X:28, W:1, H:3, X:1, Y:9, C:32, F:16, ;727.1439805030823
189;0;MobilNet_03;2.7217133000000002;0.0055822300212371185;2;axe_out_channels1_0,axe_out_channels1_1,axe_xx1_0,axe_yy1_0,axe_out_channels1_2;80;axe_xx2_1;28;F:1, F:4, X:2, Y:5, F:2, C:4, W:3, X:28, W:1, H:3, X:1, Y:9, C:32, F:16, ;729.3700931072235
189;1;MobilNet_03;0.35769899999999993;0.003101792642972765;2;axe_out_channels1_0,axe_out_channels1_1,axe_xx1_0,axe_yy1_0,axe_out_channels1_2,axe_xx1_1;2240;axe_out_channels2_0,axe_out_channels2_1,axe_xx2_0,axe_yy2_0,axe_out_channels2_2,axe_xx2_1;448;F:1, F:4, X:2, Y:5, F:2, C:4, W:3, X:28, W:1, H:3, X:1, Y:9, C:32, F:16, ;731.483076095581
190;0;MobilNet_03;2.6970633999999998;0.00576826802775335;2;axe_out_channels1_0,axe_out_channels1_1,axe_xx1_0,axe_yy1_0,axe_out_channels1_2;80;axe_xx2_1;28;F:1, F:8, X:2, Y:5, F:1, C:4, W:3, X:28, W:1, H:3, X:1, Y:9, C:32, F:16, ;733.7084038257599
190;1;MobilNet_03;0.3628698;0.004609715843737008;2;axe_out_channels1_0,axe_out_channels1_1,axe_xx1_0,axe_yy1_0,axe_out_channels1_2,axe_xx1_1;2240;axe_out_channels2_0,axe_out_channels2_1,axe_xx2_0,axe_yy2_0,axe_out_channels2_2,axe_xx2_1;448;F:1, F:8, X:2, Y:5, F:1, C:4, W:3, X:28, W:1, H:3, X:1, Y:9, C:32, F:16, ;735.8138651847839
191;0;MobilNet_03;2.7754054000000004;0.019193332504804952;2;axe_out_channels1_0,axe_out_channels1_1,axe_xx1_0,axe_yy1_0,axe_out_channels1_2;80;axe_xx2_1;28;F:2, F:1, X:2, Y:5, F:4, C:4, W:3, X:28, W:1, H:3, X:1, Y:9, C:32, F:16, ;738.0426087379456
191;1;MobilNet_03;0.35987889999999995;0.0029810911911580485;2;axe_out_channels1_0,axe_out_channels1_1,axe_xx1_0,axe_yy1_0,axe_out_channels1_2,axe_xx1_1;2240;axe_out_channels2_0,axe_out_channels2_1,axe_xx2_0,axe_yy2_0,axe_out_channels2_2,axe_xx2_1;448;F:2, F:1, X:2, Y:5, F:4, C:4, W:3, X:28, W:1, H:3, X:1, Y:9, C:32, F:16, ;740.1568853855133
192;0;MobilNet_03;2.7751362000000004;0.014021467796204563;2;axe_out_channels1_0,axe_out_channels1_1,axe_xx1_0,axe_yy1_0,axe_out_channels1_2;80;axe_xx2_1;28;F:2, F:2, X:2, Y:5, F:2, C:4, W:3, X:28, W:1, H:3, X:1, Y:9, C:32, F:16, ;742.399288892746
192;1;MobilNet_03;0.3604136;0.003907867044821253;2;axe_out_channels1_0,axe_out_channels1_1,axe_xx1_0,axe_yy1_0,axe_out_channels1_2,axe_xx1_1;2240;axe_out_channels2_0,axe_out_channels2_1,axe_xx2_0,axe_yy2_0,axe_out_channels2_2,axe_xx2_1;448;F:2, F:2, X:2, Y:5, F:2, C:4, W:3, X:28, W:1, H:3, X:1, Y:9, C:32, F:16, ;744.5116300582886
193;0;MobilNet_03;2.6750447;0.010662256572133261;2;axe_out_channels1_0,axe_out_channels1_1,axe_xx1_0,axe_yy1_0,axe_out_channels1_2;80;axe_xx2_1;28;F:2, F:4, X:2, Y:5, F:1, C:4, W:3, X:28, W:1, H:3, X:1, Y:9, C:32, F:16, ;746.73916888237
193;1;MobilNet_03;0.36089430000000006;0.004295975559753566;2;axe_out_channels1_0,axe_out_channels1_1,axe_xx1_0,axe_yy1_0,axe_out_channels1_2,axe_xx1_1;2240;axe_out_channels2_0,axe_out_channels2_1,axe_xx2_0,axe_yy2_0,axe_out_channels2_2,axe_xx2_1;448;F:2, F:4, X:2, Y:5, F:1, C:4, W:3, X:28, W:1, H:3, X:1, Y:9, C:32, F:16, ;748.8458054065704
194;0;MobilNet_03;2.748129;0.013125863994419508;2;axe_out_channels1_0,axe_out_channels1_1,axe_xx1_0,axe_yy1_0,axe_out_channels1_2;80;axe_xx2_1;28;F:4, F:1, X:2, Y:5, F:2, C:4, W:3, X:28, W:1, H:3, X:1, Y:9, C:32, F:16, ;751.0739994049072
194;1;MobilNet_03;0.3701078;0.015590870282315865;2;axe_out_channels1_0,axe_out_channels1_1,axe_xx1_0,axe_yy1_0,axe_out_channels1_2,axe_xx1_1;2240;axe_out_channels2_0,axe_out_channels2_1,axe_xx2_0,axe_yy2_0,axe_out_channels2_2,axe_xx2_1;448;F:4, F:1, X:2, Y:5, F:2, C:4, W:3, X:28, W:1, H:3, X:1, Y:9, C:32, F:16, ;753.2033448219299
195;0;MobilNet_03;2.7097252000000003;0.01047458249096355;2;axe_out_channels1_0,axe_out_channels1_1,axe_xx1_0,axe_yy1_0,axe_out_channels1_2;80;axe_xx2_1;28;F:4, F:2, X:2, Y:5, F:1, C:4, W:3, X:28, W:1, H:3, X:1, Y:9, C:32, F:16, ;755.4418587684631
195;1;MobilNet_03;0.3617751;0.004110029986508624;2;axe_out_channels1_0,axe_out_channels1_1,axe_xx1_0,axe_yy1_0,axe_out_channels1_2,axe_xx1_1;2240;axe_out_channels2_0,axe_out_channels2_1,axe_xx2_0,axe_yy2_0,axe_out_channels2_2,axe_xx2_1;448;F:4, F:2, X:2, Y:5, F:1, C:4, W:3, X:28, W:1, H:3, X:1, Y:9, C:32, F:16, ;757.5529336929321
196;0;MobilNet_03;2.6816407999999994;0.004912699111486476;2;axe_out_channels1_0,axe_out_channels1_1,axe_xx1_0,axe_yy1_0,axe_out_channels1_2;80;axe_xx2_1;28;F:8, F:1, X:2, Y:5, F:1, C:4, W:3, X:28, W:1, H:3, X:1, Y:9, C:32, F:16, ;759.7803938388824
196;1;MobilNet_03;0.36180500000000004;0.004808971636431227;2;axe_out_channels1_0,axe_out_channels1_1,axe_xx1_0,axe_yy1_0,axe_out_channels1_2,axe_xx1_1;2240;axe_out_channels2_0,axe_out_channels2_1,axe_xx2_0,axe_yy2_0,axe_out_channels2_2,axe_xx2_1;448;F:8, F:1, X:2, Y:5, F:1, C:4, W:3, X:28, W:1, H:3, X:1, Y:9, C:32, F:16, ;761.8887779712677
197;0;MobilNet_03;0.3203316;0.0011934391647670918;1;axe_out_channels1_0,axe_out_channels1_1,axe_xx1_0,axe_yy1_0,axe_out_channels1_2;448;;;F:1, F:8, X:14, Y:4, F:1, C:1, W:3, X:4, W:1, H:3, X:1, Y:14, C:128, F:16, ;763.6254832744598
197;1;MobilNet_03;0.28408449999999996;0.0026090747881193474;1;axe_out_channels1_0,axe_out_channels1_1,axe_xx1_0,axe_yy1_0,axe_out_channels1_2,axe_xx1_1;1792;;;F:1, F:8, X:14, Y:4, F:1, C:1, W:3, X:4, W:1, H:3, X:1, Y:14, C:128, F:16, ;765.3390417098999
198;0;MobilNet_03;0.32323450000000004;0.0033106043028426012;1;axe_out_channels1_0,axe_out_channels1_1,axe_xx1_0,axe_yy1_0,axe_out_channels1_2;448;;;F:2, F:4, X:14, Y:4, F:1, C:1, W:3, X:4, W:1, H:3, X:1, Y:14, C:128, F:16, ;767.0779345035553
198;1;MobilNet_03;0.2838285;0.0033321620083663385;1;axe_out_channels1_0,axe_out_channels1_1,axe_xx1_0,axe_yy1_0,axe_out_channels1_2,axe_xx1_1;1792;;;F:2, F:4, X:14, Y:4, F:1, C:1, W:3, X:4, W:1, H:3, X:1, Y:14, C:128, F:16, ;768.7883586883545
199;0;MobilNet_03;0.3219668;0.0025389035349930034;1;axe_out_channels1_0,axe_out_channels1_1,axe_xx1_0,axe_yy1_0,axe_out_channels1_2;448;;;F:4, F:2, X:14, Y:4, F:1, C:1, W:3, X:4, W:1, H:3, X:1, Y:14, C:128, F:16, ;770.5702171325684
199;1;MobilNet_03;0.28289210000000004;0.002110004808051401;1;axe_out_channels1_0,axe_out_channels1_1,axe_xx1_0,axe_yy1_0,axe_out_channels1_2,axe_xx1_1;1792;;;F:4, F:2, X:14, Y:4, F:1, C:1, W:3, X:4, W:1, H:3, X:1, Y:14, C:128, F:16, ;772.2806906700134
