...47%, 0.01 MB, 30 KB/s, 0 seconds passed...94%, 0.02 MB, 61 KB/s, 0 seconds passed...100%, 0.02 MB, 92 KB/s, 0 seconds passed
[Task MobilNet_01] Current/Best:    0.00/   0.00 GFLOPS | Progress: (0/792) | 0.00 s
[Task MobilNet_01] Current/Best:   30.56/  68.86 GFLOPS | Progress: (36/792) | 28.56 s
[Task MobilNet_01] Current/Best:   17.24/  69.00 GFLOPS | Progress: (72/792) | 54.58 s
[Task MobilNet_01] Current/Best:   68.13/  69.00 GFLOPS | Progress: (108/792) | 73.20 s
[Task MobilNet_01] Current/Best:   66.40/  69.00 GFLOPS | Progress: (144/792) | 94.28 s
[Task MobilNet_01] Current/Best:   52.78/  69.00 GFLOPS | Progress: (180/792) | 113.11 s
[Task MobilNet_01] Current/Best:   17.67/  69.00 GFLOPS | Progress: (216/792) | 136.90 s
[Task MobilNet_01] Current/Best:   65.84/  69.00 GFLOPS | Progress: (252/792) | 156.15 s
[Task MobilNet_01] Current/Best:    6.78/  69.00 GFLOPS | Progress: (288/792) | 179.35 s
[Task MobilNet_01] Current/Best:   46.88/  69.00 GFLOPS | Progress: (324/792) | 207.24 s
[Task MobilNet_01] Current/Best:   54.68/  69.00 GFLOPS | Progress: (360/792) | 231.05 s
[Task MobilNet_01] Current/Best:    6.96/  69.00 GFLOPS | Progress: (396/792) | 266.10 s
[Task MobilNet_01] Current/Best:   55.26/  69.00 GFLOPS | Progress: (432/792) | 286.26 s
[Task MobilNet_01] Current/Best:    8.90/  69.00 GFLOPS | Progress: (468/792) | 316.90 s
[Task MobilNet_01] Current/Best:    8.85/  69.00 GFLOPS | Progress: (504/792) | 347.91 s
[Task MobilNet_01] Current/Best:   36.16/  69.00 GFLOPS | Progress: (540/792) | 382.25 s
[Task MobilNet_01] Current/Best:   14.70/  69.00 GFLOPS | Progress: (576/792) | 408.22 s
[Task MobilNet_01] Current/Best:    6.70/  69.00 GFLOPS | Progress: (612/792) | 440.97 s
[Task MobilNet_01] Current/Best:    9.51/  69.00 GFLOPS | Progress: (648/792) | 470.13 s
[Task MobilNet_01] Current/Best:    8.88/  69.00 GFLOPS | Progress: (684/792) | 498.26 s
[Task MobilNet_01] Current/Best:   17.52/  69.00 GFLOPS | Progress: (720/792) | 528.12 s
[Task MobilNet_01] Current/Best:   28.27/  69.00 GFLOPS | Progress: (756/792) | 559.67 s
[Task MobilNet_01] Current/Best:    6.56/  69.00 GFLOPS | Progress: (792/792) | 592.45 s
 Done.
[Task MobilNet_02] Current/Best:    0.00/   0.00 GFLOPS | Progress: (0/980) | 0.00 s
[Task MobilNet_02] Current/Best:   10.84/  67.77 GFLOPS | Progress: (36/980) | 29.64 s
[Task MobilNet_02] Current/Best:   59.62/  67.77 GFLOPS | Progress: (72/980) | 58.52 s
[Task MobilNet_02] Current/Best:   65.17/  67.77 GFLOPS | Progress: (108/980) | 79.66 s
[Task MobilNet_02] Current/Best:    4.27/  67.90 GFLOPS | Progress: (144/980) | 104.36 s
[Task MobilNet_02] Current/Best:   56.96/  68.21 GFLOPS | Progress: (180/980) | 125.63 s
[Task MobilNet_02] Current/Best:   38.49/  68.21 GFLOPS | Progress: (216/980) | 151.89 s
[Task MobilNet_02] Current/Best:   64.26/  68.21 GFLOPS | Progress: (252/980) | 173.31 s
[Task MobilNet_02] Current/Best:   11.22/  68.21 GFLOPS | Progress: (288/980) | 201.92 s
[Task MobilNet_02] Current/Best:   11.20/  68.21 GFLOPS | Progress: (324/980) | 228.42 s
[Task MobilNet_02] Current/Best:    3.82/  68.21 GFLOPS | Progress: (360/980) | 257.55 s
[Task MobilNet_02] Current/Best:   29.49/  68.21 GFLOPS | Progress: (396/980) | 288.38 s
[Task MobilNet_02] Current/Best:   11.94/  68.21 GFLOPS | Progress: (432/980) | 310.53 s
[Task MobilNet_02] Current/Best:    9.19/  68.21 GFLOPS | Progress: (468/980) | 342.94 s
[Task MobilNet_02] Current/Best:   40.07/  68.21 GFLOPS | Progress: (504/980) | 365.09 s
[Task MobilNet_02] Current/Best:   26.64/  68.21 GFLOPS | Progress: (540/980) | 397.89 s
[Task MobilNet_02] Current/Best:    9.46/  68.21 GFLOPS | Progress: (576/980) | 429.35 s
[Task MobilNet_02] Current/Best:   31.40/  68.21 GFLOPS | Progress: (612/980) | 457.24 s
[Task MobilNet_02] Current/Best:   23.09/  68.21 GFLOPS | Progress: (648/980) | 491.36 s
[Task MobilNet_02] Current/Best:    6.10/  68.21 GFLOPS | Progress: (684/980) | 518.78 s
[Task MobilNet_02] Current/Best:   30.16/  68.21 GFLOPS | Progress: (720/980) | 554.52 s
[Task MobilNet_02] Current/Best:   10.68/  68.21 GFLOPS | Progress: (756/980) | 586.98 s
[Task MobilNet_02] Current/Best:   22.39/  68.21 GFLOPS | Progress: (792/980) | 621.77 s
[Task MobilNet_02] Current/Best:   17.32/  68.21 GFLOPS | Progress: (828/980) | 651.89 s
[Task MobilNet_02] Current/Best:   22.86/  68.21 GFLOPS | Progress: (864/980) | 688.72 s
[Task MobilNet_02] Current/Best:   13.52/  68.21 GFLOPS | Progress: (900/980) | 728.46 s
[Task MobilNet_02] Current/Best:    4.44/  68.21 GFLOPS | Progress: (936/980) | 762.68 s
[Task MobilNet_02] Current/Best:    4.48/  68.21 GFLOPS | Progress: (972/980) | 797.82 s
[Task MobilNet_02] Current/Best:   12.90/  68.21 GFLOPS | Progress: (980/980) | 805.37 s
 Done.
[Task MobilNet_03] Current/Best:    0.00/   0.00 GFLOPS | Progress: (0/1280) | 0.00 s
[Task MobilNet_03] Current/Best:   68.69/  69.29 GFLOPS | Progress: (36/1280) | 46.14 s
[Task MobilNet_03] Current/Best:   17.78/  69.29 GFLOPS | Progress: (72/1280) | 93.57 s
[Task MobilNet_03] Current/Best:   68.76/  69.53 GFLOPS | Progress: (108/1280) | 117.89 s
[Task MobilNet_03] Current/Best:   34.79/  69.53 GFLOPS | Progress: (144/1280) | 158.69 s
[Task MobilNet_03] Current/Best:   69.33/  69.54 GFLOPS | Progress: (180/1280) | 182.43 s
[Task MobilNet_03] Current/Best:   69.26/  69.54 GFLOPS | Progress: (216/1280) | 224.38 s
[Task MobilNet_03] Current/Best:   69.35/  69.54 GFLOPS | Progress: (252/1280) | 248.61 s
[Task MobilNet_03] Current/Best:   17.45/  69.54 GFLOPS | Progress: (288/1280) | 286.19 s
[Task MobilNet_03] Current/Best:   67.10/  69.54 GFLOPS | Progress: (324/1280) | 312.89 s
[Task MobilNet_03] Current/Best:   25.56/  69.54 GFLOPS | Progress: (360/1280) | 354.08 s
[Task MobilNet_03] Current/Best:   30.08/  69.54 GFLOPS | Progress: (396/1280) | 404.19 s
[Task MobilNet_03] Current/Best:   59.66/  69.54 GFLOPS | Progress: (432/1280) | 429.86 s
[Task MobilNet_03] Current/Best:   33.64/  69.54 GFLOPS | Progress: (468/1280) | 481.92 s
[Task MobilNet_03] Current/Best:   52.34/  69.54 GFLOPS | Progress: (504/1280) | 507.61 s
[Task MobilNet_03] Current/Best:    2.24/  69.54 GFLOPS | Progress: (540/1280) | 566.82 s
[Task MobilNet_03] Current/Best:    6.60/  69.54 GFLOPS | Progress: (576/1280) | 608.36 s
[Task MobilNet_03] Current/Best:   29.19/  69.54 GFLOPS | Progress: (612/1280) | 643.55 s
[Task MobilNet_03] Current/Best:    6.47/  69.54 GFLOPS | Progress: (648/1280) | 702.56 s
[Task MobilNet_03] Current/Best:    6.62/  69.54 GFLOPS | Progress: (684/1280) | 748.68 s
[Task MobilNet_03] Current/Best:    8.98/  69.54 GFLOPS | Progress: (720/1280) | 801.12 s
[Task MobilNet_03] Current/Best:   41.11/  69.54 GFLOPS | Progress: (756/1280) | 829.38 s
[Task MobilNet_03] Current/Best:   13.20/  69.54 GFLOPS | Progress: (792/1280) | 877.21 s
[Task MobilNet_03] Current/Best:   27.42/  69.54 GFLOPS | Progress: (828/1280) | 924.75 s
[Task MobilNet_03] Current/Best:    6.72/  69.54 GFLOPS | Progress: (864/1280) | 975.55 s
[Task MobilNet_03] Current/Best:   17.51/  69.54 GFLOPS | Progress: (900/1280) | 1029.25 s
[Task MobilNet_03] Current/Best:   13.43/  69.54 GFLOPS | Progress: (936/1280) | 1081.06 s
[Task MobilNet_03] Current/Best:   32.11/  69.54 GFLOPS | Progress: (972/1280) | 1164.72 s
[Task MobilNet_03] Current/Best:   26.99/  69.54 GFLOPS | Progress: (1008/1280) | 1211.67 s
[Task MobilNet_03] Current/Best:   26.73/  69.54 GFLOPS | Progress: (1044/1280) | 1283.31 s
[Task MobilNet_03] Current/Best:   30.31/  69.54 GFLOPS | Progress: (1080/1280) | 1353.29 s
[Task MobilNet_03] Current/Best:    8.77/  69.54 GFLOPS | Progress: (1116/1280) | 1416.25 s
[Task MobilNet_03] Current/Best:   28.48/  69.54 GFLOPS | Progress: (1152/1280) | 1480.23 s
[Task MobilNet_03] Current/Best:   27.08/  69.54 GFLOPS | Progress: (1188/1280) | 1552.87 s
[Task MobilNet_03] Current/Best:    8.72/  69.54 GFLOPS | Progress: (1224/1280) | 1615.12 s
[Task MobilNet_03] Current/Best:   17.02/  69.54 GFLOPS | Progress: (1260/1280) | 1679.27 s
[Task MobilNet_03] Current/Best:    1.12/  69.54 GFLOPS | Progress: (1280/1280) | 1728.13 s
 Done.
[Task MobilNet_04] Current/Best:    0.00/   0.00 GFLOPS | Progress: (0/1024) | 0.00 s
[Task MobilNet_04] Current/Best:   45.07/  66.94 GFLOPS | Progress: (36/1024) | 25.13 s
[Task MobilNet_04] Current/Best:   63.34/  66.94 GFLOPS | Progress: (72/1024) | 51.53 s
[Task MobilNet_04] Current/Best:   67.01/  67.78 GFLOPS | Progress: (108/1024) | 70.17 s
[Task MobilNet_04] Current/Best:   62.97/  67.78 GFLOPS | Progress: (144/1024) | 96.37 s
[Task MobilNet_04] Current/Best:   64.64/  67.78 GFLOPS | Progress: (180/1024) | 115.21 s
[Task MobilNet_04] Current/Best:   61.25/  67.78 GFLOPS | Progress: (216/1024) | 137.57 s
[Task MobilNet_04] Current/Best:   64.35/  67.78 GFLOPS | Progress: (252/1024) | 156.45 s
[Task MobilNet_04] Current/Best:   24.08/  67.78 GFLOPS | Progress: (288/1024) | 183.43 s
[Task MobilNet_04] Current/Best:   54.27/  67.78 GFLOPS | Progress: (324/1024) | 211.63 s
[Task MobilNet_04] Current/Best:    4.49/  67.78 GFLOPS | Progress: (360/1024) | 232.43 s
[Task MobilNet_04] Current/Best:    8.82/  67.78 GFLOPS | Progress: (396/1024) | 260.56 s
[Task MobilNet_04] Current/Best:   58.62/  67.78 GFLOPS | Progress: (432/1024) | 279.61 s
[Task MobilNet_04] Current/Best:   57.44/  67.78 GFLOPS | Progress: (468/1024) | 309.04 s
[Task MobilNet_04] Current/Best:    6.13/  67.78 GFLOPS | Progress: (504/1024) | 332.21 s
[Task MobilNet_04] Current/Best:   39.99/  67.78 GFLOPS | Progress: (540/1024) | 364.91 s
[Task MobilNet_04] Current/Best:    4.44/  67.78 GFLOPS | Progress: (576/1024) | 389.30 s
[Task MobilNet_04] Current/Best:   19.39/  67.78 GFLOPS | Progress: (612/1024) | 411.14 s
[Task MobilNet_04] Current/Best:    8.59/  67.78 GFLOPS | Progress: (648/1024) | 444.94 s
[Task MobilNet_04] Current/Best:   44.78/  67.78 GFLOPS | Progress: (684/1024) | 470.64 s
[Task MobilNet_04] Current/Best:    8.81/  67.78 GFLOPS | Progress: (720/1024) | 503.85 s
[Task MobilNet_04] Current/Best:    4.21/  67.78 GFLOPS | Progress: (756/1024) | 529.59 s
[Task MobilNet_04] Current/Best:    5.70/  67.78 GFLOPS | Progress: (792/1024) | 562.84 s
[Task MobilNet_04] Current/Best:   23.20/  67.78 GFLOPS | Progress: (828/1024) | 588.68 s
[Task MobilNet_04] Current/Best:   32.42/  67.78 GFLOPS | Progress: (864/1024) | 619.12 s
[Task MobilNet_04] Current/Best:   23.13/  67.78 GFLOPS | Progress: (900/1024) | 645.95 s
[Task MobilNet_04] Current/Best:    5.60/  67.78 GFLOPS | Progress: (936/1024) | 675.43 s
[Task MobilNet_04] Current/Best:    9.87/  67.78 GFLOPS | Progress: (972/1024) | 710.13 s
[Task MobilNet_04] Current/Best:   22.11/  67.78 GFLOPS | Progress: (1008/1024) | 742.58 s
[Task MobilNet_04] Current/Best:   32.47/  67.78 GFLOPS | Progress: (1024/1024) | 757.35 s
 Done.
[Task MobilNet_05] Current/Best:    0.00/   0.00 GFLOPS | Progress: (0/1296) | 0.00 s
[Task MobilNet_05] Current/Best:    8.18/  68.96 GFLOPS | Progress: (36/1296) | 43.34 s
[Task MobilNet_05] Current/Best:   68.89/  68.96 GFLOPS | Progress: (72/1296) | 97.77 s
[Task MobilNet_05] Current/Best:   69.01/  69.38 GFLOPS | Progress: (108/1296) | 122.46 s
[Task MobilNet_05] Current/Best:   12.65/  69.38 GFLOPS | Progress: (144/1296) | 155.92 s
[Task MobilNet_05] Current/Best:   68.50/  69.38 GFLOPS | Progress: (180/1296) | 180.71 s
[Task MobilNet_05] Current/Best:   11.47/  69.38 GFLOPS | Progress: (216/1296) | 212.59 s
[Task MobilNet_05] Current/Best:   68.49/  69.38 GFLOPS | Progress: (252/1296) | 237.50 s
[Task MobilNet_05] Current/Best:   17.98/  69.38 GFLOPS | Progress: (288/1296) | 269.88 s
[Task MobilNet_05] Current/Best:   68.54/  69.38 GFLOPS | Progress: (324/1296) | 297.75 s
[Task MobilNet_05] Current/Best:   34.87/  69.38 GFLOPS | Progress: (360/1296) | 336.69 s
[Task MobilNet_05] Current/Best:   33.23/  69.38 GFLOPS | Progress: (396/1296) | 395.11 s
[Task MobilNet_05] Current/Best:   47.20/  69.38 GFLOPS | Progress: (432/1296) | 451.81 s
[Task MobilNet_05] Current/Best:   27.17/  69.38 GFLOPS | Progress: (468/1296) | 496.33 s
[Task MobilNet_05] Current/Best:   34.55/  69.38 GFLOPS | Progress: (504/1296) | 523.13 s
[Task MobilNet_05] Current/Best:   22.85/  69.38 GFLOPS | Progress: (540/1296) | 560.80 s
[Task MobilNet_05] Current/Best:   13.94/  69.38 GFLOPS | Progress: (576/1296) | 602.40 s
[Task MobilNet_05] Current/Best:    2.20/  69.38 GFLOPS | Progress: (612/1296) | 664.12 s
[Task MobilNet_05] Current/Best:    6.99/  69.38 GFLOPS | Progress: (648/1296) | 736.99 s
[Task MobilNet_05] Current/Best:   26.35/  69.38 GFLOPS | Progress: (684/1296) | 780.61 s
[Task MobilNet_05] Current/Best:   31.93/  69.38 GFLOPS | Progress: (720/1296) | 838.92 s
[Task MobilNet_05] Current/Best:   29.28/  69.38 GFLOPS | Progress: (756/1296) | 868.36 s
[Task MobilNet_05] Current/Best:   26.07/  69.38 GFLOPS | Progress: (792/1296) | 928.16 s
[Task MobilNet_05] Current/Best:   29.27/  69.38 GFLOPS | Progress: (828/1296) | 981.59 s
[Task MobilNet_05] Current/Best:   26.05/  69.38 GFLOPS | Progress: (864/1296) | 1048.48 s
[Task MobilNet_05] Current/Best:   17.61/  69.38 GFLOPS | Progress: (900/1296) | 1084.51 s
[Task MobilNet_05] Current/Best:    6.84/  69.38 GFLOPS | Progress: (936/1296) | 1133.83 s
[Task MobilNet_05] Current/Best:   26.52/  69.38 GFLOPS | Progress: (972/1296) | 1204.19 s
[Task MobilNet_05] Current/Best:   23.03/  69.38 GFLOPS | Progress: (1008/1296) | 1250.82 s
[Task MobilNet_05] Current/Best:    4.43/  69.38 GFLOPS | Progress: (1044/1296) | 1303.22 s
[Task MobilNet_05] Current/Best:   24.53/  69.38 GFLOPS | Progress: (1080/1296) | 1373.91 s
[Task MobilNet_05] Current/Best:    8.76/  69.38 GFLOPS | Progress: (1116/1296) | 1431.60 s
[Task MobilNet_05] Current/Best:   22.87/  69.38 GFLOPS | Progress: (1152/1296) | 1495.50 s
[Task MobilNet_05] Current/Best:   25.01/  69.38 GFLOPS | Progress: (1188/1296) | 1572.17 s
[Task MobilNet_05] Current/Best:   17.67/  69.38 GFLOPS | Progress: (1224/1296) | 1668.49 s
[Task MobilNet_05] Current/Best:   17.13/  69.38 GFLOPS | Progress: (1260/1296) | 1729.73 s
[Task MobilNet_05] Current/Best:    5.96/  69.38 GFLOPS | Progress: (1296/1296) | 1792.33 s
 Done.
[Task MobilNet_06] Current/Best:    0.00/   0.00 GFLOPS | Progress: (0/972) | 0.00 s
[Task MobilNet_06] Current/Best:   17.37/  64.88 GFLOPS | Progress: (36/972) | 27.00 s
[Task MobilNet_06] Current/Best:    5.06/  65.14 GFLOPS | Progress: (72/972) | 59.54 s
[Task MobilNet_06] Current/Best:   64.17/  66.76 GFLOPS | Progress: (108/972) | 78.22 s
[Task MobilNet_06] Current/Best:   27.39/  66.76 GFLOPS | Progress: (144/972) | 100.28 s
[Task MobilNet_06] Current/Best:   65.33/  66.76 GFLOPS | Progress: (180/972) | 119.01 s
[Task MobilNet_06] Current/Best:    4.40/  66.76 GFLOPS | Progress: (216/972) | 142.62 s
[Task MobilNet_06] Current/Best:   55.90/  66.76 GFLOPS | Progress: (252/972) | 161.47 s
[Task MobilNet_06] Current/Best:   25.65/  66.76 GFLOPS | Progress: (288/972) | 184.98 s
[Task MobilNet_06] Current/Best:   47.00/  66.76 GFLOPS | Progress: (324/972) | 211.25 s
[Task MobilNet_06] Current/Best:   28.02/  66.76 GFLOPS | Progress: (360/972) | 236.68 s
[Task MobilNet_06] Current/Best:   27.15/  66.76 GFLOPS | Progress: (396/972) | 263.87 s
[Task MobilNet_06] Current/Best:   14.59/  66.76 GFLOPS | Progress: (432/972) | 292.54 s
[Task MobilNet_06] Current/Best:   11.05/  66.76 GFLOPS | Progress: (468/972) | 319.67 s
[Task MobilNet_06] Current/Best:    1.11/  66.76 GFLOPS | Progress: (504/972) | 344.19 s
[Task MobilNet_06] Current/Best:   28.68/  66.76 GFLOPS | Progress: (540/972) | 373.15 s
[Task MobilNet_06] Current/Best:   29.78/  66.76 GFLOPS | Progress: (576/972) | 396.70 s
[Task MobilNet_06] Current/Best:   17.41/  66.76 GFLOPS | Progress: (612/972) | 420.26 s
[Task MobilNet_06] Current/Best:   27.56/  66.76 GFLOPS | Progress: (648/972) | 459.30 s
[Task MobilNet_06] Current/Best:   12.98/  66.76 GFLOPS | Progress: (684/972) | 487.81 s
[Task MobilNet_06] Current/Best:   30.33/  66.76 GFLOPS | Progress: (720/972) | 518.58 s
[Task MobilNet_06] Current/Best:    2.22/  66.76 GFLOPS | Progress: (756/972) | 542.43 s
[Task MobilNet_06] Current/Best:   16.50/  66.76 GFLOPS | Progress: (792/972) | 574.39 s
[Task MobilNet_06] Current/Best:    4.43/  66.76 GFLOPS | Progress: (828/972) | 605.40 s
[Task MobilNet_06] Current/Best:   26.87/  66.76 GFLOPS | Progress: (864/972) | 642.75 s
[Task MobilNet_06] Current/Best:    8.81/  66.76 GFLOPS | Progress: (900/972) | 675.46 s
[Task MobilNet_06] Current/Best:   27.34/  66.76 GFLOPS | Progress: (936/972) | 706.87 s
[Task MobilNet_06] Current/Best:    6.46/  66.76 GFLOPS | Progress: (972/972) | 740.10 s
 Done.
[Task MobilNet_07] Current/Best:    0.00/   0.00 GFLOPS | Progress: (0/1200) | 0.00 s
[Task MobilNet_07] Current/Best:   34.39/  68.38 GFLOPS | Progress: (36/1200) | 60.36 s
[Task MobilNet_07] Current/Best:   27.60/  68.38 GFLOPS | Progress: (72/1200) | 134.07 s
[Task MobilNet_07] Current/Best:   66.11/  69.32 GFLOPS | Progress: (108/1200) | 171.98 s
[Task MobilNet_07] Current/Best:   18.49/  69.32 GFLOPS | Progress: (144/1200) | 221.49 s
[Task MobilNet_07] Current/Best:   67.76/  69.32 GFLOPS | Progress: (180/1200) | 259.56 s
[Task MobilNet_07] Current/Best:   21.19/  69.32 GFLOPS | Progress: (216/1200) | 310.68 s
[Task MobilNet_07] Current/Best:   26.58/  69.32 GFLOPS | Progress: (252/1200) | 352.47 s
[Task MobilNet_07] Current/Best:   33.45/  69.32 GFLOPS | Progress: (288/1200) | 423.49 s
[Task MobilNet_07] Current/Best:   49.86/  69.32 GFLOPS | Progress: (324/1200) | 464.19 s
[Task MobilNet_07] Current/Best:   34.14/  69.32 GFLOPS | Progress: (360/1200) | 525.72 s
[Task MobilNet_07] Current/Best:   21.34/  69.32 GFLOPS | Progress: (396/1200) | 602.41 s
[Task MobilNet_07] Current/Best:   22.56/  69.32 GFLOPS | Progress: (432/1200) | 657.92 s
[Task MobilNet_07] Current/Best:   29.46/  69.32 GFLOPS | Progress: (468/1200) | 729.54 s
[Task MobilNet_07] Current/Best:   49.20/  69.32 GFLOPS | Progress: (504/1200) | 769.66 s
[Task MobilNet_07] Current/Best:   16.93/  69.32 GFLOPS | Progress: (540/1200) | 848.09 s
[Task MobilNet_07] Current/Best:    8.76/  69.32 GFLOPS | Progress: (576/1200) | 924.14 s
[Task MobilNet_07] Current/Best:    3.78/  69.32 GFLOPS | Progress: (612/1200) | 987.52 s
[Task MobilNet_07] Current/Best:   13.44/  69.32 GFLOPS | Progress: (648/1200) | 1073.73 s
[Task MobilNet_07] Current/Best:   15.24/  69.32 GFLOPS | Progress: (684/1200) | 1129.94 s
[Task MobilNet_07] Current/Best:   19.84/  69.32 GFLOPS | Progress: (720/1200) | 1199.35 s
[Task MobilNet_07] Current/Best:   13.59/  69.32 GFLOPS | Progress: (756/1200) | 1255.09 s
[Task MobilNet_07] Current/Best:   17.47/  69.32 GFLOPS | Progress: (792/1200) | 1333.59 s
[Task MobilNet_07] Current/Best:    6.72/  69.32 GFLOPS | Progress: (828/1200) | 1404.41 s
[Task MobilNet_07] Current/Best:   11.22/  69.32 GFLOPS | Progress: (864/1200) | 1473.40 s
[Task MobilNet_07] Current/Best:    1.10/  69.32 GFLOPS | Progress: (900/1200) | 1546.46 s
[Task MobilNet_07] Current/Best:   22.11/  69.32 GFLOPS | Progress: (936/1200) | 1625.20 s
[Task MobilNet_07] Current/Best:   26.90/  69.32 GFLOPS | Progress: (972/1200) | 1703.00 s
[Task MobilNet_07] Current/Best:   13.45/  69.32 GFLOPS | Progress: (1008/1200) | 1786.05 s
[Task MobilNet_07] Current/Best:    7.02/  69.32 GFLOPS | Progress: (1044/1200) | 1890.68 s
[Task MobilNet_07] Current/Best:   11.16/  69.32 GFLOPS | Progress: (1080/1200) | 1976.16 s
[Task MobilNet_07] Current/Best:    8.62/  69.32 GFLOPS | Progress: (1116/1200) | 2059.85 s
[Task MobilNet_07] Current/Best:   11.16/  69.32 GFLOPS | Progress: (1152/1200) | 2130.10 s
[Task MobilNet_07] Current/Best:    1.10/  69.32 GFLOPS | Progress: (1188/1200) | 2221.43 s
[Task MobilNet_07] Current/Best:   16.92/  69.32 GFLOPS | Progress: (1200/1200) | 2243.91 s
 Done.
[Task MobilNet_08] Current/Best:    0.00/   0.00 GFLOPS | Progress: (0/800) | 0.00 s
[Task MobilNet_08] Current/Best:    3.82/  59.59 GFLOPS | Progress: (36/800) | 41.53 s
[Task MobilNet_08] Current/Best:   47.56/  60.47 GFLOPS | Progress: (72/800) | 84.77 s
[Task MobilNet_08] Current/Best:   59.97/  61.63 GFLOPS | Progress: (108/800) | 116.48 s
[Task MobilNet_08] Current/Best:   44.83/  62.81 GFLOPS | Progress: (144/800) | 151.49 s
[Task MobilNet_08] Current/Best:   49.07/  62.81 GFLOPS | Progress: (180/800) | 183.53 s
[Task MobilNet_08] Current/Best:   25.89/  62.81 GFLOPS | Progress: (216/800) | 221.15 s
[Task MobilNet_08] Current/Best:   44.68/  62.81 GFLOPS | Progress: (252/800) | 255.67 s
[Task MobilNet_08] Current/Best:   14.87/  62.81 GFLOPS | Progress: (288/800) | 298.33 s
[Task MobilNet_08] Current/Best:   14.84/  62.81 GFLOPS | Progress: (324/800) | 340.83 s
[Task MobilNet_08] Current/Best:   29.14/  62.81 GFLOPS | Progress: (360/800) | 379.61 s
[Task MobilNet_08] Current/Best:   29.38/  62.81 GFLOPS | Progress: (396/800) | 423.22 s
[Task MobilNet_08] Current/Best:   21.49/  62.81 GFLOPS | Progress: (432/800) | 460.34 s
[Task MobilNet_08] Current/Best:    7.62/  62.81 GFLOPS | Progress: (468/800) | 508.88 s
[Task MobilNet_08] Current/Best:   11.03/  62.81 GFLOPS | Progress: (504/800) | 547.04 s
[Task MobilNet_08] Current/Best:    1.92/  62.81 GFLOPS | Progress: (540/800) | 595.74 s
[Task MobilNet_08] Current/Best:   18.02/  62.81 GFLOPS | Progress: (576/800) | 636.69 s
[Task MobilNet_08] Current/Best:    8.74/  62.81 GFLOPS | Progress: (612/800) | 677.65 s
[Task MobilNet_08] Current/Best:    3.82/  62.81 GFLOPS | Progress: (648/800) | 733.35 s
[Task MobilNet_08] Current/Best:   17.03/  62.81 GFLOPS | Progress: (684/800) | 779.96 s
[Task MobilNet_08] Current/Best:   21.48/  62.81 GFLOPS | Progress: (720/800) | 837.18 s
[Task MobilNet_08] Current/Best:   11.06/  62.81 GFLOPS | Progress: (756/800) | 878.97 s
[Task MobilNet_08] Current/Best:    1.10/  62.81 GFLOPS | Progress: (792/800) | 930.17 s
[Task MobilNet_08] Current/Best:    3.82/  62.81 GFLOPS | Progress: (800/800) | 940.56 s
 Done.
[Task MobilNet_09] Current/Best:    0.00/   0.00 GFLOPS | Progress: (0/968) | 0.00 s
[Task MobilNet_09] Current/Best:   11.01/  60.12 GFLOPS | Progress: (36/968) | 133.58 s
[Task MobilNet_09] Current/Best:   21.83/  60.12 GFLOPS | Progress: (72/968) | 276.30 s
[Task MobilNet_09] Current/Best:   60.67/  62.94 GFLOPS | Progress: (108/968) | 368.57 s
[Task MobilNet_09] Current/Best:   12.11/  62.94 GFLOPS | Progress: (144/968) | 472.24 s
[Task MobilNet_09] Current/Best:   50.98/  63.11 GFLOPS | Progress: (180/968) | 565.70 s
[Task MobilNet_09] Current/Best:   18.77/  63.11 GFLOPS | Progress: (216/968) | 670.57 s
[Task MobilNet_09] Current/Best:   26.82/  63.11 GFLOPS | Progress: (252/968) | 780.87 s
[Task MobilNet_09] Current/Best:    3.84/  63.11 GFLOPS | Progress: (288/968) | 911.46 s
[Task MobilNet_09] Current/Best:   13.50/  63.11 GFLOPS | Progress: (324/968) | 1018.26 s
[Task MobilNet_09] Current/Best:   17.72/  63.11 GFLOPS | Progress: (360/968) | 1116.99 s
[Task MobilNet_09] Current/Best:   11.02/  63.11 GFLOPS | Progress: (396/968) | 1273.70 s
[Task MobilNet_09] Current/Best:   15.05/  63.11 GFLOPS | Progress: (432/968) | 1392.38 s
[Task MobilNet_09] Current/Best:   10.90/  63.11 GFLOPS | Progress: (468/968) | 1546.64 s
[Task MobilNet_09] Current/Best:   23.64/  63.11 GFLOPS | Progress: (504/968) | 1647.04 s
[Task MobilNet_09] Current/Best:    8.39/  63.11 GFLOPS | Progress: (540/968) | 1780.26 s
[Task MobilNet_09] Current/Best:    2.20/  63.11 GFLOPS | Progress: (576/968) | 1923.85 s
[Task MobilNet_09] Current/Best:   14.70/  63.11 GFLOPS | Progress: (612/968) | 2049.64 s
[Task MobilNet_09] Current/Best:   10.68/  63.11 GFLOPS | Progress: (648/968) | 2192.79 s
[Task MobilNet_09] Current/Best:   12.12/  63.11 GFLOPS | Progress: (684/968) | 2319.90 s
[Task MobilNet_09] Current/Best:   10.84/  63.11 GFLOPS | Progress: (720/968) | 2473.82 s
[Task MobilNet_09] Current/Best:    3.83/  63.11 GFLOPS | Progress: (756/968) | 2602.90 s
[Task MobilNet_09] Current/Best:   16.61/  63.11 GFLOPS | Progress: (792/968) | 2755.95 s
[Task MobilNet_09] Current/Best:   16.87/  63.11 GFLOPS | Progress: (828/968) | 2896.85 s
[Task MobilNet_09] Current/Best:    4.38/  63.11 GFLOPS | Progress: (864/968) | 3045.11 s
[Task MobilNet_09] Current/Best:   13.50/  63.11 GFLOPS | Progress: (900/968) | 3188.04 s
[Task MobilNet_09] Current/Best:    1.92/  63.11 GFLOPS | Progress: (936/968) | 3360.29 s
[Task MobilNet_09] Current/Best:   13.73/  63.11 GFLOPS | Progress: (968/968) | 3517.39 s
 Done.
[Task ResNet18_01] Current/Best:    0.00/   0.00 GFLOPS | Progress: (0/308) | 0.00 s
[Task ResNet18_01] Current/Best:   15.59/  69.55 GFLOPS | Progress: (36/308) | 27.22 s
[Task ResNet18_01] Current/Best:   68.97/  69.64 GFLOPS | Progress: (72/308) | 53.52 s
[Task ResNet18_01] Current/Best:   69.05/  69.78 GFLOPS | Progress: (108/308) | 72.54 s
[Task ResNet18_01] Current/Best:   23.33/  69.78 GFLOPS | Progress: (144/308) | 95.94 s
[Task ResNet18_01] Current/Best:   38.91/  69.78 GFLOPS | Progress: (180/308) | 121.14 s
[Task ResNet18_01] Current/Best:    6.73/  69.78 GFLOPS | Progress: (216/308) | 155.17 s
[Task ResNet18_01] Current/Best:    3.24/  69.78 GFLOPS | Progress: (252/308) | 183.25 s
[Task ResNet18_01] Current/Best:   27.65/  69.78 GFLOPS | Progress: (288/308) | 214.79 s
[Task ResNet18_01] Current/Best:    5.19/  69.78 GFLOPS | Progress: (308/308) | 231.19 s
 Done.
[Task ResNet18_02] Current/Best:    0.00/   0.00 GFLOPS | Progress: (0/980) | 0.00 s
[Task ResNet18_02] Current/Best:    8.39/  69.01 GFLOPS | Progress: (36/980) | 24.97 s
[Task ResNet18_02] Current/Best:   61.48/  69.01 GFLOPS | Progress: (72/980) | 48.48 s
[Task ResNet18_02] Current/Best:   68.88/  69.54 GFLOPS | Progress: (108/980) | 64.77 s
[Task ResNet18_02] Current/Best:   34.89/  69.54 GFLOPS | Progress: (144/980) | 83.08 s
[Task ResNet18_02] Current/Best:   55.99/  69.65 GFLOPS | Progress: (180/980) | 99.32 s
[Task ResNet18_02] Current/Best:    7.76/  69.65 GFLOPS | Progress: (216/980) | 119.49 s
[Task ResNet18_02] Current/Best:   67.65/  69.65 GFLOPS | Progress: (252/980) | 136.00 s
[Task ResNet18_02] Current/Best:   34.23/  69.65 GFLOPS | Progress: (288/980) | 159.45 s
[Task ResNet18_02] Current/Best:   13.83/  69.65 GFLOPS | Progress: (324/980) | 181.85 s
[Task ResNet18_02] Current/Best:   56.28/  69.65 GFLOPS | Progress: (360/980) | 198.47 s
[Task ResNet18_02] Current/Best:   10.29/  69.65 GFLOPS | Progress: (396/980) | 229.22 s
[Task ResNet18_02] Current/Best:   24.01/  69.65 GFLOPS | Progress: (432/980) | 248.99 s
[Task ResNet18_02] Current/Best:   35.89/  69.65 GFLOPS | Progress: (468/980) | 278.94 s
[Task ResNet18_02] Current/Best:    7.64/  69.65 GFLOPS | Progress: (504/980) | 296.43 s
[Task ResNet18_02] Current/Best:    8.72/  69.65 GFLOPS | Progress: (540/980) | 325.40 s
[Task ResNet18_02] Current/Best:   15.24/  69.65 GFLOPS | Progress: (576/980) | 348.99 s
[Task ResNet18_02] Current/Best:   18.70/  69.65 GFLOPS | Progress: (612/980) | 373.87 s
[Task ResNet18_02] Current/Best:   13.75/  69.65 GFLOPS | Progress: (648/980) | 403.95 s
[Task ResNet18_02] Current/Best:   18.10/  69.65 GFLOPS | Progress: (684/980) | 428.69 s
[Task ResNet18_02] Current/Best:   18.25/  69.65 GFLOPS | Progress: (720/980) | 454.17 s
[Task ResNet18_02] Current/Best:   29.07/  69.65 GFLOPS | Progress: (756/980) | 476.84 s
[Task ResNet18_02] Current/Best:   27.87/  69.65 GFLOPS | Progress: (792/980) | 505.23 s
[Task ResNet18_02] Current/Best:   29.58/  69.65 GFLOPS | Progress: (828/980) | 527.66 s
[Task ResNet18_02] Current/Best:   27.75/  69.65 GFLOPS | Progress: (864/980) | 556.10 s
[Task ResNet18_02] Current/Best:   23.01/  69.65 GFLOPS | Progress: (900/980) | 581.27 s
[Task ResNet18_02] Current/Best:    4.37/  69.65 GFLOPS | Progress: (936/980) | 608.09 s
[Task ResNet18_02] Current/Best:   27.22/  69.65 GFLOPS | Progress: (972/980) | 643.68 s
[Task ResNet18_02] Current/Best:    9.11/  69.65 GFLOPS | Progress: (980/980) | 649.07 s
 Done.
[Task ResNet18_03] Current/Best:    0.00/   0.00 GFLOPS | Progress: (0/980) | 0.00 s
[Task ResNet18_03] Current/Best:   43.29/  60.48 GFLOPS | Progress: (36/980) | 16.06 s
[Task ResNet18_03] Current/Best:   36.52/  62.03 GFLOPS | Progress: (72/980) | 33.11 s
[Task ResNet18_03] Current/Best:   56.13/  62.03 GFLOPS | Progress: (108/980) | 47.77 s
[Task ResNet18_03] Current/Best:   36.79/  62.03 GFLOPS | Progress: (144/980) | 63.98 s
[Task ResNet18_03] Current/Best:   58.07/  62.43 GFLOPS | Progress: (180/980) | 78.63 s
[Task ResNet18_03] Current/Best:   10.23/  62.43 GFLOPS | Progress: (216/980) | 95.77 s
[Task ResNet18_03] Current/Best:   53.14/  62.43 GFLOPS | Progress: (252/980) | 110.32 s
[Task ResNet18_03] Current/Best:   40.12/  62.43 GFLOPS | Progress: (288/980) | 128.54 s
[Task ResNet18_03] Current/Best:   12.95/  62.43 GFLOPS | Progress: (324/980) | 146.04 s
[Task ResNet18_03] Current/Best:   11.81/  62.43 GFLOPS | Progress: (360/980) | 161.45 s
[Task ResNet18_03] Current/Best:   11.74/  62.43 GFLOPS | Progress: (396/980) | 180.30 s
[Task ResNet18_03] Current/Best:   39.14/  62.43 GFLOPS | Progress: (432/980) | 195.96 s
[Task ResNet18_03] Current/Best:   38.12/  62.43 GFLOPS | Progress: (468/980) | 215.19 s
[Task ResNet18_03] Current/Best:    5.64/  62.43 GFLOPS | Progress: (504/980) | 230.74 s
[Task ResNet18_03] Current/Best:   20.72/  62.43 GFLOPS | Progress: (540/980) | 249.37 s
[Task ResNet18_03] Current/Best:   36.56/  62.43 GFLOPS | Progress: (576/980) | 267.93 s
[Task ResNet18_03] Current/Best:   24.90/  62.43 GFLOPS | Progress: (612/980) | 283.32 s
[Task ResNet18_03] Current/Best:   23.86/  62.43 GFLOPS | Progress: (648/980) | 302.30 s
[Task ResNet18_03] Current/Best:   21.98/  62.43 GFLOPS | Progress: (684/980) | 318.17 s
[Task ResNet18_03] Current/Best:    6.50/  62.43 GFLOPS | Progress: (720/980) | 336.74 s
[Task ResNet18_03] Current/Best:   24.25/  62.43 GFLOPS | Progress: (756/980) | 352.65 s
[Task ResNet18_03] Current/Best:   35.78/  62.43 GFLOPS | Progress: (792/980) | 371.85 s
[Task ResNet18_03] Current/Best:    6.56/  62.43 GFLOPS | Progress: (828/980) | 388.27 s
[Task ResNet18_03] Current/Best:   10.82/  62.43 GFLOPS | Progress: (864/980) | 408.61 s
[Task ResNet18_03] Current/Best:   13.27/  62.43 GFLOPS | Progress: (900/980) | 427.77 s
[Task ResNet18_03] Current/Best:   25.48/  62.43 GFLOPS | Progress: (936/980) | 443.93 s
[Task ResNet18_03] Current/Best:    6.66/  62.43 GFLOPS | Progress: (972/980) | 461.92 s
[Task ResNet18_03] Current/Best:    6.70/  62.43 GFLOPS | Progress: (980/980) | 465.88 s
 Done.
[Task ResNet18_04] Current/Best:    0.00/   0.00 GFLOPS | Progress: (0/896) | 0.00 s
[Task ResNet18_04] Current/Best:   64.54/  66.90 GFLOPS | Progress: (36/896) | 21.30 s
[Task ResNet18_04] Current/Best:    2.30/  67.08 GFLOPS | Progress: (72/896) | 42.01 s
[Task ResNet18_04] Current/Best:   67.01/  67.08 GFLOPS | Progress: (108/896) | 57.60 s
[Task ResNet18_04] Current/Best:   64.84/  67.08 GFLOPS | Progress: (144/896) | 76.63 s
[Task ResNet18_04] Current/Best:   65.09/  67.08 GFLOPS | Progress: (180/896) | 92.21 s
[Task ResNet18_04] Current/Best:    6.89/  67.08 GFLOPS | Progress: (216/896) | 111.82 s
[Task ResNet18_04] Current/Best:   65.13/  67.08 GFLOPS | Progress: (252/896) | 127.58 s
[Task ResNet18_04] Current/Best:   32.18/  67.08 GFLOPS | Progress: (288/896) | 148.92 s
[Task ResNet18_04] Current/Best:    6.59/  67.08 GFLOPS | Progress: (324/896) | 170.00 s
[Task ResNet18_04] Current/Best:    4.58/  67.08 GFLOPS | Progress: (360/896) | 188.06 s
[Task ResNet18_04] Current/Best:   28.98/  67.08 GFLOPS | Progress: (396/896) | 209.00 s
[Task ResNet18_04] Current/Best:   17.34/  67.08 GFLOPS | Progress: (432/896) | 229.05 s
[Task ResNet18_04] Current/Best:   17.87/  67.08 GFLOPS | Progress: (468/896) | 251.51 s
[Task ResNet18_04] Current/Best:   47.66/  67.08 GFLOPS | Progress: (504/896) | 267.47 s
[Task ResNet18_04] Current/Best:   15.62/  67.08 GFLOPS | Progress: (540/896) | 286.77 s
[Task ResNet18_04] Current/Best:   26.29/  67.08 GFLOPS | Progress: (576/896) | 309.95 s
[Task ResNet18_04] Current/Best:    4.57/  67.08 GFLOPS | Progress: (612/896) | 329.36 s
[Task ResNet18_04] Current/Best:    5.71/  67.08 GFLOPS | Progress: (648/896) | 352.39 s
[Task ResNet18_04] Current/Best:   31.53/  67.08 GFLOPS | Progress: (684/896) | 371.02 s
[Task ResNet18_04] Current/Best:    6.14/  67.08 GFLOPS | Progress: (720/896) | 393.64 s
[Task ResNet18_04] Current/Best:   25.07/  67.08 GFLOPS | Progress: (756/896) | 412.93 s
[Task ResNet18_04] Current/Best:   23.17/  67.08 GFLOPS | Progress: (792/896) | 435.48 s
[Task ResNet18_04] Current/Best:   23.07/  67.08 GFLOPS | Progress: (828/896) | 454.80 s
[Task ResNet18_04] Current/Best:    7.20/  67.08 GFLOPS | Progress: (864/896) | 479.68 s
[Task ResNet18_04] Current/Best:   17.36/  67.08 GFLOPS | Progress: (896/896) | 500.87 s
 Done.
[Task ResNet18_05] Current/Best:    0.00/   0.00 GFLOPS | Progress: (0/896) | 0.00 s
[Task ResNet18_05] Current/Best:    4.82/  58.03 GFLOPS | Progress: (36/896) | 15.69 s
[Task ResNet18_05] Current/Best:   31.60/  58.03 GFLOPS | Progress: (72/896) | 33.04 s
[Task ResNet18_05] Current/Best:   48.85/  59.50 GFLOPS | Progress: (108/896) | 47.45 s
[Task ResNet18_05] Current/Best:   24.17/  59.50 GFLOPS | Progress: (144/896) | 63.90 s
[Task ResNet18_05] Current/Best:   55.51/  61.64 GFLOPS | Progress: (180/896) | 78.40 s
[Task ResNet18_05] Current/Best:    3.81/  61.64 GFLOPS | Progress: (216/896) | 94.36 s
[Task ResNet18_05] Current/Best:   53.37/  61.75 GFLOPS | Progress: (252/896) | 108.85 s
[Task ResNet18_05] Current/Best:   25.51/  61.75 GFLOPS | Progress: (288/896) | 125.77 s
[Task ResNet18_05] Current/Best:    5.67/  61.75 GFLOPS | Progress: (324/896) | 142.99 s
[Task ResNet18_05] Current/Best:   38.87/  61.75 GFLOPS | Progress: (360/896) | 158.15 s
[Task ResNet18_05] Current/Best:   24.31/  61.75 GFLOPS | Progress: (396/896) | 175.54 s
[Task ResNet18_05] Current/Best:   20.20/  61.75 GFLOPS | Progress: (432/896) | 190.12 s
[Task ResNet18_05] Current/Best:   26.94/  61.75 GFLOPS | Progress: (468/896) | 207.33 s
[Task ResNet18_05] Current/Best:   22.30/  61.75 GFLOPS | Progress: (504/896) | 222.23 s
[Task ResNet18_05] Current/Best:   29.34/  61.75 GFLOPS | Progress: (540/896) | 239.46 s
[Task ResNet18_05] Current/Best:    6.77/  61.75 GFLOPS | Progress: (576/896) | 256.82 s
[Task ResNet18_05] Current/Best:   35.04/  61.75 GFLOPS | Progress: (612/896) | 271.96 s
[Task ResNet18_05] Current/Best:   30.21/  61.75 GFLOPS | Progress: (648/896) | 289.94 s
[Task ResNet18_05] Current/Best:    8.88/  61.75 GFLOPS | Progress: (684/896) | 305.38 s
[Task ResNet18_05] Current/Best:   23.79/  61.75 GFLOPS | Progress: (720/896) | 324.00 s
[Task ResNet18_05] Current/Best:   13.03/  61.75 GFLOPS | Progress: (756/896) | 339.03 s
[Task ResNet18_05] Current/Best:   12.31/  61.75 GFLOPS | Progress: (792/896) | 356.96 s
[Task ResNet18_05] Current/Best:   22.59/  61.75 GFLOPS | Progress: (828/896) | 372.38 s
[Task ResNet18_05] Current/Best:   23.48/  61.75 GFLOPS | Progress: (864/896) | 389.95 s
[Task ResNet18_05] Current/Best:   19.51/  61.75 GFLOPS | Progress: (896/896) | 405.16 s
 Done.
[Task ResNet18_06] Current/Best:    0.00/   0.00 GFLOPS | Progress: (0/1024) | 0.00 s
[Task ResNet18_06] Current/Best:   33.65/  68.23 GFLOPS | Progress: (36/1024) | 22.14 s
[Task ResNet18_06] Current/Best:   65.79/  68.38 GFLOPS | Progress: (72/1024) | 45.16 s
[Task ResNet18_06] Current/Best:   67.52/  68.47 GFLOPS | Progress: (108/1024) | 61.04 s
[Task ResNet18_06] Current/Best:   16.98/  68.47 GFLOPS | Progress: (144/1024) | 79.88 s
[Task ResNet18_06] Current/Best:   67.85/  68.47 GFLOPS | Progress: (180/1024) | 95.80 s
[Task ResNet18_06] Current/Best:   34.77/  68.47 GFLOPS | Progress: (216/1024) | 115.41 s
[Task ResNet18_06] Current/Best:   57.33/  68.47 GFLOPS | Progress: (252/1024) | 131.45 s
[Task ResNet18_06] Current/Best:    2.23/  68.47 GFLOPS | Progress: (288/1024) | 153.64 s
[Task ResNet18_06] Current/Best:   27.64/  68.47 GFLOPS | Progress: (324/1024) | 171.84 s
[Task ResNet18_06] Current/Best:   42.16/  68.47 GFLOPS | Progress: (360/1024) | 191.62 s
[Task ResNet18_06] Current/Best:    8.96/  68.47 GFLOPS | Progress: (396/1024) | 220.94 s
[Task ResNet18_06] Current/Best:    5.55/  68.47 GFLOPS | Progress: (432/1024) | 240.39 s
[Task ResNet18_06] Current/Best:    8.70/  68.47 GFLOPS | Progress: (468/1024) | 263.58 s
[Task ResNet18_06] Current/Best:   47.29/  68.47 GFLOPS | Progress: (504/1024) | 280.27 s
[Task ResNet18_06] Current/Best:   24.41/  68.47 GFLOPS | Progress: (540/1024) | 301.99 s
[Task ResNet18_06] Current/Best:    1.13/  68.47 GFLOPS | Progress: (576/1024) | 324.23 s
[Task ResNet18_06] Current/Best:    8.66/  68.47 GFLOPS | Progress: (612/1024) | 347.94 s
[Task ResNet18_06] Current/Best:   17.55/  68.47 GFLOPS | Progress: (648/1024) | 375.62 s
[Task ResNet18_06] Current/Best:   17.02/  68.47 GFLOPS | Progress: (684/1024) | 395.15 s
[Task ResNet18_06] Current/Best:    8.96/  68.47 GFLOPS | Progress: (720/1024) | 420.13 s
[Task ResNet18_06] Current/Best:    2.22/  68.47 GFLOPS | Progress: (756/1024) | 447.12 s
[Task ResNet18_06] Current/Best:    8.86/  68.47 GFLOPS | Progress: (792/1024) | 477.92 s
[Task ResNet18_06] Current/Best:   27.95/  68.47 GFLOPS | Progress: (828/1024) | 504.96 s
[Task ResNet18_06] Current/Best:    1.12/  68.47 GFLOPS | Progress: (864/1024) | 537.39 s
[Task ResNet18_06] Current/Best:   15.80/  68.47 GFLOPS | Progress: (900/1024) | 568.54 s
[Task ResNet18_06] Current/Best:    8.97/  68.47 GFLOPS | Progress: (936/1024) | 592.81 s
[Task ResNet18_06] Current/Best:   17.69/  68.47 GFLOPS | Progress: (972/1024) | 622.12 s
[Task ResNet18_06] Current/Best:    4.39/  68.47 GFLOPS | Progress: (1008/1024) | 649.78 s
[Task ResNet18_06] Current/Best:   17.27/  68.47 GFLOPS | Progress: (1024/1024) | 663.98 s
 Done.
[Task ResNet18_07] Current/Best:    0.00/   0.00 GFLOPS | Progress: (0/864) | 0.00 s
[Task ResNet18_07] Current/Best:   37.57/  65.51 GFLOPS | Progress: (36/864) | 21.01 s
[Task ResNet18_07] Current/Best:   17.48/  65.51 GFLOPS | Progress: (72/864) | 42.29 s
[Task ResNet18_07] Current/Best:   64.92/  65.94 GFLOPS | Progress: (108/864) | 56.94 s
[Task ResNet18_07] Current/Best:    8.92/  65.94 GFLOPS | Progress: (144/864) | 74.91 s
[Task ResNet18_07] Current/Best:   65.02/  66.31 GFLOPS | Progress: (180/864) | 89.83 s
[Task ResNet18_07] Current/Best:   17.66/  66.31 GFLOPS | Progress: (216/864) | 106.90 s
[Task ResNet18_07] Current/Best:   64.27/  66.31 GFLOPS | Progress: (252/864) | 121.61 s
[Task ResNet18_07] Current/Best:    4.45/  66.31 GFLOPS | Progress: (288/864) | 140.24 s
[Task ResNet18_07] Current/Best:    2.22/  66.31 GFLOPS | Progress: (324/864) | 162.87 s
[Task ResNet18_07] Current/Best:    8.92/  66.31 GFLOPS | Progress: (360/864) | 181.24 s
[Task ResNet18_07] Current/Best:   30.13/  66.31 GFLOPS | Progress: (396/864) | 201.81 s
[Task ResNet18_07] Current/Best:   52.04/  66.31 GFLOPS | Progress: (432/864) | 216.98 s
[Task ResNet18_07] Current/Best:    5.94/  66.31 GFLOPS | Progress: (468/864) | 239.06 s
[Task ResNet18_07] Current/Best:   28.49/  66.31 GFLOPS | Progress: (504/864) | 254.73 s
[Task ResNet18_07] Current/Best:   50.33/  66.31 GFLOPS | Progress: (540/864) | 277.10 s
[Task ResNet18_07] Current/Best:   29.47/  66.31 GFLOPS | Progress: (576/864) | 299.41 s
[Task ResNet18_07] Current/Best:    4.42/  66.31 GFLOPS | Progress: (612/864) | 319.13 s
[Task ResNet18_07] Current/Best:   40.41/  66.31 GFLOPS | Progress: (648/864) | 340.19 s
[Task ResNet18_07] Current/Best:   31.91/  66.31 GFLOPS | Progress: (684/864) | 357.85 s
[Task ResNet18_07] Current/Best:   15.98/  66.31 GFLOPS | Progress: (720/864) | 379.86 s
[Task ResNet18_07] Current/Best:    4.48/  66.31 GFLOPS | Progress: (756/864) | 398.96 s
[Task ResNet18_07] Current/Best:   18.70/  66.31 GFLOPS | Progress: (792/864) | 422.43 s
[Task ResNet18_07] Current/Best:   25.24/  66.31 GFLOPS | Progress: (828/864) | 444.05 s
[Task ResNet18_07] Current/Best:    2.23/  66.31 GFLOPS | Progress: (864/864) | 465.17 s
 Done.
[Task ResNet18_08] Current/Best:    0.00/   0.00 GFLOPS | Progress: (0/1152) | 0.00 s
[Task ResNet18_08] Current/Best:    6.94/  69.02 GFLOPS | Progress: (36/1152) | 36.20 s
[Task ResNet18_08] Current/Best:   68.17/  69.02 GFLOPS | Progress: (72/1152) | 64.16 s
[Task ResNet18_08] Current/Best:   67.72/  69.02 GFLOPS | Progress: (108/1152) | 82.47 s
[Task ResNet18_08] Current/Best:    8.83/  69.02 GFLOPS | Progress: (144/1152) | 106.94 s
[Task ResNet18_08] Current/Best:   68.50/  69.02 GFLOPS | Progress: (180/1152) | 125.54 s
[Task ResNet18_08] Current/Best:   35.29/  69.02 GFLOPS | Progress: (216/1152) | 150.51 s
[Task ResNet18_08] Current/Best:   67.63/  69.02 GFLOPS | Progress: (252/1152) | 169.39 s
[Task ResNet18_08] Current/Best:   24.34/  69.02 GFLOPS | Progress: (288/1152) | 203.55 s
[Task ResNet18_08] Current/Best:   67.28/  69.02 GFLOPS | Progress: (324/1152) | 223.69 s
[Task ResNet18_08] Current/Best:   17.19/  69.02 GFLOPS | Progress: (360/1152) | 247.76 s
[Task ResNet18_08] Current/Best:   26.14/  69.02 GFLOPS | Progress: (396/1152) | 277.72 s
[Task ResNet18_08] Current/Best:    8.96/  69.02 GFLOPS | Progress: (432/1152) | 298.46 s
[Task ResNet18_08] Current/Best:   17.75/  69.02 GFLOPS | Progress: (468/1152) | 330.35 s
[Task ResNet18_08] Current/Best:    4.39/  69.02 GFLOPS | Progress: (504/1152) | 358.48 s
[Task ResNet18_08] Current/Best:    8.96/  69.02 GFLOPS | Progress: (540/1152) | 395.84 s
[Task ResNet18_08] Current/Best:   35.07/  69.02 GFLOPS | Progress: (576/1152) | 418.40 s
[Task ResNet18_08] Current/Best:   13.05/  69.02 GFLOPS | Progress: (612/1152) | 449.85 s
[Task ResNet18_08] Current/Best:   28.23/  69.02 GFLOPS | Progress: (648/1152) | 489.08 s
[Task ResNet18_08] Current/Best:   17.76/  69.02 GFLOPS | Progress: (684/1152) | 512.30 s
[Task ResNet18_08] Current/Best:   34.77/  69.02 GFLOPS | Progress: (720/1152) | 549.99 s
[Task ResNet18_08] Current/Best:    8.96/  69.02 GFLOPS | Progress: (756/1152) | 582.94 s
[Task ResNet18_08] Current/Best:   17.86/  69.02 GFLOPS | Progress: (792/1152) | 630.56 s
[Task ResNet18_08] Current/Best:   25.32/  69.02 GFLOPS | Progress: (828/1152) | 659.43 s
[Task ResNet18_08] Current/Best:   29.05/  69.02 GFLOPS | Progress: (864/1152) | 697.35 s
[Task ResNet18_08] Current/Best:   26.51/  69.02 GFLOPS | Progress: (900/1152) | 731.54 s
[Task ResNet18_08] Current/Best:   30.45/  69.02 GFLOPS | Progress: (936/1152) | 754.46 s
[Task ResNet18_08] Current/Best:    8.90/  69.02 GFLOPS | Progress: (972/1152) | 789.68 s
[Task ResNet18_08] Current/Best:   17.48/  69.02 GFLOPS | Progress: (1008/1152) | 833.66 s
[Task ResNet18_08] Current/Best:   26.80/  69.02 GFLOPS | Progress: (1044/1152) | 873.10 s
[Task ResNet18_08] Current/Best:   17.43/  69.02 GFLOPS | Progress: (1080/1152) | 910.85 s
[Task ResNet18_08] Current/Best:   17.75/  69.02 GFLOPS | Progress: (1116/1152) | 963.21 s
[Task ResNet18_08] Current/Best:    4.46/  69.02 GFLOPS | Progress: (1152/1152) | 1014.74 s
 Done.
[Task ResNet18_09] Current/Best:    0.00/   0.00 GFLOPS | Progress: (0/972) | 0.00 s
[Task ResNet18_09] Current/Best:   17.50/  67.33 GFLOPS | Progress: (36/972) | 25.36 s
[Task ResNet18_09] Current/Best:    7.65/  67.35 GFLOPS | Progress: (72/972) | 55.78 s
[Task ResNet18_09] Current/Best:   67.04/  67.35 GFLOPS | Progress: (108/972) | 73.27 s
[Task ResNet18_09] Current/Best:   64.58/  67.54 GFLOPS | Progress: (144/972) | 95.91 s
[Task ResNet18_09] Current/Best:   65.50/  68.43 GFLOPS | Progress: (180/972) | 113.15 s
[Task ResNet18_09] Current/Best:   12.47/  68.43 GFLOPS | Progress: (216/972) | 134.55 s
[Task ResNet18_09] Current/Best:   64.92/  68.43 GFLOPS | Progress: (252/972) | 151.93 s
[Task ResNet18_09] Current/Best:   50.76/  68.43 GFLOPS | Progress: (288/972) | 173.09 s
[Task ResNet18_09] Current/Best:    4.42/  68.43 GFLOPS | Progress: (324/972) | 196.40 s
[Task ResNet18_09] Current/Best:   14.81/  68.43 GFLOPS | Progress: (360/972) | 221.95 s
[Task ResNet18_09] Current/Best:   34.24/  68.43 GFLOPS | Progress: (396/972) | 252.08 s
[Task ResNet18_09] Current/Best:    5.93/  68.43 GFLOPS | Progress: (432/972) | 271.60 s
[Task ResNet18_09] Current/Best:    4.42/  68.43 GFLOPS | Progress: (468/972) | 301.63 s
[Task ResNet18_09] Current/Best:   27.70/  68.43 GFLOPS | Progress: (504/972) | 325.29 s
[Task ResNet18_09] Current/Best:    4.42/  68.43 GFLOPS | Progress: (540/972) | 354.24 s
[Task ResNet18_09] Current/Best:   27.34/  68.43 GFLOPS | Progress: (576/972) | 377.09 s
[Task ResNet18_09] Current/Best:   27.23/  68.43 GFLOPS | Progress: (612/972) | 411.34 s
[Task ResNet18_09] Current/Best:   31.54/  68.43 GFLOPS | Progress: (648/972) | 439.71 s
[Task ResNet18_09] Current/Best:   33.95/  68.43 GFLOPS | Progress: (684/972) | 458.59 s
[Task ResNet18_09] Current/Best:   19.10/  68.43 GFLOPS | Progress: (720/972) | 488.53 s
[Task ResNet18_09] Current/Best:   14.58/  68.43 GFLOPS | Progress: (756/972) | 516.26 s
[Task ResNet18_09] Current/Best:    4.43/  68.43 GFLOPS | Progress: (792/972) | 545.82 s
[Task ResNet18_09] Current/Best:   11.12/  68.43 GFLOPS | Progress: (828/972) | 567.89 s
[Task ResNet18_09] Current/Best:    1.11/  68.43 GFLOPS | Progress: (864/972) | 603.79 s
[Task ResNet18_09] Current/Best:   26.67/  68.43 GFLOPS | Progress: (900/972) | 635.65 s
[Task ResNet18_09] Current/Best:   26.00/  68.43 GFLOPS | Progress: (936/972) | 659.93 s
[Task ResNet18_09] Current/Best:    7.65/  68.43 GFLOPS | Progress: (972/972) | 692.06 s
 Done.
[Task ResNet18_10] Current/Best:    0.00/   0.00 GFLOPS | Progress: (0/800) | 0.00 s
[Task ResNet18_10] Current/Best:    3.82/  59.04 GFLOPS | Progress: (36/800) | 41.76 s
[Task ResNet18_10] Current/Best:   47.57/  60.50 GFLOPS | Progress: (72/800) | 84.97 s
[Task ResNet18_10] Current/Best:   62.99/  62.99 GFLOPS | Progress: (108/800) | 116.89 s
[Task ResNet18_10] Current/Best:    3.81/  62.99 GFLOPS | Progress: (144/800) | 152.21 s
[Task ResNet18_10] Current/Best:   49.10/  62.99 GFLOPS | Progress: (180/800) | 184.25 s
[Task ResNet18_10] Current/Best:    1.92/  62.99 GFLOPS | Progress: (216/800) | 223.24 s
[Task ResNet18_10] Current/Best:   14.77/  62.99 GFLOPS | Progress: (252/800) | 260.16 s
[Task ResNet18_10] Current/Best:   30.40/  62.99 GFLOPS | Progress: (288/800) | 304.41 s
[Task ResNet18_10] Current/Best:   16.96/  62.99 GFLOPS | Progress: (324/800) | 345.01 s
[Task ResNet18_10] Current/Best:   30.35/  62.99 GFLOPS | Progress: (360/800) | 385.04 s
[Task ResNet18_10] Current/Best:   18.93/  62.99 GFLOPS | Progress: (396/800) | 432.95 s
[Task ResNet18_10] Current/Best:   28.37/  62.99 GFLOPS | Progress: (432/800) | 466.48 s
[Task ResNet18_10] Current/Best:    3.83/  62.99 GFLOPS | Progress: (468/800) | 516.23 s
[Task ResNet18_10] Current/Best:    1.92/  62.99 GFLOPS | Progress: (504/800) | 557.39 s
[Task ResNet18_10] Current/Best:    4.38/  62.99 GFLOPS | Progress: (540/800) | 603.85 s
[Task ResNet18_10] Current/Best:    1.92/  62.99 GFLOPS | Progress: (576/800) | 650.36 s
[Task ResNet18_10] Current/Best:   15.09/  62.99 GFLOPS | Progress: (612/800) | 697.86 s
[Task ResNet18_10] Current/Best:   10.81/  62.99 GFLOPS | Progress: (648/800) | 747.30 s
[Task ResNet18_10] Current/Best:   18.86/  62.99 GFLOPS | Progress: (684/800) | 792.30 s
[Task ResNet18_10] Current/Best:    6.61/  62.99 GFLOPS | Progress: (720/800) | 844.57 s
[Task ResNet18_10] Current/Best:   16.52/  62.99 GFLOPS | Progress: (756/800) | 889.65 s
[Task ResNet18_10] Current/Best:    6.94/  62.99 GFLOPS | Progress: (792/800) | 941.99 s
[Task ResNet18_10] Current/Best:   15.06/  62.99 GFLOPS | Progress: (800/800) | 951.30 s
 Done.
[Task ResNet18_11] Current/Best:    0.00/   0.00 GFLOPS | Progress: (0/720) | 0.00 s
[Task ResNet18_11] Current/Best:   36.20/  59.08 GFLOPS | Progress: (36/720) | 13.84 s
[Task ResNet18_11] Current/Best:   15.61/  59.08 GFLOPS | Progress: (72/720) | 28.24 s
[Task ResNet18_11] Current/Best:   49.72/  61.03 GFLOPS | Progress: (108/720) | 40.09 s
[Task ResNet18_11] Current/Best:   35.10/  61.40 GFLOPS | Progress: (144/720) | 54.23 s
[Task ResNet18_11] Current/Best:   47.01/  61.56 GFLOPS | Progress: (180/720) | 66.14 s
[Task ResNet18_11] Current/Best:   29.62/  61.56 GFLOPS | Progress: (216/720) | 79.63 s
[Task ResNet18_11] Current/Best:   31.84/  61.56 GFLOPS | Progress: (252/720) | 91.57 s
[Task ResNet18_11] Current/Best:   23.81/  61.56 GFLOPS | Progress: (288/720) | 105.33 s
[Task ResNet18_11] Current/Best:    2.03/  61.56 GFLOPS | Progress: (324/720) | 119.59 s
[Task ResNet18_11] Current/Best:    2.42/  61.56 GFLOPS | Progress: (360/720) | 132.15 s
[Task ResNet18_11] Current/Best:   32.58/  61.56 GFLOPS | Progress: (396/720) | 146.66 s
[Task ResNet18_11] Current/Best:   35.19/  61.56 GFLOPS | Progress: (432/720) | 159.85 s
[Task ResNet18_11] Current/Best:   35.04/  61.56 GFLOPS | Progress: (468/720) | 175.76 s
[Task ResNet18_11] Current/Best:   24.25/  61.56 GFLOPS | Progress: (504/720) | 189.08 s
[Task ResNet18_11] Current/Best:    7.88/  61.56 GFLOPS | Progress: (540/720) | 204.82 s
[Task ResNet18_11] Current/Best:   30.64/  61.56 GFLOPS | Progress: (576/720) | 220.25 s
[Task ResNet18_11] Current/Best:   12.40/  61.56 GFLOPS | Progress: (612/720) | 233.05 s
[Task ResNet18_11] Current/Best:   17.36/  61.56 GFLOPS | Progress: (648/720) | 247.96 s
[Task ResNet18_11] Current/Best:    4.26/  61.56 GFLOPS | Progress: (684/720) | 260.77 s
[Task ResNet18_11] Current/Best:    8.12/  61.56 GFLOPS | Progress: (720/720) | 276.13 s
 Done.
[Task ResNet18_12] Current/Best:    0.00/   0.00 GFLOPS | Progress: (0/800) | 0.00 s
[Task ResNet18_12] Current/Best:    3.84/  62.50 GFLOPS | Progress: (36/800) | 40.74 s
[Task ResNet18_12] Current/Best:   50.73/  62.97 GFLOPS | Progress: (72/800) | 83.20 s
[Task ResNet18_12] Current/Best:   59.06/  63.37 GFLOPS | Progress: (108/800) | 114.18 s
[Task ResNet18_12] Current/Best:   48.36/  63.37 GFLOPS | Progress: (144/800) | 151.63 s
[Task ResNet18_12] Current/Best:   47.67/  63.37 GFLOPS | Progress: (180/800) | 182.83 s
[Task ResNet18_12] Current/Best:   35.87/  63.37 GFLOPS | Progress: (216/800) | 222.86 s
[Task ResNet18_12] Current/Best:    7.62/  63.37 GFLOPS | Progress: (252/800) | 257.00 s
[Task ResNet18_12] Current/Best:    4.38/  63.37 GFLOPS | Progress: (288/800) | 304.16 s
[Task ResNet18_12] Current/Best:   10.90/  63.37 GFLOPS | Progress: (324/800) | 341.29 s
[Task ResNet18_12] Current/Best:   11.08/  63.37 GFLOPS | Progress: (360/800) | 373.87 s
[Task ResNet18_12] Current/Best:   11.05/  63.37 GFLOPS | Progress: (396/800) | 425.94 s
[Task ResNet18_12] Current/Best:   12.09/  63.37 GFLOPS | Progress: (432/800) | 462.96 s
[Task ResNet18_12] Current/Best:    2.20/  63.37 GFLOPS | Progress: (468/800) | 513.92 s
[Task ResNet18_12] Current/Best:   31.67/  63.37 GFLOPS | Progress: (504/800) | 547.07 s
[Task ResNet18_12] Current/Best:   16.50/  63.37 GFLOPS | Progress: (540/800) | 596.01 s
[Task ResNet18_12] Current/Best:    8.71/  63.37 GFLOPS | Progress: (576/800) | 644.64 s
[Task ResNet18_12] Current/Best:   10.81/  63.37 GFLOPS | Progress: (612/800) | 687.40 s
[Task ResNet18_12] Current/Best:   11.04/  63.37 GFLOPS | Progress: (648/800) | 731.43 s
[Task ResNet18_12] Current/Best:   11.08/  63.37 GFLOPS | Progress: (684/800) | 771.49 s
[Task ResNet18_12] Current/Best:    8.71/  63.37 GFLOPS | Progress: (720/800) | 818.01 s
[Task ResNet18_12] Current/Best:    4.39/  63.37 GFLOPS | Progress: (756/800) | 866.34 s
[Task ResNet18_12] Current/Best:    1.10/  63.37 GFLOPS | Progress: (792/800) | 915.50 s
[Task ResNet18_12] Current/Best:    8.74/  63.37 GFLOPS | Progress: (800/800) | 925.82 s
 Done.
[Task Yolo9000_00] Current/Best:    0.00/   0.00 GFLOPS | Progress: (0/216) | 0.00 s
[Task Yolo9000_00] Current/Best:   34.26/  69.47 GFLOPS | Progress: (36/216) | 98.75 s
[Task Yolo9000_00] Current/Best:   43.28/  69.62 GFLOPS | Progress: (72/216) | 198.04 s
[Task Yolo9000_00] Current/Best:   64.21/  69.62 GFLOPS | Progress: (108/216) | 286.51 s
[Task Yolo9000_00] Current/Best:    7.70/  69.62 GFLOPS | Progress: (144/216) | 383.15 s
[Task Yolo9000_00] Current/Best:   15.44/  69.62 GFLOPS | Progress: (180/216) | 482.37 s
[Task Yolo9000_00] Current/Best:    5.45/  69.62 GFLOPS | Progress: (216/216) | 582.76 s
 Done.
[Task Yolo9000_02] Current/Best:    0.00/   0.00 GFLOPS | Progress: (0/756) | 0.00 s
[Task Yolo9000_02] Current/Best:   39.95/  70.02 GFLOPS | Progress: (36/756) | 129.67 s
[Task Yolo9000_02] Current/Best:   45.19/  70.05 GFLOPS | Progress: (72/756) | 272.43 s
[Task Yolo9000_02] Current/Best:   69.02/  70.05 GFLOPS | Progress: (108/756) | 351.39 s
[Task Yolo9000_02] Current/Best:   24.04/  70.05 GFLOPS | Progress: (144/756) | 450.22 s
[Task Yolo9000_02] Current/Best:   67.51/  70.05 GFLOPS | Progress: (180/756) | 531.45 s
[Task Yolo9000_02] Current/Best:    4.47/  70.05 GFLOPS | Progress: (216/756) | 644.17 s
[Task Yolo9000_02] Current/Best:   13.45/  70.05 GFLOPS | Progress: (252/756) | 748.89 s
[Task Yolo9000_02] Current/Best:   35.95/  70.05 GFLOPS | Progress: (288/756) | 881.02 s
[Task Yolo9000_02] Current/Best:   50.23/  70.05 GFLOPS | Progress: (324/756) | 968.82 s
[Task Yolo9000_02] Current/Best:   14.69/  70.05 GFLOPS | Progress: (360/756) | 1148.58 s
[Task Yolo9000_02] Current/Best:    4.89/  70.05 GFLOPS | Progress: (396/756) | 1314.94 s
[Task Yolo9000_02] Current/Best:    8.93/  70.05 GFLOPS | Progress: (432/756) | 1420.94 s
[Task Yolo9000_02] Current/Best:   36.51/  70.05 GFLOPS | Progress: (468/756) | 1580.78 s
[Task Yolo9000_02] Current/Best:   14.38/  70.05 GFLOPS | Progress: (504/756) | 1689.85 s
[Task Yolo9000_02] Current/Best:   13.19/  70.05 GFLOPS | Progress: (540/756) | 1900.54 s
[Task Yolo9000_02] Current/Best:   29.12/  70.05 GFLOPS | Progress: (576/756) | 2061.47 s
[Task Yolo9000_02] Current/Best:    6.67/  70.05 GFLOPS | Progress: (612/756) | 2223.08 s
[Task Yolo9000_02] Current/Best:   28.75/  70.05 GFLOPS | Progress: (648/756) | 2413.43 s
[Task Yolo9000_02] Current/Best:    9.48/  70.05 GFLOPS | Progress: (684/756) | 2600.31 s
[Task Yolo9000_02] Current/Best:   28.92/  70.05 GFLOPS | Progress: (720/756) | 2776.15 s
[Task Yolo9000_02] Current/Best:   17.88/  70.05 GFLOPS | Progress: (756/756) | 2969.99 s
 Done.
[Task Yolo9000_04] Current/Best:    0.00/   0.00 GFLOPS | Progress: (0/1008) | 0.00 s
[Task Yolo9000_04] Current/Best:   11.41/  69.95 GFLOPS | Progress: (36/1008) | 96.68 s
[Task Yolo9000_04] Current/Best:    6.13/  70.00 GFLOPS | Progress: (72/1008) | 219.68 s
[Task Yolo9000_04] Current/Best:   70.01/  70.03 GFLOPS | Progress: (108/1008) | 272.70 s
[Task Yolo9000_04] Current/Best:   45.55/  70.03 GFLOPS | Progress: (144/1008) | 336.38 s
[Task Yolo9000_04] Current/Best:   47.91/  70.03 GFLOPS | Progress: (180/1008) | 390.98 s
[Task Yolo9000_04] Current/Best:    6.77/  70.03 GFLOPS | Progress: (216/1008) | 475.73 s
[Task Yolo9000_04] Current/Best:   56.97/  70.03 GFLOPS | Progress: (252/1008) | 531.42 s
[Task Yolo9000_04] Current/Best:   59.09/  70.03 GFLOPS | Progress: (288/1008) | 650.25 s
[Task Yolo9000_04] Current/Best:   48.12/  70.03 GFLOPS | Progress: (324/1008) | 734.85 s
[Task Yolo9000_04] Current/Best:   37.98/  70.03 GFLOPS | Progress: (360/1008) | 845.19 s
[Task Yolo9000_04] Current/Best:    9.12/  70.03 GFLOPS | Progress: (396/1008) | 967.58 s
[Task Yolo9000_04] Current/Best:   50.30/  70.03 GFLOPS | Progress: (432/1008) | 1027.53 s
[Task Yolo9000_04] Current/Best:    4.62/  70.03 GFLOPS | Progress: (468/1008) | 1123.00 s
[Task Yolo9000_04] Current/Best:   28.49/  70.03 GFLOPS | Progress: (504/1008) | 1237.03 s
[Task Yolo9000_04] Current/Best:   10.96/  70.03 GFLOPS | Progress: (540/1008) | 1354.18 s
[Task Yolo9000_04] Current/Best:   27.34/  70.03 GFLOPS | Progress: (576/1008) | 1474.15 s
[Task Yolo9000_04] Current/Best:    6.28/  70.03 GFLOPS | Progress: (612/1008) | 1562.11 s
[Task Yolo9000_04] Current/Best:   22.88/  70.03 GFLOPS | Progress: (648/1008) | 1698.85 s
[Task Yolo9000_04] Current/Best:   23.00/  70.03 GFLOPS | Progress: (684/1008) | 1811.57 s
[Task Yolo9000_04] Current/Best:   28.63/  70.03 GFLOPS | Progress: (720/1008) | 1940.36 s
[Task Yolo9000_04] Current/Best:   25.70/  70.03 GFLOPS | Progress: (756/1008) | 2069.74 s
[Task Yolo9000_04] Current/Best:   30.46/  70.03 GFLOPS | Progress: (792/1008) | 2241.96 s
[Task Yolo9000_04] Current/Best:    5.43/  70.03 GFLOPS | Progress: (828/1008) | 2334.34 s
[Task Yolo9000_04] Current/Best:    4.41/  70.03 GFLOPS | Progress: (864/1008) | 2513.05 s
[Task Yolo9000_04] Current/Best:   23.20/  70.03 GFLOPS | Progress: (900/1008) | 2678.40 s
[Task Yolo9000_04] Current/Best:   10.95/  70.03 GFLOPS | Progress: (936/1008) | 2818.38 s
[Task Yolo9000_04] Current/Best:    9.12/  70.03 GFLOPS | Progress: (972/1008) | 2995.77 s
[Task Yolo9000_04] Current/Best:    6.64/  70.03 GFLOPS | Progress: (1008/1008) | 3169.92 s
 Done.
[Task Yolo9000_05] Current/Best:    0.00/   0.00 GFLOPS | Progress: (0/1008) | 0.00 s
[Task Yolo9000_05] Current/Best:    3.65/  65.30 GFLOPS | Progress: (36/1008) | 52.47 s
[Task Yolo9000_05] Current/Best:   10.97/  65.30 GFLOPS | Progress: (72/1008) | 108.08 s
[Task Yolo9000_05] Current/Best:   64.63/  65.30 GFLOPS | Progress: (108/1008) | 148.38 s
[Task Yolo9000_05] Current/Best:   18.90/  65.40 GFLOPS | Progress: (144/1008) | 194.01 s
[Task Yolo9000_05] Current/Best:   63.77/  65.60 GFLOPS | Progress: (180/1008) | 234.31 s
[Task Yolo9000_05] Current/Best:   11.95/  65.60 GFLOPS | Progress: (216/1008) | 279.20 s
[Task Yolo9000_05] Current/Best:   47.03/  65.60 GFLOPS | Progress: (252/1008) | 319.91 s
[Task Yolo9000_05] Current/Best:   14.65/  65.60 GFLOPS | Progress: (288/1008) | 368.97 s
[Task Yolo9000_05] Current/Best:   43.58/  65.60 GFLOPS | Progress: (324/1008) | 412.25 s
[Task Yolo9000_05] Current/Best:    6.19/  65.60 GFLOPS | Progress: (360/1008) | 460.33 s
[Task Yolo9000_05] Current/Best:    5.45/  65.60 GFLOPS | Progress: (396/1008) | 515.82 s
[Task Yolo9000_05] Current/Best:   29.50/  65.60 GFLOPS | Progress: (432/1008) | 557.97 s
[Task Yolo9000_05] Current/Best:   12.97/  65.60 GFLOPS | Progress: (468/1008) | 614.25 s
[Task Yolo9000_05] Current/Best:   35.16/  65.60 GFLOPS | Progress: (504/1008) | 664.02 s
[Task Yolo9000_05] Current/Best:   13.40/  65.60 GFLOPS | Progress: (540/1008) | 719.00 s
[Task Yolo9000_05] Current/Best:    9.68/  65.60 GFLOPS | Progress: (576/1008) | 769.83 s
[Task Yolo9000_05] Current/Best:   34.45/  65.60 GFLOPS | Progress: (612/1008) | 819.05 s
[Task Yolo9000_05] Current/Best:    2.47/  65.60 GFLOPS | Progress: (648/1008) | 884.60 s
[Task Yolo9000_05] Current/Best:    5.77/  65.60 GFLOPS | Progress: (684/1008) | 934.95 s
[Task Yolo9000_05] Current/Best:    7.68/  65.60 GFLOPS | Progress: (720/1008) | 997.35 s
[Task Yolo9000_05] Current/Best:    6.42/  65.60 GFLOPS | Progress: (756/1008) | 1057.57 s
[Task Yolo9000_05] Current/Best:   15.05/  65.60 GFLOPS | Progress: (792/1008) | 1111.63 s
[Task Yolo9000_05] Current/Best:    2.58/  65.60 GFLOPS | Progress: (828/1008) | 1161.27 s
[Task Yolo9000_05] Current/Best:   12.53/  65.60 GFLOPS | Progress: (864/1008) | 1223.76 s
[Task Yolo9000_05] Current/Best:    1.42/  65.60 GFLOPS | Progress: (900/1008) | 1283.91 s
[Task Yolo9000_05] Current/Best:    5.90/  65.60 GFLOPS | Progress: (936/1008) | 1347.68 s
[Task Yolo9000_05] Current/Best:    3.80/  65.60 GFLOPS | Progress: (972/1008) | 1410.92 s
[Task Yolo9000_05] Current/Best:   14.15/  65.60 GFLOPS | Progress: (1008/1008) | 1470.31 s
 Done.
[Task Yolo9000_08] Current/Best:    0.00/   0.00 GFLOPS | Progress: (0/1296) | 0.00 s
[Task Yolo9000_08] Current/Best:   42.15/  69.65 GFLOPS | Progress: (36/1296) | 118.09 s
[Task Yolo9000_08] Current/Best:   12.27/  69.65 GFLOPS | Progress: (72/1296) | 223.05 s
[Task Yolo9000_08] Current/Best:   52.40/  69.77 GFLOPS | Progress: (108/1296) | 267.78 s
[Task Yolo9000_08] Current/Best:    4.39/  69.82 GFLOPS | Progress: (144/1296) | 333.25 s
[Task Yolo9000_08] Current/Best:   69.32/  69.82 GFLOPS | Progress: (180/1296) | 375.24 s
[Task Yolo9000_08] Current/Best:   29.73/  69.82 GFLOPS | Progress: (216/1296) | 438.41 s
[Task Yolo9000_08] Current/Best:   60.45/  69.82 GFLOPS | Progress: (252/1296) | 481.03 s
[Task Yolo9000_08] Current/Best:   33.71/  69.82 GFLOPS | Progress: (288/1296) | 538.54 s
[Task Yolo9000_08] Current/Best:   35.10/  69.82 GFLOPS | Progress: (324/1296) | 618.29 s
[Task Yolo9000_08] Current/Best:   45.03/  69.82 GFLOPS | Progress: (360/1296) | 666.83 s
[Task Yolo9000_08] Current/Best:   28.72/  69.82 GFLOPS | Progress: (396/1296) | 810.29 s
[Task Yolo9000_08] Current/Best:   44.54/  69.82 GFLOPS | Progress: (432/1296) | 858.39 s
[Task Yolo9000_08] Current/Best:    4.45/  69.82 GFLOPS | Progress: (468/1296) | 952.61 s
[Task Yolo9000_08] Current/Best:   24.34/  69.82 GFLOPS | Progress: (504/1296) | 1040.19 s
[Task Yolo9000_08] Current/Best:   31.20/  69.82 GFLOPS | Progress: (540/1296) | 1148.59 s
[Task Yolo9000_08] Current/Best:   43.87/  69.82 GFLOPS | Progress: (576/1296) | 1201.12 s
[Task Yolo9000_08] Current/Best:   17.95/  69.82 GFLOPS | Progress: (612/1296) | 1258.18 s
[Task Yolo9000_08] Current/Best:   24.01/  69.82 GFLOPS | Progress: (648/1296) | 1384.90 s
[Task Yolo9000_08] Current/Best:   12.66/  69.82 GFLOPS | Progress: (684/1296) | 1478.65 s
[Task Yolo9000_08] Current/Best:   21.11/  69.82 GFLOPS | Progress: (720/1296) | 1628.02 s
[Task Yolo9000_08] Current/Best:   19.76/  69.82 GFLOPS | Progress: (756/1296) | 1739.36 s
[Task Yolo9000_08] Current/Best:    8.93/  69.82 GFLOPS | Progress: (792/1296) | 1862.45 s
[Task Yolo9000_08] Current/Best:   27.64/  69.82 GFLOPS | Progress: (828/1296) | 1967.56 s
[Task Yolo9000_08] Current/Best:   30.13/  69.82 GFLOPS | Progress: (864/1296) | 2125.25 s
[Task Yolo9000_08] Current/Best:   22.68/  69.82 GFLOPS | Progress: (900/1296) | 2230.78 s
[Task Yolo9000_08] Current/Best:   27.31/  69.82 GFLOPS | Progress: (936/1296) | 2336.94 s
[Task Yolo9000_08] Current/Best:   22.19/  69.82 GFLOPS | Progress: (972/1296) | 2463.81 s
[Task Yolo9000_08] Current/Best:   15.62/  69.82 GFLOPS | Progress: (1008/1296) | 2571.67 s
[Task Yolo9000_08] Current/Best:   11.19/  69.82 GFLOPS | Progress: (1044/1296) | 2707.63 s
[Task Yolo9000_08] Current/Best:   19.87/  69.82 GFLOPS | Progress: (1080/1296) | 2819.34 s
[Task Yolo9000_08] Current/Best:   31.20/  69.82 GFLOPS | Progress: (1116/1296) | 3014.06 s
[Task Yolo9000_08] Current/Best:   13.93/  69.82 GFLOPS | Progress: (1152/1296) | 3155.85 s
[Task Yolo9000_08] Current/Best:    6.12/  69.82 GFLOPS | Progress: (1188/1296) | 3308.80 s
[Task Yolo9000_08] Current/Best:    8.86/  69.82 GFLOPS | Progress: (1224/1296) | 3471.65 s
[Task Yolo9000_08] Current/Best:   17.67/  69.82 GFLOPS | Progress: (1260/1296) | 3632.48 s
[Task Yolo9000_08] Current/Best:   13.69/  69.82 GFLOPS | Progress: (1296/1296) | 3771.24 s
 Done.
[Task Yolo9000_09] Current/Best:    0.00/   0.00 GFLOPS | Progress: (0/1296) | 0.00 s
[Task Yolo9000_09] Current/Best:   39.94/  66.74 GFLOPS | Progress: (36/1296) | 35.55 s
[Task Yolo9000_09] Current/Best:   38.71/  66.86 GFLOPS | Progress: (72/1296) | 75.44 s
[Task Yolo9000_09] Current/Best:   65.31/  66.86 GFLOPS | Progress: (108/1296) | 102.19 s
[Task Yolo9000_09] Current/Best:    2.43/  66.86 GFLOPS | Progress: (144/1296) | 135.08 s
[Task Yolo9000_09] Current/Best:   62.73/  66.86 GFLOPS | Progress: (180/1296) | 161.40 s
[Task Yolo9000_09] Current/Best:    9.62/  66.86 GFLOPS | Progress: (216/1296) | 196.14 s
[Task Yolo9000_09] Current/Best:   44.64/  66.86 GFLOPS | Progress: (252/1296) | 223.16 s
[Task Yolo9000_09] Current/Best:    4.59/  66.86 GFLOPS | Progress: (288/1296) | 259.71 s
[Task Yolo9000_09] Current/Best:    2.43/  66.86 GFLOPS | Progress: (324/1296) | 292.48 s
[Task Yolo9000_09] Current/Best:   29.80/  66.86 GFLOPS | Progress: (360/1296) | 325.11 s
[Task Yolo9000_09] Current/Best:   29.83/  66.86 GFLOPS | Progress: (396/1296) | 369.16 s
[Task Yolo9000_09] Current/Best:   27.42/  66.86 GFLOPS | Progress: (432/1296) | 397.07 s
[Task Yolo9000_09] Current/Best:   33.65/  66.86 GFLOPS | Progress: (468/1296) | 440.28 s
[Task Yolo9000_09] Current/Best:   32.97/  66.86 GFLOPS | Progress: (504/1296) | 471.15 s
[Task Yolo9000_09] Current/Best:   19.12/  66.86 GFLOPS | Progress: (540/1296) | 512.22 s
[Task Yolo9000_09] Current/Best:   39.29/  66.86 GFLOPS | Progress: (576/1296) | 543.32 s
[Task Yolo9000_09] Current/Best:   19.71/  66.86 GFLOPS | Progress: (612/1296) | 572.73 s
[Task Yolo9000_09] Current/Best:   27.99/  66.86 GFLOPS | Progress: (648/1296) | 618.92 s
[Task Yolo9000_09] Current/Best:   36.72/  66.86 GFLOPS | Progress: (684/1296) | 648.94 s
[Task Yolo9000_09] Current/Best:   17.94/  66.86 GFLOPS | Progress: (720/1296) | 695.03 s
[Task Yolo9000_09] Current/Best:   19.40/  66.86 GFLOPS | Progress: (756/1296) | 725.01 s
[Task Yolo9000_09] Current/Best:   16.69/  66.86 GFLOPS | Progress: (792/1296) | 773.70 s
[Task Yolo9000_09] Current/Best:   16.13/  66.86 GFLOPS | Progress: (828/1296) | 807.87 s
[Task Yolo9000_09] Current/Best:    4.95/  66.86 GFLOPS | Progress: (864/1296) | 857.78 s
[Task Yolo9000_09] Current/Best:    7.97/  66.86 GFLOPS | Progress: (900/1296) | 904.95 s
[Task Yolo9000_09] Current/Best:   30.76/  66.86 GFLOPS | Progress: (936/1296) | 934.59 s
[Task Yolo9000_09] Current/Best:    2.35/  66.86 GFLOPS | Progress: (972/1296) | 983.85 s
[Task Yolo9000_09] Current/Best:    2.94/  66.86 GFLOPS | Progress: (1008/1296) | 1026.82 s
[Task Yolo9000_09] Current/Best:   15.97/  66.86 GFLOPS | Progress: (1044/1296) | 1077.92 s
[Task Yolo9000_09] Current/Best:   20.54/  66.86 GFLOPS | Progress: (1080/1296) | 1114.78 s
[Task Yolo9000_09] Current/Best:    8.97/  66.86 GFLOPS | Progress: (1116/1296) | 1156.97 s
[Task Yolo9000_09] Current/Best:   21.22/  66.86 GFLOPS | Progress: (1152/1296) | 1198.97 s
[Task Yolo9000_09] Current/Best:    5.84/  66.86 GFLOPS | Progress: (1188/1296) | 1244.46 s
[Task Yolo9000_09] Current/Best:    1.67/  66.86 GFLOPS | Progress: (1224/1296) | 1300.41 s
[Task Yolo9000_09] Current/Best:    7.49/  66.86 GFLOPS | Progress: (1260/1296) | 1345.20 s
[Task Yolo9000_09] Current/Best:    4.03/  66.86 GFLOPS | Progress: (1296/1296) | 1399.77 s
 Done.
[Task Yolo9000_12] Current/Best:    0.00/   0.00 GFLOPS | Progress: (0/1440) | 0.00 s
[Task Yolo9000_12] Current/Best:   18.72/  69.23 GFLOPS | Progress: (36/1440) | 125.88 s
[Task Yolo9000_12] Current/Best:   23.54/  69.27 GFLOPS | Progress: (72/1440) | 232.19 s
[Task Yolo9000_12] Current/Best:   48.34/  69.39 GFLOPS | Progress: (108/1440) | 275.46 s
[Task Yolo9000_12] Current/Best:   25.81/  69.44 GFLOPS | Progress: (144/1440) | 334.49 s
[Task Yolo9000_12] Current/Best:   69.09/  69.44 GFLOPS | Progress: (180/1440) | 377.10 s
[Task Yolo9000_12] Current/Best:   34.93/  69.44 GFLOPS | Progress: (216/1440) | 450.54 s
[Task Yolo9000_12] Current/Best:   67.87/  69.44 GFLOPS | Progress: (252/1440) | 496.53 s
[Task Yolo9000_12] Current/Best:   11.07/  69.44 GFLOPS | Progress: (288/1440) | 557.30 s
[Task Yolo9000_12] Current/Best:   34.07/  69.44 GFLOPS | Progress: (324/1440) | 608.39 s
[Task Yolo9000_12] Current/Best:   17.86/  69.44 GFLOPS | Progress: (360/1440) | 716.44 s
[Task Yolo9000_12] Current/Best:   10.52/  69.44 GFLOPS | Progress: (396/1440) | 838.67 s
[Task Yolo9000_12] Current/Best:   32.80/  69.44 GFLOPS | Progress: (432/1440) | 890.83 s
[Task Yolo9000_12] Current/Best:   23.81/  69.44 GFLOPS | Progress: (468/1440) | 975.90 s
[Task Yolo9000_12] Current/Best:    4.10/  69.44 GFLOPS | Progress: (504/1440) | 1043.25 s
[Task Yolo9000_12] Current/Best:   17.69/  69.44 GFLOPS | Progress: (540/1440) | 1184.61 s
[Task Yolo9000_12] Current/Best:   43.10/  69.44 GFLOPS | Progress: (576/1440) | 1239.96 s
[Task Yolo9000_12] Current/Best:   20.40/  69.44 GFLOPS | Progress: (612/1440) | 1343.93 s
[Task Yolo9000_12] Current/Best:   17.57/  69.44 GFLOPS | Progress: (648/1440) | 1491.17 s
[Task Yolo9000_12] Current/Best:    9.78/  69.44 GFLOPS | Progress: (684/1440) | 1594.94 s
[Task Yolo9000_12] Current/Best:   19.47/  69.44 GFLOPS | Progress: (720/1440) | 1723.82 s
[Task Yolo9000_12] Current/Best:   50.24/  69.44 GFLOPS | Progress: (756/1440) | 1783.33 s
[Task Yolo9000_12] Current/Best:   16.45/  69.44 GFLOPS | Progress: (792/1440) | 1914.91 s
[Task Yolo9000_12] Current/Best:   25.33/  69.44 GFLOPS | Progress: (828/1440) | 1981.39 s
[Task Yolo9000_12] Current/Best:   22.65/  69.44 GFLOPS | Progress: (864/1440) | 2112.60 s
[Task Yolo9000_12] Current/Best:    6.63/  69.44 GFLOPS | Progress: (900/1440) | 2227.15 s
[Task Yolo9000_12] Current/Best:   22.48/  69.44 GFLOPS | Progress: (936/1440) | 2361.34 s
[Task Yolo9000_12] Current/Best:   20.71/  69.44 GFLOPS | Progress: (972/1440) | 2497.58 s
[Task Yolo9000_12] Current/Best:   17.70/  69.44 GFLOPS | Progress: (1008/1440) | 2615.16 s
[Task Yolo9000_12] Current/Best:   13.41/  69.44 GFLOPS | Progress: (1044/1440) | 2748.61 s
[Task Yolo9000_12] Current/Best:   20.93/  69.44 GFLOPS | Progress: (1080/1440) | 2850.83 s
[Task Yolo9000_12] Current/Best:   26.43/  69.44 GFLOPS | Progress: (1116/1440) | 2996.28 s
[Task Yolo9000_12] Current/Best:   13.40/  69.44 GFLOPS | Progress: (1152/1440) | 3162.92 s
[Task Yolo9000_12] Current/Best:   11.24/  69.44 GFLOPS | Progress: (1188/1440) | 3312.05 s
[Task Yolo9000_12] Current/Best:    8.84/  69.44 GFLOPS | Progress: (1224/1440) | 3472.03 s
[Task Yolo9000_12] Current/Best:   15.84/  69.44 GFLOPS | Progress: (1260/1440) | 3647.28 s
[Task Yolo9000_12] Current/Best:   17.75/  69.44 GFLOPS | Progress: (1296/1440) | 3798.69 s
[Task Yolo9000_12] Current/Best:   17.62/  69.44 GFLOPS | Progress: (1332/1440) | 3940.16 s
[Task Yolo9000_12] Current/Best:    7.60/  69.44 GFLOPS | Progress: (1368/1440) | 4134.37 s
[Task Yolo9000_12] Current/Best:    6.11/  69.44 GFLOPS | Progress: (1404/1440) | 4282.67 s
[Task Yolo9000_12] Current/Best:    8.80/  69.44 GFLOPS | Progress: (1440/1440) | 4435.09 s
 Done.
[Task Yolo9000_13] Current/Best:    0.00/   0.00 GFLOPS | Progress: (0/1440) | 0.00 s
[Task Yolo9000_13] Current/Best:   27.79/  65.41 GFLOPS | Progress: (36/1440) | 28.46 s
[Task Yolo9000_13] Current/Best:    9.59/  66.35 GFLOPS | Progress: (72/1440) | 62.52 s
[Task Yolo9000_13] Current/Best:   59.04/  67.26 GFLOPS | Progress: (108/1440) | 82.89 s
[Task Yolo9000_13] Current/Best:   37.98/  67.26 GFLOPS | Progress: (144/1440) | 108.42 s
[Task Yolo9000_13] Current/Best:   65.14/  67.26 GFLOPS | Progress: (180/1440) | 128.90 s
[Task Yolo9000_13] Current/Best:   12.91/  67.26 GFLOPS | Progress: (216/1440) | 152.24 s
[Task Yolo9000_13] Current/Best:   47.72/  67.26 GFLOPS | Progress: (252/1440) | 172.82 s
[Task Yolo9000_13] Current/Best:   29.58/  67.26 GFLOPS | Progress: (288/1440) | 201.65 s
[Task Yolo9000_13] Current/Best:   63.10/  67.26 GFLOPS | Progress: (324/1440) | 225.16 s
[Task Yolo9000_13] Current/Best:   31.36/  67.26 GFLOPS | Progress: (360/1440) | 247.10 s
[Task Yolo9000_13] Current/Best:    9.14/  67.26 GFLOPS | Progress: (396/1440) | 284.31 s
[Task Yolo9000_13] Current/Best:   44.66/  67.26 GFLOPS | Progress: (432/1440) | 305.47 s
[Task Yolo9000_13] Current/Best:    6.31/  67.26 GFLOPS | Progress: (468/1440) | 332.68 s
[Task Yolo9000_13] Current/Best:   11.11/  67.26 GFLOPS | Progress: (504/1440) | 356.02 s
[Task Yolo9000_13] Current/Best:   28.56/  67.26 GFLOPS | Progress: (540/1440) | 389.92 s
[Task Yolo9000_13] Current/Best:   44.82/  67.26 GFLOPS | Progress: (576/1440) | 424.96 s
[Task Yolo9000_13] Current/Best:   38.12/  67.26 GFLOPS | Progress: (612/1440) | 446.58 s
[Task Yolo9000_13] Current/Best:    2.21/  67.26 GFLOPS | Progress: (648/1440) | 479.73 s
[Task Yolo9000_13] Current/Best:   18.15/  67.26 GFLOPS | Progress: (684/1440) | 513.63 s
[Task Yolo9000_13] Current/Best:   35.63/  67.26 GFLOPS | Progress: (720/1440) | 552.19 s
[Task Yolo9000_13] Current/Best:   31.17/  67.26 GFLOPS | Progress: (756/1440) | 574.62 s
[Task Yolo9000_13] Current/Best:    3.93/  67.26 GFLOPS | Progress: (792/1440) | 609.94 s
[Task Yolo9000_13] Current/Best:    9.09/  67.26 GFLOPS | Progress: (828/1440) | 642.16 s
[Task Yolo9000_13] Current/Best:   14.91/  67.26 GFLOPS | Progress: (864/1440) | 679.38 s
[Task Yolo9000_13] Current/Best:   33.36/  67.26 GFLOPS | Progress: (900/1440) | 720.87 s
[Task Yolo9000_13] Current/Best:   17.81/  67.26 GFLOPS | Progress: (936/1440) | 748.89 s
[Task Yolo9000_13] Current/Best:    4.63/  67.26 GFLOPS | Progress: (972/1440) | 790.02 s
[Task Yolo9000_13] Current/Best:   13.36/  67.26 GFLOPS | Progress: (1008/1440) | 827.36 s
[Task Yolo9000_13] Current/Best:    8.72/  67.26 GFLOPS | Progress: (1044/1440) | 869.99 s
[Task Yolo9000_13] Current/Best:   21.63/  67.26 GFLOPS | Progress: (1080/1440) | 905.36 s
[Task Yolo9000_13] Current/Best:   17.56/  67.26 GFLOPS | Progress: (1116/1440) | 946.72 s
[Task Yolo9000_13] Current/Best:   24.30/  67.26 GFLOPS | Progress: (1152/1440) | 987.36 s
[Task Yolo9000_13] Current/Best:   33.20/  67.26 GFLOPS | Progress: (1188/1440) | 1011.61 s
[Task Yolo9000_13] Current/Best:   10.80/  67.26 GFLOPS | Progress: (1224/1440) | 1049.55 s
[Task Yolo9000_13] Current/Best:   15.48/  67.26 GFLOPS | Progress: (1260/1440) | 1086.60 s
[Task Yolo9000_13] Current/Best:   17.71/  67.26 GFLOPS | Progress: (1296/1440) | 1139.19 s
[Task Yolo9000_13] Current/Best:   20.48/  67.26 GFLOPS | Progress: (1332/1440) | 1179.91 s
[Task Yolo9000_13] Current/Best:    7.62/  67.26 GFLOPS | Progress: (1368/1440) | 1225.35 s
[Task Yolo9000_13] Current/Best:    2.22/  67.26 GFLOPS | Progress: (1404/1440) | 1272.32 s
[Task Yolo9000_13] Current/Best:    4.98/  67.26 GFLOPS | Progress: (1440/1440) | 1315.67 s
 Done.
[Task Yolo9000_18] Current/Best:    0.00/   0.00 GFLOPS | Progress: (0/1320) | 0.00 s
[Task Yolo9000_18] Current/Best:    8.04/  65.30 GFLOPS | Progress: (36/1320) | 121.05 s
[Task Yolo9000_18] Current/Best:    6.52/  65.30 GFLOPS | Progress: (72/1320) | 267.34 s
[Task Yolo9000_18] Current/Best:   56.77/  68.60 GFLOPS | Progress: (108/1320) | 336.11 s
[Task Yolo9000_18] Current/Best:   20.96/  68.60 GFLOPS | Progress: (144/1320) | 437.08 s
[Task Yolo9000_18] Current/Best:   45.74/  68.84 GFLOPS | Progress: (180/1320) | 506.84 s
[Task Yolo9000_18] Current/Best:   19.75/  68.84 GFLOPS | Progress: (216/1320) | 604.51 s
[Task Yolo9000_18] Current/Best:   57.86/  68.84 GFLOPS | Progress: (252/1320) | 676.17 s
[Task Yolo9000_18] Current/Best:    5.92/  68.84 GFLOPS | Progress: (288/1320) | 777.39 s
[Task Yolo9000_18] Current/Best:   37.01/  68.84 GFLOPS | Progress: (324/1320) | 854.90 s
[Task Yolo9000_18] Current/Best:   29.44/  68.84 GFLOPS | Progress: (360/1320) | 986.07 s
[Task Yolo9000_18] Current/Best:   32.94/  68.84 GFLOPS | Progress: (396/1320) | 1140.86 s
[Task Yolo9000_18] Current/Best:   38.98/  68.84 GFLOPS | Progress: (432/1320) | 1218.12 s
[Task Yolo9000_18] Current/Best:   15.16/  68.84 GFLOPS | Progress: (468/1320) | 1345.84 s
[Task Yolo9000_18] Current/Best:   15.13/  68.84 GFLOPS | Progress: (504/1320) | 1504.22 s
[Task Yolo9000_18] Current/Best:    8.14/  68.84 GFLOPS | Progress: (540/1320) | 1679.86 s
[Task Yolo9000_18] Current/Best:   20.67/  68.84 GFLOPS | Progress: (576/1320) | 1787.99 s
[Task Yolo9000_18] Current/Best:   13.21/  68.84 GFLOPS | Progress: (612/1320) | 1907.82 s
[Task Yolo9000_18] Current/Best:   29.13/  68.84 GFLOPS | Progress: (648/1320) | 2095.63 s
[Task Yolo9000_18] Current/Best:   21.93/  68.84 GFLOPS | Progress: (684/1320) | 2210.45 s
[Task Yolo9000_18] Current/Best:   12.61/  68.84 GFLOPS | Progress: (720/1320) | 2406.15 s
[Task Yolo9000_18] Current/Best:   14.93/  68.84 GFLOPS | Progress: (756/1320) | 2538.84 s
[Task Yolo9000_18] Current/Best:    4.40/  68.84 GFLOPS | Progress: (792/1320) | 2701.09 s
[Task Yolo9000_18] Current/Best:   17.48/  68.84 GFLOPS | Progress: (828/1320) | 2828.53 s
[Task Yolo9000_18] Current/Best:   17.25/  68.84 GFLOPS | Progress: (864/1320) | 3035.99 s
[Task Yolo9000_18] Current/Best:   17.30/  68.84 GFLOPS | Progress: (900/1320) | 3166.04 s
[Task Yolo9000_18] Current/Best:   10.93/  68.84 GFLOPS | Progress: (936/1320) | 3312.33 s
[Task Yolo9000_18] Current/Best:   12.07/  68.84 GFLOPS | Progress: (972/1320) | 3509.14 s
[Task Yolo9000_18] Current/Best:    9.70/  68.84 GFLOPS | Progress: (1008/1320) | 3670.93 s
[Task Yolo9000_18] Current/Best:   20.17/  68.84 GFLOPS | Progress: (1044/1320) | 3874.97 s
[Task Yolo9000_18] Current/Best:    6.59/  68.84 GFLOPS | Progress: (1080/1320) | 3993.82 s
[Task Yolo9000_18] Current/Best:   11.30/  68.84 GFLOPS | Progress: (1116/1320) | 4190.55 s
[Task Yolo9000_18] Current/Best:    5.07/  68.84 GFLOPS | Progress: (1152/1320) | 4414.50 s
[Task Yolo9000_18] Current/Best:   12.14/  68.84 GFLOPS | Progress: (1188/1320) | 4623.13 s
[Task Yolo9000_18] Current/Best:    9.60/  68.84 GFLOPS | Progress: (1224/1320) | 4825.25 s
[Task Yolo9000_18] Current/Best:   11.21/  68.84 GFLOPS | Progress: (1260/1320) | 4994.35 s
[Task Yolo9000_18] Current/Best:   11.03/  68.84 GFLOPS | Progress: (1296/1320) | 5183.07 s
[Task Yolo9000_18] Current/Best:    4.40/  68.84 GFLOPS | Progress: (1320/1320) | 5324.41 s
 Done.
[Task Yolo9000_19] Current/Best:    0.00/   0.00 GFLOPS | Progress: (0/1320) | 0.00 s
[Task Yolo9000_19] Current/Best:   30.37/  63.61 GFLOPS | Progress: (36/1320) | 29.36 s
[Task Yolo9000_19] Current/Best:   23.41/  63.78 GFLOPS | Progress: (72/1320) | 68.05 s
[Task Yolo9000_19] Current/Best:   39.28/  64.30 GFLOPS | Progress: (108/1320) | 88.52 s
[Task Yolo9000_19] Current/Best:   50.41/  64.30 GFLOPS | Progress: (144/1320) | 113.83 s
[Task Yolo9000_19] Current/Best:   56.45/  65.72 GFLOPS | Progress: (180/1320) | 133.84 s
[Task Yolo9000_19] Current/Best:   28.53/  65.72 GFLOPS | Progress: (216/1320) | 158.53 s
[Task Yolo9000_19] Current/Best:   46.61/  65.81 GFLOPS | Progress: (252/1320) | 178.96 s
[Task Yolo9000_19] Current/Best:   12.20/  65.81 GFLOPS | Progress: (288/1320) | 204.06 s
[Task Yolo9000_19] Current/Best:   43.13/  65.81 GFLOPS | Progress: (324/1320) | 226.64 s
[Task Yolo9000_19] Current/Best:   52.88/  65.81 GFLOPS | Progress: (360/1320) | 247.28 s
[Task Yolo9000_19] Current/Best:    1.72/  65.81 GFLOPS | Progress: (396/1320) | 279.64 s
[Task Yolo9000_19] Current/Best:    4.85/  65.81 GFLOPS | Progress: (432/1320) | 308.05 s
[Task Yolo9000_19] Current/Best:   27.68/  65.81 GFLOPS | Progress: (468/1320) | 346.83 s
[Task Yolo9000_19] Current/Best:   28.42/  65.81 GFLOPS | Progress: (504/1320) | 369.88 s
[Task Yolo9000_19] Current/Best:   29.86/  65.81 GFLOPS | Progress: (540/1320) | 406.32 s
[Task Yolo9000_19] Current/Best:    3.37/  65.81 GFLOPS | Progress: (576/1320) | 431.86 s
[Task Yolo9000_19] Current/Best:    2.24/  65.81 GFLOPS | Progress: (612/1320) | 459.24 s
[Task Yolo9000_19] Current/Best:    2.60/  65.81 GFLOPS | Progress: (648/1320) | 503.11 s
[Task Yolo9000_19] Current/Best:    4.50/  65.81 GFLOPS | Progress: (684/1320) | 529.33 s
[Task Yolo9000_19] Current/Best:   16.65/  65.81 GFLOPS | Progress: (720/1320) | 572.13 s
[Task Yolo9000_19] Current/Best:   37.07/  65.81 GFLOPS | Progress: (756/1320) | 594.43 s
[Task Yolo9000_19] Current/Best:   17.45/  65.81 GFLOPS | Progress: (792/1320) | 633.78 s
[Task Yolo9000_19] Current/Best:    9.30/  65.81 GFLOPS | Progress: (828/1320) | 667.99 s
[Task Yolo9000_19] Current/Best:   21.82/  65.81 GFLOPS | Progress: (864/1320) | 705.59 s
[Task Yolo9000_19] Current/Best:   19.85/  65.81 GFLOPS | Progress: (900/1320) | 740.52 s
[Task Yolo9000_19] Current/Best:   19.34/  65.81 GFLOPS | Progress: (936/1320) | 787.92 s
[Task Yolo9000_19] Current/Best:    2.09/  65.81 GFLOPS | Progress: (972/1320) | 831.63 s
[Task Yolo9000_19] Current/Best:   20.80/  65.81 GFLOPS | Progress: (1008/1320) | 855.28 s
[Task Yolo9000_19] Current/Best:   17.45/  65.81 GFLOPS | Progress: (1044/1320) | 892.32 s
[Task Yolo9000_19] Current/Best:    4.21/  65.81 GFLOPS | Progress: (1080/1320) | 932.67 s
[Task Yolo9000_19] Current/Best:   20.80/  65.81 GFLOPS | Progress: (1116/1320) | 980.03 s
[Task Yolo9000_19] Current/Best:   15.69/  65.81 GFLOPS | Progress: (1152/1320) | 1025.61 s
[Task Yolo9000_19] Current/Best:    2.23/  65.81 GFLOPS | Progress: (1188/1320) | 1072.40 s
[Task Yolo9000_19] Current/Best:    2.06/  65.81 GFLOPS | Progress: (1224/1320) | 1118.81 s
[Task Yolo9000_19] Current/Best:    2.29/  65.81 GFLOPS | Progress: (1260/1320) | 1161.59 s
[Task Yolo9000_19] Current/Best:    2.07/  65.81 GFLOPS | Progress: (1296/1320) | 1204.66 s
[Task Yolo9000_19] Current/Best:    2.20/  65.81 GFLOPS | Progress: (1320/1320) | 1236.50 s
 Done.
[Task Yolo9000_23] Current/Best:    0.00/   0.00 GFLOPS | Progress: (0/1320) | 0.00 s
[Task Yolo9000_23] Current/Best:    0.00/   0.00 GFLOPS | Progress: (36/1320) | 226.51 s
[Task Yolo9000_23] Current/Best:    0.00/   0.00 GFLOPS | Progress: (72/1320) | 452.31 s
[Task Yolo9000_23] Current/Best:    0.00/   0.00 GFLOPS | Progress: (108/1320) | 729.33 s
[Task Yolo9000_23] Current/Best:    0.00/   0.00 GFLOPS | Progress: (144/1320) | 985.86 s
[Task Yolo9000_23] Current/Best:    0.00/   0.00 GFLOPS | Progress: (180/1320) | 1242.38 s
