m,n,k,time(ms),time_pp(ms),peakperf(%)
9,128,128,0.00368548,0.00219429,59.5387
10,128,128,0.0037669,0.0024381,64.7241
11,128,128,0.00386509,0.0026819,69.3878
12,128,128,0.00403621,0.00292571,72.4866
13,128,128,0.00424489,0.00316952,74.6668
14,128,128,0.00456596,0.00341333,74.7561
15,128,128,0.00498561,0.00365714,73.354
16,128,128,0.00468527,0.00390095,83.2599
17,128,128,0.00577883,0.00414476,71.7232
18,128,128,0.0059114,0.00438857,74.2391
19,128,128,0.00601704,0.00463238,76.9878
20,128,128,0.00620882,0.00487619,78.5364
21,128,128,0.00634701,0.00512,80.6679
22,128,128,0.00676479,0.00536381,79.2901
23,128,128,0.00707854,0.00560762,79.22
24,128,128,0.00670105,0.00585143,87.3211
25,128,128,0.00787192,0.00609524,77.4301
26,128,128,0.00802211,0.00633905,79.0197
27,128,128,0.00810924,0.00658286,81.1772
28,128,128,0.00830366,0.00682667,82.2127
29,128,128,0.00843104,0.00707048,83.8624
30,128,128,0.00884903,0.00731429,82.6563
31,128,128,0.00919262,0.0075581,82.2192
32,128,128,0.00873967,0.0078019,89.27
33,128,128,0.00998219,0.00804571,80.6007
34,128,128,0.0100866,0.00828952,82.1839
35,128,128,0.0101644,0.00853333,83.9531
36,128,128,0.0103518,0.00877714,84.7889
37,128,128,0.0104885,0.00902095,86.0081
38,128,128,0.0108889,0.00926476,85.0843
39,128,128,0.0112809,0.00950857,84.2894
40,128,128,0.0108151,0.00975238,90.1737
41,128,128,0.0120571,0.00999619,82.9072
42,128,128,0.0121354,0.01024,84.3815
43,128,128,0.0122373,0.0104838,85.6712
44,128,128,0.0124029,0.0107276,86.493
45,128,128,0.0126249,0.0109714,86.903
46,128,128,0.0129387,0.0112152,86.6797
47,128,128,0.013319,0.011459,86.0352
48,128,128,0.0128977,0.0117029,90.7362
49,128,128,0.0141105,0.0119467,84.665
