perf,CACHE_MISS_L1,CACHE_MISS_L2,scheme
72.42,144700,52560,"[V f; U (2, f); U (4, y); T (64, c); Hoist_vars [c]; T (28, x); T (8, f);  T (1, x); T (7, y); T (1, f)]"
65.70,125833,73789,"[V f; U (2, f); U (4, y); T (64, c); Hoist_vars [c]; T (28, x); T (4, f);  T (1, x); T (7, y); T (2, f)]"
68.64,143267,91416,"[V f; U (2, f); U (4, y); T (64, c); Hoist_vars [c]; T (28, x); T (2, f);  T (1, x); T (7, y); T (4, f)]"
60.75,124973,103544,"[V f; U (2, f); U (4, y); T (64, c); Hoist_vars [c]; T (28, x); T (1, f);  T (1, x); T (7, y); T (8, f)]"
74.37,143614,36607,"[V f; U (2, f); U (4, y); T (64, c); Hoist_vars [c]; T (14, x); T (8, f);  T (2, x); T (7, y); T (1, f)]"
71.79,144907,63116,"[V f; U (2, f); U (4, y); T (64, c); Hoist_vars [c]; T (14, x); T (4, f);  T (2, x); T (7, y); T (2, f)]"
67.87,142387,90541,"[V f; U (2, f); U (4, y); T (64, c); Hoist_vars [c]; T (14, x); T (2, f);  T (2, x); T (7, y); T (4, f)]"
62.55,141490,126427,"[V f; U (2, f); U (4, y); T (64, c); Hoist_vars [c]; T (14, x); T (1, f);  T (2, x); T (7, y); T (8, f)]"
73.03,113000,31897,"[V f; U (2, f); U (4, y); T (64, c); Hoist_vars [c]; T (7, x); T (8, f);  T (4, x); T (7, y); T (1, f)]"
74.49,124356,49757,"[V f; U (2, f); U (4, y); T (64, c); Hoist_vars [c]; T (7, x); T (4, f);  T (4, x); T (7, y); T (2, f)]"
68.64,115830,74407,"[V f; U (2, f); U (4, y); T (64, c); Hoist_vars [c]; T (7, x); T (2, f);  T (4, x); T (7, y); T (4, f)]"
61.39,126002,109970,"[V f; U (2, f); U (4, y); T (64, c); Hoist_vars [c]; T (7, x); T (1, f);  T (4, x); T (7, y); T (8, f)]"
74.80,109070,28210,"[V f; U (2, f); U (4, y); T (64, c); Hoist_vars [c]; T (4, x); T (8, f);  T (7, x); T (7, y); T (1, f)]"
71.79,119808,50422,"[V f; U (2, f); U (4, y); T (64, c); Hoist_vars [c]; T (4, x); T (4, f);  T (7, x); T (7, y); T (2, f)]"
65.79,126111,83099,"[V f; U (2, f); U (4, y); T (64, c); Hoist_vars [c]; T (4, x); T (2, f);  T (7, x); T (7, y); T (4, f)]"
64.63,143419,124219,"[V f; U (2, f); U (4, y); T (64, c); Hoist_vars [c]; T (4, x); T (1, f);  T (7, x); T (7, y); T (8, f)]"
78.84,101163,29935,"[V f; U (2, f); U (4, y); T (64, c); Hoist_vars [c]; T (2, x); T (8, f);  T (14, x); T (7, y); T (1, f)]"
74.25,109768,49794,"[V f; U (2, f); U (4, y); T (64, c); Hoist_vars [c]; T (2, x); T (4, f);  T (14, x); T (7, y); T (2, f)]"
65.15,118077,78251,"[V f; U (2, f); U (4, y); T (64, c); Hoist_vars [c]; T (2, x); T (2, f);  T (14, x); T (7, y); T (4, f)]"
61.40,126012,109339,"[V f; U (2, f); U (4, y); T (64, c); Hoist_vars [c]; T (2, x); T (1, f);  T (14, x); T (7, y); T (8, f)]"
80.45,103928,25391,"[V f; U (2, f); U (4, y); T (64, c); Hoist_vars [c]; T (1, x); T (8, f);  T (28, x); T (7, y); T (1, f)]"
76.74,101130,49450,"[V f; U (2, f); U (4, y); T (64, c); Hoist_vars [c]; T (1, x); T (4, f);  T (28, x); T (7, y); T (2, f)]"
71.41,110818,81161,"[V f; U (2, f); U (4, y); T (64, c); Hoist_vars [c]; T (1, x); T (2, f);  T (28, x); T (7, y); T (4, f)]"
60.68,142643,126116,"[V f; U (2, f); U (4, y); T (64, c); Hoist_vars [c]; T (1, x); T (1, f);  T (28, x); T (7, y); T (8, f)]"
