perf,CACHE_MISS_L1,CACHE_MISS_L2
71.76,916571,208974
68.68,913358,250369
67.89,913673,277711
69.64,1036307,214982
69.06,1035740,244768
66.83,1037611,269300
64.09,819863,165154
65.99,814335,182514
62.39,824242,223958
55.45,1113591,164868
54.72,1113975,170312
56.26,1108194,213954
37.65,2129901,214758
37.95,2116896,252093
38.03,2121162,278686
24.20,3943334,338343
24.60,3960791,308010
24.47,3959329,327767
16.98,5527921,337548
17.79,5527582,360599
17.69,5517380,376430
9.95,11389858,580218
10.03,11321615,567281
10.17,11376219,554650
76.00,897640,132901
73.32,896732,185183
71.40,894103,246409
74.49,1036466,108447
72.28,1035081,173852
65.54,1040590,246368
67.26,842360,88277
67.70,837831,139014
58.99,832250,209006
58.81,1161257,82811
58.65,1145990,125062
55.01,1137833,189010
42.55,2149903,77147
40.97,2130773,131185
40.46,2130613,190005
26.37,4013251,112039
26.67,4025294,139506
26.29,4017230,238834
19.30,5559920,85851
19.17,5539303,124670
18.76,5537173,187653
11.02,11225938,76141
10.70,11290697,126575
10.68,11289692,190638
78.17,898891,93708
71.94,899141,173655
69.25,893340,241765
73.33,1039168,94184
69.47,1041197,165038
65.34,1039697,247035
69.47,868346,85269
66.71,864404,146022
62.05,865207,225550
59.59,1159305,84422
57.44,1164587,138330
54.60,1152518,197239
41.64,2111126,84217
40.68,2108366,149708
39.71,2103993,209292
26.46,3961677,90373
26.03,3931081,153123
25.40,3956044,257730
19.87,5497041,79305
19.29,5481870,131939
19.18,5490272,193059
11.29,10919039,78546
10.78,10994094,142791
11.27,10896734,212743
76.06,900057,106858
75.06,900625,159758
72.09,893900,216749
75.50,1042759,87815
70.47,1045357,152692
67.13,1039956,249990
69.66,908085,70062
68.13,901001,129558
62.49,897888,213670
62.74,1042944,78884
59.18,1052957,149779
56.61,1030633,223294
44.14,1628506,98237
45.37,1616003,135507
43.35,1601200,228914
30.74,2810956,73773
30.56,2831269,138587
30.03,2768847,240712
22.61,2694598,71286
21.99,2680146,139871
21.13,2640063,248727
16.04,4812444,61824
15.88,4818801,145683
15.44,4745888,251551
79.40,885849,67983
73.45,886416,161287
74.37,877209,194196
75.17,1017216,61709
67.01,1018331,157161
64.91,1009396,241979
70.79,769383,73085
67.69,789926,146236
64.43,752903,201607
63.98,832623,53162
62.56,825176,125125
56.88,808157,220721
45.55,1337016,88856
45.76,1337855,121369
44.30,1286825,191938
32.25,2240286,64534
32.93,2217915,98785
30.92,2081584,252952
21.63,2251291,54015
21.26,2246641,123547
20.76,2193710,221439
16.03,4107750,55566
15.64,4108097,195527
15.64,4008421,197038
79.30,803269,84944
73.22,802221,167256
76.25,793063,171883
71.42,895442,101054
77.17,894246,99689
74.44,869631,169995
70.10,880693,63589
66.61,875229,156649
67.78,836762,193137
64.37,1022831,75919
63.67,1001707,100676
59.53,952910,184863
54.77,1375677,49685
53.16,1359299,96128
50.50,1327506,206954
39.51,1961696,50760
39.53,1938012,95533
36.54,1968449,237950
33.60,2288600,52100
32.84,2238866,124397
31.28,2134442,219209
21.04,3820092,51426
19.59,3780695,234561
20.26,3570241,204112
78.97,1292186,110545
77.57,1291768,146074
73.51,1404988,94412
72.92,1402398,148301
71.93,574745,87329
71.22,569859,129516
64.03,790292,76726
63.28,789971,117751
48.57,1544517,83256
48.15,1537727,119702
34.31,2828077,82585
33.83,2863360,130445
26.01,4560505,74729
25.80,4562596,112806
13.36,9099475,83494
13.29,9098446,121375
78.96,1292762,94286
77.39,1290046,157085
75.41,1406305,94789
74.90,1401446,145871
73.12,606586,85814
70.74,600548,141476
64.86,825137,82201
62.09,820593,136328
50.09,1572296,81188
47.77,1559916,141110
36.57,2741474,87340
35.92,2737621,162064
28.68,4143510,72968
28.60,4134032,119361
14.96,8196484,77671
14.91,8187787,128763
79.86,1293535,81743
78.54,1292198,128759
77.62,1412484,76220
71.68,1404172,172919
73.68,666788,71294
68.37,654028,153775
64.70,861424,79501
60.67,855600,159437
54.09,1268567,80984
54.16,1249484,133427
42.83,1993061,68532
41.72,1935890,163444
36.18,1517098,65172
35.36,1500291,167348
26.70,2580272,68256
26.44,2529543,151773
80.10,1292333,84153
79.61,1289205,117892
76.34,1419721,63154
74.23,1413553,176556
75.30,732702,58917
65.85,733367,132140
70.30,671754,61574
69.90,650701,112711
57.53,1012433,67223
55.71,960590,160419
43.49,1597068,73316
44.26,1486538,184916
36.03,1362294,56608
35.21,1311092,139736
27.07,2282649,61210
26.77,2155170,125095
82.52,1266841,52967
77.33,1263959,151343
78.23,1394124,53897
77.42,1378157,105106
73.42,811767,80201
72.82,784025,139410
69.13,838066,61464
67.86,779193,130899
54.19,1071418,124993
56.98,962139,121482
43.69,1340203,84859
44.41,1193440,103123
35.01,1143379,52633
35.50,1006421,99286
27.41,1621133,54283
27.24,1356665,93556
84.29,1214079,54227
76.34,1205018,206594
78.56,1290727,58800
71.52,1266138,199442
75.69,1257897,57777
77.92,1222785,92753
70.02,1332260,51792
69.93,1288394,100918
52.55,1479996,175948
60.27,1433398,131895
46.42,1486504,136034
49.16,1543026,94097
41.05,1203341,50996
40.41,1227945,101855
27.81,1211264,54419
27.18,1242539,97217
55.73,897824,213165
54.59,897110,231857
52.54,896691,277458
50.93,897456,346638
50.09,1027956,236896
48.93,1028636,277199
46.87,1027428,330346
44.93,1022989,432301
47.45,1221533,233421
46.58,1215550,315641
44.43,1214431,344750
43.13,1203507,430755
44.28,1473720,206793
43.60,1458003,267256
42.68,1437631,315339
41.21,1431500,448508
36.91,2061577,286792
36.79,2035956,374788
36.93,2038570,354471
37.23,1995998,390346
27.54,3418815,375124
27.14,3416995,396982
26.78,3398584,408616
26.83,3372052,488454
19.10,4029230,332460
19.39,3912007,321834
17.91,3922255,460175
18.73,4049646,506051
16.06,7591004,476525
15.77,7601419,539002
14.53,7610255,883472
15.50,7643970,629301
55.83,898904,140561
56.21,898261,179688
53.69,897358,243150
49.57,896399,351950
54.67,1033634,116603
52.96,1033118,159937
50.18,1026292,257987
47.48,1022525,388870
52.35,1229015,94852
51.97,1224519,144382
47.15,1223343,241404
44.25,1209713,402509
47.82,1460669,95802
47.19,1466056,145775
45.09,1472898,236188
41.95,1456016,398335
40.03,2125040,86446
39.58,2112319,160839
38.77,2104151,213706
37.20,2053186,328836
31.08,3651574,90566
30.25,3637816,166509
29.78,3459061,218860
28.72,3421824,306051
21.90,4013468,95643
21.46,4077676,167702
21.10,4134071,260792
20.36,4202097,328493
18.11,7610474,79349
17.91,7610922,136413
17.54,7622970,206270
16.83,7597237,317701
58.00,899953,109787
56.19,899174,167484
53.11,895828,231393
50.33,888454,341842
54.95,1034235,94498
52.03,1032133,146349
48.24,1031262,262928
45.93,1020052,360398
51.81,1227666,93331
49.79,1226475,143897
46.74,1216889,238181
43.79,1203844,392280
47.86,1469950,90072
45.65,1491189,150740
43.79,1485633,237492
41.44,1465054,406580
40.00,2126507,81834
39.91,2087377,146815
38.04,2077754,221116
36.61,2040203,328737
30.93,3666167,82434
30.05,3563190,145787
29.77,3534407,239035
28.43,3515497,356830
21.51,3941320,81331
21.41,3922114,152372
21.00,3916905,235708
19.88,3922380,327994
17.97,7539576,75438
17.81,7595823,152920
17.38,7546922,218436
17.10,7537179,304477
55.88,900953,103072
56.06,898551,136279
54.70,891996,205155
50.78,881209,313519
52.79,1037506,78476
51.53,1034874,155352
48.65,1029142,235091
46.10,1014197,405269
51.43,1225016,87447
48.29,1226213,149529
47.77,1215380,225794
45.45,1200493,343883
47.19,1491483,77488
46.18,1486039,132436
44.43,1471620,223181
40.60,1454386,411942
40.42,2085852,76181
39.43,2077105,145340
38.12,2054512,225640
36.31,2019099,373625
31.82,3460808,78144
31.16,3452494,146236
29.55,3429368,239309
28.11,3393558,428095
23.56,3424383,73962
22.85,3478276,174597
22.13,3585146,296912
21.93,3738564,361029
20.12,5823540,95890
19.86,5810380,153074
19.30,5813542,233716
19.32,5797937,319797
58.20,885640,59754
55.34,888937,132531
53.62,876113,178539
50.46,854683,297152
53.62,1015968,54306
51.02,1005444,141870
50.53,1000979,186059
46.85,984334,318126
49.53,1204312,62634
48.60,1202295,116949
47.17,1183487,197835
44.03,1157969,313322
47.24,1402257,55862
43.04,1400441,184732
41.92,1393745,234957
42.08,1330641,331186
39.06,1774790,78455
38.96,1765233,109108
37.94,1775248,186756
36.34,1747650,324354
29.51,3019916,62302
29.05,2975134,124849
28.20,2965713,223314
27.83,2779472,340661
21.06,2988232,85792
20.80,2968592,104245
20.15,3063094,214386
20.38,2909847,310237
19.65,5373674,57740
19.38,5355689,118570
18.74,5344575,219905
18.62,5255223,356363
54.77,865824,78035
56.95,843292,91655
48.27,832566,227324
52.64,800055,292427
56.51,937115,50350
54.76,936306,104176
51.71,927034,157047
49.22,887690,273197
53.69,1077304,54808
52.37,1069936,93581
47.23,1061581,201808
46.09,999434,318147
50.93,1199194,47256
44.80,1210461,134992
47.35,1185151,174758
45.33,1105957,284702
41.57,1787107,60019
40.57,1718327,119250
39.86,1691177,185720
38.56,1560598,318149
31.11,2623762,124270
31.81,2611352,116476
30.95,2589239,205426
30.93,2335293,364019
25.06,2875561,59472
23.54,2861219,195961
23.64,2823746,211389
25.26,2680499,288824
30.17,4557082,67885
29.69,4571072,134073
26.86,4682896,368502
29.26,4295998,285259
74.14,1178086,109838
75.95,1172637,135611
73.66,1236349,104883
74.19,1233929,152423
67.74,1338028,102636
66.71,1323472,151541
64.88,923457,95267
61.03,910372,144831
57.93,904061,81889
56.86,847091,149535
50.64,1470897,86280
49.28,1510967,140238
38.33,1953852,87788
36.66,1946825,148529
28.02,3725582,78766
26.99,3723388,145675
73.64,1178119,110447
74.47,1174881,138218
71.39,1237330,97891
71.24,1235221,154634
68.36,1338900,88168
66.20,1323806,151313
69.32,916169,83697
66.33,916283,145507
58.20,886790,88013
57.72,879992,152271
51.17,1491992,86645
48.94,1509167,172533
39.60,1917868,90753
38.95,1940775,147472
29.92,3538326,79625
29.75,3541486,131017
74.63,1179186,91907
77.08,1175265,110233
72.72,1240075,86656
75.65,1233712,122201
67.41,1341999,91341
67.54,1323737,133007
69.33,893484,75760
67.26,963958,145983
60.54,936457,80422
58.53,932508,150159
53.98,1435785,80899
52.60,1436149,165236
43.92,1317407,96639
43.14,1336130,164999
32.61,2079412,79373
33.01,2070823,145107
75.98,1182890,59052
77.01,1174215,103732
72.90,1240382,77899
74.07,1233939,106484
67.37,1345703,80618
67.24,1320253,159776
69.55,1018830,72123
68.16,1022267,120290
61.13,965130,79790
59.70,933470,126569
54.66,1235199,94712
53.83,1182808,152610
44.74,1188777,71843
44.38,1239368,130751
33.30,1770629,100712
32.99,1697258,117688
76.13,1177968,56997
76.74,1163784,98207
70.69,1240489,64777
73.47,1218427,144873
66.63,1342997,116510
69.19,1311274,106335
70.86,1084781,53732
68.75,1040178,138529
61.82,1037101,61285
61.41,965823,109419
55.85,1244436,55768
55.81,1019212,116251
45.38,1121733,52900
44.64,1045179,109403
32.20,1501008,57858
32.13,1296218,156718
74.73,1170119,53429
77.12,1152682,92636
73.11,1203963,55982
73.05,1182848,141834
69.44,1274297,51411
69.04,1238006,114955
72.70,1312101,54973
69.95,1278188,104392
69.67,1435682,50684
57.87,1380365,165500
63.40,1473752,49829
61.90,1428653,119117
46.96,1232586,55770
47.20,1286078,93430
39.74,1287479,120974
40.28,1323517,181222
78.78,1976158,107530
76.06,1977163,138604
74.35,2025659,93865
74.06,2027613,147434
69.42,2122492,85421
70.17,2127210,142306
75.31,860104,75813
73.95,871721,130152
69.12,935431,81322
66.87,931887,135726
56.99,1572825,82328
55.12,1564978,138535
42.76,1899584,78195
42.24,1898282,125532
35.96,3722542,80170
35.15,3722741,129650
76.88,1975896,97572
75.23,1977672,137364
74.76,2025932,93023
73.13,2028289,135831
71.87,2124215,81155
69.82,2128434,148308
74.09,886418,80225
73.43,885729,146916
70.69,968156,78106
66.51,968335,144262
61.04,1473668,78804
58.68,1445461,165312
49.06,1257596,71435
46.51,1239030,133508
48.64,1890848,68893
46.43,1850246,140497
78.63,1977464,71159
76.42,1975391,117587
79.00,2031965,64193
71.32,2028883,162319
69.61,2131045,98247
71.16,2131480,130411
75.09,1011763,86413
74.00,991010,124904
68.86,1043030,62293
65.49,1032094,161198
62.38,1373986,82052
59.23,1317501,185752
49.03,1204654,72650
47.89,1177392,143392
49.90,1793207,103063
49.15,1742861,136455
83.01,1974306,58784
78.25,1968624,104772
74.55,2028389,131303
78.33,2021434,116033
78.23,2128573,55514
76.80,2116570,99959
76.72,1116232,64436
69.01,1101017,179470
70.92,1092572,59115
67.82,1018255,152689
63.08,1293590,69303
62.40,1198769,124223
49.35,1197491,70689
47.16,1124392,141523
48.67,1749889,91338
48.30,1530681,109178
84.26,1966168,55147
79.29,1962882,100266
79.98,2023312,64369
79.77,2014514,102161
76.94,2127881,61278
73.15,2109085,124808
76.31,1389489,58595
72.87,1332808,115184
70.10,1378370,54712
68.67,1314334,111569
62.44,1397616,57018
62.68,1358506,119188
49.72,1127329,54780
50.32,1141039,107763
46.42,1080683,125000
44.22,1096724,133840
84.43,1951980,55840
82.11,1941079,89997
74.51,2001245,69169
78.48,1983243,109310
68.27,2064828,160225
75.98,2048250,100772
76.10,2073488,53001
60.14,2056456,341547
68.15,2163240,55216
67.64,2165430,95281
61.06,2093166,52287
50.85,2086991,346579
47.78,1908041,56715
44.26,1936119,227390
41.81,1944602,255524
39.31,1960865,313211
76.90,1250207,116451
75.91,1248354,149624
76.30,1298506,105251
75.75,1293949,162664
75.85,1395726,94615
71.94,1392706,149738
72.11,827967,83309
68.86,815453,130796
62.98,911976,79408
61.49,903731,122549
52.38,1646949,94059
52.95,1629433,130323
38.76,1947973,75685
37.81,1948410,121630
28.17,3703495,84917
27.49,3702610,151747
79.57,1243768,89709
77.34,1243175,146589
79.70,1294932,89729
72.41,1295316,171114
73.96,1394133,89712
73.51,1393689,159228
69.77,856153,84855
68.24,839791,139617
64.62,939553,78702
62.41,949404,137064
54.55,1633115,82686
50.86,1634050,148082
39.90,1888763,76208
38.56,1883061,125286
29.77,3518894,72944
28.36,3521041,136668
78.47,1248722,65392
75.40,1242321,148486
76.69,1297658,113012
74.42,1295305,146425
75.53,1395706,85450
74.11,1394492,147619
70.08,907790,89023
71.43,902960,131103
64.33,1001010,73029
62.31,1000936,137401
57.55,1562958,75379
54.43,1545555,165021
45.62,1323711,74353
44.59,1314028,152637
33.35,2091674,80118
33.18,2045414,126996
79.26,1247873,65499
77.55,1244823,121222
78.21,1302107,74304
78.54,1300162,132262
75.27,1400100,84913
70.19,1401725,171672
71.36,1000322,77963
68.73,986080,168493
65.35,1015830,63173
64.52,1010459,120400
58.88,1495694,60378
56.47,1440045,175318
46.34,1241262,90219
43.82,1212769,149064
32.68,1886157,88469
32.77,1833877,162430
78.09,1241070,83358
72.84,1236866,151934
76.99,1305542,81670
74.33,1288158,141827
76.47,1400923,60910
73.98,1383112,116557
71.14,1106634,59329
72.06,1064307,105908
66.87,1164639,104105
59.30,1072201,159480
58.44,1435192,53626
57.87,1279637,123557
47.27,1265613,54290
46.54,1170722,113114
33.30,1795909,79027
33.20,1556042,108571
83.36,1213413,51343
79.94,1218585,95854
81.61,1261255,50482
71.18,1242794,222225
76.50,1319253,77289
74.36,1299570,102597
77.22,1336686,50576
64.79,1315412,145691
72.94,1449167,53572
69.29,1444903,144371
62.99,1448672,55319
63.17,1408536,100163
49.09,1216983,49982
48.93,1236268,97001
41.15,1241716,53129
38.64,1250730,100674
74.25,1162952,159732
70.03,1163712,198687
68.91,1163558,253519
72.95,1293500,129643
68.64,1293915,182985
66.35,1293028,250626
70.83,781175,101170
66.10,790978,140114
64.67,776231,194864
59.76,1064472,92644
60.29,1066230,117883
58.58,1062679,176366
43.00,2067304,107742
42.45,2065928,132082
40.81,2072597,192509
31.07,3446934,119173
30.08,3450899,165532
30.17,3489681,197055
21.63,5593017,168786
22.16,5554015,133517
21.44,5581704,211302
10.89,11331605,99237
10.92,11327329,162805
10.82,11337095,205120
74.91,1165754,130255
74.57,1162979,185411
69.81,1163532,271758
72.90,1295184,107730
71.21,1293105,176391
64.82,1293139,267331
70.61,808827,90656
68.92,806820,140363
64.87,802560,216897
57.88,1106278,95487
59.73,1097375,125530
55.66,1086704,185790
43.44,2113877,83289
42.11,2112405,139243
40.96,2115233,192845
31.44,3487455,92238
30.82,3535312,149459
29.41,3556520,236976
22.54,5549802,72008
22.13,5551632,132350
21.56,5585823,179453
11.32,11210057,95144
11.32,11187394,139698
10.96,11309101,213912
76.88,1167041,87670
74.37,1165321,185486
72.41,1162425,257793
74.76,1301697,102114
72.21,1298834,162466
68.86,1296154,255617
70.39,848273,81916
68.99,840761,143393
64.96,838665,213018
62.26,1099992,75786
60.69,1100980,139609
54.29,1090452,219445
45.75,1878118,83221
43.75,1888514,157538
44.06,1859341,249207
35.49,2845813,80870
34.36,2851043,170631
33.26,2806948,283488
27.36,3696290,78714
26.54,3687380,133900
25.35,3698429,213312
14.91,7230525,80670
14.94,7197320,145165
14.33,7232965,234978
77.82,1163618,85649
74.07,1161680,151013
71.07,1157828,256533
70.29,1300794,116898
70.26,1300784,132584
68.11,1292898,244809
70.40,872800,63937
66.74,875359,143579
64.19,863869,214954
62.01,896150,63875
60.18,882265,145733
54.71,880548,233244
50.61,1444742,77621
49.58,1425514,125030
46.18,1384982,257653
38.14,2096473,62369
37.14,2124269,149485
36.04,2020201,233529
27.96,2316773,77418
27.43,2313337,127812
26.02,2283546,231077
17.77,4347026,82415
17.58,4342660,135267
16.90,4276043,202062
77.66,1100352,91747
72.24,1102581,224702
72.20,1102994,203638
73.64,1234906,54776
66.13,1236866,200816
66.55,1232181,211650
67.99,827282,75210
66.14,812284,150209
64.39,801410,192785
61.53,848471,78640
59.53,839595,131303
56.98,814968,187931
50.04,1261231,55678
48.53,1233042,105444
48.46,1168718,198979
38.91,1658951,52569
38.51,1664775,99695
37.25,1535867,254791
26.60,1828768,92023
26.19,1822518,109126
26.30,1736782,203092
19.69,3106555,50925
19.33,3114549,188614
19.27,2909638,210573
74.66,980117,100768
71.34,992592,170912
71.38,1010731,227701
79.95,1065951,52042
64.12,1083551,210903
72.06,1073641,172502
67.12,1033900,129838
69.82,1043188,102420
69.56,1023027,160463
68.43,1115994,49991
64.07,1105042,108049
60.14,1076916,186958
58.11,1297999,51871
51.58,1285361,130082
49.54,1210716,270815
46.09,1351670,49681
41.65,1398850,113781
40.85,1328486,192928
33.52,1339698,51178
32.44,1339737,98586
32.74,1247516,178192
25.22,1489222,95630
24.93,1446039,223723
24.70,1350764,163889
75.06,1166880,165190
71.35,1165067,196911
69.95,1164013,262638
71.85,1290897,135354
70.51,1290617,181540
65.17,1290544,256482
71.04,770920,100193
67.28,768812,134312
65.50,769367,199857
57.63,1093757,94000
57.01,1088373,124729
55.68,1076409,176607
42.43,2118532,106963
41.35,2102563,167476
40.74,2096656,209077
31.70,3282707,135247
29.89,3290804,203613
30.89,3298283,206605
22.03,5619910,112450
21.44,5615898,191369
21.54,5624271,209749
10.94,11302580,201549
10.91,11282923,253920
10.83,11280950,241016
76.25,1164028,113909
71.73,1163620,190853
70.67,1162581,260355
72.67,1296266,96658
69.78,1295595,173707
64.41,1292057,266962
70.08,795063,84488
68.58,793525,146305
63.69,791428,211385
61.52,1100597,81084
60.05,1098641,127448
56.46,1075974,180703
43.37,2130904,90026
42.96,2131227,138190
41.64,2112668,193694
33.52,3310321,89006
33.05,3309073,144895
32.07,3319702,210898
21.56,5658648,74713
21.28,5658582,133304
20.93,5658948,188638
11.18,11239414,72911
11.17,11245742,132308
11.07,11282932,189390
79.22,1166138,85247
73.64,1165057,172379
67.29,1164433,258739
74.55,1300751,96910
69.90,1298999,157398
65.45,1301810,248106
69.92,835003,83812
70.12,828154,136304
63.70,823168,222267
61.11,1084569,75115
61.18,1084369,130548
56.91,1082691,201099
46.02,1917129,79356
44.61,1914871,147406
44.05,1885994,231852
37.28,2512689,85259
37.00,2500396,144852
35.27,2494069,242821
25.80,3751827,71399
25.47,3735737,138226
24.92,3724038,207859
14.34,7213455,95182
14.10,7251880,152498
13.68,7264038,226108
73.46,1164080,99228
76.11,1164434,135661
71.61,1159758,232077
74.21,1301877,70355
71.65,1299960,127055
66.28,1296675,217613
70.53,866028,66907
66.08,871243,140477
61.13,862765,214264
63.28,903135,64379
61.42,896102,115225
53.67,896713,270796
50.52,1432550,73519
48.64,1434436,138932
47.09,1384189,237265
38.78,1838095,84370
40.57,1826616,113358
37.26,1794281,255841
29.33,2369658,72662
28.86,2363876,128563
27.79,2329008,228416
18.07,4315485,74904
17.66,4319683,163229
17.08,4247640,250508
79.30,1097762,57979
68.67,1103005,211790
70.95,1102188,236117
72.03,1229910,87689
66.98,1230124,181317
64.61,1225747,229302
69.03,807057,61825
70.75,806701,100143
66.39,791065,180877
64.04,840613,59752
60.23,834079,151556
60.28,806232,191313
50.73,1233097,54781
48.80,1224215,126255
45.94,1170261,269829
40.72,1471401,53162
38.91,1465495,117852
38.25,1388522,270216
29.57,1804932,57258
28.18,1806559,176330
27.94,1707359,233057
19.55,3168794,54910
19.07,3157797,190281
19.29,2964403,194062
83.08,994344,53195
76.60,1005365,121381
67.11,1014555,243346
71.94,1077012,78038
71.26,1085970,136566
73.80,1076711,175805
68.12,1042973,147390
72.49,1053191,96807
59.76,1027556,308354
62.99,1125907,127641
62.28,1129388,147122
63.99,1094367,165787
54.42,1355437,107243
56.39,1333824,93804
54.83,1270341,170797
46.51,1363355,49659
45.76,1346150,103565
45.18,1337419,163059
34.29,1449526,50607
33.79,1452041,95982
29.07,1419105,452664
23.47,1870744,170955
23.71,1831794,97781
22.66,1760731,229029
75.51,1168106,159417
70.32,1167643,214648
68.00,1168269,269409
71.75,1308443,139503
70.73,1303954,181622
66.44,1304712,251556
71.34,796824,102777
69.51,791569,146487
64.98,791275,201101
58.61,1105738,90383
57.72,1100265,129721
56.26,1099448,178025
43.12,2112354,96249
41.74,2109897,135994
41.07,2096672,191546
29.54,3827906,145773
29.48,3832838,156079
28.83,3792559,207009
21.71,5630141,129344
21.98,5579588,162384
21.44,5639825,185492
10.87,11368079,219260
11.02,11321041,187794
10.95,11318682,299911
76.42,1165757,127791
72.28,1167223,190914
70.03,1165575,267258
73.17,1310019,99923
69.46,1309122,177113
67.65,1303810,269038
68.49,819758,104912
68.53,820638,143654
65.31,812838,218310
61.12,1122024,80328
60.54,1107438,125724
58.48,1113218,187545
43.27,2157678,101645
45.63,2112876,140519
43.94,2111524,190623
30.88,3825252,87687
29.73,3798488,166669
29.98,3786541,231358
22.17,5614579,74013
22.07,5604591,128172
21.80,5577684,188712
11.00,11364714,72837
11.01,11367770,135438
10.81,11421339,196108
76.13,1168995,116920
76.27,1168707,170767
72.41,1165710,260563
75.43,1310307,76610
71.47,1312547,155688
68.62,1307644,262079
71.14,851829,70633
68.89,850858,156995
65.36,845065,228284
63.18,1124213,73683
59.49,1111213,143840
57.54,1127607,201074
49.17,1920674,79976
48.50,1891416,148825
46.84,1885883,252211
34.20,3279293,89230
33.61,3258737,144808
33.62,3221140,251003
26.62,3690785,89172
25.91,3696946,141993
24.95,3701458,222911
15.00,7240152,80871
14.86,7247466,144624
14.26,7304885,245782
78.91,1168937,64638
70.85,1165317,194615
72.06,1163750,235225
74.93,1307307,69010
70.70,1309294,163246
70.20,1300934,203086
69.46,896927,61034
65.88,893156,130106
63.53,877721,234005
59.28,925817,91953
60.42,910170,139666
57.42,918727,240344
48.70,1421415,63909
46.48,1435580,137105
46.43,1379889,201230
34.17,2366450,76696
33.23,2363708,168911
33.12,2257594,245872
28.51,2334320,70325
27.55,2325493,156345
26.99,2290602,195453
18.24,4313739,78483
17.98,4309674,159391
17.24,4231586,208721
73.17,1110915,131311
76.92,1107554,112449
74.63,1105250,199703
68.90,1239274,121972
69.58,1238513,165465
64.34,1233254,262710
72.67,820029,60080
67.85,820529,144892
68.77,799137,186684
62.17,853275,56981
62.87,841117,106366
61.05,827068,184149
48.04,1242283,60263
45.80,1222726,147833
46.46,1162577,177484
35.42,1845306,55677
34.66,1826061,133031
34.38,1707736,205870
28.96,1840964,62210
28.68,1827137,112086
28.53,1741171,188528
19.88,3139227,55783
19.59,3133840,125906
19.21,2945796,215374
79.25,978081,65916
78.48,989440,106489
77.38,1008320,170712
79.83,1064808,53115
74.62,1076724,103913
63.28,1070895,222294
71.01,1031039,104150
72.62,1043205,99964
54.72,1019335,410368
68.07,1095698,56873
65.61,1097182,99999
57.37,1062145,273578
58.30,1289849,49146
56.41,1259819,122657
48.75,1192622,296497
45.87,1377491,49501
43.19,1331765,180617
43.99,1303974,201034
32.45,1274985,59948
31.75,1238973,126372
31.40,1180022,193137
25.32,1471219,52792
24.56,1409832,106758
23.87,1326521,267051
73.02,898664,200570
70.45,899512,223965
66.59,900246,293552
70.23,1037240,215964
68.72,1038200,242831
65.79,1038752,279366
66.30,821715,162263
64.01,820228,187378
61.53,818360,241983
55.41,1108858,171329
55.04,1116532,172826
56.52,1106579,207504
39.88,2101950,242556
38.86,2101094,274333
39.32,2111870,284028
25.89,4036378,296447
24.05,4013023,402037
25.82,4014159,356218
19.47,5771203,327503
19.35,5785314,331384
19.16,5788113,349045
10.19,11548514,447933
10.06,11549786,560576
10.10,11560446,470887
75.67,898315,128461
71.20,898671,177269
69.05,898314,244162
74.75,1036069,104542
72.11,1035869,167304
66.67,1036319,243637
70.15,836347,83470
67.20,837982,136285
64.98,834512,213668
59.44,1151717,80790
58.55,1145089,125456
57.65,1134338,188780
42.53,2156623,97408
42.59,2157596,132310
41.78,2153327,206632
28.87,4034636,89351
28.35,4044279,140976
27.91,4054626,214462
19.90,5829109,107752
19.89,5819458,127165
19.68,5825177,192545
10.32,11603345,116591
10.38,11599778,125287
10.32,11618684,192322
74.23,899893,117220
74.83,898147,167306
71.04,896311,253918
73.57,1036929,93527
71.05,1036429,163619
66.82,1035636,247410
69.75,856861,80108
65.08,859046,148648
64.15,853728,235278
61.23,1148949,83504
59.42,1147865,133813
56.61,1153967,196912
44.34,2120345,86835
43.41,2117904,143259
42.09,2134541,209176
28.86,3969680,99615
29.05,3953927,152268
28.20,3956844,264298
20.62,5736662,69223
20.22,5739748,142845
20.12,5738872,193987
10.64,11338453,76638
10.62,11335284,139159
10.54,11376312,224941
77.03,899642,89446
74.81,896744,168763
72.35,893791,222440
75.88,1036002,75527
72.88,1035231,131028
68.07,1033371,242070
70.27,882767,73093
66.51,880011,152516
64.66,879093,235322
62.31,1062380,88076
62.07,1060187,140853
56.76,1063993,256712
49.52,1665602,74497
46.47,1667498,145852
46.64,1698435,235727
34.49,2800013,88408
34.40,2798725,134673
32.66,2765347,264289
26.98,2773162,79394
26.63,2771789,141013
26.05,2691387,227423
15.82,4892382,65667
15.77,4878714,134414
15.51,4825400,235881
75.77,879583,109382
76.97,877066,120817
73.02,868358,194107
73.20,1016753,59753
74.07,1013469,120818
69.29,1005482,182448
72.10,763921,70662
72.85,758513,112753
68.88,744569,185352
66.66,831368,60531
65.63,826052,117596
58.98,825971,220565
50.19,1321787,75315
48.73,1317852,128569
45.40,1289738,324906
36.48,2155194,85591
35.83,2155735,109324
34.76,2068657,216189
30.60,2257730,54849
29.92,2249465,115658
29.24,2180109,202128
19.60,4147520,61548
19.37,4137729,126134
18.93,4048444,236246
76.13,811646,71700
73.93,803816,165642
71.25,790348,216251
68.55,895404,145469
76.00,894243,104115
70.56,869188,189395
74.20,880473,60486
71.58,879834,100683
71.08,845921,183013
66.54,995929,76185
63.15,988003,157649
60.94,929087,243769
56.55,1417604,48836
53.78,1390680,138389
50.11,1292155,258219
43.27,2037725,50642
43.04,1997249,105911
41.08,1824763,227232
37.04,2244206,106656
36.24,2224909,166439
35.50,2115731,219289
20.05,3681674,49551
19.89,3569518,145320
19.30,3395451,174609
62.41,1156976,157566
66.56,1154393,186170
63.60,1152202,246556
62.26,1150431,337903
63.09,1276504,141484
64.63,1256678,183948
60.99,1256740,295215
57.55,1251107,398008
59.86,1454631,125596
65.20,1422164,160043
60.36,1411319,251029
54.36,1405960,412188
57.16,1323254,98798
54.77,1323747,172581
54.15,1316316,219051
50.80,1270437,351203
46.20,1948689,144155
46.25,1949199,146206
45.76,1924018,209134
43.76,1905163,313184
33.95,3466245,155845
33.70,3445111,182299
34.36,3433127,218053
33.31,3408024,304082
25.33,3896191,105033
25.19,3916843,163454
24.93,3946261,233884
23.66,4018744,335358
18.91,7856218,299471
19.36,7817122,191299
19.23,7813840,215887
18.44,7871987,341868
63.28,1158578,131899
62.26,1156610,173216
59.50,1155462,256054
60.98,1149539,350529
64.39,1279708,105152
62.45,1278980,161640
58.75,1277067,256799
58.57,1252098,400323
61.31,1453338,90718
59.18,1454647,145816
56.23,1452636,240867
56.92,1402662,405130
65.24,1241888,85811
62.83,1247243,136899
60.14,1235893,227779
56.07,1210989,362885
47.51,1987443,84355
47.07,1971850,142746
45.31,1960500,211515
43.86,1943901,311443
36.15,3475633,84425
34.98,3472642,148049
34.76,3447873,229406
33.04,3442210,327860
25.87,3935214,93787
25.11,3962372,169512
24.70,3994318,241507
24.17,4091520,330075
19.98,7809451,81211
19.57,7862757,142557
19.31,7817575,211357
18.30,7957889,298748
65.10,1157930,97323
62.77,1156673,154283
59.61,1153356,246141
60.51,1141904,321240
62.54,1290654,100169
60.64,1280276,152408
58.62,1276664,241783
59.43,1247806,353956
60.47,1454786,84003
59.39,1450995,155921
56.07,1447676,240058
55.45,1405002,392098
63.21,1268006,78604
63.69,1263062,139332
58.24,1267905,224800
56.21,1242985,334245
47.38,1968994,90061
46.10,1974339,154839
45.22,1949680,227322
41.86,1941686,344580
37.03,3345053,72072
36.49,3352239,130627
35.78,3329647,222937
34.14,3301307,386962
28.29,3481488,77673
27.98,3492144,145318
27.03,3482962,240714
26.00,3481527,341034
22.05,6658362,81907
20.92,6741206,156663
20.83,6718044,241718
18.63,6657796,348802
66.32,1157607,60699
64.92,1154630,113906
58.84,1150220,230334
60.49,1132442,320779
64.12,1269867,61010
62.34,1266891,114741
59.62,1266673,189961
56.57,1234732,361326
60.26,1434133,80175
59.09,1433956,122165
54.97,1432938,265454
58.17,1382271,339973
53.42,1372907,71733
51.68,1373389,149890
49.91,1361364,230421
48.13,1337564,351578
48.58,1900139,82464
47.30,1902043,124868
46.08,1880055,200695
42.78,1863499,391722
38.41,3069362,73790
37.39,3063650,122537
36.46,3041242,211821
35.41,2966628,325266
28.47,3231842,61859
28.26,3296994,135640
27.10,3392180,207660
26.08,3465886,382506
26.20,5635312,61757
25.78,5632510,121936
25.29,5624840,204647
24.58,5536875,328460
66.43,1083070,55114
61.57,1083447,150078
60.78,1083582,179847
64.97,1072103,279199
61.36,1173746,96122
60.90,1174413,144623
57.72,1177181,209870
60.60,1155259,294263
61.88,1309886,63818
60.62,1312380,100436
55.91,1316893,235289
57.01,1282142,321567
54.97,1223595,65520
53.21,1226727,115948
52.00,1230000,185648
45.26,1200772,372889
49.21,1562420,93042
48.86,1570284,104980
46.39,1561909,189116
44.91,1476226,321854
38.93,2350772,70019
37.35,2366670,134213
36.51,2328025,225311
36.54,2227819,312693
28.21,2416120,53654
27.67,2466051,118115
27.86,2463690,177602
26.10,2461201,347841
32.28,4177213,98049
31.34,4174605,156595
30.58,4156739,211938
30.93,3995530,295094
74.63,936113,54948
72.34,958256,97414
55.16,998823,275961
62.78,1053303,270996
71.28,988025,61701
70.06,1010195,91077
59.07,1043928,235048
60.67,1088606,285050
67.10,1061436,98589
70.05,1078693,92968
57.26,1109155,267733
57.34,1150326,308880
68.30,1092417,52847
64.56,1106266,132920
62.65,1124557,182037
59.31,1159883,286357
63.60,1266472,50372
61.99,1270894,98477
59.27,1265512,161658
54.86,1281749,286257
51.75,1392610,114061
52.64,1387255,120314
50.42,1386291,212359
49.43,1389971,287352
35.93,1222263,61583
34.92,1234429,102629
33.75,1267500,167992
33.37,1290831,286341
43.01,1426015,52207
41.19,1452045,116480
38.14,1365189,173944
36.70,1402787,268987
75.66,994973,151206
74.86,994112,169562
74.23,991989,214039
75.99,1063195,139878
74.43,1063984,188040
70.90,1062980,250027
76.88,1192992,115750
72.89,1192302,161497
68.51,1187903,252972
72.61,1002557,112125
71.20,991574,147591
68.49,982575,227446
62.53,1287745,110944
59.71,1275076,136790
59.92,1270811,203673
47.33,2153467,140107
46.43,2159319,163296
45.60,2147782,201088
32.48,2607830,150911
32.77,2622107,160042
31.41,2639530,216201
26.05,5042731,140839
25.53,5043055,206317
25.63,5054802,212416
79.03,997430,132610
78.52,993311,168943
72.98,992082,225887
79.94,1071169,98215
75.11,1063390,170950
70.82,1061594,254268
77.36,1200747,91819
74.01,1192410,158391
68.47,1187499,260197
71.90,1031238,84277
69.08,1015277,146499
64.91,1006473,249416
61.37,1308089,85870
61.12,1294702,144504
58.61,1286857,221039
49.16,2235488,88232
47.65,2235960,152814
46.12,2224407,228255
34.68,2660295,83433
33.51,2673241,169030
33.01,2725392,224748
26.75,5036557,80095
26.40,5038027,141005
26.09,5050228,199281
75.81,997519,126633
74.28,993481,156007
75.06,990202,204116
79.10,1071434,80398
75.81,1064879,150144
70.82,1061303,243721
76.07,1199850,76044
74.13,1193544,154296
66.74,1193130,254419
72.96,1055766,72283
70.99,1032563,138391
67.31,1030201,230441
63.54,1334209,79560
60.42,1319438,156016
58.59,1323959,231244
50.75,2152839,90917
49.86,2131774,147472
46.01,2140816,265043
37.78,2204117,74940
37.13,2194799,140859
35.10,2197640,239945
31.94,3929223,79174
31.48,3943578,164463
29.30,3958370,231467
76.89,999416,126711
77.07,998419,132849
72.87,991618,185628
77.25,1071527,86199
71.32,1070941,158078
67.41,1067532,257905
74.91,1196615,56657
73.23,1196196,119806
64.98,1192159,257557
68.95,1076904,80900
67.38,1084590,130008
62.29,1073894,255896
61.52,1316806,73710
62.24,1291640,134046
57.76,1294983,233813
50.86,1990120,73348
47.87,2000327,199821
47.71,1940857,254213
39.11,1992999,65076
38.94,2061743,135066
37.10,2014795,215667
34.71,3102718,72713
34.55,3101888,134374
31.67,3101604,237481
82.00,972061,56922
76.45,971421,129608
73.46,966581,179924
80.24,1040623,53524
74.79,1037845,116177
64.77,1033077,291105
69.56,1158822,86268
72.44,1157289,112791
66.93,1147284,210214
71.26,1042026,56962
66.94,1049915,145875
65.67,1021924,197591
63.74,1177697,92003
62.92,1166749,149127
59.07,1096416,224611
54.14,1583208,52754
53.31,1582456,102134
49.30,1435531,223527
40.58,1582453,73066
40.49,1581585,121241
39.22,1504236,186585
35.41,2430054,60461
35.36,2429722,115970
33.27,2267963,256405
75.61,926011,118939
69.72,936383,232709
76.14,948640,166016
84.84,973087,50793
79.17,983080,108468
64.61,980979,337921
83.07,1045197,49309
76.88,1047149,99922
69.63,1040578,222324
76.82,1086575,54579
70.75,1076520,146059
63.93,1063152,286809
68.87,1276443,80287
71.96,1231880,97269
63.80,1170019,245582
65.22,1360509,52649
63.76,1323392,112419
57.26,1266476,282222
47.91,1170622,54222
45.76,1170598,104481
45.41,1148224,184876
44.21,1481003,49735
46.83,1337467,107763
45.46,1261412,174332
78.45,1439157,104208
76.67,1440553,143448
75.37,1499413,105070
77.93,1498164,153340
76.01,1599378,91139
72.25,1593054,153789
73.03,862815,86412
71.24,854477,142249
66.17,857525,84236
63.11,838880,143071
55.36,1456903,82899
53.15,1447137,143346
40.05,1933937,82388
38.80,1935569,137726
32.27,3759838,80843
32.29,3757568,127472
79.66,1438644,90667
80.54,1439515,136927
80.67,1496353,78285
77.11,1496163,145909
76.49,1596427,79576
75.24,1593205,146063
76.98,844678,86065
73.23,845008,147881
64.63,897999,90343
62.92,897267,158901
56.70,1424235,95244
55.51,1435808,153537
43.95,1717832,87819
43.06,1738370,150593
39.00,3093880,102894
38.80,3084775,136026
78.65,1440011,83526
82.15,1439892,119553
81.97,1500585,65465
78.67,1498070,144356
78.65,1597844,77443
75.05,1597760,160828
75.69,920593,77712
74.63,908373,131897
67.84,941091,66173
65.45,936648,148336
58.64,1359679,69263
57.53,1323000,146608
47.06,1276972,73706
46.35,1269100,160113
45.29,1983009,78551
44.09,1974405,142234
82.62,1441129,72937
81.34,1438664,106152
80.54,1502747,75764
77.47,1495794,156002
77.10,1603080,57253
75.77,1591825,149599
77.52,1015429,60675
74.49,986274,121332
67.96,989016,64912
67.71,942639,119322
61.13,1297295,55935
58.61,1230561,123294
48.50,1242536,83336
47.20,1233651,174949
45.48,1728043,77201
43.79,1604947,133747
81.32,1434009,54899
74.89,1430188,244022
76.59,1500712,87927
79.38,1486788,125736
75.65,1600609,72735
79.19,1580020,101080
80.03,1156748,53420
78.18,1105067,102007
70.42,1120838,53470
68.86,1041997,119782
61.34,1171723,68354
60.61,1083085,131248
49.25,1127146,74554
48.06,1075649,128153
43.65,1259578,56529
43.63,1142070,129660
82.92,1428752,83317
82.37,1421227,117685
65.53,1479915,184210
79.27,1452505,108948
81.27,1538180,54051
79.91,1512382,99422
79.25,1552692,57554
73.17,1517807,156616
73.50,1660924,52564
74.27,1617620,92797
67.11,1653097,53173
67.65,1629467,93528
51.65,1438951,51314
50.52,1463522,111625
41.05,1476958,106243
45.41,1489030,97512
80.27,1487084,108858
80.27,1485952,149019
78.36,1535246,99524
77.25,1534790,154716
73.46,1643257,104712
74.43,1635788,149000
75.93,816315,78852
71.88,821931,131915
66.27,961069,79977
63.51,934111,129726
56.09,1606734,81252
53.92,1529305,137687
40.98,1918107,75905
40.18,1916498,126388
31.09,3712384,77578
30.85,3704355,122650
82.64,1487235,89467
81.54,1486427,133725
80.04,1537576,91488
77.90,1540379,149602
76.22,1640130,85857
72.51,1638909,144013
72.63,833818,92983
71.51,852910,142139
66.38,1008201,94179
65.85,1004060,141985
56.51,1601240,109452
55.08,1594548,148472
42.99,1662417,75578
39.96,1657020,118744
36.28,3014328,77547
35.61,3014870,128184
83.78,1489448,73347
82.15,1486775,135259
80.97,1540284,81360
72.38,1536101,152888
76.76,1642478,86921
72.26,1639001,154050
76.20,913776,64426
71.11,926753,162265
68.08,1043924,81836
64.78,1044452,164842
60.50,1517182,80458
58.85,1496803,142459
48.65,1269827,72310
47.12,1243926,136362
39.18,1950931,77063
39.35,1901062,123315
84.87,1489381,58958
84.02,1485551,112203
83.88,1539766,62579
78.06,1537827,112205
77.94,1644366,57594
76.29,1635126,125649
73.59,1022481,77174
73.46,1013209,122258
68.23,1063249,67098
68.87,1027314,107276
60.66,1480429,102743
59.81,1424824,158664
49.07,1237108,63690
46.34,1205325,199637
39.76,1913400,58698
39.00,1850487,112455
83.82,1477255,55503
78.15,1471173,130712
81.52,1535328,70475
82.49,1524193,100623
78.26,1635004,84930
77.21,1616824,104514
76.87,1183400,59396
74.47,1144918,107318
71.05,1207917,59058
70.66,1110667,102342
62.42,1381412,73791
60.79,1255748,107672
50.73,1102717,53698
50.48,1024123,103652
40.04,1326987,74538
40.90,1131829,109632
85.16,1459887,58095
84.27,1450607,106627
79.33,1505754,103000
80.39,1489542,102741
78.25,1581937,56773
75.97,1558933,96568
77.25,1577739,51948
75.29,1551328,95214
71.27,1642278,54726
68.68,1636224,97410
62.70,1651243,55684
56.16,1618997,155056
49.10,1427759,54464
49.91,1453024,99222
43.94,1440362,57963
43.34,1460528,96177
