perf,CACHE_MISS_L1,CACHE_MISS_L2
56.80,1518122,512741
55.02,1517722,513357
57.19,1514749,509187
47.98,1523294,510532
55.66,1518660,510525
57.37,1519924,511253
56.71,1522956,516018
59.66,1523721,513442
44.75,1516520,476093
55.69,1527500,477342
58.53,1523148,477353
56.72,1519133,476916
58.61,1519999,480038
57.69,1523443,479091
59.28,1515115,445416
46.12,1522435,447510
59.16,1515157,447364
57.63,1514726,446171
58.42,1516108,426588
59.98,1528062,426367
65.63,1513249,273847
64.75,1532044,277809
64.92,1532956,275223
66.93,1533038,284494
67.53,1513164,237396
68.33,1523499,239392
67.50,1507429,237416
68.09,1498159,226489
70.55,1491113,226862
69.05,1512953,223653
57.99,1344737,518941
58.56,1349149,522205
58.41,1347893,515331
59.32,1346069,518969
58.90,1344787,519335
57.51,1345857,521845
57.86,1346424,520804
58.84,1348185,517276
60.33,1349137,480537
57.70,1361909,482143
57.46,1354158,481223
58.83,1346309,482689
58.63,1342859,486743
58.81,1349269,480469
60.07,1345971,448478
59.30,1359845,447953
58.81,1340317,450764
62.02,1346878,448335
62.08,1338619,427699
62.91,1338374,428699
67.54,1352795,277475
67.36,1362003,279036
64.84,1362332,276795
68.67,1353359,274496
70.47,1332425,239034
67.11,1357167,240070
68.18,1333691,236948
69.62,1343404,227100
70.26,1343127,226709
71.93,1334953,223803
58.13,1237999,510525
58.44,1237374,511422
57.37,1238726,510781
57.75,1236587,513503
59.95,1236653,511910
57.67,1235806,505605
59.99,1238015,513188
50.56,1236672,505505
58.32,1234480,480787
58.05,1239593,474940
57.70,1241484,478795
58.50,1232503,481789
59.17,1238851,480519
58.39,1233894,476475
61.72,1231716,446127
58.85,1240180,446744
58.59,1238160,449053
62.22,1231589,448978
61.01,1229927,423902
63.73,1230355,426029
67.49,1232751,276093
66.74,1244297,278974
66.32,1238894,277233
66.41,1230491,275050
68.55,1230539,239342
67.78,1239424,238701
69.58,1233601,241061
68.32,1240152,227590
69.50,1240440,227486
70.30,1231248,223723
57.81,1309008,511983
57.78,1309988,517364
51.39,1309084,513441
58.46,1307711,513630
60.52,1307988,514275
58.92,1308939,511715
57.40,1311070,515625
57.81,1310575,512691
60.27,1307629,478100
57.26,1315514,484383
59.22,1310531,482300
56.89,1304708,485033
59.67,1302403,485180
58.54,1309941,483332
60.79,1304502,449757
60.13,1312619,449804
61.03,1303858,451298
59.38,1307482,448112
60.48,1304709,426477
61.45,1307932,427505
66.57,1303543,282236
65.24,1314408,276295
65.35,1318548,274463
68.30,1303215,280582
67.56,1301071,240138
67.27,1314467,239095
67.11,1301750,239270
68.43,1299299,227040
68.59,1298568,227599
70.37,1303446,223694
57.86,1313440,506894
58.60,1312426,509402
57.38,1313311,514288
56.75,1309711,510679
58.83,1308961,513030
56.70,1309467,515856
56.91,1310159,515912
57.08,1312504,515114
58.46,1310361,477237
56.36,1311394,477017
56.40,1308174,481091
58.69,1310577,483223
57.26,1309063,483583
58.54,1310838,478899
58.63,1304206,446504
58.26,1312402,447361
58.41,1307924,451178
58.26,1310241,448609
58.92,1306287,426153
59.83,1308641,426340
65.80,1303851,271110
64.89,1308775,277113
64.94,1313380,280831
66.04,1302810,278334
64.97,1300467,237663
68.05,1308479,239569
69.35,1299481,237288
69.43,1298384,227774
68.64,1300820,228182
68.91,1307618,223710
58.69,1189419,495669
60.18,1186736,494193
58.16,1190409,495108
60.78,1187670,494170
58.46,1188992,497543
58.70,1189479,502137
58.03,1188724,500064
58.77,1188831,494207
59.61,1189682,471373
60.12,1193708,468849
60.19,1197476,474134
59.39,1189751,472171
58.90,1186942,475543
59.32,1189561,471546
61.08,1186733,444345
59.37,1196223,447250
59.88,1186242,446653
60.61,1188078,445066
61.01,1189166,422548
61.00,1190078,425510
67.76,1185376,277161
67.69,1190674,274954
66.42,1194070,274479
65.85,1185019,276691
69.36,1182678,239089
66.93,1194285,238274
68.56,1181765,237759
69.03,1187700,226734
68.93,1188828,227792
70.02,1181057,223649
60.41,1248209,504673
60.51,1248741,506063
58.07,1246101,506952
58.44,1247004,502669
59.28,1247813,502219
59.55,1247087,504601
57.96,1246442,507708
58.63,1250133,501816
61.37,1247728,475265
57.98,1257687,477357
58.52,1255202,475662
62.36,1244375,476820
57.69,1243759,477370
56.54,1248787,475176
61.10,1247979,447011
58.75,1256634,447475
59.49,1239905,448402
59.59,1243700,447426
62.87,1247105,426175
61.11,1243555,425670
66.73,1244490,272972
66.05,1259818,281913
64.83,1255598,274944
66.41,1244641,281112
69.78,1242896,239238
67.60,1253809,237045
67.76,1242326,238704
69.85,1242725,226501
68.49,1244117,226974
69.94,1236778,223762
59.36,1182871,487690
58.17,1185866,486030
58.64,1184812,488337
54.82,1184769,488200
57.78,1183860,490633
58.24,1186787,493503
59.55,1183608,493025
60.21,1181567,489686
58.59,1184158,470010
60.55,1186583,469031
58.92,1190303,468663
58.94,1185406,469831
57.36,1180217,470612
58.62,1181725,467755
59.89,1183546,444846
58.23,1187197,445497
60.52,1180659,445253
59.39,1181277,443854
60.86,1183124,424254
60.52,1185066,424859
67.65,1184620,278837
66.71,1187075,277773
66.86,1181771,278557
67.73,1180617,275174
69.02,1182927,239146
67.77,1186843,239969
68.30,1182723,239836
68.74,1186586,226738
69.14,1183537,227369
68.49,1182767,223501
59.15,1130921,491135
58.97,1130562,490434
58.58,1132846,492298
58.47,1129533,495159
59.17,1132041,491877
56.60,1128679,496407
58.12,1131817,492116
58.83,1130075,495367
61.11,1129965,470392
60.84,1127765,470514
60.51,1131135,470679
58.86,1126898,470312
58.99,1130334,469853
61.32,1131291,472623
59.60,1128233,443685
58.12,1132840,444799
59.69,1128088,445962
60.83,1128303,444421
60.72,1126985,422746
62.81,1128380,425544
68.03,1125043,281391
65.74,1131692,280898
66.69,1126358,281227
66.68,1125487,279839
69.30,1124151,239801
67.65,1128197,238496
67.70,1124618,239809
68.77,1127753,227952
68.67,1129466,227696
69.21,1118423,223643
