perf,CACHE_MISS_L1,CACHE_MISS_L2
36.68,1222834,602637
53.56,1259898,319183
54.33,1327529,410918
50.19,1454868,581149
48.11,1716124,661056
41.21,2207747,744679
32.52,3200720,753422
22.70,4962709,641382
11.93,8085450,172860
7.19,16288678,192564
53.58,1259199,324886
53.62,1327445,408108
52.17,1453777,557450
47.18,1711050,659428
42.07,2211836,727861
33.32,3196542,743254
22.49,4882276,666084
12.10,8093045,169597
7.21,16420221,178872
56.25,1325155,382360
53.30,1453706,547574
47.89,1705710,663996
42.57,2204598,678847
32.82,3205301,709173
22.89,4965233,671557
11.99,8057077,166743
7.23,16414198,174073
56.23,1454891,461599
52.32,1714330,523155
44.19,2214439,535449
34.85,3198531,513987
23.14,4864998,498142
12.15,8086752,170686
7.18,16402588,165154
57.24,1716051,290018
49.47,2215402,278581
37.94,3201837,286055
23.87,4968275,284644
12.04,8073915,159902
7.24,16410753,161731
51.47,2215418,198626
38.52,3226352,196895
24.24,5004928,201110
12.19,8079436,156843
7.25,16405015,159723
37.27,3169099,193677
24.35,4953322,197137
12.13,8012483,157161
7.25,16396653,157774
24.65,4961559,201266
12.49,8051284,159627
7.35,16374823,163219
12.59,7999470,159050
7.36,16330374,165367
7.42,16256599,159590
26.89,1196495,1066113
27.31,1211454,992209
41.20,1260438,376099
46.85,1284752,336217
47.11,1394022,430854
44.77,1593010,593054
40.82,2044508,705783
33.91,2912651,759502
25.28,3759400,801539
18.49,4556046,173317
28.68,1225596,988924
42.16,1234148,375412
48.86,1299286,337697
48.11,1413126,445412
46.23,1603244,604760
40.86,2069812,715779
34.66,2913391,754959
25.68,3762395,810326
18.59,4555347,176257
39.49,1234936,377436
50.96,1282394,316484
50.01,1411132,422708
46.55,1581155,581861
42.38,2058313,677983
34.88,2926409,730712
25.71,3758526,812269
18.58,4560645,177943
49.86,1284824,278606
50.50,1416873,329853
50.29,1603139,466124
45.15,2058414,496416
37.00,2940487,509624
26.95,3757475,544749
18.82,4539382,165896
53.86,1417288,242160
55.33,1603527,272605
49.36,2086643,271395
39.89,2952398,271861
28.80,3784487,256049
18.86,4535115,166363
55.40,1607482,203527
50.71,2071836,201449
40.75,2958298,202066
29.17,3785811,194114
18.97,4522063,162060
51.37,2068959,189315
40.90,2946139,184054
29.33,3776901,171449
18.87,4535973,159796
41.71,2938394,176514
29.26,3758735,167645
19.35,4592274,190054
30.36,3747990,166972
19.52,4566992,179700
19.75,4571593,165685
26.58,2905682,1100956
28.08,2903501,1029183
38.10,2646881,406485
44.11,2517947,361801
43.86,2572606,473275
40.76,2741368,641197
35.63,3169105,760013
30.05,3889918,763553
23.54,4648225,805878
18.48,4718294,173561
28.17,2913977,1020519
37.78,2660746,411517
44.89,2503813,359743
44.26,2569330,494242
40.53,2747341,691476
35.75,3172600,771733
29.81,3881720,777919
23.60,4635002,797513
18.31,4712835,169922
37.35,2683453,410710
45.31,2507989,348405
44.59,2568881,476597
40.76,2744871,688678
35.46,3191726,752356
30.64,3873424,758145
24.06,4634560,764385
18.66,4690989,170622
45.89,2508582,343284
46.09,2571016,395992
41.38,2765903,560708
38.27,3167123,570778
32.33,3881147,538372
24.16,4612865,537034
18.55,4689664,165365
46.34,2555918,319889
46.51,2708644,350798
40.15,3184610,366416
33.87,3870970,322618
26.39,4640097,263885
18.52,4685760,161392
48.31,2689262,265401
41.95,3168651,245752
34.42,3874005,245873
26.32,4681010,202173
18.44,4691446,161492
41.49,3150540,259265
34.78,3863610,219937
26.13,4670236,176868
18.73,4682980,159485
35.58,3858265,213293
26.67,4654289,170326
19.15,4753609,163887
27.33,4632517,165459
19.23,4747396,174131
19.64,4735908,167991
