perf,CACHE_MISS_L1,CACHE_MISS_L2
35.67,1222925,613505
50.72,1259717,322386
52.18,1327229,405364
51.38,1460049,551504
45.58,1721262,660654
39.03,2204611,746400
30.88,3212606,750248
22.48,4957608,646590
11.93,8082810,173346
7.18,16302234,176234
51.50,1257013,319194
53.30,1327529,402236
50.55,1453802,565506
46.17,1706272,661642
42.16,2206797,686004
31.00,3202089,744684
21.98,4894313,663180
11.88,8087890,169331
7.17,16417910,182411
52.71,1324074,388982
52.98,1453264,572404
46.93,1707683,653907
42.39,2204936,690768
33.28,3202794,711691
22.01,4869089,663637
11.82,8078490,166744
7.19,16416624,171858
55.72,1453846,460274
48.46,1717003,505995
43.78,2213983,519941
34.54,3212041,513734
23.13,4979750,485061
11.53,8008558,171782
6.95,16391151,186853
57.05,1715690,289314
48.83,2215176,269115
37.51,3206948,274968
23.93,4992640,263069
12.01,8029965,158652
7.21,16415188,169578
49.53,2223973,202435
37.69,3219784,205568
23.06,5011652,200394
11.93,8072914,157193
7.13,16408961,157776
37.48,3228679,185414
24.01,4778562,184146
11.80,8056596,159430
7.15,16369249,157859
24.29,5032866,188315
12.43,8052962,159279
7.32,16379965,162056
12.50,7979928,163071
7.36,16335372,160695
7.39,16268388,159078
25.09,1227523,1069691
26.92,1241110,985170
34.66,1235728,374652
44.69,1308332,337853
43.54,1410407,430501
41.16,1577112,582101
37.65,2063435,671622
31.97,2937012,756091
25.02,3772588,828739
17.32,4544604,177478
27.62,1233165,1003479
39.21,1243929,388913
46.15,1296273,336512
45.79,1387791,446530
45.33,1583577,614262
40.65,2061675,723963
33.16,2923942,755702
24.65,3734626,796507
17.78,4572023,173222
38.51,1234468,373284
43.82,1305033,313228
43.73,1388507,425560
44.65,1581262,614389
40.53,2056744,689186
33.87,2919969,728235
25.02,3761562,787541
17.83,4559170,168552
49.05,1308960,275515
48.82,1394876,327332
48.40,1604558,463492
43.97,2080883,492122
36.84,2929609,500653
26.15,3768810,543269
17.70,4545880,165019
50.74,1388986,244296
52.69,1606567,268107
48.16,2082495,280240
39.00,2961457,266717
28.38,3789895,259428
18.22,4534942,162663
54.51,1583404,198321
48.82,2092007,198949
39.14,2937324,203897
28.23,3749295,193705
18.10,4539999,160953
49.79,2073677,185481
40.59,2941136,185216
28.83,3775558,172441
18.34,4527122,160219
40.88,2946040,188077
29.27,3769851,167049
18.97,4590634,167464
29.83,3730420,167605
19.47,4577151,181268
19.93,4558296,167236
25.45,2904683,1097870
26.28,2914352,1024787
35.33,2641248,403585
40.00,2531276,365850
42.43,2559939,471469
39.58,2753161,662274
35.00,3181142,736551
29.67,3870286,764615
21.92,4647750,805980
18.13,4692841,174850
27.84,2905755,1035301
35.91,2655869,402284
41.78,2504200,358970
38.29,2581933,503996
39.72,2738705,688691
34.75,3167724,769919
28.69,3872164,787125
22.35,4610924,840877
16.29,4708428,172688
31.31,2649192,402567
44.24,2512025,350434
43.10,2560537,483418
39.61,2743631,685043
35.26,3189883,750630
29.92,3850631,765357
23.44,4672951,767050
18.13,4707458,170725
40.25,2489297,309481
44.65,2574833,394279
42.92,2740703,543499
37.16,3196937,555504
31.76,3885826,533227
24.50,4700544,553380
18.21,4701608,163745
47.98,2542827,311613
45.99,2712599,344661
40.47,3175768,311194
33.35,3851620,306871
25.81,4680702,268345
18.04,4677273,165545
47.03,2699372,256624
41.63,3143098,257368
34.68,3870881,234210
26.08,4666812,196747
18.27,4693934,160914
41.36,3141889,232410
33.63,3872508,224656
26.35,4690802,176211
18.18,4678937,159308
34.13,3865980,230523
26.12,4635639,175762
19.08,4745589,164422
26.78,4636300,170822
19.20,4758039,160395
19.73,4711102,163829
