perf,CACHE_MISS_L1,CACHE_MISS_L2,scheme
57.04,51169,25606,"[V f; U (2, f); U (8, y); T (64, c); Hoist_vars [c]; T (2, x); T (1, x);  T (7, y); T (2, f); T (28, x)]"
48.61,51055,25616,"[V f; U (2, f); U (8, y); T (64, c); Hoist_vars [c]; T (1, x); T (2, x);  T (7, y); T (2, f); T (28, x)]"
49.98,42418,25605,"[V f; U (2, f); U (8, y); T (64, c); Hoist_vars [c]; T (1, x); T (1, x);  T (7, y); T (2, f); T (56, x)]"
57.71,53345,25611,"[V f; U (2, f); U (14, y); T (64, c); Hoist_vars [c]; T (2, x); T (1, x);  T (4, y); T (2, f); T (28, x)]"
48.28,53165,25623,"[V f; U (2, f); U (14, y); T (64, c); Hoist_vars [c]; T (1, x); T (2, x);  T (4, y); T (2, f); T (28, x)]"
49.99,51849,25597,"[V f; U (2, f); U (14, y); T (64, c); Hoist_vars [c]; T (1, x); T (1, x);  T (4, y); T (2, f); T (56, x)]"
58.95,29615,25628,"[V f; U (4, f); U (7, y); T (64, c); Hoist_vars [c]; T (2, x); T (1, x);  T (8, y); T (28, x)]"
54.15,29652,25649,"[V f; U (4, f); U (7, y); T (64, c); Hoist_vars [c]; T (1, x); T (2, x);  T (8, y); T (28, x)]"
60.91,25949,25616,"[V f; U (4, f); U (7, y); T (64, c); Hoist_vars [c]; T (1, x); T (1, x);  T (8, y); T (56, x)]"
58.06,27910,26518,"[V f; U (4, f); U (7, y); T (64, c); Hoist_vars [c]; T (28, x); T (1, x);  T (8, y); T (2, x)]"
57.54,27569,26501,"[V f; U (4, f); U (7, y); T (64, c); Hoist_vars [c]; T (14, x); T (2, x);  T (8, y); T (2, x)]"
54.38,27200,26521,"[V f; U (4, f); U (7, y); T (64, c); Hoist_vars [c]; T (7, x); T (4, x);  T (8, y); T (2, x)]"
57.58,27412,26404,"[V f; U (4, f); U (7, y); T (64, c); Hoist_vars [c]; T (4, x); T (7, x);  T (8, y); T (2, x)]"
56.57,26949,26518,"[V f; U (4, f); U (7, y); T (64, c); Hoist_vars [c]; T (2, x); T (14, x);  T (8, y); T (2, x)]"
57.17,27513,26512,"[V f; U (4, f); U (7, y); T (64, c); Hoist_vars [c]; T (1, x); T (28, x);  T (8, y); T (2, x)]"
57.93,27897,25963,"[V f; U (4, f); U (7, y); T (64, c); Hoist_vars [c]; T (14, x); T (1, x);  T (8, y); T (4, x)]"
59.74,27802,25999,"[V f; U (4, f); U (7, y); T (64, c); Hoist_vars [c]; T (7, x); T (2, x);  T (8, y); T (4, x)]"
51.15,27794,25896,"[V f; U (4, f); U (7, y); T (64, c); Hoist_vars [c]; T (2, x); T (7, x);  T (8, y); T (4, x)]"
56.73,27889,26031,"[V f; U (4, f); U (7, y); T (64, c); Hoist_vars [c]; T (1, x); T (14, x);  T (8, y); T (4, x)]"
61.13,28355,25797,"[V f; U (4, f); U (7, y); T (64, c); Hoist_vars [c]; T (8, x); T (1, x);  T (8, y); T (7, x)]"
58.67,28305,25814,"[V f; U (4, f); U (7, y); T (64, c); Hoist_vars [c]; T (4, x); T (2, x);  T (8, y); T (7, x)]"
53.31,28492,25720,"[V f; U (4, f); U (7, y); T (64, c); Hoist_vars [c]; T (2, x); T (4, x);  T (8, y); T (7, x)]"
56.51,28563,25797,"[V f; U (4, f); U (7, y); T (64, c); Hoist_vars [c]; T (1, x); T (8, x);  T (8, y); T (7, x)]"
54.07,27750,28007,"[V f; U (4, f); U (7, y); T (64, c); Hoist_vars [c]; T (56, x); T (1, x);  T (8, y); T (1, x)]"
49.30,27148,27836,"[V f; U (4, f); U (7, y); T (64, c); Hoist_vars [c]; T (28, x); T (2, x);  T (8, y); T (1, x)]"
56.59,27544,27615,"[V f; U (4, f); U (7, y); T (64, c); Hoist_vars [c]; T (14, x); T (4, x);  T (8, y); T (1, x)]"
53.52,27343,27694,"[V f; U (4, f); U (7, y); T (64, c); Hoist_vars [c]; T (8, x); T (7, x);  T (8, y); T (1, x)]"
55.46,27221,28313,"[V f; U (4, f); U (7, y); T (64, c); Hoist_vars [c]; T (7, x); T (8, x);  T (8, y); T (1, x)]"
48.58,27425,27764,"[V f; U (4, f); U (7, y); T (64, c); Hoist_vars [c]; T (4, x); T (14, x);  T (8, y); T (1, x)]"
49.68,27560,28132,"[V f; U (4, f); U (7, y); T (64, c); Hoist_vars [c]; T (2, x); T (28, x);  T (8, y); T (1, x)]"
60.93,27432,27444,"[V f; U (4, f); U (7, y); T (64, c); Hoist_vars [c]; T (1, x); T (56, x);  T (8, y); T (1, x)]"
50.98,27383,25723,"[V f; U (4, f); U (7, y); T (64, c); Hoist_vars [c]; T (7, x); T (1, x);  T (8, y); T (8, x)]"
55.25,27449,25702,"[V f; U (4, f); U (7, y); T (64, c); Hoist_vars [c]; T (1, x); T (7, x);  T (8, y); T (8, x)]"
56.61,45586,25870,"[V f; U (2, f); U (8, y); T (64, c); Hoist_vars [c]; T (4, x); T (1, x);  T (7, y); T (2, f); T (14, x)]"
47.10,44687,25773,"[V f; U (2, f); U (8, y); T (64, c); Hoist_vars [c]; T (2, x); T (2, x);  T (7, y); T (2, f); T (14, x)]"
54.31,46748,25997,"[V f; U (2, f); U (8, y); T (64, c); Hoist_vars [c]; T (1, x); T (4, x);  T (7, y); T (2, f); T (14, x)]"
54.29,50883,25886,"[V f; U (2, f); U (14, y); T (64, c); Hoist_vars [c]; T (4, x); T (1, x);  T (4, y); T (2, f); T (14, x)]"
54.95,48934,25660,"[V f; U (2, f); U (14, y); T (64, c); Hoist_vars [c]; T (2, x); T (2, x);  T (4, y); T (2, f); T (14, x)]"
57.34,50808,25899,"[V f; U (2, f); U (14, y); T (64, c); Hoist_vars [c]; T (1, x); T (4, x);  T (4, y); T (2, f); T (14, x)]"
59.16,27733,25714,"[V f; U (4, f); U (7, y); T (64, c); Hoist_vars [c]; T (4, x); T (1, x);  T (8, y); T (14, x)]"
55.16,28548,25675,"[V f; U (4, f); U (7, y); T (64, c); Hoist_vars [c]; T (2, x); T (2, x);  T (8, y); T (14, x)]"
60.92,28437,25693,"[V f; U (4, f); U (7, y); T (64, c); Hoist_vars [c]; T (1, x); T (4, x);  T (8, y); T (14, x)]"
