perf,CACHE_MISS_L1,CACHE_MISS_L2,scheme
77.43,1651172,321030,"[V f; U (4, f); ULambda y; T (256, c); Hoist_vars [c]; T (34, x); T (1, x);  Lambda_apply y [((Iter 1), (Arg 6)); ((Iter 4), (Arg 7))]; T (4, f);  T (2, c); T (1, x)]"
73.51,1649588,322174,"[V f; U (4, f); ULambda y; T (256, c); Hoist_vars [c]; T (2, x); T (17, x);  Lambda_apply y [((Iter 1), (Arg 6)); ((Iter 4), (Arg 7))]; T (4, f);  T (2, c); T (1, x)]"
76.96,1650079,314099,"[V f; U (4, f); ULambda y; T (256, c); Hoist_vars [c]; T (1, x); T (34, x);  Lambda_apply y [((Iter 1), (Arg 6)); ((Iter 4), (Arg 7))]; T (4, f);  T (2, c); T (1, x)]"
76.82,1650912,316074,"[V f; U (4, f); ULambda y; T (256, c); Hoist_vars [c]; T (17, x); T (2, x);  Lambda_apply y [((Iter 1), (Arg 6)); ((Iter 4), (Arg 7))]; T (4, f);  T (2, c); T (1, x)]"
74.06,1650082,296164,"[V f; U (4, f); ULambda y; T (256, c); Hoist_vars [c]; T (17, x); T (1, x);  Lambda_apply y [((Iter 1), (Arg 6)); ((Iter 4), (Arg 7))]; T (4, f);  T (2, c); T (2, x)]"
73.26,1649927,280722,"[V f; U (4, f); ULambda y; T (256, c); Hoist_vars [c]; T (1, x); T (17, x);  Lambda_apply y [((Iter 1), (Arg 6)); ((Iter 4), (Arg 7))]; T (4, f);  T (2, c); T (2, x)]"
70.72,1734104,378163,"[V f; U (4, f); ULambda y; T (128, c); Hoist_vars [c]; T (17, x); T (1, x);  Lambda_apply y [((Iter 1), (Arg 6)); ((Iter 4), (Arg 7))]; T (4, f);  T (4, c); T (2, x)]"
72.78,1736296,377070,"[V f; U (4, f); ULambda y; T (128, c); Hoist_vars [c]; T (1, x); T (17, x);  Lambda_apply y [((Iter 1), (Arg 6)); ((Iter 4), (Arg 7))]; T (4, f);  T (4, c); T (2, x)]"
71.19,1736213,441873,"[V f; U (4, f); ULambda y; T (128, c); Hoist_vars [c]; T (34, x); T (1, x);  Lambda_apply y [((Iter 1), (Arg 6)); ((Iter 4), (Arg 7))]; T (4, f);  T (4, c); T (1, x)]"
68.42,1734644,441381,"[V f; U (4, f); ULambda y; T (128, c); Hoist_vars [c]; T (17, x); T (2, x);  Lambda_apply y [((Iter 1), (Arg 6)); ((Iter 4), (Arg 7))]; T (4, f);  T (4, c); T (1, x)]"
67.23,1734010,441984,"[V f; U (4, f); ULambda y; T (128, c); Hoist_vars [c]; T (2, x); T (17, x);  Lambda_apply y [((Iter 1), (Arg 6)); ((Iter 4), (Arg 7))]; T (4, f);  T (4, c); T (1, x)]"
70.28,1735058,442759,"[V f; U (4, f); ULambda y; T (128, c); Hoist_vars [c]; T (1, x); T (34, x);  Lambda_apply y [((Iter 1), (Arg 6)); ((Iter 4), (Arg 7))]; T (4, f);  T (4, c); T (1, x)]"
69.54,1817368,110953,"[V f; U (2, f); ULambda y; T (64, c); Hoist_vars [c]; T (2, x); T (1, x);  Lambda_apply y [((Iter 3), (Arg 8)); ((Iter 1), (Arg 10))]; T (8, f);  T (8, c); T (17, x)]"
73.61,1812120,88597,"[V f; U (2, f); ULambda y; T (64, c); Hoist_vars [c]; T (1, x); T (2, x);  Lambda_apply y [((Iter 3), (Arg 8)); ((Iter 1), (Arg 10))]; T (8, f);  T (8, c); T (17, x)]"
75.84,1535303,103440,"[V f; U (2, f); ULambda y; T (64, c); Hoist_vars [c]; T (2, x); T (1, x);  Lambda_apply y [((Iter 1), (Arg 10)); ((Iter 2), (Arg 12))]; T (8, f);  T (8, c); T (17, x)]"
74.66,1534683,97348,"[V f; U (2, f); ULambda y; T (64, c); Hoist_vars [c]; T (1, x); T (2, x);  Lambda_apply y [((Iter 1), (Arg 10)); ((Iter 2), (Arg 12))]; T (8, f);  T (8, c); T (17, x)]"
72.15,1546610,110559,"[V f; U (2, f); ULambda y; T (64, c); Hoist_vars [c]; T (2, x); T (1, x);  Lambda_apply y [((Iter 2), (Arg 10)); ((Iter 1), (Arg 14))]; T (8, f);  T (8, c); T (17, x)]"
76.39,1546413,94415,"[V f; U (2, f); ULambda y; T (64, c); Hoist_vars [c]; T (1, x); T (2, x);  Lambda_apply y [((Iter 2), (Arg 10)); ((Iter 1), (Arg 14))]; T (8, f);  T (8, c); T (17, x)]"
76.33,1553647,91060,"[V f; U (2, f); ULambda y; T (64, c); Hoist_vars [c]; T (2, x); T (1, x);  Lambda_apply y [((Iter 2), (Arg 11)); ((Iter 1), (Arg 12))]; T (8, f);  T (8, c); T (17, x)]"
74.38,1556083,108217,"[V f; U (2, f); ULambda y; T (64, c); Hoist_vars [c]; T (1, x); T (2, x);  Lambda_apply y [((Iter 2), (Arg 11)); ((Iter 1), (Arg 12))]; T (8, f);  T (8, c); T (17, x)]"
68.71,1220697,417257,"[V f; U (2, f); ULambda y; T (512, c); Hoist_vars [c]; T (34, x); T (1, x);  Lambda_apply y [((Iter 1), (Arg 8)); ((Iter 2), (Arg 13))]; T (8, f);  T (1, c); T (1, x)]"
70.83,1221004,390640,"[V f; U (2, f); ULambda y; T (512, c); Hoist_vars [c]; T (2, x); T (17, x);  Lambda_apply y [((Iter 1), (Arg 8)); ((Iter 2), (Arg 13))]; T (8, f);  T (1, c); T (1, x)]"
70.80,1220827,385731,"[V f; U (2, f); ULambda y; T (512, c); Hoist_vars [c]; T (1, x); T (34, x);  Lambda_apply y [((Iter 1), (Arg 8)); ((Iter 2), (Arg 13))]; T (8, f);  T (1, c); T (1, x)]"
71.26,1209304,380421,"[V f; U (2, f); ULambda y; T (512, c); Hoist_vars [c]; T (34, x); T (1, x);  Lambda_apply y [((Iter 1), (Arg 10)); ((Iter 2), (Arg 12))]; T (8, f);  T (1, c); T (1, x)]"
68.67,1209338,377618,"[V f; U (2, f); ULambda y; T (512, c); Hoist_vars [c]; T (2, x); T (17, x);  Lambda_apply y [((Iter 1), (Arg 10)); ((Iter 2), (Arg 12))]; T (8, f);  T (1, c); T (1, x)]"
69.79,1208913,390971,"[V f; U (2, f); ULambda y; T (512, c); Hoist_vars [c]; T (1, x); T (34, x);  Lambda_apply y [((Iter 1), (Arg 10)); ((Iter 2), (Arg 12))]; T (8, f);  T (1, c); T (1, x)]"
72.56,1214913,364119,"[V f; U (2, f); ULambda y; T (512, c); Hoist_vars [c]; T (34, x); T (1, x);  Lambda_apply y [((Iter 2), (Arg 10)); ((Iter 1), (Arg 14))]; T (8, f);  T (1, c); T (1, x)]"
70.47,1216200,380361,"[V f; U (2, f); ULambda y; T (512, c); Hoist_vars [c]; T (2, x); T (17, x);  Lambda_apply y [((Iter 2), (Arg 10)); ((Iter 1), (Arg 14))]; T (8, f);  T (1, c); T (1, x)]"
67.36,1215330,398701,"[V f; U (2, f); ULambda y; T (512, c); Hoist_vars [c]; T (1, x); T (34, x);  Lambda_apply y [((Iter 2), (Arg 10)); ((Iter 1), (Arg 14))]; T (8, f);  T (1, c); T (1, x)]"
61.25,1210662,539804,"[V f; U (2, f); ULambda y; T (512, c); Hoist_vars [c]; T (34, x); T (1, x);  Lambda_apply y [((Iter 2), (Arg 11)); ((Iter 1), (Arg 12))]; T (8, f);  T (1, c); T (1, x)]"
71.24,1211283,377311,"[V f; U (2, f); ULambda y; T (512, c); Hoist_vars [c]; T (2, x); T (17, x);  Lambda_apply y [((Iter 2), (Arg 11)); ((Iter 1), (Arg 12))]; T (8, f);  T (1, c); T (1, x)]"
69.01,1211280,430354,"[V f; U (2, f); ULambda y; T (512, c); Hoist_vars [c]; T (1, x); T (34, x);  Lambda_apply y [((Iter 2), (Arg 11)); ((Iter 1), (Arg 12))]; T (8, f);  T (1, c); T (1, x)]"
68.49,1480125,384119,"[V f; U (2, f); ULambda y; T (512, c); Hoist_vars [c]; T (34, x); T (1, x);  Lambda_apply y [((Iter 3), (Arg 8)); ((Iter 1), (Arg 10))]; T (8, f);  T (1, c); T (1, x)]"
70.85,1479149,380555,"[V f; U (2, f); ULambda y; T (512, c); Hoist_vars [c]; T (2, x); T (17, x);  Lambda_apply y [((Iter 3), (Arg 8)); ((Iter 1), (Arg 10))]; T (8, f);  T (1, c); T (1, x)]"
68.01,1479165,409152,"[V f; U (2, f); ULambda y; T (512, c); Hoist_vars [c]; T (1, x); T (34, x);  Lambda_apply y [((Iter 3), (Arg 8)); ((Iter 1), (Arg 10))]; T (8, f);  T (1, c); T (1, x)]"
66.11,1220717,444415,"[V f; U (2, f); ULambda y; T (512, c); Hoist_vars [c]; T (17, x); T (2, x);  Lambda_apply y [((Iter 1), (Arg 8)); ((Iter 2), (Arg 13))]; T (8, f);  T (1, c); T (1, x)]"
71.97,1221112,348013,"[V f; U (2, f); ULambda y; T (512, c); Hoist_vars [c]; T (17, x); T (1, x);  Lambda_apply y [((Iter 1), (Arg 8)); ((Iter 2), (Arg 13))]; T (8, f);  T (1, c); T (2, x)]"
72.52,1220828,331479,"[V f; U (2, f); ULambda y; T (512, c); Hoist_vars [c]; T (1, x); T (17, x);  Lambda_apply y [((Iter 1), (Arg 8)); ((Iter 2), (Arg 13))]; T (8, f);  T (1, c); T (2, x)]"
68.89,1208531,374514,"[V f; U (2, f); ULambda y; T (512, c); Hoist_vars [c]; T (17, x); T (2, x);  Lambda_apply y [((Iter 1), (Arg 10)); ((Iter 2), (Arg 12))]; T (8, f);  T (1, c); T (1, x)]"
67.35,1208599,343762,"[V f; U (2, f); ULambda y; T (512, c); Hoist_vars [c]; T (17, x); T (1, x);  Lambda_apply y [((Iter 1), (Arg 10)); ((Iter 2), (Arg 12))]; T (8, f);  T (1, c); T (2, x)]"
69.64,1209387,337383,"[V f; U (2, f); ULambda y; T (512, c); Hoist_vars [c]; T (1, x); T (17, x);  Lambda_apply y [((Iter 1), (Arg 10)); ((Iter 2), (Arg 12))]; T (8, f);  T (1, c); T (2, x)]"
71.44,1216430,368325,"[V f; U (2, f); ULambda y; T (512, c); Hoist_vars [c]; T (17, x); T (2, x);  Lambda_apply y [((Iter 2), (Arg 10)); ((Iter 1), (Arg 14))]; T (8, f);  T (1, c); T (1, x)]"
60.00,1214211,423927,"[V f; U (2, f); ULambda y; T (512, c); Hoist_vars [c]; T (17, x); T (1, x);  Lambda_apply y [((Iter 2), (Arg 10)); ((Iter 1), (Arg 14))]; T (8, f);  T (1, c); T (2, x)]"
72.64,1214592,339099,"[V f; U (2, f); ULambda y; T (512, c); Hoist_vars [c]; T (1, x); T (17, x);  Lambda_apply y [((Iter 2), (Arg 10)); ((Iter 1), (Arg 14))]; T (8, f);  T (1, c); T (2, x)]"
72.49,1211422,380407,"[V f; U (2, f); ULambda y; T (512, c); Hoist_vars [c]; T (17, x); T (2, x);  Lambda_apply y [((Iter 2), (Arg 11)); ((Iter 1), (Arg 12))]; T (8, f);  T (1, c); T (1, x)]"
70.53,1210335,319834,"[V f; U (2, f); ULambda y; T (512, c); Hoist_vars [c]; T (17, x); T (1, x);  Lambda_apply y [((Iter 2), (Arg 11)); ((Iter 1), (Arg 12))]; T (8, f);  T (1, c); T (2, x)]"
71.50,1210609,333806,"[V f; U (2, f); ULambda y; T (512, c); Hoist_vars [c]; T (1, x); T (17, x);  Lambda_apply y [((Iter 2), (Arg 11)); ((Iter 1), (Arg 12))]; T (8, f);  T (1, c); T (2, x)]"
77.83,1542695,115292,"[V f; U (2, f); ULambda y; T (256, c); Hoist_vars [c]; T (2, x); T (1, x);  Lambda_apply y [((Iter 3), (Arg 8)); ((Iter 1), (Arg 10))]; T (8, f);  T (2, c); T (17, x)]"
79.00,1542743,108245,"[V f; U (2, f); ULambda y; T (256, c); Hoist_vars [c]; T (1, x); T (2, x);  Lambda_apply y [((Iter 3), (Arg 8)); ((Iter 1), (Arg 10))]; T (8, f);  T (2, c); T (17, x)]"
76.75,1285489,109562,"[V f; U (2, f); ULambda y; T (256, c); Hoist_vars [c]; T (2, x); T (1, x);  Lambda_apply y [((Iter 1), (Arg 8)); ((Iter 2), (Arg 13))]; T (8, f);  T (2, c); T (17, x)]"
